T	<e>	error of <e>	<c>	error of <c>	<s>	error of <s>	count
4.25	-0.450264	3.92248e-06	0.0633167	9.09182e-06	0.647476	8.91649e-07	40
0.3	-0.99859	1.72036e-05	0.0330103	0.000537441	0.210663	5.08901e-05	40
3.8	-0.480564	3.18363e-06	0.0716096	1.21189e-05	0.639946	8.85282e-07	40
1.65	-0.709824	5.29772e-06	0.168666	4.54528e-05	0.54573	2.97979e-06	40
3.3	-0.519107	3.41816e-06	0.0830251	1.30092e-05	0.629071	1.11978e-06	40
2.8	-0.564183	4.0244e-06	0.0980437	2.16183e-05	0.614249	1.34335e-06	40
0.65	-0.94345	8.0101e-06	0.256296	0.000272846	0.32012	1.16242e-05	40
4.65	-0.426217	3.82538e-06	0.0570742	9.11378e-06	0.652876	7.69863e-07	40
2.3	-0.618153	4.42471e-06	0.119359	3.04404e-05	0.592975	2.06458e-06	40
0.15	-1	0	1.2135e-06	7.23242e-08	0.20576	2.22303e-05	40
3.65	-0.491539	3.12792e-06	0.0747537	1.24855e-05	0.637004	8.9095e-07	40
1.3	-0.776454	3.85623e-06	0.214964	5.28928e-05	0.500157	3.0362e-06	40
3.15	-0.53186	3.5912e-06	0.0870665	1.48737e-05	0.625122	1.17767e-06	40
2.65	-0.579295	4.80518e-06	0.103542	1.99138e-05	0.608708	1.63589e-06	40
4.3	-0.447119	3.94987e-06	0.0624845	8.83193e-06	0.64821	8.77718e-07	40
2.15	-0.63668	4.62578e-06	0.127853	2.9631e-05	0.584652	2.26615e-06	40
1.7	-0.701524	5.20336e-06	0.163378	3.90553e-05	0.550682	2.81852e-06	40
1.15	-0.810491	5.35704e-06	0.239146	8.13613e-05	0.472326	4.37433e-06	40
0.7	-0.930307	1.04625e-05	0.268707	0.000209369	0.339566	1.41485e-05	40
4.7	-0.423381	3.86421e-06	0.0563572	8.89594e-06	0.653482	7.75587e-07	40
4.15	-0.456681	3.7765e-06	0.0650294	1.02497e-05	0.645951	9.09393e-07	40
0.2	-0.999995	3.17221e-07	0.000532033	3.13369e-05	0.20578	2.12666e-05	40
3.7	-0.487828	3.12879e-06	0.0736822	1.25117e-05	0.638012	8.82029e-07	40
1.55	-0.72725	5.67335e-06	0.180066	3.85015e-05	0.53484	3.44774e-06	40
2.7	-0.574165	4.63422e-06	0.101647	1.95487e-05	0.610623	1.56495e-06	40
0.55	-0.967161	7.54101e-06	0.213484	0.00038337	0.280686	1.42565e-05	40
4.55	-0.431998	3.81262e-06	0.0585488	9.40758e-06	0.651622	7.78657e-07	40
2.2	-0.630362	4.69619e-06	0.12489	2.84554e-05	0.587554	2.30597e-06	40
3.55	-0.499124	3.1675e-06	0.0769712	1.22495e-05	0.634901	9.387e-07	40
1.2	-0.798739	4.42772e-06	0.230941	9.77683e-05	0.482324	3.33643e-06	40
3.05	-0.540709	3.68123e-06	0.0899573	1.46069e-05	0.622271	1.2011e-06	40
2.55	-0.589847	4.82284e-06	0.107559	2.33217e-05	0.604654	1.68972e-06	40
4.2	-0.453451	3.8644e-06	0.0641648	9.60416e-06	0.646723	9.02865e-07	40
2.05	-0.64978	4.14618e-06	0.134265	3.69955e-05	0.578418	1.99325e-06	40
1.6	-0.718395	5.21662e-06	0.174213	4.93474e-05	0.540459	3.06933e-06	40
3.2	-0.527541	3.53451e-06	0.0856827	1.43809e-05	0.62648	1.16259e-06	40
1.05	-0.83521	6.33155e-06	0.255248	9.03395e-05	0.449845	5.76146e-06	40
2.95	-0.549857	3.65386e-06	0.0930377	1.70619e-05	0.619226	1.19479e-06	40
0.6	-0.955848	9.14241e-06	0.23848	0.000311064	0.300315	1.44173e-05	40
1.95	-0.663558	4.06869e-06	0.141429	3.75603e-05	0.571533	2.01218e-06	40
4.05	-0.463272	3.56571e-06	0.0668111	1.13291e-05	0.644346	9.09644e-07	40
3.6	-0.495304	3.14429e-06	0.0758496	1.23502e-05	0.635967	9.10964e-07	40
1.45	-0.745893	5.0701e-06	0.193038	6.96745e-05	0.522411	3.13655e-06	40
0.95	-0.861453	5.07094e-06	0.268988	0.000153353	0.42359	5.14644e-06	40
4.95	-0.409723	4.25741e-06	0.0529622	8.67688e-06	0.656308	8.4844e-07	40
2.6	-0.584521	4.86166e-06	0.10551	2.15537e-05	0.60672	1.67302e-06	40
0.45	-0.985361	8.81228e-06	0.146368	0.000449277	0.244505	1.90429e-05	40
4.45	-0.437928	3.87659e-06	0.0600793	9.23647e-06	0.650307	8.11375e-07	40
3.95	-0.470046	3.37367e-06	0.0686682	1.16903e-05	0.642656	9.03615e-07	40
2.1	-0.64315	4.37602e-06	0.130973	3.44089e-05	0.581611	2.12212e-06	40
3.45	-0.506936	3.23907e-06	0.0792978	1.24243e-05	0.632672	1.01042e-06	40
1.1	-0.82265	4.45685e-06	0.24718	0.000111637	0.461524	4.04346e-06	40
4.6	-0.429089	3.80827e-06	0.0578047	9.30407e-06	0.652257	7.70948e-07	40
2.45	-0.600819	4.504e-06	0.111943	2.91745e-05	0.60027	1.69179e-06	40
0.1	-1	0	1.34293e-11	9.86395e-12	0.20576	2.2231e-05	40
4.1	-0.459954	3.67176e-06	0.0659113	1.08673e-05	0.645159	9.09801e-07	40
3.1	-0.536248	3.64527e-06	0.0884901	1.48288e-05	0.62372	1.19078e-06	40
2.85	-0.559324	3.77468e-06	0.0963238	2.12875e-05	0.615966	1.24956e-06	40
0.5	-0.977102	1.22187e-05	0.182944	0.00040799	0.261809	2.33298e-05	40
1.85	-0.678095	4.30304e-06	0.149459	2.98981e-05	0.563886	2.16598e-06	40
3.5	-0.503001	3.20031e-06	0.0781199	1.2285e-05	0.633803	9.72987e-07	40
1.35	-0.765898	3.60632e-06	0.207312	6.03854e-05	0.50812	2.67521e-06	40
0.85	-0.888872	6.47052e-06	0.27793	0.000181963	0.393112	7.5977e-06	40
4.85	-0.415085	4.07423e-06	0.0542835	8.56815e-06	0.655216	8.13975e-07	40
2.5	-0.595278	4.7012e-06	0.1097	2.5675e-05	0.602506	1.69065e-06	40
0.35	-0.996104	1.5632e-05	0.0687374	0.000538381	0.218099	4.27992e-05	40
4.35	-0.444015	3.94466e-06	0.0616678	8.83794e-06	0.648926	8.58686e-07	40
3.85	-0.477009	3.2353e-06	0.0706074	1.18856e-05	0.640874	8.91742e-07	40
2	-0.656579	4.04486e-06	0.137744	3.76463e-05	0.575064	1.95649e-06	40
1.5	-0.736409	5.93975e-06	0.186366	4.14151e-05	0.528838	3.63919e-06	40
3.35	-0.514988	3.35345e-06	0.081749	1.27065e-05	0.630308	1.08752e-06	40
1	-0.848164	5.05835e-06	0.262614	0.000138064	0.437213	4.59588e-06	40
5	-0.407091	4.35887e-06	0.052319	8.74186e-06	0.656836	8.6747e-07	40
4.5	-0.434944	3.83709e-06	0.0593069	9.38482e-06	0.650972	7.92835e-07	40
2.35	-0.612251	4.30112e-06	0.116771	3.21661e-05	0.595511	1.8797e-06	40
1.9	-0.670726	4.23019e-06	0.145333	3.1748e-05	0.567813	2.1271e-06	40
4	-0.466636	3.46346e-06	0.0677298	1.15878e-05	0.643512	9.07055e-07	40
0.9	-0.87505	6.82043e-06	0.274504	0.000143397	0.408899	7.14877e-06	40
3	-0.545245	3.68111e-06	0.0914721	1.51751e-05	0.620774	1.19979e-06	40
4.9	-0.412387	4.16349e-06	0.0536169	8.60625e-06	0.655768	8.31516e-07	40
2.75	-0.569129	4.34698e-06	0.0998165	2.0631e-05	0.612469	1.46213e-06	40
0.4	-0.991705	1.48201e-05	0.107239	0.000510803	0.229684	3.43324e-05	40
3.9	-0.473503	3.29905e-06	0.0696271	1.17522e-05	0.641777	9.00883e-07	40
1.75	-0.69348	4.70576e-06	0.158427	3.80752e-05	0.555342	2.45054e-06	40
3.4	-0.510931	3.29217e-06	0.080507	1.25658e-05	0.631508	1.05112e-06	40
1.25	-0.787397	4.06014e-06	0.222785	6.49215e-05	0.491579	3.19908e-06	40
2.9	-0.55455	3.6598e-06	0.094655	1.95132e-05	0.617624	1.20281e-06	40
0.75	-0.916653	5.36588e-06	0.27604	0.000211412	0.35838	6.99198e-06	40
4.75	-0.420581	3.92191e-06	0.0556533	8.71016e-06	0.654073	7.85062e-07	40
2.4	-0.606474	4.33088e-06	0.114299	3.19974e-05	0.597941	1.74337e-06	40
0.25	-0.999758	1.10664e-05	0.0130068	0.000440001	0.206645	2.85677e-05	40
3.75	-0.48417	3.14812e-06	0.0726344	1.2369e-05	0.638992	8.81988e-07	40
1.4	-0.755717	4.13355e-06	0.199989	6.68705e-05	0.515521	2.77229e-06	40
3.25	-0.523291	3.47711e-06	0.0843361	1.36185e-05	0.627796	1.14423e-06	40
4.4	-0.440952	3.9151e-06	0.0608661	9.01749e-06	0.649625	8.33158e-07	40
2.25	-0.624189	4.59376e-06	0.122063	2.91735e-05	0.590326	2.22632e-06	40
1.8	-0.685676	4.34803e-06	0.15381	3.45466e-05	0.559735	2.19909e-06	40
0.8	-0.902789	6.14582e-06	0.278252	0.000175952	0.376255	8.26415e-06	40
4.8	-0.417816	3.9916e-06	0.0549622	8.59732e-06	0.654651	7.9742e-07	40
