#!/usr/bin/gnuplot -persist
#
#    
#    	G N U P L O T
#    	Version 5.0 patchlevel 4    last modified 2016-07-21 
#    
#    	Copyright (C) 1986-1993, 1998, 2004, 2007-2016
#    	Thomas Williams, Colin Kelley and many others
#    
#    	gnuplot home:     http://www.gnuplot.info
#    	faq, bugs, etc:   type "help FAQ"
#    	immediate help:   type "help"  (plot window: hit 'h')

set terminal epscairo color
set output "test.eps"
test