%!PS-Adobe-3.0 EPSF-3.0
%%Creator: GRA2PS 2.03.20
%%Title: Ngraph
%%CreationDate: 4-30-2017 1:41
%%Pages: 1
%%DocumentNeededResources: (atend)
%%BoundingBox: 32 170 501 534
%%EndComments
%
% Ngraph.ps 2.03.20
%
%%BeginProlog
%
/NgraphDict 100 dict def
NgraphDict begin
%
% Procedure Definition
%
/PageSave {/Sobject save def} bind def
/PageRestore {Sobject restore} bind def
/@Paper {
  72 2540 div -72 2540 div scale % 1unit = 0.01mm
  ANGLE rotate
  0 bottom translate                    % origin is (0 bottom)
} bind def
/BeginPage {@Paper gsave} bind def
/EndPage {grestore} bind def
/box {
  moveto
  1 index 0 rlineto
  0 exch rlineto
  neg 0 rlineto
  closepath } bind def
/view {
  mark
  currentfont
  currentmiterlimit
  currentlinejoin
  currentlinecap
  currentlinewidth
  currentdash
  currentgray
  currentrgbcolor
  grestore gsave
  counttomark dup 6 add exch roll
  pop
  5 3 roll
  translate
  1 eq { 0 0 box clip newpath } { pop pop } ifelse
  setrgbcolor
  setgray
  setdash
  setlinewidth
  setlinecap
  setlinejoin
  setmiterlimit
  setfont
 } bind def
/viewc {
  mark
  currentfont
  currentmiterlimit
  currentlinejoin
  currentlinecap
  currentlinewidth
  currentdash
  currentrgbcolor
  currentgray
  grestore gsave
  counttomark dup 6 add exch roll
  pop
  5 3 roll
  translate
  1 eq { 0 0 box clip newpath } { pop pop } ifelse
  setgray
  setrgbcolor
  setdash
  setlinewidth
  setlinecap
  setlinejoin
  setmiterlimit
  setfont
 } bind def
/F { findfont exch makefont setfont } bind def
/lsty {
  setmiterlimit
  setlinejoin
  setlinecap
  setlinewidth
  setdash } bind def
/mto /moveto load def
/rmto /rmoveto load def
/lto /lineto load def
/rlto /rlineto load def
/st /stroke load def
/l { moveto lineto stroke } bind def
/e { 
  gsave
  newpath
  translate
  0 index 1 exch div 5 1 roll
  1 index 1 exch div 6 1 roll
  scale
  0 0 1 5 3 roll exch 100 div exch 100 div arc
  scale
  stroke
  grestore } bind def
/fe {
  gsave
  newpath
  translate
  0 index 1 exch div 5 1 roll
  1 index 1 exch div 6 1 roll
  scale
  0 0 moveto 0 0 1 5 3 roll exch 100 div exch 100 div arc closepath
  scale
  fill 
  grestore } bind def
/ae {
  gsave
  newpath
  translate
  0 index 1 exch div 5 1 roll
  1 index 1 exch div 6 1 roll
  scale
  0 0 1 5 3 roll exch 100 div exch 100 div arc closepath
  scale
  fill
  grestore } bind def
/pix {
  newpath 20 0 360 arc closepath fill } bind def
/rec {
  box stroke } bind def
/bar {
  box fill } bind def
/lines {
  1 sub
  3 1 roll
  moveto
  {lineto} repeat } bind def
/poly {
  1 sub
  3 1 roll
  moveto
  {lineto} repeat closepath } bind def
/rpo { lines stroke } bind def
/dpo { poly stroke } bind def
/fpo { poly fill } bind def
/epo { poly eofill } bind def
/ashowB {
  3 copy 3 copy 3 copy
  gsave BOLDS 0 rmoveto ashow grestore
  gsave 0 BOLDS rmoveto ashow grestore
  gsave BOLDS BOLDS rmoveto ashow grestore
  ashow } bind def
end
%
% ISOLatin1Encoding
%
/NGPLatin1Encoding 256 array def
0 1 255 {NGPLatin1Encoding exch /.notdef put} for
NGPLatin1Encoding
dup 8#101 /A put          dup 8#306 /AE put         dup 8#301 /Aacute put
dup 8#302 /Acircumflex put dup 8#304 /Adieresis put dup 8#300 /Agrave put
dup 8#305 /Aring put      dup 8#303 /Atilde put     dup 8#102 /B put
dup 8#103 /C put          dup 8#307 /Ccedilla put   dup 8#104 /D put
dup 8#105 /E put          dup 8#311 /Eacute put     dup 8#312 /Ecircumflex put
dup 8#313 /Edieresis put  dup 8#310 /Egrave put     dup 8#320 /Eth put
dup 8#106 /F put          dup 8#107 /G put          dup 8#110 /H put
dup 8#111 /I put          dup 8#315 /Iacute put     dup 8#316 /Icircumflex put
dup 8#317 /Idieresis put  dup 8#314 /Igrave put     dup 8#112 /J put
dup 8#113 /K put          dup 8#114 /L put          dup 8#115 /M put
dup 8#116 /N put          dup 8#321 /Ntilde put     dup 8#117 /O put
dup 8#323 /Oacute put     dup 8#324 /Ocircumflex put dup 8#326 /Odieresis put
dup 8#322 /Ograve put     dup 8#330 /Oslash put     dup 8#325 /Otilde put
dup 8#120 /P put          dup 8#121 /Q put          dup 8#122 /R put
dup 8#123 /S put          dup 8#124 /T put          dup 8#336 /Thorn put
dup 8#125 /U put          dup 8#332 /Uacute put     dup 8#333 /Ucircumflex put
dup 8#334 /Udieresis put  dup 8#331 /Ugrave put     dup 8#126 /V put
dup 8#127 /W put          dup 8#130 /X put          dup 8#131 /Y put
dup 8#335 /Yacute put     dup 8#132 /Z put          dup 8#141 /a put
dup 8#341 /aacute put     dup 8#342 /acircumflex put dup 8#264 /acute put
dup 8#344 /adieresis put  dup 8#346 /ae put         dup 8#340 /agrave put
dup 8#046 /ampersand put  dup 8#345 /aring put      dup 8#136 /asciicircum put
dup 8#176 /asciitilde put dup 8#052 /asterisk put   dup 8#100 /at put
dup 8#343 /atilde put     dup 8#142 /b put          dup 8#134 /backslash put
dup 8#174 /bar put        dup 8#173 /braceleft put  dup 8#175 /braceright put
dup 8#133 /bracketleft put dup 8#135 /bracketright put dup 8#246 /brokenbar put
dup 8#143 /c put          dup 8#347 /ccedilla put   dup 8#242 /cent put
dup 8#072 /colon put      dup 8#054 /comma put      dup 8#251 /copyright put
dup 8#244 /currency put   dup 8#144 /d put          dup 8#260 /degree put
dup 8#367 /divide put     dup 8#044 /dollar put     dup 8#145 /e put
dup 8#351 /eacute put     dup 8#352 /ecircumflex put dup 8#353 /edieresis put
dup 8#350 /egrave put     dup 8#070 /eight put      dup 8#075 /equal put
dup 8#360 /eth put        dup 8#041 /exclam put     dup 8#241 /exclamdown put
dup 8#146 /f put          dup 8#065 /five put       dup 8#064 /four put
dup 8#147 /g put          dup 8#337 /germandbls put dup 8#076 /greater put
dup 8#253 /guillemotleft put dup 8#273 /guillemotright put dup 8#150 /h put
dup 8#255 /hyphen put     dup 8#151 /i put          dup 8#355 /iacute put
dup 8#356 /icircumflex put dup 8#357 /idieresis put dup 8#354 /igrave put
dup 8#152 /j put          dup 8#153 /k put          dup 8#154 /l put
dup 8#074 /less put       dup 8#254 /logicalnot put dup 8#155 /m put
dup 8#055 /minus put      dup 8#265 /mu put         dup 8#327 /multiply put
dup 8#156 /n put          dup 8#071 /nine put       dup 8#361 /ntilde put
dup 8#043 /numbersign put dup 8#157 /o put          dup 8#363 /oacute put
dup 8#364 /ocircumflex put dup 8#366 /odieresis put dup 8#362 /ograve put
dup 8#061 /one put        dup 8#275 /onehalf put    dup 8#274 /onequarter put
dup 8#271 /onesuperior put dup 8#252 /ordfeminine put dup 8#272 /ordmasculine put
dup 8#370 /oslash put     dup 8#365 /otilde put     dup 8#160 /p put
dup 8#266 /paragraph put  dup 8#050 /parenleft put  dup 8#051 /parenright put
dup 8#045 /percent put    dup 8#056 /period put     dup 8#267 /periodcentered put
dup 8#053 /plus put       dup 8#261 /plusminus put  dup 8#161 /q put
dup 8#077 /question put   dup 8#277 /questiondown put dup 8#042 /quotedbl put
dup 8#140 /quoteleft put  dup 8#047 /quoteright put dup 8#162 /r put
dup 8#256 /registered put dup 8#163 /s put          dup 8#247 /section put
dup 8#073 /semicolon put  dup 8#067 /seven put      dup 8#066 /six put
dup 8#057 /slash put      dup 8#040 /space put      dup 8#243 /sterling put
dup 8#164 /t put          dup 8#376 /thorn put      dup 8#063 /three put
dup 8#276 /threequarters put dup 8#263 /threesuperior put dup 8#062 /two put
dup 8#262 /twosuperior put dup 8#165 /u put         dup 8#372 /uacute put
dup 8#373 /ucircumflex put dup 8#374 /udieresis put dup 8#371 /ugrave put
dup 8#137 /underscore put dup 8#166 /v put          dup 8#167 /w put
dup 8#170 /x put          dup 8#171 /y put          dup 8#375 /yacute put
dup 8#377 /ydieresis put  dup 8#245 /yen put        dup 8#172 /z put
dup 8#060 /zero put       dup 8#250 /dieresis put   dup 8#257 /macron put
dup 8#270 /cedilla put
% for ISOLatin1Encoding
%dup 8#220 /dotlessi put   dup 8#221 /grave put      dup 8#222 /acute put
%dup 8#223 /circumflex put dup 8#224 /tilde put      dup 8#225 /macron put
%dup 8#226 /breve put      dup 8#227 /dotaccent put  dup 8#230 /dieresis put
%dup 8#232 /ring put       dup 8#233 /cedilla put    dup 8#235 /hungarumlaut put
%dup 8#236 /ogonek put     dup 8#237 /caron put
% for Windows
dup 8#200 /colonmonetary put dup 8#202 /comma put   dup 8#203 /florin put
dup 8#204 /quotedblbase put dup 8#205 /ellipsis put dup 8#206 /dagger put
dup 8#207 /daggerdbl put  dup 8#210 /circumflex put dup 8#211 /perthousand put
dup 8#212 /Scaron put    dup 8#213 /guilsinglleft put dup 8#214 /OE put
dup 8#221 /quoteleft put dup 8#222 /quoteright put   dup 8#223 /quotedblleft put
dup 8#224 /quotedblright put dup 8#225 /bullet put dup 8#226 /hyphen put
dup 8#227 /emdash put  dup 8#230 /hungarumlaut put dup 8#231 /trademark put
dup 8#232 /scaron put  dup 8#233 /guilsinglright put dup 8#234 /oe put
dup 8#237 /Ydieresis put
pop
/ReEncode {
  findfont
  dup length dict begin
    {1 index /FID ne {def} {pop pop} ifelse} forall
    /Encoding NGPLatin1Encoding def
    currentdict
  end
  definefont
  pop
} bind def
/Times-Roman-ISOLatin1 /Times-Roman ReEncode
/Times-Bold-ISOLatin1 /Times-Bold ReEncode
/Times-Italic-ISOLatin1 /Times-Italic ReEncode
/Times-BoldItalic-ISOLatin1 /Times-BoldItalic ReEncode
/Helvetica-ISOLatin1 /Helvetica ReEncode
/Helvetica-Bold-ISOLatin1 /Helvetica-Bold ReEncode
/Helvetica-Oblique-ISOLatin1 /Helvetica-Oblique ReEncode
/Helvetica-BoldOblique-ISOLatin1 /Helvetica-BoldOblique ReEncode
/Courier-ISOLatin1 /Courier ReEncode
/Courier-Bold-ISOLatin1 /Courier-Bold ReEncode
/Courier-Oblique-ISOLatin1 /Courier-Oblique ReEncode
/Courier-BoldOblique-ISOLatin1 /Courier-BoldOblique ReEncode
%
%%EndProlog
%%Page: Figure 1
%%BeginPageSetup
/ANGLE 0 def
/bottom -29700 def
NgraphDict begin
PageSave
BeginPage
%%EndPageSetup
0 0 21000 29700 1 viewc
0 255 div 0 255 div 0 255 div setrgbcolor
[] 0 40 2 0 10 lsty
3500 22000 17500 22000 l
[] 0 40 0 0 10 lsty
3500 22000 3500 21700 l
4900 22000 4900 21900 l
6300 22000 6300 21800 l
7700 22000 7700 21900 l
9100 22000 9100 21800 l
10500 22000 10500 21900 l
11900 22000 11900 21800 l
13300 22000 13300 21900 l
14700 22000 14700 21800 l
16100 22000 16100 21900 l
17500 22000 17500 21800 l
3304 22738 mto
%IncludeResource: font /Helvetica-ISOLatin1
[705.556 -0 -0 -705.556 0 0] /Helvetica-ISOLatin1 F
0 0 (0) ashow
8904 22738 mto
0 0 (2) ashow
14504 22738 mto
0 0 (4) ashow
[] 0 40 2 0 10 lsty
3500 22000 3500 11000 l
[] 0 40 0 0 10 lsty
3500 22000 3800 22000 l
3500 20472 3700 20472 l
3500 18944 3700 18944 l
3500 17416 3700 17416 l
3500 15888 3700 15888 l
3500 14361 3700 14361 l
3500 12833 3700 12833 l
3500 11305 3700 11305 l
3008 22244 mto
0 0 (0) ashow
2420 19188 mto
0 0 (0.2) ashow
2420 16132 mto
0 0 (0.4) ashow
2420 13077 mto
0 0 (0.6) ashow
[] 0 40 2 0 10 lsty
3500 11000 17500 11000 l
[] 0 40 0 0 10 lsty
3500 11000 3500 11300 l
4900 11000 4900 11100 l
6300 11000 6300 11200 l
7700 11000 7700 11100 l
9100 11000 9100 11200 l
10500 11000 10500 11100 l
11900 11000 11900 11200 l
13300 11000 13300 11100 l
14700 11000 14700 11200 l
16100 11000 16100 11100 l
17500 11000 17500 11200 l
[] 0 40 2 0 10 lsty
17500 22000 17500 11000 l
[] 0 40 0 0 10 lsty
17500 22000 17200 21999 l
17500 20472 17300 20471 l
17500 18944 17300 18943 l
17500 17416 17300 17415 l
17500 15888 17300 15887 l
17500 14361 17300 14360 l
17500 12833 17300 12832 l
17500 11305 17300 11304 l
[] 0 60 0 0 10 lsty
3780 17062 mto
255 255 div 0 255 div 0 255 div setrgbcolor
3920 17062 lto
4060 17062 lto
4200 17062 lto
4340 17061 lto
4430 17059 lto
4480 17057 lto
4541 17053 lto
4597 17047 lto
4620 17044 lto
4673 17036 lto
4727 17026 lto
4760 17019 lto
4812 17006 lto
4860 16993 lto
4900 16980 lto
4941 16965 lto
4980 16949 lto
5017 16933 lto
5040 16921 lto
5075 16902 lto
5112 16881 lto
5149 16857 lto
5180 16836 lto
5218 16808 lto
5259 16777 lto
5301 16743 lto
5320 16727 lto
5368 16686 lto
5417 16641 lto
5460 16601 lto
5514 16549 lto
5571 16492 lto
5600 16463 lto
5665 16396 lto
5734 16323 lto
5740 16317 lto
5817 16233 lto
5880 16164 lto
5980 16053 lto
6020 16009 lto
6160 15853 lto
6300 15697 lto
6415 15572 lto
6440 15544 lto
6541 15436 lto
6580 15395 lto
6671 15300 lto
6720 15250 lto
6806 15164 lto
6860 15111 lto
6945 15028 lto
7000 14976 lto
7085 14897 lto
7140 14847 lto
7225 14772 lto
7280 14724 lto
7364 14652 lto
7420 14606 lto
7505 14537 lto
7560 14493 lto
7646 14426 lto
7700 14386 lto
7788 14321 lto
7840 14283 lto
7929 14220 lto
7980 14185 lto
8071 14124 lto
8120 14092 lto
8214 14033 lto
8260 14004 lto
8356 13946 lto
8400 13919 lto
8500 13862 lto
8540 13839 lto
8641 13783 lto
8680 13762 lto
8785 13706 lto
8820 13689 lto
8928 13634 lto
8960 13619 lto
9070 13566 lto
9100 13552 lto
9213 13500 lto
9240 13488 lto
9356 13437 lto
9380 13427 lto
9501 13377 lto
9520 13369 lto
9642 13320 lto
9660 13313 lto
9789 13264 lto
9800 13260 lto
9928 13213 lto
9940 13209 lto
10076 13161 lto
10080 13160 lto
10218 13113 lto
10220 13113 lto
10360 13068 lto
10500 13024 lto
10640 12983 lto
10780 12943 lto
10920 12905 lto
11060 12868 lto
11200 12832 lto
11340 12798 lto
11480 12765 lto
11620 12733 lto
11760 12703 lto
11900 12673 lto
12040 12644 lto
12180 12617 lto
12320 12590 lto
12460 12565 lto
12600 12540 lto
12740 12516 lto
12880 12493 lto
13020 12470 lto
13160 12448 lto
13300 12427 lto
13440 12407 lto
13580 12387 lto
13720 12368 lto
13860 12349 lto
14000 12331 lto
14140 12314 lto
14280 12297 lto
14420 12280 lto
14560 12264 lto
14700 12249 lto
14840 12234 lto
14980 12219 lto
15120 12205 lto
15260 12191 lto
15400 12177 lto
15540 12164 lto
15680 12151 lto
15820 12139 lto
15960 12127 lto
16100 12115 lto
16240 12103 lto
16380 12092 lto
16520 12081 lto
16660 12070 lto
16800 12060 lto
16940 12050 lto
17080 12040 lto
17220 12030 lto
17360 12021 lto
17500 12012 lto
st
[] 0 40 0 0 10 lsty
3780 19231 mto
0 255 div 0 255 div 255 255 div setrgbcolor
3880 19231 lto
st
3980 19230 mto
4003 19230 lto
4056 19228 lto
4060 19228 lto
4080 19226 lto
st
4179 19214 mto
4186 19213 lto
4200 19210 lto
4237 19202 lto
4272 19191 lto
4276 19190 lto
st
4369 19153 mto
4374 19151 lto
4407 19134 lto
4441 19115 lto
4457 19105 lto
st
4538 19047 mto
4546 19041 lto
4580 19014 lto
4613 18984 lto
4614 18983 lto
st
4686 18913 mto
4687 18912 lto
4721 18876 lto
4754 18839 lto
st
4818 18762 mto
4830 18747 lto
4866 18701 lto
4879 18683 lto
st
4937 18602 mto
4971 18552 lto
4993 18519 lto
st
5047 18435 mto
5075 18389 lto
5099 18349 lto
st
5149 18263 mto
5180 18208 lto
5198 18176 lto
st
5246 18088 mto
5259 18064 lto
5293 18000 lto
st
5339 17911 mto
5367 17856 lto
5384 17822 lto
st
5429 17733 mto
5460 17673 lto
5475 17643 lto
st
5519 17554 mto
5534 17524 lto
5564 17464 lto
st
5609 17375 mto
5653 17286 lto
st
5698 17196 mto
5705 17182 lto
5740 17114 lto
5744 17107 lto
st
5789 17018 mto
5810 16977 lto
5835 16929 lto
st
5880 16840 mto
5927 16752 lto
st
5975 16664 mto
5995 16626 lto
6020 16580 lto
6022 16576 lto
st
6070 16488 mto
6074 16481 lto
6120 16401 lto
st
6170 16315 mto
6214 16239 lto
6220 16228 lto
st
6271 16142 mto
6300 16095 lto
6323 16057 lto
st
6377 15972 mto
6406 15926 lto
6430 15888 lto
st
6485 15804 mto
6493 15793 lto
6541 15722 lto
st
6598 15639 mto
6633 15590 lto
6656 15558 lto
st
6715 15477 mto
6720 15471 lto
6776 15398 lto
6776 15398 lto
st
6837 15318 mto
6860 15289 lto
6900 15240 lto
st
6963 15163 mto
6975 15149 lto
7000 15119 lto
7028 15087 lto
st
7094 15012 mto
7118 14984 lto
7140 14960 lto
7161 14938 lto
st
7229 14865 mto
7264 14828 lto
7280 14812 lto
7299 14793 lto
st
7369 14722 mto
7408 14684 lto
7420 14672 lto
7441 14652 lto
st
7514 14584 mto
7555 14546 lto
7560 14541 lto
7588 14516 lto
st
7663 14450 mto
7699 14419 lto
7700 14419 lto
7739 14386 lto
st
7816 14322 mto
7840 14303 lto
7894 14260 lto
st
7974 14200 mto
7980 14195 lto
8054 14140 lto
st
8135 14081 mto
8202 14035 lto
8218 14025 lto
st
8301 13969 mto
8344 13940 lto
8385 13915 lto
st
8469 13862 mto
8488 13850 lto
8540 13818 lto
8555 13809 lto
st
8641 13759 mto
8680 13737 lto
8728 13710 lto
st
8816 13661 mto
8820 13659 lto
8904 13615 lto
st
8993 13569 mto
9062 13535 lto
9083 13525 lto
st
9173 13482 mto
9206 13466 lto
9240 13450 lto
9264 13439 lto
st
9355 13398 mto
9380 13387 lto
9446 13359 lto
st
9539 13319 mto
9631 13281 lto
st
9724 13245 mto
9778 13224 lto
9800 13215 lto
9817 13209 lto
st
9911 13174 mto
9927 13168 lto
9940 13163 lto
10005 13140 lto
st
10100 13107 mto
10194 13075 lto
st
10289 13044 mto
10357 13022 lto
10360 13021 lto
10385 13013 lto
st
10480 12983 mto
10500 12977 lto
10576 12954 lto
st
10672 12926 mto
10768 12899 lto
st
10864 12872 mto
10920 12857 lto
10961 12846 lto
st
11057 12821 mto
11060 12820 lto
11154 12796 lto
st
11252 12772 mto
11340 12751 lto
11349 12749 lto
st
11446 12726 mto
11480 12718 lto
11543 12703 lto
st
11641 12681 mto
11739 12661 lto
st
11837 12640 mto
11900 12627 lto
11935 12620 lto
st
12033 12600 mto
12040 12599 lto
12131 12581 lto
st
12229 12562 mto
12320 12545 lto
12327 12544 lto
st
12426 12526 mto
12460 12520 lto
12524 12509 lto
st
12623 12492 mto
12721 12475 lto
st
12820 12459 mto
12880 12449 lto
12919 12443 lto
st
13018 12427 mto
13020 12427 lto
13116 12413 lto
st
13215 12398 mto
13300 12385 lto
13314 12383 lto
st
13413 12369 mto
13440 12365 lto
13512 12355 lto
st
13611 12342 mto
13711 12329 lto
st
13810 12316 mto
13860 12309 lto
13909 12303 lto
st
14008 12291 mto
14107 12279 lto
st
14207 12267 mto
14280 12258 lto
14306 12255 lto
st
14405 12244 mto
14420 12242 lto
14505 12233 lto
st
14604 12222 mto
14700 12212 lto
14704 12212 lto
st
14803 12201 mto
14840 12197 lto
14903 12191 lto
st
15002 12181 mto
15102 12171 lto
st
15201 12161 mto
15260 12156 lto
15301 12152 lto
st
15400 12143 mto
15500 12134 lto
st
15599 12124 mto
15680 12117 lto
15699 12115 lto
st
15799 12107 mto
15820 12105 lto
15898 12099 lto
st
15998 12091 mto
16098 12082 lto
st
16197 12074 mto
16240 12071 lto
16297 12067 lto
st
16397 12059 mto
16496 12052 lto
st
16596 12045 mto
16660 12040 lto
16696 12037 lto
st
16796 12030 mto
16800 12030 lto
16895 12023 lto
st
16995 12016 mto
17080 12010 lto
17095 12009 lto
st
17195 12003 mto
17220 12001 lto
17294 11996 lto
st
17394 11990 mto
17494 11983 lto
st
[] 0 60 0 0 10 lsty
3780 20336 mto
0 255 div 0 255 div 0 255 div setrgbcolor
3911 20336 lto
3920 20336 lto
3930 20336 lto
st
4079 20324 mto
4095 20322 lto
4128 20315 lto
4157 20308 lto
4186 20299 lto
4200 20294 lto
4224 20284 lto
st
4351 20206 mto
4366 20195 lto
4392 20172 lto
4418 20147 lto
4444 20121 lto
4460 20103 lto
st
4555 19987 mto
4561 19979 lto
4589 19940 lto
4617 19899 lto
4620 19894 lto
4640 19864 lto
st
4719 19736 mto
4740 19699 lto
4760 19664 lto
4790 19609 lto
4792 19605 lto
st
4861 19472 mto
4886 19423 lto
4900 19395 lto
4928 19338 lto
st
4991 19202 mto
5009 19164 lto
5040 19096 lto
5053 19065 lto
st
5114 18928 mto
5114 18927 lto
5154 18833 lto
5172 18790 lto
st
5229 18651 mto
5273 18546 lto
5287 18512 lto
st
5343 18373 mto
5382 18275 lto
5399 18234 lto
st
5455 18095 mto
5460 18082 lto
5510 17956 lto
st
5567 17817 mto
5600 17736 lto
5624 17678 lto
st
5681 17539 mto
5718 17449 lto
5739 17401 lto
st
5798 17263 mto
5841 17162 lto
5857 17125 lto
st
5918 16988 mto
5927 16969 lto
5974 16866 lto
5981 16852 lto
st
6044 16716 mto
6066 16670 lto
6109 16581 lto
st
6175 16446 mto
6205 16388 lto
6244 16313 lto
st
6314 16181 mto
6345 16125 lto
6387 16049 lto
st
6462 15919 mto
6486 15878 lto
6532 15801 lto
6539 15790 lto
st
6618 15663 mto
6627 15649 lto
6675 15575 lto
6700 15538 lto
st
6785 15414 mto
6819 15365 lto
6860 15308 lto
6872 15292 lto
st
6962 15172 mto
6963 15170 lto
7000 15123 lto
7053 15056 lto
7055 15054 lto
st
7151 14939 mto
7196 14886 lto
7249 14825 lto
st
7351 14715 mto
7398 14666 lto
7420 14643 lto
7455 14608 lto
st
7562 14503 mto
7624 14444 lto
7672 14401 lto
st
7785 14302 mto
7836 14258 lto
7840 14255 lto
7900 14205 lto
st
8018 14113 mto
8054 14085 lto
8120 14036 lto
8138 14023 lto
st
8260 13936 mto
8340 13882 lto
8385 13853 lto
st
8511 13772 mto
8540 13754 lto
8627 13702 lto
8640 13694 lto
st
8770 13620 mto
8772 13619 lto
8820 13593 lto
8902 13549 lto
st
9036 13480 mto
9058 13469 lto
9100 13448 lto
9170 13414 lto
st
9306 13351 mto
9345 13333 lto
9380 13318 lto
9443 13290 lto
st
9582 13232 mto
9632 13211 lto
9660 13200 lto
9721 13176 lto
st
9861 13123 mto
9922 13101 lto
9940 13094 lto
10002 13072 lto
st
10144 13023 mto
10209 13001 lto
10220 12997 lto
10286 12976 lto
st
10429 12931 mto
10500 12909 lto
10573 12888 lto
st
10717 12846 mto
10780 12829 lto
10862 12807 lto
st
11007 12769 mto
11060 12755 lto
11152 12732 lto
st
11298 12696 mto
11340 12686 lto
11444 12662 lto
st
11591 12630 mto
11620 12624 lto
11737 12599 lto
st
11884 12569 mto
11900 12566 lto
12032 12540 lto
st
12179 12512 mto
12180 12512 lto
12320 12486 lto
12326 12485 lto
st
12474 12460 mto
12600 12438 lto
12622 12434 lto
st
12770 12410 mto
12880 12393 lto
12918 12387 lto
st
13067 12365 mto
13160 12351 lto
13215 12343 lto
st
13364 12323 mto
13440 12312 lto
13512 12303 lto
st
13661 12284 mto
13720 12276 lto
13810 12264 lto
st
13959 12247 mto
14000 12242 lto
14108 12229 lto
st
14257 12212 mto
14280 12209 lto
14406 12195 lto
st
14555 12180 mto
14560 12179 lto
14700 12165 lto
14704 12165 lto
st
14854 12150 mto
14980 12137 lto
15003 12135 lto
st
15152 12121 mto
15260 12111 lto
15302 12107 lto
st
15451 12094 mto
15540 12086 lto
15601 12081 lto
st
15750 12069 mto
15820 12063 lto
15900 12057 lto
st
16049 12045 mto
16100 12041 lto
16199 12034 lto
st
16348 12023 mto
16380 12021 lto
16498 12013 lto
st
16648 12002 mto
16660 12001 lto
16797 11991 lto
st
16947 11982 mto
17080 11973 lto
17097 11972 lto
st
17246 11963 mto
17360 11956 lto
17396 11954 lto
st
3780 20642 mto
255 255 div 0 255 div 255 255 div setrgbcolor
3920 20642 lto
3977 20640 lto
4022 20637 lto
4060 20633 lto
4092 20629 lto
4122 20623 lto
4148 20616 lto
4174 20608 lto
4198 20598 lto
4200 20597 lto
4222 20586 lto
st
4344 20500 mto
4364 20481 lto
4387 20457 lto
4411 20430 lto
4436 20401 lto
4460 20371 lto
4480 20344 lto
4504 20309 lto
4529 20272 lto
4554 20233 lto
4579 20192 lto
4605 20148 lto
4610 20139 lto
st
4681 20007 mto
4698 19972 lto
4726 19916 lto
4754 19857 lto
4760 19844 lto
4789 19780 lto
4819 19714 lto
4849 19643 lto
4868 19598 lto
st
4926 19459 mto
4932 19445 lto
4966 19361 lto
5001 19270 lto
5039 19172 lto
5040 19170 lto
5083 19058 lto
5090 19040 lto
st
5142 18900 mto
5180 18798 lto
5239 18639 lto
5298 18478 lto
st
5350 18337 mto
5414 18164 lto
5460 18040 lto
5507 17915 lto
st
5560 17775 mto
5571 17747 lto
5600 17671 lto
5649 17546 lto
5696 17427 lto
5724 17356 lto
st
5781 17217 mto
5786 17206 lto
5830 17098 lto
5875 16994 lto
5880 16982 lto
5924 16881 lto
5958 16803 lto
st
6020 16667 mto
6020 16666 lto
6062 16574 lto
6105 16484 lto
6148 16396 lto
6160 16371 lto
6203 16285 lto
6215 16261 lto
st
6284 16128 mto
6290 16116 lto
6300 16098 lto
6344 16017 lto
6387 15937 lto
6432 15859 lto
6440 15844 lto
6484 15768 lto
6503 15735 lto
st
6582 15607 mto
6626 15536 lto
6674 15463 lto
6720 15393 lto
6769 15322 lto
6818 15252 lto
6831 15233 lto
st
6920 15112 mto
6962 15057 lto
7000 15008 lto
7053 14942 lto
7106 14876 lto
7140 14836 lto
7195 14772 lto
7203 14763 lto
st
7304 14651 mto
7338 14614 lto
7397 14552 lto
7420 14529 lto
7481 14468 lto
7543 14408 lto
7560 14391 lto
7622 14334 lto
st
7734 14233 mto
7767 14205 lto
7835 14148 lto
7840 14143 lto
7910 14086 lto
7980 14031 lto
8053 13976 lto
8085 13952 lto
st
8207 13865 mto
8260 13828 lto
8340 13775 lto
8400 13736 lto
8483 13683 lto
8540 13649 lto
8586 13622 lto
st
8716 13547 mto
8771 13516 lto
8820 13490 lto
8914 13440 lto
8960 13417 lto
9059 13368 lto
9100 13348 lto
9115 13341 lto
st
9251 13277 mto
9346 13235 lto
9380 13221 lto
9490 13174 lto
9520 13162 lto
9635 13116 lto
9660 13106 lto
9666 13104 lto
st
9807 13051 mto
9922 13009 lto
9940 13003 lto
10067 12959 lto
10080 12955 lto
10209 12912 lto
10220 12909 lto
10233 12905 lto
st
10376 12860 mto
10500 12823 lto
10640 12784 lto
10780 12746 lto
10809 12738 lto
st
10954 12701 mto
11060 12674 lto
11200 12641 lto
11340 12609 lto
11392 12597 lto
st
11539 12565 mto
11620 12548 lto
11760 12520 lto
11900 12493 lto
11980 12478 lto
st
12127 12451 mto
12180 12441 lto
12320 12417 lto
12460 12394 lto
12571 12376 lto
st
12719 12352 mto
12740 12349 lto
12880 12328 lto
13020 12308 lto
13160 12289 lto
13165 12288 lto
st
13313 12268 mto
13440 12252 lto
13580 12234 lto
13720 12217 lto
13760 12212 lto
st
13909 12195 mto
14000 12185 lto
14140 12169 lto
14280 12154 lto
14356 12146 lto
st
14505 12131 mto
14560 12126 lto
14700 12112 lto
14840 12099 lto
14953 12088 lto
st
15103 12075 mto
15120 12074 lto
15260 12062 lto
15400 12050 lto
15540 12039 lto
15551 12038 lto
st
15701 12026 mto
15820 12017 lto
15960 12006 lto
16100 11996 lto
16150 11992 lto
st
16299 11982 mto
16380 11977 lto
16520 11967 lto
16660 11958 lto
16748 11953 lto
st
16898 11944 mto
16940 11941 lto
17080 11933 lto
17220 11924 lto
17347 11917 lto
st
17497 11909 mto
17500 11909 lto
st
3780 20382 mto
0 255 div 255 255 div 0 255 div setrgbcolor
3920 20381 lto
3990 20381 lto
4037 20379 lto
4060 20377 lto
4094 20373 lto
4124 20369 lto
4151 20363 lto
4177 20356 lto
4200 20348 lto
4224 20338 lto
4224 20338 lto
st
4348 20254 mto
4361 20241 lto
4383 20219 lto
4404 20195 lto
4426 20169 lto
4447 20141 lto
st
4531 20017 mto
4547 19990 lto
4571 19950 lto
4594 19906 lto
4619 19860 lto
4620 19858 lto
4645 19809 lto
4671 19756 lto
4698 19700 lto
4725 19641 lto
4736 19617 lto
st
4796 19480 mto
4820 19424 lto
4852 19348 lto
4855 19341 lto
st
4910 19202 mto
4937 19136 lto
4975 19037 lto
5017 18929 lto
5040 18868 lto
5072 18782 lto
st
5125 18642 mto
5142 18595 lto
5177 18501 lto
st
5229 18361 mto
5284 18213 lto
5320 18118 lto
5387 17939 lto
st
5441 17799 mto
5448 17780 lto
5460 17748 lto
5495 17659 lto
st
5549 17519 mto
5565 17479 lto
5600 17390 lto
5648 17272 lto
5694 17159 lto
5718 17102 lto
st
5776 16964 mto
5785 16943 lto
5829 16841 lto
5835 16826 lto
st
5896 16689 mto
5924 16628 lto
5968 16533 lto
6012 16440 lto
6020 16423 lto
6064 16332 lto
6089 16282 lto
st
6156 16148 mto
6160 16140 lto
6204 16055 lto
6225 16015 lto
st
6297 15883 mto
6300 15878 lto
6345 15798 lto
6390 15719 lto
6435 15642 lto
6440 15634 lto
6486 15558 lto
6525 15496 lto
st
6606 15369 mto
6628 15335 lto
6676 15263 lto
6689 15244 lto
st
6775 15122 mto
6820 15060 lto
6860 15006 lto
6912 14938 lto
6965 14871 lto
7000 14827 lto
7051 14766 lto
st
7148 14652 mto
7197 14597 lto
7249 14541 lto
st
7352 14432 mto
7399 14384 lto
7420 14364 lto
7482 14304 lto
7545 14244 lto
7560 14230 lto
7625 14172 lto
7680 14124 lto
st
7794 14027 mto
7837 13992 lto
7840 13990 lto
7911 13934 lto
7912 13934 lto
st
8032 13844 mto
8054 13827 lto
8120 13780 lto
8197 13727 lto
8260 13685 lto
8341 13633 lto
8400 13596 lto
8405 13593 lto
st
8534 13516 mto
8540 13512 lto
8629 13461 lto
8664 13442 lto
st
8796 13371 mto
8820 13358 lto
8916 13310 lto
8960 13288 lto
9059 13241 lto
9100 13222 lto
9202 13176 lto
st
9340 13117 mto
9346 13114 lto
9380 13100 lto
9479 13060 lto
st
9619 13006 mto
9634 13000 lto
9660 12990 lto
9781 12946 lto
9800 12940 lto
9922 12898 lto
9940 12891 lto
10043 12857 lto
st
10186 12813 mto
10211 12805 lto
10220 12802 lto
10330 12769 lto
st
10474 12728 mto
10499 12721 lto
10500 12721 lto
10640 12683 lto
10780 12647 lto
10910 12615 lto
st
11056 12580 mto
11060 12579 lto
11200 12548 lto
11202 12548 lto
st
11348 12515 mto
11480 12488 lto
11620 12461 lto
11760 12434 lto
11790 12428 lto
st
11938 12402 mto
12040 12384 lto
12085 12376 lto
st
12233 12351 mto
12320 12337 lto
12460 12315 lto
12600 12294 lto
12678 12283 lto
st
12827 12262 mto
12880 12254 lto
12975 12241 lto
st
13124 12222 mto
13160 12217 lto
13300 12200 lto
13440 12183 lto
13571 12167 lto
st
13720 12150 mto
13720 12150 lto
13860 12135 lto
13869 12134 lto
st
14018 12118 mto
14140 12106 lto
14280 12092 lto
14420 12079 lto
14466 12075 lto
st
14615 12061 mto
14700 12053 lto
14765 12047 lto
st
14914 12035 mto
14980 12029 lto
15120 12018 lto
15260 12007 lto
15363 11999 lto
st
15512 11987 mto
15540 11985 lto
15662 11976 lto
st
15811 11966 mto
15820 11965 lto
15960 11956 lto
16100 11947 lto
16240 11937 lto
16260 11936 lto
st
16410 11927 mto
16520 11920 lto
16560 11918 lto
st
16710 11909 mto
16800 11904 lto
16940 11896 lto
17080 11888 lto
17159 11884 lto
st
17309 11876 mto
17360 11873 lto
17458 11868 lto
st
[] 0 40 0 0 10 lsty
3780 19774 mto
255 255 div 128 255 div 0 255 div setrgbcolor
3920 19774 lto
3995 19773 lto
4044 19771 lto
4060 19770 lto
4096 19767 lto
4127 19762 lto
4156 19757 lto
4183 19750 lto
4200 19745 lto
4225 19735 lto
4225 19735 lto
st
4353 19657 mto
4363 19648 lto
4385 19627 lto
4408 19604 lto
4431 19579 lto
4454 19551 lto
4456 19548 lto
st
4543 19426 mto
4548 19418 lto
4571 19380 lto
4595 19340 lto
4620 19297 lto
st
4689 19165 mto
4696 19152 lto
4722 19097 lto
4750 19039 lto
4760 19017 lto
4789 18953 lto
4819 18886 lto
4850 18813 lto
4875 18755 lto
st
4933 18616 mto
4937 18606 lto
4977 18507 lto
4989 18477 lto
st
5045 18338 mto
5096 18208 lto
5100 18199 lto
st
5155 18059 mto
5164 18036 lto
5180 17996 lto
5301 17688 lto
5320 17641 lto
5320 17641 lto
st
5376 17501 mto
5385 17478 lto
5432 17362 lto
st
5489 17223 mto
5513 17165 lto
5547 17085 lto
st
5605 16947 mto
5648 16847 lto
5695 16740 lto
5740 16639 lto
5786 16538 lto
5787 16535 lto
st
5851 16400 mto
5877 16344 lto
5880 16338 lto
5916 16264 lto
st
5983 16130 mto
6016 16064 lto
6020 16056 lto
6051 15997 lto
st
6121 15864 mto
6157 15798 lto
6160 15793 lto
6206 15711 lto
6252 15630 lto
6298 15551 lto
6300 15548 lto
6345 15473 lto
st
6424 15346 mto
6440 15321 lto
6488 15247 lto
6506 15220 lto
st
6590 15096 mto
6630 15039 lto
6677 14974 lto
st
6767 14854 mto
6772 14847 lto
6824 14779 lto
6860 14735 lto
6914 14669 lto
6969 14603 lto
7000 14567 lto
7053 14507 lto
st
7154 14396 mto
7199 14349 lto
7258 14288 lto
7258 14288 lto
st
7366 14183 mto
7404 14147 lto
7420 14132 lto
7476 14081 lto
st
7589 13983 mto
7627 13950 lto
7696 13894 lto
7700 13891 lto
7770 13835 lto
7840 13782 lto
7913 13728 lto
7943 13706 lto
st
8067 13621 mto
8120 13585 lto
8192 13538 lto
st
8320 13459 mto
8343 13445 lto
8400 13412 lto
8449 13384 lto
st
8581 13311 mto
8630 13285 lto
8680 13259 lto
8774 13212 lto
8820 13190 lto
8918 13144 lto
8960 13124 lto
8984 13113 lto
st
9122 13053 mto
9206 13018 lto
9240 13004 lto
9260 12996 lto
st
9400 12941 mto
9495 12906 lto
9520 12896 lto
9541 12889 lto
st
9682 12839 mto
9782 12806 lto
9800 12800 lto
9928 12759 lto
9940 12755 lto
10070 12716 lto
10080 12713 lto
10111 12704 lto
st
10255 12662 mto
10358 12634 lto
10360 12634 lto
10400 12623 lto
st
10546 12586 mto
10640 12563 lto
10691 12551 lto
st
10837 12516 mto
10920 12497 lto
11060 12467 lto
11200 12438 lto
11277 12423 lto
st
11425 12394 mto
11480 12384 lto
11572 12367 lto
st
11720 12341 mto
11760 12334 lto
11868 12316 lto
st
12016 12292 mto
12040 12288 lto
12180 12266 lto
12320 12245 lto
12460 12225 lto
12461 12225 lto
st
12610 12205 mto
12740 12188 lto
12758 12186 lto
st
12907 12167 mto
13020 12153 lto
13056 12149 lto
st
13205 12131 mto
13300 12120 lto
13440 12105 lto
13580 12090 lto
13652 12083 lto
st
13802 12068 mto
13860 12062 lto
13951 12054 lto
st
14100 12040 mto
14140 12036 lto
14250 12026 lto
st
14399 12013 mto
14420 12011 lto
14560 12000 lto
14700 11988 lto
14840 11977 lto
14848 11976 lto
st
14997 11966 mto
15120 11957 lto
15147 11955 lto
st
15296 11944 mto
15400 11937 lto
15446 11934 lto
st
15596 11924 mto
15680 11918 lto
15820 11910 lto
15960 11901 lto
16045 11896 lto
st
16195 11888 mto
16240 11885 lto
16344 11879 lto
st
16494 11870 mto
16520 11869 lto
16644 11863 lto
st
16794 11855 mto
16800 11855 lto
16940 11848 lto
17080 11841 lto
17220 11834 lto
17243 11833 lto
st
17393 11826 mto
17500 11821 lto
st
3780 18873 mto
0 255 div 255 255 div 255 255 div setrgbcolor
3920 18873 lto
4003 18872 lto
4056 18870 lto
4060 18870 lto
4100 18867 lto
4134 18863 lto
4165 18857 lto
4193 18851 lto
4200 18849 lto
4227 18841 lto
st
4359 18771 mto
4364 18767 lto
4388 18748 lto
4413 18726 lto
4437 18703 lto
4461 18678 lto
4480 18656 lto
4504 18628 lto
4527 18598 lto
4552 18565 lto
4576 18530 lto
4601 18493 lto
4620 18463 lto
4643 18425 lto
st
4718 18295 mto
4726 18280 lto
4754 18227 lto
4760 18216 lto
4788 18163 lto
st
4853 18028 mto
4887 17957 lto
4900 17930 lto
4938 17847 lto
4979 17757 lto
5024 17657 lto
5040 17620 lto
5041 17619 lto
st
5101 17482 mto
5160 17346 lto
5180 17301 lto
5281 17069 lto
st
5342 16932 mto
5388 16829 lto
5403 16795 lto
st
5465 16658 mto
5514 16550 lto
5567 16438 lto
5600 16367 lto
5650 16263 lto
5656 16251 lto
st
5722 16116 mto
5740 16081 lto
5788 15986 lto
5837 15893 lto
5880 15811 lto
5928 15723 lto
5931 15718 lto
st
6004 15587 mto
6020 15558 lto
6068 15476 lto
6079 15457 lto
st
6156 15328 mto
6160 15322 lto
6209 15244 lto
6258 15167 lto
6300 15103 lto
6350 15028 lto
6400 14956 lto
6403 14952 lto
st
6490 14830 mto
6491 14828 lto
6542 14758 lto
6580 14709 lto
6633 14641 lto
6686 14575 lto
6720 14533 lto
6768 14476 lto
st
6867 14363 mto
6917 14308 lto
6968 14253 lto
st
7073 14145 mto
7120 14099 lto
7140 14079 lto
7202 14020 lto
7265 13962 lto
7280 13949 lto
7345 13892 lto
7404 13841 lto
st
7521 13746 mto
7557 13718 lto
7560 13715 lto
7630 13661 lto
7700 13610 lto
7774 13558 lto
7840 13512 lto
7885 13482 lto
st
8011 13401 mto
8061 13370 lto
8120 13335 lto
8139 13324 lto
st
8270 13250 mto
8348 13207 lto
8400 13179 lto
8491 13133 lto
8540 13109 lto
8635 13064 lto
8671 13046 lto
st
8808 12985 mto
8820 12980 lto
8922 12937 lto
8960 12921 lto
9068 12878 lto
9100 12866 lto
9211 12824 lto
9226 12819 lto
st
9367 12769 mto
9380 12764 lto
9500 12724 lto
9510 12721 lto
st
9653 12676 mto
9660 12673 lto
9791 12634 lto
9800 12631 lto
9931 12594 lto
9940 12592 lto
10080 12554 lto
10080 12554 lto
10085 12553 lto
st
10231 12515 mto
10360 12484 lto
10500 12452 lto
10640 12421 lto
10669 12415 lto
st
10816 12384 mto
10920 12363 lto
10963 12355 lto
st
11111 12327 mto
11200 12311 lto
11340 12286 lto
11480 12263 lto
11554 12251 lto
st
11702 12228 mto
11760 12219 lto
11900 12199 lto
12040 12179 lto
12148 12164 lto
st
12297 12145 mto
12320 12142 lto
12445 12126 lto
st
12594 12109 mto
12600 12108 lto
12740 12091 lto
12880 12076 lto
13020 12061 lto
13042 12059 lto
st
13191 12044 mto
13300 12033 lto
13440 12019 lto
13580 12006 lto
13639 12001 lto
st
13788 11988 mto
13860 11982 lto
13938 11976 lto
st
14087 11964 mto
14140 11959 lto
14280 11949 lto
14420 11938 lto
14536 11930 lto
st
14686 11919 mto
14700 11918 lto
14840 11909 lto
14980 11900 lto
15120 11891 lto
15135 11890 lto
st
15284 11881 mto
15400 11874 lto
15434 11872 lto
st
15584 11863 mto
15680 11858 lto
15820 11850 lto
15960 11843 lto
16033 11839 lto
st
16183 11832 mto
16240 11829 lto
16380 11822 lto
16520 11816 lto
16632 11810 lto
st
16782 11804 mto
16800 11803 lto
16932 11797 lto
st
17082 11791 mto
17220 11786 lto
17360 11780 lto
17500 11775 lto
st
3780 17621 mto
255 255 div 0 255 div 255 255 div setrgbcolor
3920 17621 lto
3930 17621 lto
st
4080 17618 mto
4106 17616 lto
4145 17612 lto
4180 17607 lto
4200 17603 lto
4228 17597 lto
st
4367 17540 mto
4367 17540 lto
4394 17523 lto
4421 17505 lto
4447 17484 lto
4474 17462 lto
4480 17456 lto
4486 17450 lto
st
4589 17341 mto
4613 17312 lto
4620 17304 lto
4648 17268 lto
4676 17229 lto
4681 17222 lto
st
4764 17098 mto
4792 17055 lto
4825 17001 lto
4843 16970 lto
st
4918 16840 mto
4941 16800 lto
4985 16720 lto
4991 16709 lto
st
5062 16577 mto
5098 16510 lto
5133 16445 lto
st
5203 16313 mto
5274 16180 lto
st
5344 16048 mto
5402 15939 lto
5415 15915 lto
st
5487 15784 mto
5524 15717 lto
5560 15653 lto
st
5634 15522 mto
5656 15483 lto
5709 15393 lto
st
5787 15264 mto
5794 15252 lto
5848 15166 lto
5866 15137 lto
st
5947 15010 mto
5987 14950 lto
6020 14901 lto
6030 14886 lto
st
6116 14763 mto
6126 14748 lto
6160 14702 lto
6204 14642 lto
st
6295 14522 mto
6300 14516 lto
6354 14448 lto
6389 14405 lto
st
6485 14290 mto
6496 14278 lto
6553 14214 lto
6580 14184 lto
6585 14178 lto
st
6687 14068 mto
6696 14059 lto
6720 14035 lto
6780 13975 lto
6793 13962 lto
st
6901 13858 mto
6922 13839 lto
6985 13782 lto
7000 13769 lto
7013 13758 lto
st
7127 13661 mto
7130 13658 lto
7140 13650 lto
7207 13596 lto
7244 13567 lto
st
7364 13477 mto
7420 13437 lto
7487 13390 lto
st
7612 13308 mto
7637 13292 lto
7700 13252 lto
7739 13228 lto
st
7869 13153 mto
7923 13122 lto
7980 13092 lto
8000 13081 lto
st
8134 13012 mto
8211 12975 lto
8260 12952 lto
8269 12948 lto
st
8406 12886 mto
8499 12846 lto
8540 12829 lto
8544 12827 lto
st
8683 12772 mto
8787 12733 lto
8820 12721 lto
8824 12720 lto
st
8965 12669 mto
9075 12633 lto
9100 12625 lto
9108 12623 lto
st
9251 12578 mto
9362 12545 lto
9380 12540 lto
9395 12536 lto
st
9539 12496 mto
9652 12466 lto
9660 12464 lto
9684 12458 lto
st
9830 12422 mto
9940 12396 lto
9976 12388 lto
st
10122 12355 mto
10220 12334 lto
10269 12324 lto
st
10416 12295 mto
10500 12279 lto
10564 12268 lto
st
10712 12241 mto
10780 12229 lto
10859 12216 lto
st
11007 12192 mto
11060 12184 lto
11156 12170 lto
st
11304 12148 mto
11340 12143 lto
11453 12127 lto
st
11601 12107 mto
11620 12105 lto
11750 12088 lto
st
11899 12070 mto
11900 12070 lto
12040 12054 lto
12048 12053 lto
st
12197 12037 mto
12320 12024 lto
12346 12021 lto
st
12496 12006 mto
12600 11996 lto
12645 11992 lto
st
12794 11978 mto
12880 11970 lto
12944 11965 lto
st
13093 11952 mto
13160 11946 lto
13243 11940 lto
st
13392 11928 mto
13440 11924 lto
13542 11916 lto
st
13691 11905 mto
13720 11903 lto
13841 11895 lto
st
13991 11885 mto
14000 11884 lto
14140 11875 lto
14140 11875 lto
st
14290 11865 mto
14420 11858 lto
14440 11857 lto
st
14590 11848 mto
14700 11842 lto
14739 11840 lto
st
14889 11832 mto
14980 11827 lto
15039 11824 lto
st
15189 11817 mto
15260 11813 lto
15339 11809 lto
st
15488 11802 mto
15540 11800 lto
15638 11795 lto
st
15788 11788 mto
15820 11787 lto
15938 11783 lto
st
16088 11777 mto
16100 11776 lto
16238 11770 lto
st
16388 11765 mto
16520 11760 lto
16538 11759 lto
st
16687 11754 mto
16800 11750 lto
16837 11749 lto
st
16987 11743 mto
17080 11740 lto
17137 11738 lto
st
17287 11734 mto
17360 11731 lto
17437 11729 lto
st
3780 16145 mto
0 255 div 255 255 div 0 255 div setrgbcolor
3880 16145 lto
st
3980 16145 mto
4040 16144 lto
4060 16143 lto
4080 16142 lto
st
4180 16135 mto
4200 16133 lto
4238 16127 lto
4273 16120 lto
4278 16119 lto
st
4373 16088 mto
4403 16075 lto
4434 16059 lto
4463 16043 lto
st
4545 15987 mto
4571 15966 lto
4602 15940 lto
4620 15924 lto
4622 15923 lto
st
4693 15853 mto
4716 15828 lto
4750 15791 lto
4760 15780 lto
4761 15779 lto
st
4825 15703 mto
4833 15693 lto
4872 15644 lto
4887 15624 lto
st
4947 15544 mto
4992 15485 lto
5007 15464 lto
st
5065 15383 mto
5101 15333 lto
5123 15301 lto
st
5181 15219 mto
5238 15137 lto
st
5295 15055 mto
5320 15020 lto
5353 14974 lto
st
5411 14892 mto
5417 14883 lto
5460 14822 lto
5468 14810 lto
st
5527 14730 mto
5535 14719 lto
5586 14649 lto
st
5646 14569 mto
5667 14541 lto
5707 14489 lto
st
5769 14411 mto
5804 14367 lto
5831 14333 lto
st
5895 14255 mto
5942 14199 lto
5959 14179 lto
st
6025 14104 mto
6081 14041 lto
6092 14029 lto
st
6160 13956 mto
6160 13956 lto
6221 13892 lto
6229 13884 lto
st
6300 13813 mto
6300 13813 lto
6362 13752 lto
6371 13743 lto
st
6444 13675 mto
6504 13622 lto
6519 13609 lto
st
6595 13543 mto
6646 13501 lto
6672 13480 lto
st
6750 13417 mto
6788 13388 lto
6830 13357 lto
st
6911 13298 mto
6930 13284 lto
6993 13241 lto
st
7076 13185 mto
7140 13144 lto
7160 13132 lto
st
7246 13079 mto
7280 13059 lto
7332 13029 lto
st
7419 12980 mto
7420 12979 lto
7503 12935 lto
7507 12933 lto
st
7596 12888 mto
7646 12863 lto
7686 12844 lto
st
7777 12801 mto
7790 12795 lto
7840 12773 lto
7868 12761 lto
st
7960 12722 mto
7980 12714 lto
8053 12685 lto
st
8146 12648 mto
8222 12620 lto
8240 12613 lto
st
8334 12580 mto
8367 12569 lto
8400 12558 lto
8429 12549 lto
st
8524 12517 mto
8540 12512 lto
8620 12488 lto
st
8716 12460 mto
8800 12435 lto
8812 12432 lto
st
8908 12406 mto
8946 12396 lto
8960 12392 lto
9005 12381 lto
st
9102 12357 mto
9199 12333 lto
st
9297 12311 mto
9380 12292 lto
9394 12289 lto
st
9492 12269 mto
9520 12263 lto
9590 12249 lto
st
9688 12230 mto
9787 12211 lto
st
9885 12194 mto
9940 12184 lto
9984 12177 lto
st
10082 12160 mto
10181 12143 lto
st
10280 12128 mto
10360 12116 lto
10379 12113 lto
st
10478 12099 mto
10500 12096 lto
10577 12086 lto
st
10676 12072 mto
10775 12059 lto
st
10874 12047 mto
10920 12041 lto
10973 12035 lto
st
11073 12023 mto
11172 12011 lto
st
11271 12000 mto
11340 11993 lto
11371 11990 lto
st
11470 11980 mto
11480 11979 lto
11570 11970 lto
st
11669 11960 mto
11760 11952 lto
11769 11951 lto
st
11869 11943 mto
11900 11940 lto
11968 11934 lto
st
12068 11926 mto
12168 11917 lto
st
12267 11909 mto
12320 11905 lto
12367 11902 lto
st
12467 11894 mto
12566 11887 lto
st
12666 11880 mto
12740 11875 lto
12766 11873 lto
st
12866 11866 mto
12880 11865 lto
12965 11860 lto
st
13065 11853 mto
13160 11848 lto
13165 11848 lto
st
13265 11842 mto
13300 11840 lto
13365 11836 lto
st
13465 11831 mto
13564 11825 lto
st
13664 11820 mto
13720 11817 lto
13764 11814 lto
st
13864 11809 mto
13964 11805 lto
st
14064 11800 mto
14140 11796 lto
14164 11795 lto
st
14264 11791 mto
14280 11790 lto
14363 11786 lto
st
14463 11781 mto
14560 11778 lto
14563 11778 lto
st
14663 11774 mto
14700 11772 lto
14763 11769 lto
st
14863 11765 mto
14963 11762 lto
st
15063 11758 mto
15120 11756 lto
15163 11754 lto
st
15263 11751 mto
15363 11747 lto
st
15463 11744 mto
15540 11741 lto
15563 11740 lto
st
15663 11737 mto
15680 11737 lto
15762 11734 lto
st
15862 11731 mto
15960 11728 lto
15962 11728 lto
st
16062 11725 mto
16100 11724 lto
16162 11722 lto
st
16262 11719 mto
16362 11717 lto
st
16462 11714 mto
16520 11712 lto
16562 11711 lto
st
16662 11708 mto
16762 11706 lto
st
16862 11703 mto
16940 11701 lto
16962 11701 lto
st
17062 11698 mto
17080 11698 lto
17162 11696 lto
st
17262 11694 mto
17360 11692 lto
17362 11692 lto
st
17462 11690 mto
17500 11689 lto
st
3780 14065 mto
0 255 div 0 255 div 0 255 div setrgbcolor
3920 14065 lto
4060 14064 lto
4146 14063 lto
4200 14060 lto
4257 14056 lto
4309 14050 lto
4340 14046 lto
4387 14038 lto
4433 14028 lto
4477 14016 lto
4480 14016 lto
4524 14002 lto
4569 13987 lto
4613 13969 lto
4620 13966 lto
4664 13947 lto
4708 13925 lto
4754 13901 lto
4760 13898 lto
4807 13871 lto
4856 13842 lto
4900 13814 lto
4955 13777 lto
5014 13737 lto
5040 13718 lto
5108 13668 lto
5180 13615 lto
5279 13539 lto
5320 13509 lto
5460 13402 lto
5576 13316 lto
5600 13299 lto
5697 13229 lto
5740 13199 lto
5829 13137 lto
5880 13103 lto
5966 13047 lto
6020 13013 lto
6105 12961 lto
6160 12928 lto
6245 12880 lto
6300 12849 lto
6385 12803 lto
6440 12775 lto
6527 12731 lto
6580 12706 lto
6668 12665 lto
6720 12642 lto
6812 12602 lto
6860 12583 lto
6954 12545 lto
7000 12527 lto
7098 12491 lto
7140 12476 lto
7242 12441 lto
7280 12429 lto
7386 12395 lto
7420 12385 lto
7531 12352 lto
7560 12344 lto
7675 12312 lto
7700 12306 lto
7820 12275 lto
7840 12271 lto
7966 12241 lto
7980 12238 lto
8110 12209 lto
8120 12207 lto
8258 12179 lto
8260 12178 lto
8400 12151 lto
8540 12126 lto
8680 12103 lto
8820 12081 lto
8960 12060 lto
9100 12040 lto
9240 12022 lto
9380 12005 lto
9520 11989 lto
9660 11973 lto
9800 11959 lto
9940 11945 lto
10080 11932 lto
10220 11920 lto
10360 11909 lto
10500 11898 lto
10640 11887 lto
10780 11877 lto
10920 11868 lto
11060 11859 lto
11200 11850 lto
11340 11842 lto
11480 11835 lto
11620 11827 lto
11760 11820 lto
11900 11813 lto
12040 11807 lto
12180 11801 lto
12320 11795 lto
12460 11789 lto
12600 11784 lto
12740 11779 lto
12880 11774 lto
13020 11769 lto
13160 11764 lto
13300 11760 lto
13440 11756 lto
13580 11752 lto
13720 11748 lto
13860 11744 lto
14000 11740 lto
14140 11737 lto
14280 11733 lto
14420 11730 lto
14560 11727 lto
14700 11724 lto
14840 11721 lto
14980 11718 lto
15120 11715 lto
15260 11713 lto
15400 11710 lto
15540 11708 lto
15680 11705 lto
15820 11703 lto
15960 11701 lto
16100 11699 lto
16240 11697 lto
16380 11695 lto
16520 11693 lto
16660 11691 lto
16800 11689 lto
16940 11687 lto
17080 11685 lto
17220 11684 lto
17360 11682 lto
17500 11680 lto
st
255 255 div 0 255 div 0 255 div setrgbcolor
[] 0 60 0 0 10 lsty
13200 20860 mto
14800 20860 lto
st
0 255 div 0 255 div 255 255 div setrgbcolor
[100 100 ] 0 40 0 0 10 lsty
13200 20184 mto
14800 20184 lto
st
0 255 div 0 255 div 0 255 div setrgbcolor
[150 150 ] 0 40 0 0 10 lsty
13200 19508 mto
14800 19508 lto
st
255 255 div 0 255 div 255 255 div setrgbcolor
[450 150 ] 0 40 0 0 10 lsty
13200 18832 mto
14800 18832 lto
st
0 255 div 255 255 div 0 255 div setrgbcolor
[450 150 150 150 ] 0 40 0 0 10 lsty
13200 18156 mto
14800 18156 lto
st
255 255 div 128 255 div 0 255 div setrgbcolor
[450 150 150 150 150 150 ] 0 40 0 0 10 lsty
13200 17480 mto
14800 17480 lto
st
0 255 div 255 255 div 255 255 div setrgbcolor
[450 150 450 150 150 150 ] 0 40 0 0 10 lsty
13200 16804 mto
14800 16804 lto
st
255 255 div 0 255 div 255 255 div setrgbcolor
[150 150 ] 0 40 0 0 10 lsty
13200 16128 mto
14800 16128 lto
st
0 255 div 255 255 div 0 255 div setrgbcolor
[100 100 ] 0 40 0 0 10 lsty
13200 15452 mto
14800 15452 lto
st
64 255 div 64 255 div 64 255 div setrgbcolor
[] 0 40 0 0 10 lsty
13200 14776 mto
14800 14776 lto
st
0 255 div 0 255 div 0 255 div setrgbcolor
12200 23400 mto
0 0 (T) ashow
1800 15400 mto
[4.32014e-14 -705.556 -705.556 -4.32014e-14 0 0] /Helvetica-ISOLatin1 F
0 0 (S/N) ashow
172 0 rmto
[3.0241e-14 -493.889 -493.889 -3.0241e-14 0 0] /Helvetica-ISOLatin1 F
0 0 (spin) ashow
-172 0 rmto
15082 21048 mto
[564.444 -0 -0 -564.444 0 0] /Helvetica-ISOLatin1 F
0 0 (x=0.0) ashow
15082 20372 mto
0 0 (x=0.1) ashow
15082 19696 mto
0 0 (x=0.2) ashow
15082 19020 mto
0 0 (x=0.3) ashow
15082 18344 mto
0 0 (x=0.4) ashow
15082 17668 mto
0 0 (x=0.5) ashow
15082 16992 mto
0 0 (x=0.6) ashow
15082 16316 mto
0 0 (x=0.7) ashow
15082 15640 mto
0 0 (x=0.8) ashow
15082 14964 mto
0 0 (x=0.9) ashow
EndPage
PageRestore
showpage
end
%%Trailer
%%DocumentNeededResources: 
% font /Helvetica-ISOLatin1
%%EOF
