%!PS-Adobe-3.0 EPSF-3.0
%%Creator: GRA2PS 2.03.20
%%Title: Ngraph
%%CreationDate: 4-30-2017 1:40
%%Pages: 1
%%DocumentNeededResources: (atend)
%%BoundingBox: 32 170 501 534
%%EndComments
%
% Ngraph.ps 2.03.20
%
%%BeginProlog
%
/NgraphDict 100 dict def
NgraphDict begin
%
% Procedure Definition
%
/PageSave {/Sobject save def} bind def
/PageRestore {Sobject restore} bind def
/@Paper {
  72 2540 div -72 2540 div scale % 1unit = 0.01mm
  ANGLE rotate
  0 bottom translate                    % origin is (0 bottom)
} bind def
/BeginPage {@Paper gsave} bind def
/EndPage {grestore} bind def
/box {
  moveto
  1 index 0 rlineto
  0 exch rlineto
  neg 0 rlineto
  closepath } bind def
/view {
  mark
  currentfont
  currentmiterlimit
  currentlinejoin
  currentlinecap
  currentlinewidth
  currentdash
  currentgray
  currentrgbcolor
  grestore gsave
  counttomark dup 6 add exch roll
  pop
  5 3 roll
  translate
  1 eq { 0 0 box clip newpath } { pop pop } ifelse
  setrgbcolor
  setgray
  setdash
  setlinewidth
  setlinecap
  setlinejoin
  setmiterlimit
  setfont
 } bind def
/viewc {
  mark
  currentfont
  currentmiterlimit
  currentlinejoin
  currentlinecap
  currentlinewidth
  currentdash
  currentrgbcolor
  currentgray
  grestore gsave
  counttomark dup 6 add exch roll
  pop
  5 3 roll
  translate
  1 eq { 0 0 box clip newpath } { pop pop } ifelse
  setgray
  setrgbcolor
  setdash
  setlinewidth
  setlinecap
  setlinejoin
  setmiterlimit
  setfont
 } bind def
/F { findfont exch makefont setfont } bind def
/lsty {
  setmiterlimit
  setlinejoin
  setlinecap
  setlinewidth
  setdash } bind def
/mto /moveto load def
/rmto /rmoveto load def
/lto /lineto load def
/rlto /rlineto load def
/st /stroke load def
/l { moveto lineto stroke } bind def
/e { 
  gsave
  newpath
  translate
  0 index 1 exch div 5 1 roll
  1 index 1 exch div 6 1 roll
  scale
  0 0 1 5 3 roll exch 100 div exch 100 div arc
  scale
  stroke
  grestore } bind def
/fe {
  gsave
  newpath
  translate
  0 index 1 exch div 5 1 roll
  1 index 1 exch div 6 1 roll
  scale
  0 0 moveto 0 0 1 5 3 roll exch 100 div exch 100 div arc closepath
  scale
  fill 
  grestore } bind def
/ae {
  gsave
  newpath
  translate
  0 index 1 exch div 5 1 roll
  1 index 1 exch div 6 1 roll
  scale
  0 0 1 5 3 roll exch 100 div exch 100 div arc closepath
  scale
  fill
  grestore } bind def
/pix {
  newpath 20 0 360 arc closepath fill } bind def
/rec {
  box stroke } bind def
/bar {
  box fill } bind def
/lines {
  1 sub
  3 1 roll
  moveto
  {lineto} repeat } bind def
/poly {
  1 sub
  3 1 roll
  moveto
  {lineto} repeat closepath } bind def
/rpo { lines stroke } bind def
/dpo { poly stroke } bind def
/fpo { poly fill } bind def
/epo { poly eofill } bind def
/ashowB {
  3 copy 3 copy 3 copy
  gsave BOLDS 0 rmoveto ashow grestore
  gsave 0 BOLDS rmoveto ashow grestore
  gsave BOLDS BOLDS rmoveto ashow grestore
  ashow } bind def
end
%
% ISOLatin1Encoding
%
/NGPLatin1Encoding 256 array def
0 1 255 {NGPLatin1Encoding exch /.notdef put} for
NGPLatin1Encoding
dup 8#101 /A put          dup 8#306 /AE put         dup 8#301 /Aacute put
dup 8#302 /Acircumflex put dup 8#304 /Adieresis put dup 8#300 /Agrave put
dup 8#305 /Aring put      dup 8#303 /Atilde put     dup 8#102 /B put
dup 8#103 /C put          dup 8#307 /Ccedilla put   dup 8#104 /D put
dup 8#105 /E put          dup 8#311 /Eacute put     dup 8#312 /Ecircumflex put
dup 8#313 /Edieresis put  dup 8#310 /Egrave put     dup 8#320 /Eth put
dup 8#106 /F put          dup 8#107 /G put          dup 8#110 /H put
dup 8#111 /I put          dup 8#315 /Iacute put     dup 8#316 /Icircumflex put
dup 8#317 /Idieresis put  dup 8#314 /Igrave put     dup 8#112 /J put
dup 8#113 /K put          dup 8#114 /L put          dup 8#115 /M put
dup 8#116 /N put          dup 8#321 /Ntilde put     dup 8#117 /O put
dup 8#323 /Oacute put     dup 8#324 /Ocircumflex put dup 8#326 /Odieresis put
dup 8#322 /Ograve put     dup 8#330 /Oslash put     dup 8#325 /Otilde put
dup 8#120 /P put          dup 8#121 /Q put          dup 8#122 /R put
dup 8#123 /S put          dup 8#124 /T put          dup 8#336 /Thorn put
dup 8#125 /U put          dup 8#332 /Uacute put     dup 8#333 /Ucircumflex put
dup 8#334 /Udieresis put  dup 8#331 /Ugrave put     dup 8#126 /V put
dup 8#127 /W put          dup 8#130 /X put          dup 8#131 /Y put
dup 8#335 /Yacute put     dup 8#132 /Z put          dup 8#141 /a put
dup 8#341 /aacute put     dup 8#342 /acircumflex put dup 8#264 /acute put
dup 8#344 /adieresis put  dup 8#346 /ae put         dup 8#340 /agrave put
dup 8#046 /ampersand put  dup 8#345 /aring put      dup 8#136 /asciicircum put
dup 8#176 /asciitilde put dup 8#052 /asterisk put   dup 8#100 /at put
dup 8#343 /atilde put     dup 8#142 /b put          dup 8#134 /backslash put
dup 8#174 /bar put        dup 8#173 /braceleft put  dup 8#175 /braceright put
dup 8#133 /bracketleft put dup 8#135 /bracketright put dup 8#246 /brokenbar put
dup 8#143 /c put          dup 8#347 /ccedilla put   dup 8#242 /cent put
dup 8#072 /colon put      dup 8#054 /comma put      dup 8#251 /copyright put
dup 8#244 /currency put   dup 8#144 /d put          dup 8#260 /degree put
dup 8#367 /divide put     dup 8#044 /dollar put     dup 8#145 /e put
dup 8#351 /eacute put     dup 8#352 /ecircumflex put dup 8#353 /edieresis put
dup 8#350 /egrave put     dup 8#070 /eight put      dup 8#075 /equal put
dup 8#360 /eth put        dup 8#041 /exclam put     dup 8#241 /exclamdown put
dup 8#146 /f put          dup 8#065 /five put       dup 8#064 /four put
dup 8#147 /g put          dup 8#337 /germandbls put dup 8#076 /greater put
dup 8#253 /guillemotleft put dup 8#273 /guillemotright put dup 8#150 /h put
dup 8#255 /hyphen put     dup 8#151 /i put          dup 8#355 /iacute put
dup 8#356 /icircumflex put dup 8#357 /idieresis put dup 8#354 /igrave put
dup 8#152 /j put          dup 8#153 /k put          dup 8#154 /l put
dup 8#074 /less put       dup 8#254 /logicalnot put dup 8#155 /m put
dup 8#055 /minus put      dup 8#265 /mu put         dup 8#327 /multiply put
dup 8#156 /n put          dup 8#071 /nine put       dup 8#361 /ntilde put
dup 8#043 /numbersign put dup 8#157 /o put          dup 8#363 /oacute put
dup 8#364 /ocircumflex put dup 8#366 /odieresis put dup 8#362 /ograve put
dup 8#061 /one put        dup 8#275 /onehalf put    dup 8#274 /onequarter put
dup 8#271 /onesuperior put dup 8#252 /ordfeminine put dup 8#272 /ordmasculine put
dup 8#370 /oslash put     dup 8#365 /otilde put     dup 8#160 /p put
dup 8#266 /paragraph put  dup 8#050 /parenleft put  dup 8#051 /parenright put
dup 8#045 /percent put    dup 8#056 /period put     dup 8#267 /periodcentered put
dup 8#053 /plus put       dup 8#261 /plusminus put  dup 8#161 /q put
dup 8#077 /question put   dup 8#277 /questiondown put dup 8#042 /quotedbl put
dup 8#140 /quoteleft put  dup 8#047 /quoteright put dup 8#162 /r put
dup 8#256 /registered put dup 8#163 /s put          dup 8#247 /section put
dup 8#073 /semicolon put  dup 8#067 /seven put      dup 8#066 /six put
dup 8#057 /slash put      dup 8#040 /space put      dup 8#243 /sterling put
dup 8#164 /t put          dup 8#376 /thorn put      dup 8#063 /three put
dup 8#276 /threequarters put dup 8#263 /threesuperior put dup 8#062 /two put
dup 8#262 /twosuperior put dup 8#165 /u put         dup 8#372 /uacute put
dup 8#373 /ucircumflex put dup 8#374 /udieresis put dup 8#371 /ugrave put
dup 8#137 /underscore put dup 8#166 /v put          dup 8#167 /w put
dup 8#170 /x put          dup 8#171 /y put          dup 8#375 /yacute put
dup 8#377 /ydieresis put  dup 8#245 /yen put        dup 8#172 /z put
dup 8#060 /zero put       dup 8#250 /dieresis put   dup 8#257 /macron put
dup 8#270 /cedilla put
% for ISOLatin1Encoding
%dup 8#220 /dotlessi put   dup 8#221 /grave put      dup 8#222 /acute put
%dup 8#223 /circumflex put dup 8#224 /tilde put      dup 8#225 /macron put
%dup 8#226 /breve put      dup 8#227 /dotaccent put  dup 8#230 /dieresis put
%dup 8#232 /ring put       dup 8#233 /cedilla put    dup 8#235 /hungarumlaut put
%dup 8#236 /ogonek put     dup 8#237 /caron put
% for Windows
dup 8#200 /colonmonetary put dup 8#202 /comma put   dup 8#203 /florin put
dup 8#204 /quotedblbase put dup 8#205 /ellipsis put dup 8#206 /dagger put
dup 8#207 /daggerdbl put  dup 8#210 /circumflex put dup 8#211 /perthousand put
dup 8#212 /Scaron put    dup 8#213 /guilsinglleft put dup 8#214 /OE put
dup 8#221 /quoteleft put dup 8#222 /quoteright put   dup 8#223 /quotedblleft put
dup 8#224 /quotedblright put dup 8#225 /bullet put dup 8#226 /hyphen put
dup 8#227 /emdash put  dup 8#230 /hungarumlaut put dup 8#231 /trademark put
dup 8#232 /scaron put  dup 8#233 /guilsinglright put dup 8#234 /oe put
dup 8#237 /Ydieresis put
pop
/ReEncode {
  findfont
  dup length dict begin
    {1 index /FID ne {def} {pop pop} ifelse} forall
    /Encoding NGPLatin1Encoding def
    currentdict
  end
  definefont
  pop
} bind def
/Times-Roman-ISOLatin1 /Times-Roman ReEncode
/Times-Bold-ISOLatin1 /Times-Bold ReEncode
/Times-Italic-ISOLatin1 /Times-Italic ReEncode
/Times-BoldItalic-ISOLatin1 /Times-BoldItalic ReEncode
/Helvetica-ISOLatin1 /Helvetica ReEncode
/Helvetica-Bold-ISOLatin1 /Helvetica-Bold ReEncode
/Helvetica-Oblique-ISOLatin1 /Helvetica-Oblique ReEncode
/Helvetica-BoldOblique-ISOLatin1 /Helvetica-BoldOblique ReEncode
/Courier-ISOLatin1 /Courier ReEncode
/Courier-Bold-ISOLatin1 /Courier-Bold ReEncode
/Courier-Oblique-ISOLatin1 /Courier-Oblique ReEncode
/Courier-BoldOblique-ISOLatin1 /Courier-BoldOblique ReEncode
%
%%EndProlog
%%Page: Figure 1
%%BeginPageSetup
/ANGLE 0 def
/bottom -29700 def
NgraphDict begin
PageSave
BeginPage
%%EndPageSetup
0 0 21000 29700 1 viewc
0 255 div 0 255 div 0 255 div setrgbcolor
[] 0 40 2 0 10 lsty
3500 22000 17500 22000 l
[] 0 40 0 0 10 lsty
3500 22000 3500 21700 l
4900 22000 4900 21900 l
6300 22000 6300 21800 l
7700 22000 7700 21900 l
9100 22000 9100 21800 l
10500 22000 10500 21900 l
11900 22000 11900 21800 l
13300 22000 13300 21900 l
14700 22000 14700 21800 l
16100 22000 16100 21900 l
17500 22000 17500 21800 l
3304 22738 mto
%IncludeResource: font /Helvetica-ISOLatin1
[705.556 -0 -0 -705.556 0 0] /Helvetica-ISOLatin1 F
0 0 (0) ashow
8904 22738 mto
0 0 (2) ashow
14504 22738 mto
0 0 (4) ashow
[] 0 40 2 0 10 lsty
3500 22000 3500 11000 l
[] 0 40 0 0 10 lsty
3500 22000 3800 22000 l
3500 20472 3700 20472 l
3500 18944 3700 18944 l
3500 17416 3700 17416 l
3500 15888 3700 15888 l
3500 14361 3700 14361 l
3500 12833 3700 12833 l
3500 11305 3700 11305 l
3008 22244 mto
0 0 (0) ashow
2420 19188 mto
0 0 (0.2) ashow
2420 16132 mto
0 0 (0.4) ashow
2420 13077 mto
0 0 (0.6) ashow
[] 0 40 2 0 10 lsty
3500 11000 17500 11000 l
[] 0 40 0 0 10 lsty
3500 11000 3500 11300 l
4900 11000 4900 11100 l
6300 11000 6300 11200 l
7700 11000 7700 11100 l
9100 11000 9100 11200 l
10500 11000 10500 11100 l
11900 11000 11900 11200 l
13300 11000 13300 11100 l
14700 11000 14700 11200 l
16100 11000 16100 11100 l
17500 11000 17500 11200 l
[] 0 40 2 0 10 lsty
17500 22000 17500 11000 l
[] 0 40 0 0 10 lsty
17500 22000 17200 21999 l
17500 20472 17300 20471 l
17500 18944 17300 18943 l
17500 17416 17300 17415 l
17500 15888 17300 15887 l
17500 14361 17300 14360 l
17500 12833 17300 12832 l
17500 11305 17300 11304 l
[] 0 60 0 0 10 lsty
3780 14333 mto
255 255 div 0 255 div 0 255 div setrgbcolor
3920 14333 lto
4060 14333 lto
4200 14333 lto
4340 14333 lto
4480 14333 lto
4620 14332 lto
4760 14330 lto
4882 14327 lto
4900 14326 lto
5003 14321 lto
5040 14318 lto
5133 14311 lto
5180 14306 lto
5268 14296 lto
5320 14289 lto
5407 14276 lto
5460 14267 lto
5546 14251 lto
5600 14240 lto
5689 14220 lto
5740 14208 lto
5832 14185 lto
5880 14172 lto
5977 14144 lto
6020 14131 lto
6125 14099 lto
6160 14088 lto
6272 14050 lto
6300 14041 lto
6423 13998 lto
6440 13992 lto
6578 13941 lto
6580 13940 lto
6720 13888 lto
6860 13834 lto
7000 13780 lto
7140 13726 lto
7280 13671 lto
7420 13617 lto
7560 13563 lto
7700 13510 lto
7840 13457 lto
7980 13405 lto
8120 13355 lto
8260 13305 lto
8400 13256 lto
8540 13209 lto
8680 13163 lto
8820 13118 lto
8960 13074 lto
9100 13031 lto
9240 12990 lto
9380 12950 lto
9520 12911 lto
9660 12873 lto
9800 12836 lto
9940 12801 lto
10080 12766 lto
10220 12733 lto
10360 12700 lto
10500 12669 lto
10640 12639 lto
10780 12609 lto
10920 12581 lto
11060 12553 lto
11200 12527 lto
11340 12501 lto
11480 12476 lto
11620 12451 lto
11760 12428 lto
11900 12405 lto
12040 12383 lto
12180 12362 lto
12320 12341 lto
12460 12321 lto
12600 12301 lto
12740 12282 lto
12880 12264 lto
13020 12246 lto
13160 12229 lto
13300 12212 lto
13440 12196 lto
13580 12180 lto
13720 12165 lto
13860 12150 lto
14000 12135 lto
14140 12121 lto
14280 12107 lto
14420 12094 lto
14560 12081 lto
14700 12069 lto
14840 12056 lto
14980 12045 lto
15120 12033 lto
15260 12022 lto
15400 12011 lto
15540 12000 lto
15680 11990 lto
15820 11980 lto
15960 11970 lto
16100 11960 lto
16240 11951 lto
16380 11942 lto
16520 11933 lto
16660 11924 lto
16800 11916 lto
16940 11907 lto
17080 11899 lto
17220 11891 lto
17360 11884 lto
17500 11876 lto
st
[] 0 40 0 0 10 lsty
3780 15687 mto
0 255 div 0 255 div 255 255 div setrgbcolor
3880 15687 lto
st
3980 15687 mto
4060 15687 lto
4080 15687 lto
st
4180 15683 mto
4200 15682 lto
4256 15677 lto
4280 15674 lto
st
4378 15659 mto
4388 15657 lto
4436 15647 lto
4476 15636 lto
st
4571 15606 mto
4573 15605 lto
4620 15587 lto
4664 15568 lto
st
4754 15526 mto
4760 15523 lto
4813 15495 lto
4842 15479 lto
st
4929 15429 mto
4962 15409 lto
5014 15376 lto
st
5098 15322 mto
5109 15315 lto
5180 15266 lto
5181 15266 lto
st
5263 15209 mto
5268 15205 lto
5320 15168 lto
5344 15151 lto
st
5425 15092 mto
5427 15091 lto
5460 15067 lto
5506 15033 lto
st
5587 14974 mto
5600 14964 lto
5667 14915 lto
st
5748 14855 mto
5828 14796 lto
st
5909 14737 mto
5990 14678 lto
st
6071 14620 mto
6152 14562 lto
st
6234 14504 mto
6294 14462 lto
6300 14458 lto
6316 14447 lto
st
6399 14391 mto
6428 14371 lto
6440 14363 lto
6482 14335 lto
st
6565 14279 mto
6565 14279 lto
6580 14269 lto
6649 14225 lto
st
6733 14171 mto
6818 14118 lto
st
6903 14065 mto
6979 14018 lto
6988 14013 lto
st
7074 13962 mto
7118 13936 lto
7140 13923 lto
7160 13911 lto
st
7247 13862 mto
7259 13855 lto
7280 13843 lto
7335 13813 lto
st
7423 13766 mto
7511 13718 lto
st
7600 13673 mto
7680 13631 lto
7688 13627 lto
st
7778 13582 mto
7823 13560 lto
7840 13552 lto
7868 13539 lto
st
7958 13496 mto
7962 13494 lto
7980 13486 lto
8049 13455 lto
st
8140 13413 mto
8232 13373 lto
st
8324 13334 mto
8390 13306 lto
8400 13302 lto
8416 13295 lto
st
8509 13258 mto
8530 13249 lto
8540 13245 lto
8602 13221 lto
st
8695 13184 mto
8789 13149 lto
st
8883 13115 mto
8960 13087 lto
8960 13087 lto
8977 13081 lto
st
9071 13049 mto
9099 13039 lto
9100 13038 lto
9166 13016 lto
st
9261 12985 mto
9356 12955 lto
st
9451 12925 mto
9520 12903 lto
9547 12895 lto
st
9643 12867 mto
9660 12862 lto
9739 12839 lto
st
9835 12812 mto
9931 12785 lto
st
10028 12760 mto
10080 12746 lto
10125 12734 lto
st
10222 12710 mto
10319 12686 lto
st
10416 12663 mto
10500 12643 lto
10514 12640 lto
st
10611 12618 mto
10640 12611 lto
10709 12596 lto
st
10806 12574 mto
10904 12553 lto
st
11002 12533 mto
11060 12521 lto
11100 12513 lto
st
11198 12494 mto
11200 12494 lto
11296 12475 lto
st
11395 12457 mto
11480 12441 lto
11493 12439 lto
st
11591 12421 mto
11620 12416 lto
11690 12404 lto
st
11789 12388 mto
11887 12371 lto
st
11986 12355 mto
12040 12347 lto
12085 12340 lto
st
12184 12324 mto
12282 12310 lto
st
12381 12295 mto
12460 12284 lto
12480 12281 lto
st
12580 12268 mto
12600 12265 lto
12679 12254 lto
st
12778 12241 mto
12877 12227 lto
st
12976 12215 mto
13020 12210 lto
13075 12203 lto
st
13175 12191 mto
13274 12179 lto
st
13373 12168 mto
13440 12160 lto
13473 12156 lto
st
13572 12145 mto
13580 12144 lto
13671 12134 lto
st
13771 12124 mto
13860 12115 lto
13870 12114 lto
st
13970 12103 mto
14000 12100 lto
14069 12094 lto
st
14169 12084 mto
14268 12074 lto
st
14368 12065 mto
14420 12060 lto
14467 12056 lto
st
14567 12047 mto
14667 12038 lto
st
14766 12029 mto
14840 12023 lto
14866 12021 lto
st
14966 12013 mto
14980 12012 lto
15065 12005 lto
st
15165 11997 mto
15260 11990 lto
15265 11990 lto
st
15364 11982 mto
15400 11979 lto
15464 11974 lto
st
15564 11967 mto
15664 11960 lto
st
15763 11953 mto
15820 11949 lto
15863 11946 lto
st
15963 11940 mto
16063 11933 lto
st
16162 11926 mto
16240 11921 lto
16262 11920 lto
st
16362 11914 mto
16380 11913 lto
16462 11908 lto
st
16562 11902 mto
16660 11896 lto
16662 11896 lto
st
16761 11890 mto
16800 11888 lto
16861 11885 lto
st
16961 11879 mto
17061 11873 lto
st
17161 11868 mto
17220 11865 lto
17261 11863 lto
st
17360 11857 mto
17460 11852 lto
st
3780 16661 mto
64 255 div 64 255 div 64 255 div setrgbcolor
3920 16661 lto
3930 16661 lto
st
4080 16658 mto
4119 16657 lto
4168 16653 lto
4200 16650 lto
4229 16646 lto
st
4375 16610 mto
4376 16610 lto
4413 16596 lto
4449 16580 lto
4480 16565 lto
4511 16548 lto
st
4637 16467 mto
4658 16452 lto
4696 16422 lto
4736 16389 lto
4754 16373 lto
st
4864 16271 mto
4891 16246 lto
4900 16237 lto
4949 16187 lto
4970 16165 lto
st
5072 16055 mto
5101 16024 lto
5169 15947 lto
5172 15944 lto
st
5272 15831 mto
5320 15776 lto
5370 15718 lto
st
5468 15605 mto
5567 15492 lto
st
5666 15379 mto
5703 15338 lto
5740 15297 lto
5767 15268 lto
st
5868 15157 mto
5880 15145 lto
5967 15052 lto
5971 15048 lto
st
6075 14940 mto
6103 14911 lto
6160 14855 lto
6181 14834 lto
st
6288 14729 mto
6300 14718 lto
6380 14642 lto
6397 14626 lto
st
6509 14526 mto
6522 14514 lto
6580 14463 lto
6622 14427 lto
st
6737 14330 mto
6803 14276 lto
6853 14236 lto
st
6972 14144 mto
7000 14123 lto
7087 14058 lto
7092 14055 lto
st
7214 13968 mto
7228 13958 lto
7280 13922 lto
7338 13883 lto
st
7464 13801 mto
7513 13770 lto
7560 13741 lto
7591 13722 lto
st
7720 13645 mto
7798 13600 lto
7840 13577 lto
7850 13571 lto
st
7982 13499 mto
8084 13446 lto
8115 13430 lto
st
8250 13364 mto
8260 13359 lto
8371 13306 lto
8385 13300 lto
st
8522 13238 mto
8540 13230 lto
8656 13180 lto
8660 13178 lto
st
8798 13121 mto
8820 13112 lto
8938 13066 lto
st
9078 13013 mto
9086 13010 lto
9100 13005 lto
9219 12962 lto
st
9361 12914 mto
9372 12910 lto
9380 12907 lto
9504 12867 lto
st
9647 12822 mto
9658 12819 lto
9660 12818 lto
9790 12779 lto
st
9934 12738 mto
9940 12736 lto
10079 12698 lto
st
10224 12660 mto
10360 12626 lto
10370 12624 lto
st
10516 12588 mto
10640 12559 lto
10662 12554 lto
st
10808 12522 mto
10920 12498 lto
10955 12491 lto
st
11102 12461 mto
11200 12442 lto
11249 12433 lto
st
11397 12405 mto
11480 12389 lto
11544 12378 lto
st
11692 12353 mto
11760 12341 lto
11840 12328 lto
st
11988 12304 mto
12040 12296 lto
12136 12282 lto
st
12285 12259 mto
12320 12254 lto
12433 12238 lto
st
12582 12217 mto
12600 12215 lto
12731 12198 lto
st
12879 12179 mto
12880 12179 lto
13020 12162 lto
13028 12161 lto
st
13177 12143 mto
13300 12129 lto
13326 12126 lto
st
13475 12109 mto
13580 12098 lto
13624 12094 lto
st
13774 12079 mto
13860 12070 lto
13923 12064 lto
st
14072 12049 mto
14140 12043 lto
14222 12035 lto
st
14371 12022 mto
14420 12017 lto
14520 12008 lto
st
14670 11996 mto
14700 11994 lto
14819 11984 lto
st
14969 11972 mto
14980 11971 lto
15118 11961 lto
st
15268 11949 mto
15400 11940 lto
15418 11939 lto
st
15567 11928 mto
15680 11921 lto
15717 11919 lto
st
15867 11909 mto
15960 11903 lto
16016 11899 lto
st
16166 11890 mto
16240 11885 lto
16316 11881 lto
st
16465 11872 mto
16520 11869 lto
16615 11864 lto
st
16765 11856 mto
16800 11854 lto
16915 11847 lto
st
17065 11840 mto
17080 11839 lto
17214 11832 lto
st
17364 11825 mto
17500 11818 lto
st
3780 17270 mto
255 255 div 0 255 div 255 255 div setrgbcolor
3920 17270 lto
4029 17269 lto
4060 17268 lto
4112 17265 lto
4155 17261 lto
4193 17256 lto
4200 17255 lto
4229 17250 lto
st
4371 17204 mto
4372 17204 lto
4404 17188 lto
4436 17171 lto
4468 17151 lto
4480 17143 lto
4511 17121 lto
4543 17097 lto
4575 17071 lto
4608 17043 lto
4620 17031 lto
4653 17000 lto
4687 16965 lto
4722 16928 lto
4722 16928 lto
st
4821 16815 mto
4835 16798 lto
4875 16748 lto
4900 16716 lto
4945 16658 lto
4993 16594 lto
5040 16529 lto
5092 16456 lto
st
5178 16333 mto
5180 16330 lto
5264 16210 lto
5320 16127 lto
5434 15962 lto
st
5519 15839 mto
5559 15782 lto
5600 15724 lto
5680 15613 lto
5740 15530 lto
5781 15474 lto
st
5871 15354 mto
5880 15342 lto
5950 15252 lto
6018 15165 lto
6020 15163 lto
6088 15079 lto
6151 15001 lto
st
6249 14887 mto
6294 14835 lto
6300 14829 lto
6367 14755 lto
6434 14682 lto
6440 14675 lto
6508 14604 lto
6554 14556 lto
st
6660 14451 mto
6720 14392 lto
6791 14325 lto
6860 14262 lto
6932 14199 lto
6992 14147 lto
st
7107 14051 mto
7140 14024 lto
7216 13964 lto
7280 13916 lto
7359 13856 lto
7420 13813 lto
7466 13780 lto
st
7590 13696 mto
7644 13660 lto
7700 13624 lto
7787 13569 lto
7840 13537 lto
7930 13484 lto
7973 13459 lto
st
8104 13387 mto
8120 13378 lto
8217 13327 lto
8260 13305 lto
8359 13255 lto
8400 13235 lto
8503 13186 lto
8506 13185 lto
st
8643 13123 mto
8647 13121 lto
8680 13107 lto
8789 13060 lto
8820 13047 lto
8935 13001 lto
8960 12991 lto
9060 12953 lto
st
9200 12901 mto
9221 12893 lto
9240 12886 lto
9366 12842 lto
9380 12838 lto
9507 12796 lto
9520 12792 lto
9627 12758 lto
st
9770 12715 mto
9796 12707 lto
9800 12705 lto
9940 12665 lto
10080 12627 lto
10204 12595 lto
st
10350 12559 mto
10360 12556 lto
10500 12522 lto
10640 12490 lto
10780 12459 lto
10788 12457 lto
st
10935 12427 mto
11060 12402 lto
11200 12375 lto
11340 12349 lto
11377 12342 lto
st
11525 12316 mto
11620 12300 lto
11760 12277 lto
11900 12255 lto
11969 12245 lto
st
12117 12223 mto
12180 12214 lto
12320 12194 lto
12460 12175 lto
12563 12162 lto
st
12712 12143 mto
12740 12139 lto
12880 12122 lto
13020 12106 lto
13159 12090 lto
st
13308 12074 mto
13440 12060 lto
13580 12046 lto
13720 12032 lto
13756 12029 lto
st
13905 12015 mto
14000 12006 lto
14140 11993 lto
14280 11981 lto
14353 11975 lto
st
14503 11963 mto
14560 11958 lto
14700 11947 lto
14840 11937 lto
14951 11928 lto
st
15101 11917 mto
15120 11916 lto
15260 11907 lto
15400 11897 lto
15540 11888 lto
15550 11887 lto
st
15700 11878 mto
15820 11871 lto
15960 11862 lto
16100 11854 lto
16149 11852 lto
st
16299 11844 mto
16380 11839 lto
16520 11831 lto
16660 11824 lto
16748 11820 lto
st
16898 11812 mto
16940 11810 lto
17080 11804 lto
17220 11797 lto
17347 11792 lto
st
17497 11785 mto
17500 11785 lto
st
3780 17530 mto
0 255 div 255 255 div 0 255 div setrgbcolor
3920 17530 lto
4022 17529 lto
4060 17528 lto
4108 17525 lto
4149 17521 lto
4185 17516 lto
4200 17514 lto
4229 17508 lto
st
4369 17456 mto
4370 17456 lto
4400 17440 lto
4430 17421 lto
4459 17401 lto
4480 17386 lto
4494 17374 lto
st
4605 17273 mto
4620 17258 lto
4651 17224 lto
4682 17188 lto
4715 17149 lto
4748 17107 lto
4760 17092 lto
4795 17046 lto
4832 16996 lto
4870 16942 lto
4884 16921 lto
st
4968 16796 mto
4987 16767 lto
5036 16692 lto
5040 16685 lto
5049 16671 lto
st
5129 16544 mto
5154 16503 lto
5180 16460 lto
5260 16330 lto
5320 16231 lto
5364 16160 lto
st
5442 16032 mto
5446 16026 lto
5460 16003 lto
5521 15904 lto
st
5601 15777 mto
5671 15669 lto
5738 15567 lto
5740 15563 lto
5805 15466 lto
5849 15402 lto
st
5934 15278 mto
5942 15266 lto
6004 15180 lto
6020 15158 lto
6021 15156 lto
st
6111 15036 mto
6142 14994 lto
6160 14971 lto
6220 14893 lto
6281 14817 lto
6300 14794 lto
6361 14720 lto
6391 14684 lto
st
6490 14571 mto
6502 14557 lto
6565 14488 lto
6580 14471 lto
6590 14460 lto
st
6694 14351 mto
6708 14337 lto
6720 14325 lto
6785 14260 lto
6851 14196 lto
6860 14187 lto
6927 14124 lto
6995 14062 lto
7000 14058 lto
7019 14041 lto
st
7133 13942 mto
7139 13937 lto
7140 13937 lto
7212 13877 lto
7249 13848 lto
st
7367 13756 mto
7420 13716 lto
7497 13661 lto
7560 13616 lto
7640 13562 lto
7700 13522 lto
7736 13499 lto
st
7864 13420 mto
7926 13382 lto
7980 13350 lto
7993 13343 lto
st
8124 13270 mto
8213 13223 lto
8260 13198 lto
8355 13150 lto
8400 13128 lto
8500 13081 lto
8526 13069 lto
st
8663 13008 mto
8680 13000 lto
8787 12955 lto
8801 12949 lto
st
8941 12893 mto
8960 12886 lto
9074 12843 lto
9100 12833 lto
9219 12791 lto
9240 12783 lto
9362 12742 lto
9364 12741 lto
st
9507 12695 mto
9520 12691 lto
9650 12652 lto
st
9794 12610 mto
9800 12608 lto
9940 12569 lto
10080 12532 lto
10220 12497 lto
10229 12495 lto
st
10375 12460 mto
10500 12432 lto
10522 12427 lto
st
10668 12395 mto
10780 12372 lto
10920 12344 lto
11060 12318 lto
11110 12309 lto
st
11257 12282 mto
11340 12268 lto
11405 12257 lto
st
11553 12232 mto
11620 12222 lto
11760 12200 lto
11900 12180 lto
11998 12166 lto
st
12147 12145 mto
12180 12141 lto
12296 12126 lto
st
12444 12107 mto
12460 12105 lto
12600 12088 lto
12740 12072 lto
12880 12056 lto
12891 12055 lto
st
13041 12039 mto
13160 12026 lto
13190 12023 lto
st
13339 12008 mto
13440 11999 lto
13580 11985 lto
13720 11973 lto
13787 11967 lto
st
13937 11954 mto
14000 11949 lto
14086 11942 lto
st
14236 11929 mto
14280 11926 lto
14420 11916 lto
14560 11905 lto
14684 11896 lto
st
14834 11886 mto
14840 11886 lto
14980 11876 lto
14984 11876 lto
st
15133 11866 mto
15260 11858 lto
15400 11850 lto
15540 11842 lto
15582 11840 lto
st
15732 11831 mto
15820 11826 lto
15882 11822 lto
st
16032 11814 mto
16100 11811 lto
16240 11804 lto
16380 11797 lto
16481 11792 lto
st
16631 11785 mto
16660 11784 lto
16781 11778 lto
st
16931 11771 mto
16940 11771 lto
17080 11765 lto
17220 11759 lto
17360 11754 lto
17380 11753 lto
st
3780 17388 mto
255 255 div 128 255 div 0 255 div setrgbcolor
3920 17388 lto
4021 17387 lto
4060 17386 lto
4108 17383 lto
4148 17379 lto
4184 17374 lto
4200 17372 lto
4228 17365 lto
st
4369 17313 mto
4369 17313 lto
4399 17296 lto
4428 17278 lto
4457 17257 lto
4480 17240 lto
4493 17229 lto
st
4602 17127 mto
4620 17107 lto
4651 17073 lto
4682 17036 lto
4700 17013 lto
st
4791 16894 mto
4795 16889 lto
4831 16839 lto
4868 16784 lto
4900 16736 lto
4941 16673 lto
4985 16604 lto
5033 16528 lto
5039 16518 lto
st
5117 16390 mto
5157 16323 lto
5180 16285 lto
5194 16262 lto
st
5270 16133 mto
5271 16131 lto
5320 16050 lto
5347 16004 lto
st
5424 15875 mto
5437 15854 lto
5460 15816 lto
5538 15689 lto
5600 15588 lto
5660 15492 lto
st
5742 15366 mto
5802 15275 lto
5825 15241 lto
st
5909 15117 mto
5939 15073 lto
5995 14994 lto
st
6083 14873 mto
6138 14801 lto
6160 14772 lto
6219 14696 lto
6278 14622 lto
6300 14595 lto
6360 14523 lto
6362 14520 lto
st
6460 14406 mto
6501 14361 lto
6561 14295 lto
st
6664 14186 mto
6704 14145 lto
6720 14129 lto
6770 14080 lto
st
6878 13976 mto
6925 13933 lto
6992 13874 lto
7000 13867 lto
7068 13808 lto
7137 13751 lto
7140 13748 lto
7210 13692 lto
7220 13684 lto
st
7340 13593 mto
7353 13583 lto
7420 13534 lto
7461 13505 lto
st
7585 13421 mto
7639 13386 lto
7700 13347 lto
7711 13340 lto
st
7840 13262 mto
7840 13262 lto
7925 13213 lto
7980 13182 lto
8069 13134 lto
8120 13108 lto
8211 13061 lto
8236 13049 lto
st
8371 12984 mto
8400 12971 lto
8499 12927 lto
8508 12923 lto
st
8646 12864 mto
8680 12850 lto
8785 12809 lto
st
8926 12755 mto
8932 12753 lto
8960 12743 lto
9075 12703 lto
9100 12694 lto
9221 12653 lto
9240 12647 lto
9352 12612 lto
st
9496 12569 mto
9511 12564 lto
9520 12561 lto
9640 12527 lto
st
9785 12489 mto
9798 12485 lto
9800 12484 lto
9930 12451 lto
st
10076 12416 mto
10080 12415 lto
10220 12382 lto
10360 12352 lto
10500 12322 lto
10515 12319 lto
st
10662 12291 mto
10780 12268 lto
10810 12263 lto
st
10957 12236 mto
11060 12218 lto
11105 12211 lto
st
11253 12187 mto
11340 12173 lto
11480 12152 lto
11620 12132 lto
11698 12121 lto
st
11847 12101 mto
11900 12094 lto
11996 12082 lto
st
12145 12063 mto
12180 12059 lto
12294 12045 lto
st
12443 12028 mto
12460 12026 lto
12600 12011 lto
12740 11996 lto
12880 11982 lto
12890 11981 lto
st
13040 11967 mto
13160 11956 lto
13189 11953 lto
st
13338 11940 mto
13440 11931 lto
13488 11927 lto
st
13637 11915 mto
13720 11908 lto
13860 11897 lto
14000 11887 lto
14086 11881 lto
st
14236 11870 mto
14280 11867 lto
14385 11860 lto
st
14535 11851 mto
14560 11849 lto
14685 11841 lto
st
14834 11831 mto
14840 11831 lto
14980 11823 lto
15120 11815 lto
15260 11807 lto
15284 11806 lto
st
15433 11798 mto
15540 11792 lto
15583 11790 lto
st
15733 11783 mto
15820 11779 lto
15883 11776 lto
st
16033 11768 mto
16100 11765 lto
16240 11759 lto
16380 11753 lto
16482 11749 lto
st
16632 11742 mto
16660 11741 lto
16782 11737 lto
st
16932 11731 mto
16940 11731 lto
17080 11725 lto
17082 11725 lto
st
17232 11720 mto
17360 11715 lto
17500 11710 lto
st
3780 16914 mto
0 255 div 255 255 div 255 255 div setrgbcolor
3920 16914 lto
4025 16913 lto
4060 16912 lto
4109 16909 lto
4151 16905 lto
4188 16900 lto
4200 16898 lto
4229 16892 lto
st
4370 16843 mto
4370 16843 lto
4399 16827 lto
4429 16809 lto
4458 16789 lto
4480 16774 lto
4509 16751 lto
4538 16727 lto
4567 16700 lto
4597 16670 lto
4620 16647 lto
4651 16614 lto
4683 16577 lto
4707 16549 lto
st
4799 16431 mto
4832 16388 lto
4870 16334 lto
4887 16310 lto
st
4971 16185 mto
4988 16160 lto
5037 16084 lto
5040 16079 lto
5099 15987 lto
5166 15881 lto
5180 15858 lto
5213 15806 lto
st
5292 15679 mto
5320 15634 lto
5429 15460 lto
5460 15411 lto
5532 15298 lto
st
5614 15172 mto
5665 15096 lto
5698 15048 lto
st
5783 14924 mto
5801 14898 lto
5862 14813 lto
5880 14787 lto
5940 14705 lto
6000 14626 lto
6020 14599 lto
6049 14562 lto
st
6142 14444 mto
6160 14423 lto
6219 14351 lto
6278 14282 lto
6300 14257 lto
6359 14190 lto
6419 14125 lto
6438 14105 lto
st
6542 13997 mto
6563 13975 lto
6580 13958 lto
6643 13896 lto
6648 13891 lto
st
6758 13789 mto
6785 13764 lto
6851 13706 lto
6860 13697 lto
6927 13641 lto
6994 13585 lto
7000 13580 lto
7069 13526 lto
7103 13500 lto
st
7223 13410 mto
7280 13370 lto
7355 13319 lto
7420 13275 lto
7498 13226 lto
7560 13187 lto
7599 13164 lto
st
7729 13089 mto
7784 13058 lto
7840 13028 lto
7861 13017 lto
st
7995 12949 mto
8071 12911 lto
8120 12888 lto
8215 12845 lto
8260 12825 lto
8359 12783 lto
8400 12766 lto
8405 12764 lto
st
8544 12708 mto
8648 12669 lto
8680 12658 lto
8791 12618 lto
8820 12608 lto
8936 12570 lto
8960 12562 lto
8969 12559 lto
st
9112 12515 mto
9226 12481 lto
9240 12477 lto
9256 12473 lto
st
9400 12433 mto
9517 12402 lto
9520 12401 lto
9657 12367 lto
9660 12366 lto
9800 12333 lto
9837 12325 lto
st
9984 12293 mto
10080 12272 lto
10220 12244 lto
10360 12218 lto
10425 12206 lto
st
10573 12180 mto
10640 12168 lto
10721 12155 lto
st
10869 12131 mto
10920 12123 lto
11060 12102 lto
11200 12082 lto
11314 12066 lto
st
11463 12047 mto
11480 12045 lto
11620 12027 lto
11760 12010 lto
11900 11994 lto
11910 11993 lto
st
12059 11977 mto
12180 11964 lto
12208 11961 lto
st
12357 11947 mto
12460 11937 lto
12600 11924 lto
12740 11911 lto
12805 11905 lto
st
12955 11893 mto
13020 11888 lto
13160 11877 lto
13300 11866 lto
13404 11859 lto
st
13553 11848 mto
13580 11846 lto
13703 11837 lto
st
13853 11827 mto
13860 11827 lto
14000 11818 lto
14140 11810 lto
14280 11802 lto
14302 11801 lto
st
14451 11792 mto
14560 11786 lto
14700 11779 lto
14840 11771 lto
14901 11768 lto
st
15051 11761 mto
15120 11758 lto
15200 11754 lto
st
15350 11747 mto
15400 11745 lto
15540 11739 lto
15680 11733 lto
15800 11728 lto
st
15950 11722 mto
15960 11722 lto
16100 11716 lto
16240 11711 lto
16380 11706 lto
16399 11705 lto
st
16549 11700 mto
16660 11696 lto
16699 11695 lto
st
16849 11690 mto
16940 11687 lto
17080 11683 lto
17220 11678 lto
17299 11676 lto
st
17449 11671 mto
17500 11670 lto
st
3780 16111 mto
255 255 div 0 255 div 255 255 div setrgbcolor
3920 16111 lto
3930 16111 lto
st
4080 16108 mto
4114 16107 lto
4159 16103 lto
4199 16099 lto
4200 16098 lto
4229 16093 lto
st
4372 16051 mto
4403 16036 lto
4435 16020 lto
4466 16002 lto
4480 15993 lto
4503 15977 lto
st
4620 15883 mto
4620 15883 lto
4653 15852 lto
4686 15819 lto
4721 15783 lto
4726 15778 lto
st
4824 15665 mto
4836 15651 lto
4877 15600 lto
4900 15571 lto
4918 15548 lto
st
5009 15428 mto
5040 15386 lto
5097 15307 lto
st
5185 15185 mto
5272 15063 lto
st
5359 14941 mto
5431 14841 lto
5447 14819 lto
st
5536 14698 mto
5541 14691 lto
5600 14612 lto
5626 14578 lto
st
5717 14459 mto
5735 14436 lto
5740 14430 lto
5804 14349 lto
5810 14342 lto
st
5906 14226 mto
5943 14183 lto
6004 14113 lto
st
6104 14001 mto
6144 13957 lto
6160 13941 lto
6207 13892 lto
st
6313 13786 mto
6364 13736 lto
6421 13682 lto
st
6532 13582 mto
6570 13548 lto
6580 13540 lto
6646 13484 lto
6646 13484 lto
st
6763 13390 mto
6788 13371 lto
6858 13319 lto
6860 13317 lto
6883 13300 lto
st
7006 13213 mto
7074 13167 lto
7130 13130 lto
st
7258 13051 mto
7280 13038 lto
7360 12991 lto
7387 12975 lto
st
7519 12904 mto
7560 12882 lto
7647 12838 lto
7653 12835 lto
st
7788 12771 mto
7790 12770 lto
7840 12747 lto
7925 12710 lto
st
8064 12652 mto
8077 12647 lto
8120 12630 lto
8204 12598 lto
st
8344 12547 mto
8366 12539 lto
8400 12527 lto
8486 12498 lto
st
8629 12453 mto
8656 12445 lto
8680 12437 lto
8773 12410 lto
st
8918 12370 mto
8946 12362 lto
8960 12358 lto
9062 12331 lto
st
9208 12295 mto
9235 12288 lto
9240 12287 lto
9354 12261 lto
st
9501 12229 mto
9520 12225 lto
9648 12199 lto
st
9795 12170 mto
9800 12169 lto
9940 12143 lto
9942 12143 lto
st
10090 12117 mto
10220 12095 lto
10238 12092 lto
st
10386 12070 mto
10500 12053 lto
10535 12048 lto
st
10683 12027 mto
10780 12014 lto
10832 12007 lto
st
10981 11989 mto
11060 11979 lto
11130 11971 lto
st
11279 11954 mto
11340 11947 lto
11428 11938 lto
st
11577 11923 mto
11620 11919 lto
11727 11908 lto
st
11876 11894 mto
11900 11892 lto
12025 11881 lto
st
12175 11868 mto
12180 11868 lto
12320 11857 lto
12324 11857 lto
st
12474 11845 mto
12600 11835 lto
12623 11833 lto
st
12773 11823 mto
12880 11816 lto
12923 11813 lto
st
13072 11803 mto
13160 11798 lto
13222 11794 lto
st
13372 11785 mto
13440 11781 lto
13522 11776 lto
st
13671 11768 mto
13720 11765 lto
13821 11760 lto
st
13971 11752 mto
14000 11751 lto
14121 11745 lto
st
14271 11738 mto
14280 11738 lto
14420 11731 lto
14420 11731 lto
st
14570 11725 mto
14700 11719 lto
14720 11718 lto
st
14870 11713 mto
14980 11708 lto
15020 11707 lto
st
15170 11701 mto
15260 11697 lto
15320 11695 lto
st
15470 11691 mto
15540 11688 lto
15619 11685 lto
st
15769 11680 mto
15820 11678 lto
15919 11675 lto
st
16069 11671 mto
16100 11670 lto
16219 11667 lto
st
16369 11662 mto
16380 11662 lto
16519 11658 lto
st
16669 11654 mto
16800 11650 lto
16819 11650 lto
st
16969 11646 mto
17080 11643 lto
17119 11642 lto
st
17269 11639 mto
17360 11637 lto
17419 11636 lto
st
3780 14908 mto
0 255 div 255 255 div 0 255 div setrgbcolor
3880 14908 lto
st
3980 14908 mto
4059 14907 lto
4060 14907 lto
4080 14906 lto
st
4180 14901 mto
4200 14899 lto
4244 14894 lto
4279 14888 lto
st
4376 14864 mto
4377 14864 lto
4414 14852 lto
4450 14838 lto
4470 14829 lto
st
4558 14784 mto
4587 14767 lto
4620 14746 lto
4643 14730 lto
st
4723 14670 mto
4734 14662 lto
4760 14640 lto
4800 14606 lto
st
4874 14539 mto
4893 14522 lto
4900 14515 lto
4946 14470 lto
st
5017 14400 mto
5040 14376 lto
5087 14328 lto
st
5156 14256 mto
5180 14231 lto
5225 14183 lto
st
5294 14111 mto
5320 14083 lto
5363 14038 lto
st
5432 13966 mto
5444 13954 lto
5460 13937 lto
5502 13894 lto
st
5572 13823 mto
5600 13795 lto
5643 13753 lto
st
5715 13683 mto
5740 13659 lto
5787 13614 lto
st
5861 13547 mto
5880 13529 lto
5935 13480 lto
st
6011 13415 mto
6020 13407 lto
6088 13351 lto
st
6166 13288 mto
6232 13236 lto
6245 13227 lto
st
6325 13167 mto
6372 13133 lto
6407 13109 lto
st
6489 13052 mto
6514 13035 lto
6573 12998 lto
st
6657 12944 mto
6720 12907 lto
6743 12893 lto
st
6830 12844 mto
6860 12827 lto
6918 12796 lto
st
7006 12749 mto
7085 12710 lto
7096 12705 lto
st
7186 12662 mto
7229 12642 lto
7277 12620 lto
st
7369 12581 mto
7371 12580 lto
7420 12560 lto
7462 12543 lto
st
7555 12506 mto
7560 12504 lto
7648 12472 lto
st
7743 12438 mto
7803 12417 lto
7837 12406 lto
st
7932 12375 mto
7949 12370 lto
7980 12360 lto
8028 12346 lto
st
8124 12318 mto
8220 12291 lto
st
8317 12265 mto
8384 12248 lto
8400 12244 lto
8414 12241 lto
st
8511 12217 mto
8526 12213 lto
8540 12210 lto
8608 12194 lto
st
8706 12172 mto
8804 12151 lto
st
8902 12132 mto
8960 12120 lto
9000 12112 lto
st
9098 12093 mto
9100 12093 lto
9197 12076 lto
st
9295 12060 mto
9380 12045 lto
9394 12043 lto
st
9493 12027 mto
9520 12023 lto
9591 12012 lto
st
9690 11998 mto
9789 11984 lto
st
9889 11971 mto
9940 11964 lto
9988 11958 lto
st
10087 11946 mto
10186 11934 lto
st
10286 11923 mto
10360 11914 lto
10385 11911 lto
st
10484 11901 mto
10500 11899 lto
10584 11891 lto
st
10683 11881 mto
10780 11872 lto
10783 11872 lto
st
10883 11862 mto
10920 11859 lto
10982 11854 lto
st
11082 11845 mto
11181 11837 lto
st
11281 11829 mto
11340 11824 lto
11381 11821 lto
st
11481 11813 mto
11580 11806 lto
st
11680 11799 mto
11760 11794 lto
11780 11793 lto
st
11880 11785 mto
11900 11784 lto
11979 11779 lto
st
12079 11773 mto
12179 11767 lto
st
12279 11761 mto
12320 11759 lto
12379 11756 lto
st
12479 11750 mto
12578 11745 lto
st
12678 11740 mto
12740 11737 lto
12778 11735 lto
st
12878 11730 mto
12880 11730 lto
12978 11726 lto
st
13078 11721 mto
13160 11717 lto
13178 11716 lto
st
13278 11712 mto
13300 11711 lto
13378 11708 lto
st
13477 11704 mto
13577 11700 lto
st
13677 11696 mto
13720 11694 lto
13777 11692 lto
st
13877 11688 mto
13977 11685 lto
st
14077 11682 mto
14140 11680 lto
14177 11679 lto
st
14277 11675 mto
14280 11675 lto
14377 11672 lto
st
14477 11668 mto
14560 11666 lto
14577 11666 lto
st
14677 11663 mto
14700 11662 lto
14777 11660 lto
st
14877 11657 mto
14977 11654 lto
st
15077 11651 mto
15120 11650 lto
15177 11649 lto
st
15277 11647 mto
15376 11644 lto
st
15476 11641 mto
15540 11640 lto
15576 11639 lto
st
15676 11637 mto
15680 11637 lto
15776 11634 lto
st
15876 11632 mto
15960 11630 lto
15976 11630 lto
st
16076 11628 mto
16100 11627 lto
16176 11625 lto
st
16276 11623 mto
16376 11622 lto
st
16476 11620 mto
16520 11619 lto
16576 11618 lto
st
16676 11616 mto
16776 11614 lto
st
16876 11612 mto
16940 11611 lto
16976 11610 lto
st
17076 11609 mto
17080 11609 lto
17176 11607 lto
st
17276 11605 mto
17360 11604 lto
17376 11604 lto
st
17476 11602 mto
17500 11602 lto
st
3780 13313 mto
0 255 div 0 255 div 0 255 div setrgbcolor
3920 13313 lto
4060 13313 lto
4161 13311 lto
4200 13310 lto
4268 13306 lto
4327 13301 lto
4340 13299 lto
4395 13292 lto
4449 13284 lto
4480 13278 lto
4532 13266 lto
4584 13253 lto
4620 13242 lto
4671 13225 lto
4723 13207 lto
4760 13192 lto
4815 13169 lto
4872 13144 lto
4900 13130 lto
4963 13100 lto
5032 13064 lto
5040 13060 lto
5121 13017 lto
5180 12985 lto
5298 12920 lto
5320 12907 lto
5460 12830 lto
5596 12756 lto
5600 12754 lto
5713 12695 lto
5740 12681 lto
5843 12630 lto
5880 12612 lto
5979 12565 lto
6020 12546 lto
6119 12502 lto
6160 12485 lto
6258 12444 lto
6300 12427 lto
6398 12389 lto
6440 12374 lto
6542 12337 lto
6580 12324 lto
6684 12289 lto
6720 12278 lto
6827 12245 lto
6860 12235 lto
6971 12203 lto
7000 12195 lto
7115 12165 lto
7140 12158 lto
7258 12129 lto
7280 12124 lto
7407 12095 lto
7420 12092 lto
7547 12066 lto
7560 12063 lto
7697 12036 lto
7700 12036 lto
7840 12010 lto
7980 11987 lto
8120 11965 lto
8260 11944 lto
8400 11925 lto
8540 11907 lto
8680 11890 lto
8820 11874 lto
8960 11859 lto
9100 11846 lto
9240 11833 lto
9380 11820 lto
9520 11809 lto
9660 11798 lto
9800 11788 lto
9940 11778 lto
10080 11769 lto
10220 11760 lto
10360 11752 lto
10500 11744 lto
10640 11737 lto
10780 11730 lto
10920 11723 lto
11060 11717 lto
11200 11711 lto
11340 11705 lto
11480 11699 lto
11620 11694 lto
11760 11689 lto
11900 11685 lto
12040 11680 lto
12180 11676 lto
12320 11672 lto
12460 11668 lto
12600 11664 lto
12740 11660 lto
12880 11657 lto
13020 11653 lto
13160 11650 lto
13300 11647 lto
13440 11644 lto
13580 11641 lto
13720 11638 lto
13860 11636 lto
14000 11633 lto
14140 11631 lto
14280 11628 lto
14420 11626 lto
14560 11624 lto
14700 11622 lto
14840 11620 lto
14980 11618 lto
15120 11616 lto
15260 11614 lto
15400 11612 lto
15540 11611 lto
15680 11609 lto
15820 11607 lto
15960 11606 lto
16100 11604 lto
16240 11603 lto
16380 11602 lto
16520 11600 lto
16660 11599 lto
16800 11598 lto
16940 11596 lto
17080 11595 lto
17220 11594 lto
17360 11593 lto
17500 11592 lto
st
255 255 div 0 255 div 0 255 div setrgbcolor
[] 0 60 0 0 10 lsty
13200 20860 mto
14800 20860 lto
st
0 255 div 0 255 div 255 255 div setrgbcolor
[100 100 ] 0 40 0 0 10 lsty
13200 20184 mto
14800 20184 lto
st
0 255 div 0 255 div 0 255 div setrgbcolor
[150 150 ] 0 40 0 0 10 lsty
13200 19508 mto
14800 19508 lto
st
255 255 div 0 255 div 255 255 div setrgbcolor
[450 150 ] 0 40 0 0 10 lsty
13200 18832 mto
14800 18832 lto
st
0 255 div 255 255 div 0 255 div setrgbcolor
[450 150 150 150 ] 0 40 0 0 10 lsty
13200 18156 mto
14800 18156 lto
st
255 255 div 128 255 div 0 255 div setrgbcolor
[450 150 150 150 150 150 ] 0 40 0 0 10 lsty
13200 17480 mto
14800 17480 lto
st
0 255 div 255 255 div 255 255 div setrgbcolor
[450 150 450 150 150 150 ] 0 40 0 0 10 lsty
13200 16804 mto
14800 16804 lto
st
255 255 div 0 255 div 255 255 div setrgbcolor
[150 150 ] 0 40 0 0 10 lsty
13200 16128 mto
14800 16128 lto
st
0 255 div 255 255 div 0 255 div setrgbcolor
[100 100 ] 0 40 0 0 10 lsty
13200 15452 mto
14800 15452 lto
st
0 255 div 0 255 div 0 255 div setrgbcolor
[] 0 40 0 0 10 lsty
13200 14776 mto
14800 14776 lto
st
12200 23400 mto
0 0 (T) ashow
1800 15400 mto
[4.32014e-14 -705.556 -705.556 -4.32014e-14 0 0] /Helvetica-ISOLatin1 F
0 0 (S/N) ashow
172 0 rmto
[3.0241e-14 -493.889 -493.889 -3.0241e-14 0 0] /Helvetica-ISOLatin1 F
0 0 (spin) ashow
-172 0 rmto
15082 21048 mto
[564.444 -0 -0 -564.444 0 0] /Helvetica-ISOLatin1 F
0 0 (x=0.0) ashow
15082 20372 mto
0 0 (x=0.1) ashow
15082 19696 mto
0 0 (x=0.2) ashow
15082 19020 mto
0 0 (x=0.3) ashow
15082 18344 mto
0 0 (x=0.4) ashow
15082 17668 mto
0 0 (x=0.5) ashow
15082 16992 mto
0 0 (x=0.6) ashow
15082 16316 mto
0 0 (x=0.7) ashow
15082 15640 mto
0 0 (x=0.8) ashow
15082 14964 mto
0 0 (x=0.9) ashow
EndPage
PageRestore
showpage
end
%%Trailer
%%DocumentNeededResources: 
% font /Helvetica-ISOLatin1
%%EOF
