%!PS-Adobe-3.0 EPSF-3.0
%%Creator: GRA2PS 2.03.20
%%Title: Ngraph
%%CreationDate: 4-30-2017 2:18
%%Pages: 1
%%DocumentNeededResources: (atend)
%%BoundingBox: 32 170 501 534
%%EndComments
%
% Ngraph.ps 2.03.20
%
%%BeginProlog
%
/NgraphDict 100 dict def
NgraphDict begin
%
% Procedure Definition
%
/PageSave {/Sobject save def} bind def
/PageRestore {Sobject restore} bind def
/@Paper {
  72 2540 div -72 2540 div scale % 1unit = 0.01mm
  ANGLE rotate
  0 bottom translate                    % origin is (0 bottom)
} bind def
/BeginPage {@Paper gsave} bind def
/EndPage {grestore} bind def
/box {
  moveto
  1 index 0 rlineto
  0 exch rlineto
  neg 0 rlineto
  closepath } bind def
/view {
  mark
  currentfont
  currentmiterlimit
  currentlinejoin
  currentlinecap
  currentlinewidth
  currentdash
  currentgray
  currentrgbcolor
  grestore gsave
  counttomark dup 6 add exch roll
  pop
  5 3 roll
  translate
  1 eq { 0 0 box clip newpath } { pop pop } ifelse
  setrgbcolor
  setgray
  setdash
  setlinewidth
  setlinecap
  setlinejoin
  setmiterlimit
  setfont
 } bind def
/viewc {
  mark
  currentfont
  currentmiterlimit
  currentlinejoin
  currentlinecap
  currentlinewidth
  currentdash
  currentrgbcolor
  currentgray
  grestore gsave
  counttomark dup 6 add exch roll
  pop
  5 3 roll
  translate
  1 eq { 0 0 box clip newpath } { pop pop } ifelse
  setgray
  setrgbcolor
  setdash
  setlinewidth
  setlinecap
  setlinejoin
  setmiterlimit
  setfont
 } bind def
/F { findfont exch makefont setfont } bind def
/lsty {
  setmiterlimit
  setlinejoin
  setlinecap
  setlinewidth
  setdash } bind def
/mto /moveto load def
/rmto /rmoveto load def
/lto /lineto load def
/rlto /rlineto load def
/st /stroke load def
/l { moveto lineto stroke } bind def
/e { 
  gsave
  newpath
  translate
  0 index 1 exch div 5 1 roll
  1 index 1 exch div 6 1 roll
  scale
  0 0 1 5 3 roll exch 100 div exch 100 div arc
  scale
  stroke
  grestore } bind def
/fe {
  gsave
  newpath
  translate
  0 index 1 exch div 5 1 roll
  1 index 1 exch div 6 1 roll
  scale
  0 0 moveto 0 0 1 5 3 roll exch 100 div exch 100 div arc closepath
  scale
  fill 
  grestore } bind def
/ae {
  gsave
  newpath
  translate
  0 index 1 exch div 5 1 roll
  1 index 1 exch div 6 1 roll
  scale
  0 0 1 5 3 roll exch 100 div exch 100 div arc closepath
  scale
  fill
  grestore } bind def
/pix {
  newpath 20 0 360 arc closepath fill } bind def
/rec {
  box stroke } bind def
/bar {
  box fill } bind def
/lines {
  1 sub
  3 1 roll
  moveto
  {lineto} repeat } bind def
/poly {
  1 sub
  3 1 roll
  moveto
  {lineto} repeat closepath } bind def
/rpo { lines stroke } bind def
/dpo { poly stroke } bind def
/fpo { poly fill } bind def
/epo { poly eofill } bind def
/ashowB {
  3 copy 3 copy 3 copy
  gsave BOLDS 0 rmoveto ashow grestore
  gsave 0 BOLDS rmoveto ashow grestore
  gsave BOLDS BOLDS rmoveto ashow grestore
  ashow } bind def
end
%
% ISOLatin1Encoding
%
/NGPLatin1Encoding 256 array def
0 1 255 {NGPLatin1Encoding exch /.notdef put} for
NGPLatin1Encoding
dup 8#101 /A put          dup 8#306 /AE put         dup 8#301 /Aacute put
dup 8#302 /Acircumflex put dup 8#304 /Adieresis put dup 8#300 /Agrave put
dup 8#305 /Aring put      dup 8#303 /Atilde put     dup 8#102 /B put
dup 8#103 /C put          dup 8#307 /Ccedilla put   dup 8#104 /D put
dup 8#105 /E put          dup 8#311 /Eacute put     dup 8#312 /Ecircumflex put
dup 8#313 /Edieresis put  dup 8#310 /Egrave put     dup 8#320 /Eth put
dup 8#106 /F put          dup 8#107 /G put          dup 8#110 /H put
dup 8#111 /I put          dup 8#315 /Iacute put     dup 8#316 /Icircumflex put
dup 8#317 /Idieresis put  dup 8#314 /Igrave put     dup 8#112 /J put
dup 8#113 /K put          dup 8#114 /L put          dup 8#115 /M put
dup 8#116 /N put          dup 8#321 /Ntilde put     dup 8#117 /O put
dup 8#323 /Oacute put     dup 8#324 /Ocircumflex put dup 8#326 /Odieresis put
dup 8#322 /Ograve put     dup 8#330 /Oslash put     dup 8#325 /Otilde put
dup 8#120 /P put          dup 8#121 /Q put          dup 8#122 /R put
dup 8#123 /S put          dup 8#124 /T put          dup 8#336 /Thorn put
dup 8#125 /U put          dup 8#332 /Uacute put     dup 8#333 /Ucircumflex put
dup 8#334 /Udieresis put  dup 8#331 /Ugrave put     dup 8#126 /V put
dup 8#127 /W put          dup 8#130 /X put          dup 8#131 /Y put
dup 8#335 /Yacute put     dup 8#132 /Z put          dup 8#141 /a put
dup 8#341 /aacute put     dup 8#342 /acircumflex put dup 8#264 /acute put
dup 8#344 /adieresis put  dup 8#346 /ae put         dup 8#340 /agrave put
dup 8#046 /ampersand put  dup 8#345 /aring put      dup 8#136 /asciicircum put
dup 8#176 /asciitilde put dup 8#052 /asterisk put   dup 8#100 /at put
dup 8#343 /atilde put     dup 8#142 /b put          dup 8#134 /backslash put
dup 8#174 /bar put        dup 8#173 /braceleft put  dup 8#175 /braceright put
dup 8#133 /bracketleft put dup 8#135 /bracketright put dup 8#246 /brokenbar put
dup 8#143 /c put          dup 8#347 /ccedilla put   dup 8#242 /cent put
dup 8#072 /colon put      dup 8#054 /comma put      dup 8#251 /copyright put
dup 8#244 /currency put   dup 8#144 /d put          dup 8#260 /degree put
dup 8#367 /divide put     dup 8#044 /dollar put     dup 8#145 /e put
dup 8#351 /eacute put     dup 8#352 /ecircumflex put dup 8#353 /edieresis put
dup 8#350 /egrave put     dup 8#070 /eight put      dup 8#075 /equal put
dup 8#360 /eth put        dup 8#041 /exclam put     dup 8#241 /exclamdown put
dup 8#146 /f put          dup 8#065 /five put       dup 8#064 /four put
dup 8#147 /g put          dup 8#337 /germandbls put dup 8#076 /greater put
dup 8#253 /guillemotleft put dup 8#273 /guillemotright put dup 8#150 /h put
dup 8#255 /hyphen put     dup 8#151 /i put          dup 8#355 /iacute put
dup 8#356 /icircumflex put dup 8#357 /idieresis put dup 8#354 /igrave put
dup 8#152 /j put          dup 8#153 /k put          dup 8#154 /l put
dup 8#074 /less put       dup 8#254 /logicalnot put dup 8#155 /m put
dup 8#055 /minus put      dup 8#265 /mu put         dup 8#327 /multiply put
dup 8#156 /n put          dup 8#071 /nine put       dup 8#361 /ntilde put
dup 8#043 /numbersign put dup 8#157 /o put          dup 8#363 /oacute put
dup 8#364 /ocircumflex put dup 8#366 /odieresis put dup 8#362 /ograve put
dup 8#061 /one put        dup 8#275 /onehalf put    dup 8#274 /onequarter put
dup 8#271 /onesuperior put dup 8#252 /ordfeminine put dup 8#272 /ordmasculine put
dup 8#370 /oslash put     dup 8#365 /otilde put     dup 8#160 /p put
dup 8#266 /paragraph put  dup 8#050 /parenleft put  dup 8#051 /parenright put
dup 8#045 /percent put    dup 8#056 /period put     dup 8#267 /periodcentered put
dup 8#053 /plus put       dup 8#261 /plusminus put  dup 8#161 /q put
dup 8#077 /question put   dup 8#277 /questiondown put dup 8#042 /quotedbl put
dup 8#140 /quoteleft put  dup 8#047 /quoteright put dup 8#162 /r put
dup 8#256 /registered put dup 8#163 /s put          dup 8#247 /section put
dup 8#073 /semicolon put  dup 8#067 /seven put      dup 8#066 /six put
dup 8#057 /slash put      dup 8#040 /space put      dup 8#243 /sterling put
dup 8#164 /t put          dup 8#376 /thorn put      dup 8#063 /three put
dup 8#276 /threequarters put dup 8#263 /threesuperior put dup 8#062 /two put
dup 8#262 /twosuperior put dup 8#165 /u put         dup 8#372 /uacute put
dup 8#373 /ucircumflex put dup 8#374 /udieresis put dup 8#371 /ugrave put
dup 8#137 /underscore put dup 8#166 /v put          dup 8#167 /w put
dup 8#170 /x put          dup 8#171 /y put          dup 8#375 /yacute put
dup 8#377 /ydieresis put  dup 8#245 /yen put        dup 8#172 /z put
dup 8#060 /zero put       dup 8#250 /dieresis put   dup 8#257 /macron put
dup 8#270 /cedilla put
% for ISOLatin1Encoding
%dup 8#220 /dotlessi put   dup 8#221 /grave put      dup 8#222 /acute put
%dup 8#223 /circumflex put dup 8#224 /tilde put      dup 8#225 /macron put
%dup 8#226 /breve put      dup 8#227 /dotaccent put  dup 8#230 /dieresis put
%dup 8#232 /ring put       dup 8#233 /cedilla put    dup 8#235 /hungarumlaut put
%dup 8#236 /ogonek put     dup 8#237 /caron put
% for Windows
dup 8#200 /colonmonetary put dup 8#202 /comma put   dup 8#203 /florin put
dup 8#204 /quotedblbase put dup 8#205 /ellipsis put dup 8#206 /dagger put
dup 8#207 /daggerdbl put  dup 8#210 /circumflex put dup 8#211 /perthousand put
dup 8#212 /Scaron put    dup 8#213 /guilsinglleft put dup 8#214 /OE put
dup 8#221 /quoteleft put dup 8#222 /quoteright put   dup 8#223 /quotedblleft put
dup 8#224 /quotedblright put dup 8#225 /bullet put dup 8#226 /hyphen put
dup 8#227 /emdash put  dup 8#230 /hungarumlaut put dup 8#231 /trademark put
dup 8#232 /scaron put  dup 8#233 /guilsinglright put dup 8#234 /oe put
dup 8#237 /Ydieresis put
pop
/ReEncode {
  findfont
  dup length dict begin
    {1 index /FID ne {def} {pop pop} ifelse} forall
    /Encoding NGPLatin1Encoding def
    currentdict
  end
  definefont
  pop
} bind def
/Times-Roman-ISOLatin1 /Times-Roman ReEncode
/Times-Bold-ISOLatin1 /Times-Bold ReEncode
/Times-Italic-ISOLatin1 /Times-Italic ReEncode
/Times-BoldItalic-ISOLatin1 /Times-BoldItalic ReEncode
/Helvetica-ISOLatin1 /Helvetica ReEncode
/Helvetica-Bold-ISOLatin1 /Helvetica-Bold ReEncode
/Helvetica-Oblique-ISOLatin1 /Helvetica-Oblique ReEncode
/Helvetica-BoldOblique-ISOLatin1 /Helvetica-BoldOblique ReEncode
/Courier-ISOLatin1 /Courier ReEncode
/Courier-Bold-ISOLatin1 /Courier-Bold ReEncode
/Courier-Oblique-ISOLatin1 /Courier-Oblique ReEncode
/Courier-BoldOblique-ISOLatin1 /Courier-BoldOblique ReEncode
%
%%EndProlog
%%Page: Figure 1
%%BeginPageSetup
/ANGLE 0 def
/bottom -29700 def
NgraphDict begin
PageSave
BeginPage
%%EndPageSetup
0 0 21000 29700 1 viewc
0 255 div 0 255 div 0 255 div setrgbcolor
[] 0 40 2 0 10 lsty
3500 22000 17500 22000 l
[] 0 40 0 0 10 lsty
3500 22000 3500 21700 l
4900 22000 4900 21900 l
6300 22000 6300 21800 l
7700 22000 7700 21900 l
9100 22000 9100 21800 l
10500 22000 10500 21900 l
11900 22000 11900 21800 l
13300 22000 13300 21900 l
14700 22000 14700 21800 l
16100 22000 16100 21900 l
17500 22000 17500 21800 l
3304 22738 mto
%IncludeResource: font /Helvetica-ISOLatin1
[705.556 -0 -0 -705.556 0 0] /Helvetica-ISOLatin1 F
0 0 (0) ashow
8904 22738 mto
0 0 (2) ashow
14504 22738 mto
0 0 (4) ashow
[] 0 40 2 0 10 lsty
3500 22000 3500 11000 l
[] 0 40 0 0 10 lsty
3500 22000 3800 22000 l
3500 21119 3600 21119 l
3500 20239 3600 20239 l
3500 19360 3600 19360 l
3500 18479 3600 18479 l
3500 17599 3700 17599 l
3500 16719 3600 16719 l
3500 15839 3600 15839 l
3500 14959 3600 14959 l
3500 14080 3600 14080 l
3500 13199 3700 13199 l
3500 12319 3600 12319 l
3500 11439 3600 11439 l
3008 22244 mto
0 0 (0) ashow
2420 17843 mto
0 0 (0.1) ashow
2420 13443 mto
0 0 (0.2) ashow
[] 0 40 2 0 10 lsty
3500 11000 17500 11000 l
[] 0 40 0 0 10 lsty
3500 11000 3500 11300 l
4900 11000 4900 11100 l
6300 11000 6300 11200 l
7700 11000 7700 11100 l
9100 11000 9100 11200 l
10500 11000 10500 11100 l
11900 11000 11900 11200 l
13300 11000 13300 11100 l
14700 11000 14700 11200 l
16100 11000 16100 11100 l
17500 11000 17500 11200 l
[] 0 40 2 0 10 lsty
17500 22000 17500 11000 l
[] 0 40 0 0 10 lsty
17500 22000 17200 21999 l
17500 21119 17400 21118 l
17500 20239 17400 20238 l
17500 19360 17400 19359 l
17500 18479 17400 18478 l
17500 17599 17300 17598 l
17500 16719 17400 16718 l
17500 15839 17400 15838 l
17500 14959 17400 14958 l
17500 14080 17400 14079 l
17500 13199 17300 13198 l
17500 12319 17400 12318 l
17500 11439 17400 11438 l
[] 0 60 0 0 10 lsty
3780 22000 mto
255 255 div 0 255 div 0 255 div setrgbcolor
3920 22000 lto
4060 22000 lto
4200 22000 lto
4306 21998 lto
4340 21997 lto
4399 21994 lto
4448 21990 lto
4480 21986 lto
4521 21980 lto
4559 21972 lto
4595 21964 lto
4620 21956 lto
4654 21945 lto
4686 21932 lto
4717 21918 lto
4748 21902 lto
4760 21895 lto
4790 21877 lto
4820 21857 lto
4850 21835 lto
4879 21812 lto
4900 21794 lto
4929 21767 lto
4958 21738 lto
4987 21707 lto
5017 21674 lto
5040 21647 lto
5069 21611 lto
5098 21573 lto
5128 21532 lto
5158 21489 lto
5180 21456 lto
5211 21409 lto
5242 21359 lto
5274 21306 lto
5307 21249 lto
5320 21226 lto
5354 21165 lto
5390 21100 lto
5426 21031 lto
5460 20966 lto
5500 20888 lto
5541 20804 lto
5585 20715 lto
5600 20684 lto
5646 20586 lto
5697 20478 lto
5740 20386 lto
5809 20237 lto
5880 20084 lto
5970 19889 lto
6020 19784 lto
6093 19630 lto
6160 19490 lto
6220 19367 lto
6273 19260 lto
6300 19207 lto
6348 19114 lto
6393 19027 lto
6436 18946 lto
6440 18938 lto
6483 18860 lto
6526 18784 lto
6569 18708 lto
6580 18690 lto
6625 18615 lto
6669 18542 lto
6713 18472 lto
6720 18461 lto
6763 18394 lto
6806 18330 lto
6849 18268 lto
6860 18253 lto
6901 18195 lto
6944 18138 lto
6987 18081 lto
7000 18065 lto
7047 18006 lto
7094 17949 lto
7140 17896 lto
7187 17843 lto
7232 17794 lto
7276 17748 lto
7280 17744 lto
7324 17700 lto
7367 17659 lto
7410 17620 lto
7420 17612 lto
7463 17576 lto
7506 17541 lto
7549 17508 lto
7560 17501 lto
7604 17470 lto
7649 17440 lto
7695 17411 lto
7700 17408 lto
7749 17380 lto
7799 17352 lto
7840 17331 lto
7897 17303 lto
7955 17277 lto
7980 17266 lto
8037 17243 lto
8093 17223 lto
8120 17213 lto
8174 17196 lto
8229 17181 lto
8260 17173 lto
8314 17161 lto
8370 17150 lto
8400 17145 lto
8459 17137 lto
8520 17130 lto
8540 17128 lto
8603 17124 lto
8668 17121 lto
8680 17121 lto
8746 17121 lto
8812 17122 lto
8820 17123 lto
8886 17126 lto
8955 17132 lto
8960 17133 lto
9030 17140 lto
9100 17150 lto
9179 17163 lto
9240 17173 lto
9332 17191 lto
9380 17201 lto
9478 17223 lto
9520 17233 lto
9617 17258 lto
9660 17269 lto
9754 17296 lto
9800 17310 lto
9899 17341 lto
9940 17354 lto
10048 17390 lto
10080 17401 lto
10217 17448 lto
10220 17450 lto
10360 17500 lto
10500 17552 lto
10640 17605 lto
10780 17659 lto
10920 17714 lto
11060 17770 lto
11200 17827 lto
11340 17885 lto
11480 17942 lto
11620 18000 lto
11760 18058 lto
11900 18116 lto
12040 18174 lto
12180 18231 lto
12320 18287 lto
12460 18343 lto
12600 18398 lto
12740 18452 lto
12880 18506 lto
13020 18559 lto
13160 18611 lto
13300 18663 lto
13440 18713 lto
13580 18764 lto
13720 18813 lto
13860 18862 lto
14000 18910 lto
14140 18958 lto
14280 19004 lto
14420 19050 lto
14560 19095 lto
14700 19140 lto
14840 19183 lto
14980 19226 lto
15120 19267 lto
15260 19308 lto
15400 19348 lto
15540 19388 lto
15680 19426 lto
15820 19464 lto
15960 19501 lto
16100 19538 lto
16240 19574 lto
16380 19609 lto
16520 19643 lto
16660 19677 lto
16800 19711 lto
16940 19743 lto
17080 19776 lto
17220 19807 lto
17360 19838 lto
17500 19869 lto
st
[] 0 40 0 0 10 lsty
3780 22000 mto
0 255 div 0 255 div 255 255 div setrgbcolor
3787 22000 lto
st
3858 22000 mto
3903 21999 lto
3920 21998 lto
3948 21995 lto
3951 21995 lto
st
4047 21970 mto
4052 21968 lto
4060 21964 lto
4078 21954 lto
4095 21943 lto
4112 21929 lto
4129 21915 lto
4130 21914 lto
st
4195 21839 mto
4200 21831 lto
4216 21808 lto
4231 21782 lto
4247 21754 lto
4247 21754 lto
st
4292 21664 mto
4295 21659 lto
4312 21622 lto
4328 21584 lto
4332 21573 lto
st
4369 21480 mto
4372 21471 lto
4389 21426 lto
4402 21386 lto
st
4435 21291 mto
4441 21272 lto
4459 21214 lto
4465 21196 lto
st
4495 21100 mto
4501 21079 lto
4522 21007 lto
4523 21004 lto
st
4550 20908 mto
4567 20849 lto
4578 20812 lto
st
4604 20716 mto
4617 20669 lto
4620 20659 lto
4631 20619 lto
st
4657 20523 mto
4678 20446 lto
4683 20426 lto
st
4709 20329 mto
4712 20317 lto
4734 20233 lto
st
4760 20136 mto
4760 20135 lto
4785 20039 lto
st
4811 19943 mto
4818 19917 lto
4837 19846 lto
st
4863 19750 mto
4867 19736 lto
4889 19653 lto
st
4916 19557 mto
4940 19468 lto
4942 19460 lto
st
4969 19364 mto
4976 19337 lto
4996 19267 lto
st
5023 19171 mto
5040 19111 lto
5050 19075 lto
st
5078 18979 mto
5098 18911 lto
5106 18883 lto
st
5136 18787 mto
5151 18737 lto
5165 18692 lto
st
5196 18597 mto
5204 18572 lto
5227 18502 lto
st
5259 18407 mto
5281 18342 lto
5291 18312 lto
st
5325 18218 mto
5353 18139 lto
5359 18124 lto
st
5393 18030 mto
5413 17977 lto
5428 17937 lto
st
5464 17843 mto
5486 17788 lto
5501 17750 lto
st
5540 17658 mto
5541 17656 lto
5570 17590 lto
5580 17567 lto
st
5622 17476 mto
5633 17451 lto
5664 17385 lto
st
5707 17295 mto
5729 17250 lto
5740 17230 lto
5753 17206 lto
st
5799 17117 mto
5802 17111 lto
5835 17052 lto
5848 17030 lto
st
5898 16943 mto
5916 16912 lto
5949 16857 lto
st
6003 16773 mto
6015 16754 lto
6020 16747 lto
6052 16700 lto
6059 16690 lto
st
6118 16610 mto
6149 16569 lto
6160 16556 lto
6180 16532 lto
st
6246 16457 mto
6257 16445 lto
6293 16407 lto
6300 16399 lto
6315 16384 lto
st
6387 16314 mto
6427 16279 lto
6440 16267 lto
6462 16248 lto
st
6540 16186 mto
6564 16167 lto
6580 16156 lto
6619 16128 lto
6621 16127 lto
st
6707 16075 mto
6720 16068 lto
6760 16047 lto
6795 16030 lto
st
6887 15991 mto
6910 15982 lto
6959 15965 lto
6982 15958 lto
st
7078 15932 mto
7097 15927 lto
7140 15919 lto
7177 15914 lto
st
7276 15902 mto
7280 15902 lto
7331 15900 lto
7376 15899 lto
st
7476 15902 mto
7480 15902 lto
7540 15906 lto
7560 15908 lto
7576 15910 lto
st
7675 15923 mto
7678 15924 lto
7700 15928 lto
7764 15940 lto
7773 15942 lto
st
7870 15965 mto
7908 15974 lto
7967 15991 lto
st
8062 16020 mto
8112 16037 lto
8120 16040 lto
8157 16053 lto
st
8250 16088 mto
8260 16092 lto
8343 16125 lto
st
8436 16162 mto
8491 16186 lto
8528 16202 lto
st
8619 16244 mto
8619 16244 lto
8680 16274 lto
8708 16288 lto
st
8798 16333 mto
8820 16345 lto
8886 16380 lto
st
8974 16427 mto
9062 16475 lto
st
9150 16523 mto
9237 16571 lto
st
9324 16621 mto
9373 16649 lto
9380 16653 lto
9411 16671 lto
st
9497 16721 mto
9520 16734 lto
9584 16771 lto
st
9670 16822 mto
9757 16872 lto
st
9843 16922 mto
9930 16972 lto
st
10016 17022 mto
10080 17059 lto
10103 17072 lto
st
10189 17122 mto
10220 17140 lto
10276 17172 lto
st
10362 17222 mto
10449 17272 lto
st
10536 17322 mto
10623 17371 lto
st
10710 17421 mto
10780 17460 lto
10797 17470 lto
st
10884 17519 mto
10920 17539 lto
10971 17568 lto
st
11059 17616 mto
11060 17617 lto
11147 17664 lto
st
11235 17712 mto
11322 17759 lto
st
11411 17807 mto
11480 17844 lto
11499 17854 lto
st
11587 17901 mto
11620 17918 lto
11676 17947 lto
st
11765 17992 mto
11854 18038 lto
st
11943 18083 mto
12033 18127 lto
st
12123 18171 mto
12180 18199 lto
12213 18214 lto
st
12303 18257 mto
12320 18265 lto
12394 18299 lto
st
12485 18341 mto
12576 18383 lto
st
12667 18424 mto
12740 18457 lto
12758 18465 lto
st
12849 18505 mto
12880 18519 lto
12941 18545 lto
st
13033 18585 mto
13125 18624 lto
st
13217 18663 mto
13300 18697 lto
13310 18701 lto
st
13402 18739 mto
13440 18754 lto
13495 18776 lto
st
13588 18813 mto
13681 18850 lto
st
13774 18886 mto
13860 18919 lto
13867 18922 lto
st
13961 18957 mto
14000 18972 lto
14055 18992 lto
st
14149 19026 mto
14243 19060 lto
st
14337 19093 mto
14420 19122 lto
14432 19126 lto
st
14526 19158 mto
14560 19170 lto
14621 19190 lto
st
14716 19222 mto
14811 19253 lto
st
14906 19284 mto
14980 19308 lto
15001 19315 lto
st
15097 19345 mto
15120 19352 lto
15192 19374 lto
st
15288 19403 mto
15384 19432 lto
st
15479 19460 mto
15540 19478 lto
15576 19488 lto
st
15672 19516 mto
15680 19518 lto
15768 19543 lto
st
15864 19569 mto
15960 19596 lto
15961 19596 lto
st
16057 19622 mto
16100 19633 lto
16154 19647 lto
st
16251 19673 mto
16348 19698 lto
st
16444 19723 mto
16520 19742 lto
16541 19747 lto
st
16639 19771 mto
16660 19776 lto
16736 19794 lto
st
16833 19818 mto
16930 19842 lto
st
17028 19864 mto
17080 19876 lto
17125 19886 lto
st
17222 19909 mto
17320 19930 lto
st
17418 19952 mto
17500 19970 lto
st
3780 22000 mto
0 255 div 0 255 div 0 255 div setrgbcolor
3782 22000 lto
st
3853 22000 mto
3876 21999 lto
3909 21997 lto
3920 21996 lto
3941 21993 lto
3960 21989 lto
3978 21985 lto
3994 21979 lto
3998 21977 lto
st
4110 21880 mto
4113 21876 lto
4125 21857 lto
4138 21836 lto
4150 21814 lto
4162 21791 lto
4174 21766 lto
4181 21748 lto
st
4234 21608 mto
4235 21605 lto
4247 21569 lto
4259 21529 lto
4271 21488 lto
4278 21464 lto
st
4316 21319 mto
4320 21302 lto
4333 21249 lto
4340 21218 lto
4350 21173 lto
st
4382 21027 mto
4390 20987 lto
4403 20923 lto
4411 20880 lto
st
4440 20732 mto
4444 20709 lto
4458 20631 lto
4466 20585 lto
st
4493 20437 mto
4496 20421 lto
4512 20326 lto
4518 20289 lto
st
4543 20141 mto
4547 20120 lto
4566 20009 lto
4568 19994 lto
st
4592 19846 mto
4606 19762 lto
4616 19697 lto
st
4640 19549 mto
4644 19526 lto
4663 19401 lto
st
4687 19253 mto
4701 19165 lto
4710 19105 lto
st
4734 18957 mto
4739 18923 lto
4758 18809 lto
st
4781 18660 mto
4787 18622 lto
4805 18512 lto
st
4830 18364 mto
4836 18326 lto
4854 18216 lto
st
4878 18068 mto
4898 17953 lto
4900 17942 lto
4904 17921 lto
st
4929 17773 mto
4940 17713 lto
4956 17625 lto
st
4983 17478 mto
4998 17395 lto
5010 17330 lto
st
5038 17183 mto
5040 17175 lto
5058 17082 lto
5068 17036 lto
st
5098 16889 mto
5114 16809 lto
5128 16742 lto
st
5161 16596 mto
5172 16546 lto
5180 16512 lto
5194 16449 lto
st
5229 16303 mto
5240 16256 lto
5261 16175 lto
5265 16158 lto
st
5302 16012 mto
5320 15947 lto
5340 15876 lto
5342 15868 lto
st
5383 15724 mto
5397 15678 lto
5415 15618 lto
5427 15580 lto
st
5475 15438 mto
5477 15431 lto
5495 15381 lto
5513 15332 lto
5527 15297 lto
st
5584 15158 mto
5590 15144 lto
5600 15121 lto
5621 15075 lto
5643 15029 lto
5646 15022 lto
st
5714 14888 mto
5736 14848 lto
5740 14841 lto
5767 14794 lto
5788 14758 lto
st
5870 14632 mto
5880 14617 lto
5902 14588 lto
5925 14559 lto
5948 14532 lto
5964 14515 lto
st
6072 14412 mto
6076 14409 lto
6103 14388 lto
6130 14369 lto
6157 14352 lto
6160 14351 lto
6185 14337 lto
6198 14331 lto
st
6339 14282 mto
6373 14275 lto
6411 14269 lto
6440 14266 lto
6479 14264 lto
6488 14264 lto
st
6637 14275 mto
6653 14278 lto
6690 14286 lto
6720 14294 lto
6755 14306 lto
6781 14315 lto
st
6920 14372 mto
6922 14373 lto
6981 14401 lto
7000 14411 lto
7054 14439 lto
st
7184 14514 mto
7185 14515 lto
7235 14547 lto
7280 14577 lto
7309 14597 lto
st
7432 14683 mto
7491 14726 lto
7552 14773 lto
st
7669 14866 mto
7680 14875 lto
7700 14892 lto
7773 14954 lto
7784 14963 lto
st
7898 15061 mto
7980 15132 lto
8011 15159 lto
st
8125 15256 mto
8239 15354 lto
st
8353 15452 mto
8400 15492 lto
8466 15550 lto
st
8579 15649 mto
8664 15723 lto
8680 15737 lto
8692 15748 lto
st
8804 15847 mto
8820 15861 lto
8917 15946 lto
st
9030 16045 mto
9100 16105 lto
9144 16142 lto
st
9258 16240 mto
9372 16337 lto
st
9488 16433 mto
9519 16459 lto
9520 16460 lto
9603 16528 lto
st
9720 16622 mto
9794 16681 lto
9800 16686 lto
9838 16716 lto
st
9956 16808 mto
10074 16900 lto
st
10194 16990 mto
10220 17010 lto
10314 17080 lto
st
10435 17169 mto
10490 17210 lto
10500 17217 lto
10556 17257 lto
st
10679 17344 mto
10752 17395 lto
10780 17414 lto
10802 17429 lto
st
10927 17512 mto
11039 17586 lto
11052 17595 lto
st
11178 17676 mto
11188 17682 lto
11200 17689 lto
11306 17755 lto
st
11433 17834 mto
11480 17862 lto
11562 17911 lto
st
11691 17988 mto
11760 18028 lto
11821 18062 lto
st
11952 18136 mto
12040 18185 lto
12083 18208 lto
st
12215 18280 mto
12320 18335 lto
12348 18349 lto
st
12481 18418 mto
12600 18478 lto
12615 18485 lto
st
12750 18551 mto
12880 18613 lto
12886 18616 lto
st
13022 18679 mto
13158 18740 lto
st
13296 18801 mto
13300 18803 lto
13433 18860 lto
st
13572 18918 mto
13580 18922 lto
13710 18975 lto
st
13850 19031 mto
13860 19035 lto
13989 19086 lto
st
14130 19139 mto
14140 19143 lto
14270 19191 lto
st
14411 19242 mto
14420 19245 lto
14553 19292 lto
st
14694 19341 mto
14700 19343 lto
14837 19388 lto
st
14979 19435 mto
14980 19435 lto
15120 19480 lto
15122 19481 lto
st
15265 19526 mto
15400 19566 lto
15409 19569 lto
st
15553 19612 mto
15680 19648 lto
15697 19653 lto
st
15841 19694 mto
15960 19726 lto
15986 19733 lto
st
16131 19772 mto
16240 19801 lto
16276 19810 lto
st
16421 19847 mto
16520 19872 lto
16567 19883 lto
st
16713 19919 mto
16800 19940 lto
16859 19953 lto
st
17005 19987 mto
17080 20004 lto
17151 20020 lto
st
17298 20053 mto
17360 20066 lto
17444 20084 lto
st
3780 22000 mto
255 255 div 0 255 div 255 255 div setrgbcolor
3781 22000 lto
st
3857 22000 mto
3865 22000 lto
3895 21998 lto
3920 21995 lto
3939 21992 lto
3956 21987 lto
3971 21983 lto
3986 21977 lto
4000 21969 lto
4013 21961 lto
4025 21952 lto
4038 21941 lto
4050 21930 lto
4060 21918 lto
4072 21903 lto
4083 21887 lto
4095 21869 lto
4106 21849 lto
4117 21829 lto
4128 21806 lto
4139 21782 lto
4150 21757 lto
4160 21730 lto
4163 21723 lto
st
4209 21580 mto
4210 21577 lto
4220 21540 lto
4231 21501 lto
4241 21460 lto
4252 21416 lto
4262 21371 lto
4273 21323 lto
4283 21273 lto
4294 21221 lto
4305 21167 lto
4310 21142 lto
st
4337 20994 mto
4338 20991 lto
4340 20978 lto
4351 20916 lto
4362 20852 lto
4373 20785 lto
4384 20716 lto
4395 20643 lto
4407 20567 lto
4410 20550 lto
st
4432 20402 mto
4443 20321 lto
4456 20232 lto
4469 20139 lto
4480 20059 lto
4494 19957 lto
4494 19956 lto
st
4514 19807 mto
4523 19739 lto
4538 19622 lto
4554 19498 lto
4571 19367 lto
4572 19361 lto
st
4590 19212 mto
4607 19075 lto
4620 18974 lto
4644 18783 lto
4646 18766 lto
st
4665 18617 mto
4671 18565 lto
4704 18299 lto
4720 18170 lto
st
4738 18021 mto
4757 17873 lto
4760 17845 lto
4782 17673 lto
4794 17575 lto
st
4813 17426 mto
4821 17367 lto
4839 17228 lto
4856 17097 lto
4871 16980 lto
st
4891 16831 mto
4900 16769 lto
4916 16651 lto
4933 16534 lto
4949 16418 lto
4954 16386 lto
st
4976 16237 mto
4983 16191 lto
5000 16079 lto
5017 15968 lto
5034 15859 lto
5040 15819 lto
5044 15792 lto
st
5068 15644 mto
5073 15615 lto
5089 15518 lto
5105 15425 lto
5120 15335 lto
5136 15247 lto
5144 15201 lto
st
5171 15053 mto
5180 15006 lto
5195 14931 lto
5209 14856 lto
5224 14783 lto
5239 14710 lto
5255 14637 lto
5260 14612 lto
st
5293 14466 mto
5302 14425 lto
5319 14355 lto
5320 14349 lto
5337 14277 lto
5355 14207 lto
5372 14139 lto
5389 14074 lto
5402 14029 lto
st
5443 13885 mto
5458 13834 lto
5460 13826 lto
5477 13772 lto
5494 13720 lto
5511 13669 lto
5528 13620 lto
5545 13573 lto
5562 13528 lto
5579 13485 lto
5590 13460 lto
st
5652 13324 mto
5668 13293 lto
5685 13260 lto
5704 13228 lto
5723 13196 lto
5740 13168 lto
5762 13135 lto
5784 13104 lto
5806 13074 lto
5828 13047 lto
5850 13021 lto
5872 12998 lto
5880 12989 lto
5902 12969 lto
5913 12960 lto
st
6038 12879 mto
6044 12877 lto
6068 12868 lto
6092 12861 lto
6117 12856 lto
6142 12853 lto
6160 12852 lto
6186 12851 lto
6212 12853 lto
6239 12857 lto
6266 12862 lto
6294 12870 lto
6300 12871 lto
6327 12881 lto
6355 12892 lto
6385 12906 lto
6417 12922 lto
6440 12934 lto
6465 12948 lto
st
6591 13030 mto
6619 13051 lto
6656 13080 lto
6692 13110 lto
6720 13135 lto
6752 13164 lto
6785 13197 lto
6822 13234 lto
6860 13274 lto
6918 13336 lto
6919 13337 lto
st
7018 13449 mto
7065 13502 lto
7133 13581 lto
7140 13590 lto
7210 13674 lto
7280 13759 lto
7308 13793 lto
st
7402 13910 mto
7420 13933 lto
7518 14056 lto
7560 14110 lto
7667 14247 lto
7680 14264 lto
st
7772 14382 mto
7840 14469 lto
7980 14648 lto
8050 14736 lto
st
8143 14854 mto
8242 14977 lto
8260 14999 lto
8363 15125 lto
8400 15170 lto
8427 15203 lto
st
8523 15318 mto
8540 15338 lto
8644 15459 lto
8680 15501 lto
8783 15620 lto
8818 15658 lto
st
8917 15770 mto
8923 15777 lto
8960 15817 lto
9063 15930 lto
9100 15970 lto
9202 16078 lto
9223 16101 lto
st
9327 16209 mto
9339 16222 lto
9380 16264 lto
9476 16361 lto
9520 16404 lto
9615 16497 lto
9645 16527 lto
st
9754 16630 mto
9758 16634 lto
9800 16673 lto
9899 16765 lto
9940 16802 lto
10043 16894 lto
10080 16927 lto
10087 16933 lto
st
10200 17031 mto
10220 17049 lto
10328 17140 lto
10360 17167 lto
10468 17256 lto
10500 17282 lto
10546 17319 lto
st
10664 17412 mto
10745 17474 lto
10780 17501 lto
10888 17583 lto
10920 17606 lto
11024 17682 lto
st
11147 17768 mto
11171 17785 lto
11200 17806 lto
11313 17883 lto
11340 17901 lto
11455 17977 lto
11480 17993 lto
11520 18019 lto
st
11647 18099 mto
11739 18156 lto
11760 18169 lto
11882 18242 lto
11900 18253 lto
12024 18326 lto
12033 18331 lto
st
12163 18405 mto
12167 18407 lto
12180 18414 lto
12311 18486 lto
12320 18491 lto
12453 18562 lto
12460 18565 lto
12560 18617 lto
st
12693 18685 mto
12738 18708 lto
12740 18709 lto
12880 18777 lto
13020 18844 lto
13099 18881 lto
st
13235 18943 mto
13300 18972 lto
13440 19033 lto
13580 19092 lto
13649 19120 lto
st
13788 19177 mto
13860 19206 lto
14000 19261 lto
14140 19314 lto
14207 19339 lto
st
14348 19390 mto
14420 19416 lto
14560 19465 lto
14700 19513 lto
14774 19537 lto
st
14916 19584 mto
14980 19604 lto
15120 19648 lto
15260 19691 lto
15346 19716 lto
st
15490 19758 mto
15540 19773 lto
15680 19812 lto
15820 19851 lto
15924 19878 lto
st
16069 19917 mto
16100 19925 lto
16240 19961 lto
16380 19995 lto
16506 20026 lto
st
16651 20061 mto
16660 20063 lto
16800 20095 lto
16940 20127 lto
17080 20157 lto
17091 20159 lto
st
17237 20191 mto
17360 20217 lto
17500 20246 lto
st
3780 22000 mto
0 255 div 255 255 div 0 255 div setrgbcolor
3781 22000 lto
st
3860 22000 mto
3889 21998 lto
3914 21995 lto
3920 21994 lto
3937 21991 lto
3953 21986 lto
3968 21981 lto
3982 21975 lto
3995 21968 lto
4008 21960 lto
4020 21950 lto
4031 21940 lto
4043 21928 lto
4054 21915 lto
4060 21906 lto
4071 21890 lto
4082 21873 lto
4093 21854 lto
4103 21834 lto
4114 21812 lto
4124 21789 lto
4134 21764 lto
4144 21738 lto
4154 21710 lto
4154 21710 lto
st
4197 21566 mto
4200 21556 lto
4209 21519 lto
4219 21479 lto
4229 21438 lto
4233 21421 lto
st
4264 21274 mto
4268 21252 lto
4278 21199 lto
4287 21145 lto
4298 21088 lto
4308 21030 lto
4318 20969 lto
4328 20905 lto
4338 20839 lto
4340 20830 lto
st
4362 20682 mto
4371 20622 lto
4381 20547 lto
4383 20533 lto
st
4404 20385 mto
4414 20306 lto
4425 20219 lto
4437 20129 lto
4449 20035 lto
4461 19939 lto
st
4479 19790 mto
4480 19779 lto
4493 19673 lto
4497 19641 lto
st
4514 19492 mto
4519 19445 lto
4533 19323 lto
4548 19195 lto
4563 19059 lto
4565 19045 lto
st
4581 18895 mto
4595 18762 lto
4597 18746 lto
st
4614 18597 mto
4614 18596 lto
4620 18537 lto
4641 18347 lto
4662 18150 lto
st
4678 18001 mto
4691 17884 lto
4694 17852 lto
st
4710 17702 mto
4712 17685 lto
4731 17510 lto
4749 17352 lto
4760 17255 lto
st
4777 17106 mto
4779 17086 lto
4793 16957 lto
st
4811 16808 mto
4816 16763 lto
4834 16606 lto
4852 16452 lto
4863 16361 lto
st
4881 16212 mto
4888 16153 lto
4899 16063 lto
st
4918 15914 mto
4933 15789 lto
4949 15664 lto
4964 15544 lto
4974 15468 lto
st
4993 15319 mto
4994 15315 lto
5009 15206 lto
5014 15171 lto
st
5035 15022 mto
5038 15000 lto
5040 14983 lto
5055 14881 lto
5069 14781 lto
5084 14683 lto
5098 14587 lto
5100 14577 lto
st
5123 14429 mto
5127 14401 lto
5142 14312 lto
5147 14281 lto
st
5172 14133 mto
5180 14086 lto
5194 14004 lto
5209 13923 lto
5223 13845 lto
5238 13769 lto
5253 13694 lto
5254 13690 lto
st
5284 13543 mto
5296 13483 lto
5311 13416 lto
5315 13397 lto
st
5348 13250 mto
5363 13193 lto
5377 13136 lto
5392 13079 lto
5407 13024 lto
5422 12970 lto
5437 12918 lto
5452 12866 lto
5460 12841 lto
5468 12817 lto
st
5515 12674 mto
5524 12649 lto
5540 12605 lto
5557 12561 lto
5568 12534 lto
st
5629 12397 mto
5636 12381 lto
5654 12345 lto
5672 12312 lto
5690 12280 lto
5708 12250 lto
5726 12222 lto
5740 12201 lto
5757 12178 lto
5775 12155 lto
5793 12135 lto
5811 12115 lto
5830 12097 lto
5849 12081 lto
5869 12066 lto
5880 12058 lto
5899 12045 lto
st
6041 12002 mto
6063 12002 lto
6085 12005 lto
6108 12009 lto
6131 12015 lto
6155 12023 lto
6160 12025 lto
6185 12036 lto
6186 12036 lto
st
6313 12115 mto
6331 12129 lto
6361 12154 lto
6393 12182 lto
6425 12212 lto
6440 12227 lto
6472 12260 lto
6505 12296 lto
6539 12335 lto
6575 12378 lto
6580 12383 lto
6620 12433 lto
6624 12438 lto
st
6715 12558 mto
6720 12565 lto
6756 12616 lto
6794 12671 lto
6801 12681 lto
st
6884 12806 mto
6923 12864 lto
6992 12971 lto
7000 12983 lto
7087 13120 lto
7128 13184 lto
st
7207 13311 mto
7209 13314 lto
7280 13429 lto
7286 13439 lto
st
7364 13567 mto
7370 13577 lto
7420 13657 lto
7535 13844 lto
7560 13884 lto
7601 13949 lto
st
7681 14076 mto
7700 14107 lto
7761 14203 lto
st
7842 14330 mto
7951 14499 lto
7980 14544 lto
8073 14687 lto
8087 14707 lto
st
8170 14832 mto
8204 14882 lto
8254 14956 lto
st
8339 15080 mto
8341 15083 lto
8400 15166 lto
8480 15279 lto
8540 15362 lto
8601 15445 lto
st
8691 15566 mto
8758 15655 lto
8781 15685 lto
st
8874 15803 mto
8898 15834 lto
8960 15912 lto
9044 16015 lto
9100 16083 lto
9158 16152 lto
st
9255 16266 mto
9324 16345 lto
9354 16379 lto
st
9454 16491 mto
9462 16500 lto
9520 16563 lto
9603 16652 lto
9660 16712 lto
9746 16801 lto
9763 16818 lto
st
9869 16925 mto
9887 16943 lto
9940 16995 lto
9976 17029 lto
st
10085 17133 mto
10169 17211 lto
10220 17257 lto
10313 17340 lto
10360 17381 lto
10420 17433 lto
st
10535 17530 mto
10596 17581 lto
10640 17617 lto
10650 17625 lto
st
10767 17719 mto
10780 17729 lto
10881 17807 lto
10920 17837 lto
11023 17914 lto
11060 17941 lto
11127 17989 lto
st
11249 18076 mto
11307 18116 lto
11340 18139 lto
11373 18161 lto
st
11498 18245 mto
11590 18305 lto
11620 18324 lto
11732 18395 lto
11760 18412 lto
11874 18481 lto
11879 18484 lto
st
12008 18560 mto
12017 18565 lto
12040 18579 lto
12138 18634 lto
st
12269 18707 mto
12303 18726 lto
12320 18735 lto
12445 18801 lto
12460 18809 lto
12589 18876 lto
12600 18881 lto
12668 18915 lto
st
12803 18981 mto
12874 19015 lto
12880 19018 lto
12938 19046 lto
st
13075 19109 mto
13159 19147 lto
13160 19147 lto
13300 19209 lto
13440 19269 lto
13487 19288 lto
st
13626 19345 mto
13720 19383 lto
13765 19400 lto
st
13905 19454 mto
14000 19490 lto
14140 19541 lto
14280 19590 lto
14329 19607 lto
st
14470 19656 mto
14560 19685 lto
14613 19702 lto
st
14756 19748 mto
14840 19775 lto
14980 19818 lto
15120 19860 lto
15186 19879 lto
st
15331 19920 mto
15400 19940 lto
15475 19960 lto
st
15620 19999 mto
15680 20015 lto
15820 20052 lto
15960 20087 lto
16056 20111 lto
st
16202 20146 mto
16240 20155 lto
16348 20180 lto
st
16494 20214 mto
16520 20220 lto
16660 20251 lto
16800 20281 lto
16934 20310 lto
st
17080 20340 mto
17220 20368 lto
17228 20369 lto
st
17375 20398 mto
17500 20422 lto
st
3780 22000 mto
255 255 div 128 255 div 0 255 div setrgbcolor
3781 22000 lto
st
3860 22000 mto
3887 21998 lto
3912 21995 lto
3920 21994 lto
3937 21990 lto
3953 21986 lto
3967 21981 lto
3981 21975 lto
3994 21967 lto
4006 21959 lto
4018 21950 lto
4029 21939 lto
4040 21927 lto
4051 21914 lto
4060 21902 lto
4071 21886 lto
4082 21868 lto
4092 21849 lto
4102 21828 lto
4113 21806 lto
4123 21782 lto
4133 21757 lto
4143 21730 lto
4151 21707 lto
st
4193 21563 mto
4200 21538 lto
4200 21537 lto
4209 21499 lto
4219 21459 lto
4228 21417 lto
st
4258 21270 mto
4267 21226 lto
4277 21173 lto
4286 21123 lto
st
4310 20975 mto
4316 20939 lto
4326 20875 lto
4336 20808 lto
4340 20784 lto
4350 20718 lto
4360 20649 lto
4370 20578 lto
4376 20530 lto
st
4396 20381 mto
4401 20345 lto
4411 20261 lto
4415 20232 lto
st
4433 20083 mto
4445 19990 lto
4452 19934 lto
st
4469 19785 mto
4480 19692 lto
4493 19578 lto
4506 19460 lto
4520 19338 lto
st
4537 19189 mto
4550 19068 lto
4553 19040 lto
st
4569 18891 mto
4582 18769 lto
4585 18742 lto
st
4601 18593 mto
4619 18424 lto
4620 18411 lto
4642 18206 lto
4648 18145 lto
st
4664 17996 mto
4667 17968 lto
4680 17847 lto
st
4695 17698 mto
4711 17549 lto
st
4727 17399 mto
4738 17298 lto
4756 17127 lto
4760 17090 lto
4775 16952 lto
st
4791 16803 mto
4797 16748 lto
4807 16654 lto
st
4824 16505 mto
4833 16430 lto
4841 16356 lto
st
4858 16207 mto
4867 16133 lto
4883 15992 lto
4899 15856 lto
4900 15848 lto
4911 15760 lto
st
4929 15611 mto
4930 15602 lto
4944 15486 lto
4947 15462 lto
st
4966 15313 mto
4971 15269 lto
4984 15166 lto
4984 15164 lto
st
5004 15015 mto
5010 14972 lto
5023 14880 lto
5035 14791 lto
5040 14756 lto
5052 14670 lto
5065 14586 lto
5067 14570 lto
st
5089 14422 mto
5090 14418 lto
5103 14336 lto
5113 14273 lto
st
5136 14125 mto
5142 14091 lto
5156 14011 lto
5162 13977 lto
st
5188 13830 mto
5195 13788 lto
5210 13706 lto
5226 13625 lto
5241 13547 lto
5256 13471 lto
5271 13397 lto
5273 13388 lto
st
5304 13241 mto
5316 13188 lto
5320 13170 lto
5335 13105 lto
5337 13095 lto
st
5373 12949 mto
5380 12922 lto
5395 12865 lto
5410 12810 lto
5412 12804 lto
st
5454 12660 mto
5455 12657 lto
5460 12639 lto
5474 12595 lto
5489 12551 lto
5504 12509 lto
5519 12469 lto
5534 12430 lto
5549 12392 lto
5564 12356 lto
5580 12321 lto
5596 12288 lto
5600 12279 lto
5616 12247 lto
5619 12242 lto
st
5697 12114 mto
5699 12111 lto
5717 12088 lto
5734 12066 lto
5740 12059 lto
5759 12038 lto
5778 12019 lto
5796 12003 lto
st
5930 11939 mto
5934 11938 lto
5953 11937 lto
5973 11938 lto
5993 11940 lto
6014 11944 lto
6020 11945 lto
6045 11952 lto
6069 11960 lto
6076 11963 lto
st
6205 12039 mto
6213 12045 lto
6240 12067 lto
6268 12092 lto
6297 12119 lto
6300 12122 lto
6331 12153 lto
6363 12186 lto
6394 12222 lto
6425 12259 lto
6440 12278 lto
6469 12315 lto
6499 12356 lto
6508 12369 lto
st
6594 12492 mto
6618 12529 lto
6658 12592 lto
6675 12619 lto
st
6753 12746 mto
6769 12772 lto
6821 12859 lto
6830 12875 lto
st
6906 13004 mto
6921 13030 lto
6987 13147 lto
7000 13169 lto
7076 13304 lto
7127 13396 lto
st
7201 13527 mto
7274 13658 lto
st
7347 13789 mto
7420 13918 lto
7421 13920 lto
st
7495 14050 mto
7545 14139 lto
7560 14166 lto
7652 14326 lto
7700 14409 lto
7719 14441 lto
st
7795 14570 mto
7840 14647 lto
7871 14699 lto
st
7949 14827 mto
7980 14879 lto
8027 14956 lto
st
8106 15083 mto
8120 15105 lto
8190 15214 lto
8259 15321 lto
8260 15322 lto
8328 15425 lto
8351 15460 lto
st
8436 15584 mto
8471 15635 lto
8522 15707 lto
st
8609 15829 mto
8614 15836 lto
8680 15928 lto
8697 15951 lto
st
8786 16071 mto
8820 16115 lto
8896 16215 lto
8960 16296 lto
9037 16393 lto
9063 16425 lto
st
9159 16541 mto
9179 16566 lto
9240 16638 lto
9255 16656 lto
st
9353 16769 mto
9380 16800 lto
9453 16882 lto
st
9554 16992 mto
9600 17042 lto
9660 17105 lto
9740 17187 lto
9800 17248 lto
9868 17315 lto
st
9975 17420 mto
10024 17466 lto
10080 17518 lto
10085 17522 lto
st
10195 17623 mto
10220 17645 lto
10308 17723 lto
st
10422 17820 mto
10449 17843 lto
10500 17885 lto
10591 17959 lto
10640 17997 lto
10734 18070 lto
10773 18101 lto
st
10894 18190 mto
10920 18210 lto
11015 18279 lto
st
11138 18365 mto
11163 18382 lto
11200 18407 lto
11262 18449 lto
st
11388 18531 mto
11448 18570 lto
11480 18590 lto
11591 18659 lto
11620 18677 lto
11733 18745 lto
11760 18761 lto
11771 18767 lto
st
11900 18842 mto
12018 18907 lto
12032 18915 lto
st
12164 18986 mto
12180 18995 lto
12297 19056 lto
st
12431 19123 mto
12445 19130 lto
12460 19138 lto
12588 19200 lto
12600 19206 lto
12730 19267 lto
12740 19271 lto
12837 19316 lto
st
12974 19376 mto
13015 19394 lto
13020 19396 lto
13112 19435 lto
st
13251 19493 mto
13300 19513 lto
13390 19548 lto
st
13530 19603 mto
13580 19622 lto
13720 19674 lto
13860 19724 lto
13953 19757 lto
st
14095 19805 mto
14140 19820 lto
14237 19852 lto
st
14380 19897 mto
14420 19910 lto
14524 19942 lto
st
14667 19985 mto
14700 19995 lto
14840 20036 lto
14980 20075 lto
15100 20108 lto
st
15245 20146 mto
15260 20150 lto
15390 20184 lto
st
15536 20220 mto
15540 20221 lto
15680 20255 lto
15682 20255 lto
st
15828 20290 mto
15960 20320 lto
16100 20352 lto
16240 20382 lto
16267 20388 lto
st
16414 20419 mto
16520 20441 lto
16560 20449 lto
st
16708 20478 mto
16800 20496 lto
16855 20507 lto
st
17002 20535 mto
17080 20549 lto
17220 20574 lto
17360 20599 lto
17445 20614 lto
st
3780 22000 mto
0 255 div 255 255 div 255 255 div setrgbcolor
3781 22000 lto
st
3860 22000 mto
3888 21998 lto
3914 21995 lto
3920 21994 lto
3937 21991 lto
3953 21986 lto
3968 21981 lto
3982 21975 lto
3995 21968 lto
4007 21960 lto
4019 21950 lto
4031 21939 lto
4042 21928 lto
4053 21915 lto
4060 21906 lto
4071 21890 lto
4082 21872 lto
4093 21853 lto
4103 21833 lto
4114 21811 lto
4124 21787 lto
4134 21762 lto
4144 21735 lto
4153 21709 lto
st
4197 21566 mto
4200 21554 lto
4210 21516 lto
4219 21477 lto
4229 21435 lto
4239 21391 lto
4249 21345 lto
4258 21297 lto
4268 21247 lto
4278 21194 lto
4288 21140 lto
4291 21126 lto
st
4317 20978 mto
4319 20963 lto
4329 20899 lto
4339 20833 lto
4340 20830 lto
st
4362 20682 mto
4370 20625 lto
4381 20551 lto
4391 20475 lto
4402 20395 lto
4413 20313 lto
4423 20236 lto
st
4442 20087 mto
4447 20046 lto
4459 19950 lto
4471 19850 lto
4480 19774 lto
4492 19670 lto
4496 19640 lto
st
4513 19491 mto
4518 19446 lto
4530 19342 lto
st
4547 19193 mto
4562 19058 lto
4579 18910 lto
4597 18747 lto
4597 18746 lto
st
4613 18597 mto
4617 18563 lto
4620 18534 lto
4662 18149 lto
st
4679 18000 mto
4695 17851 lto
st
4712 17702 mto
4732 17524 lto
4759 17284 lto
4760 17271 lto
4762 17255 lto
st
4779 17106 mto
4780 17097 lto
4797 16941 lto
4814 16798 lto
4829 16665 lto
4830 16659 lto
st
4848 16510 mto
4858 16422 lto
4865 16361 lto
st
4883 16212 mto
4884 16203 lto
4897 16101 lto
4900 16076 lto
4913 15971 lto
4927 15867 lto
4940 15766 lto
st
4960 15617 mto
4967 15562 lto
4981 15463 lto
4995 15364 lto
5009 15265 lto
5023 15171 lto
st
5045 15023 mto
5055 14959 lto
5068 14875 lto
st
5092 14727 mto
5100 14679 lto
5114 14590 lto
5129 14503 lto
5144 14419 lto
5158 14337 lto
5168 14283 lto
st
5196 14136 mto
5209 14066 lto
5224 13993 lto
5238 13922 lto
5253 13852 lto
5268 13784 lto
5282 13718 lto
5287 13695 lto
st
5322 13549 mto
5335 13500 lto
5350 13442 lto
5360 13404 lto
st
5400 13260 mto
5409 13229 lto
5425 13180 lto
5440 13133 lto
5455 13087 lto
5460 13073 lto
5476 13029 lto
5491 12987 lto
5507 12946 lto
5523 12908 lto
5538 12872 lto
5554 12838 lto
5554 12837 lto
st
5626 12706 mto
5630 12700 lto
5645 12678 lto
5661 12657 lto
5677 12638 lto
5693 12619 lto
5709 12603 lto
5726 12587 lto
5740 12576 lto
5758 12562 lto
5777 12550 lto
5796 12539 lto
5815 12530 lto
5836 12522 lto
5856 12515 lto
5878 12510 lto
5880 12510 lto
5904 12507 lto
5927 12505 lto
5950 12505 lto
5973 12508 lto
5996 12512 lto
5999 12513 lto
st
6133 12579 mto
6133 12579 lto
6156 12598 lto
6160 12601 lto
6182 12621 lto
6204 12642 lto
6228 12667 lto
6241 12682 lto
st
6338 12797 mto
6363 12831 lto
6398 12878 lto
6436 12930 lto
6440 12935 lto
6492 13009 lto
6541 13079 lto
6580 13138 lto
6597 13164 lto
st
6678 13291 mto
6709 13341 lto
6720 13359 lto
6758 13423 lto
6799 13493 lto
6843 13570 lto
6860 13600 lto
6904 13680 lto
st
6977 13811 mto
7000 13854 lto
7049 13943 lto
st
7120 14075 mto
7140 14111 lto
7268 14345 lto
7280 14366 lto
7337 14469 lto
st
7410 14600 mto
7420 14618 lto
7499 14757 lto
7560 14863 lto
7634 14990 lto
st
7710 15120 mto
7780 15236 lto
7787 15248 lto
st
7865 15376 mto
7916 15460 lto
7980 15562 lto
8051 15675 lto
8105 15757 lto
st
8187 15883 mto
8190 15888 lto
8259 15992 lto
8260 15993 lto
8329 16094 lto
8399 16195 lto
8400 16196 lto
8441 16254 lto
st
8529 16376 mto
8540 16391 lto
8611 16488 lto
8617 16497 lto
st
8709 16616 mto
8753 16673 lto
8820 16759 lto
8894 16851 lto
8960 16932 lto
8990 16967 lto
st
9086 17082 mto
9100 17098 lto
9176 17185 lto
9240 17257 lto
9315 17340 lto
9380 17410 lto
9387 17417 lto
st
9490 17525 mto
9520 17556 lto
9596 17632 lto
st
9703 17737 mto
9741 17773 lto
9800 17830 lto
9882 17905 lto
9940 17958 lto
10024 18032 lto
10035 18041 lto
st
10149 18138 mto
10167 18154 lto
10220 18198 lto
10309 18270 lto
10360 18311 lto
10451 18381 lto
10500 18419 lto
10500 18419 lto
st
10621 18508 mto
10640 18522 lto
10736 18591 lto
10743 18596 lto
st
10866 18681 mto
10878 18689 lto
10920 18717 lto
11021 18783 lto
11060 18809 lto
11163 18874 lto
11200 18897 lto
11245 18924 lto
st
11374 19001 mto
11449 19045 lto
11480 19062 lto
11592 19126 lto
11620 19141 lto
11735 19203 lto
11760 19216 lto
11767 19220 lto
st
11900 19289 mto
11900 19289 lto
12021 19349 lto
12034 19356 lto
st
12169 19421 mto
12180 19426 lto
12306 19485 lto
12320 19491 lto
12450 19549 lto
12460 19554 lto
12580 19606 lto
st
12718 19664 mto
12735 19671 lto
12740 19673 lto
12879 19729 lto
12880 19729 lto
13020 19784 lto
13137 19827 lto
st
13278 19879 mto
13300 19887 lto
13419 19929 lto
st
13561 19977 mto
13580 19983 lto
13720 20029 lto
13860 20074 lto
13990 20114 lto
st
14134 20156 mto
14140 20158 lto
14280 20198 lto
14420 20237 lto
14560 20275 lto
14567 20277 lto
st
14713 20314 mto
14840 20347 lto
14858 20351 lto
st
15004 20387 mto
15120 20414 lto
15260 20447 lto
15400 20478 lto
15442 20487 lto
st
15589 20519 mto
15680 20538 lto
15820 20566 lto
15960 20594 lto
16030 20608 lto
st
16178 20635 mto
16240 20647 lto
16325 20663 lto
st
16473 20690 mto
16520 20698 lto
16660 20722 lto
16800 20745 lto
16916 20764 lto
st
17064 20788 mto
17080 20790 lto
17220 20812 lto
17360 20833 lto
17500 20854 lto
st
3780 22000 mto
255 255 div 0 255 div 255 255 div setrgbcolor
3781 22000 lto
st
3857 22000 mto
3864 22000 lto
3894 21998 lto
3920 21995 lto
3939 21991 lto
3955 21987 lto
3971 21982 lto
3985 21976 lto
3999 21969 lto
4001 21968 lto
st
4100 21858 mto
4106 21848 lto
4117 21827 lto
4128 21804 lto
4139 21781 lto
4149 21755 lto
4160 21728 lto
4162 21722 lto
st
4208 21579 mto
4210 21571 lto
4220 21534 lto
4231 21495 lto
4241 21453 lto
4246 21434 lto
st
4278 21287 mto
4283 21266 lto
4294 21214 lto
4304 21159 lto
4308 21140 lto
st
4335 20993 mto
4337 20982 lto
4340 20964 lto
4351 20903 lto
4360 20845 lto
st
4384 20697 mto
4394 20630 lto
4406 20555 lto
4407 20548 lto
st
4429 20400 mto
4430 20393 lto
4442 20308 lto
4450 20252 lto
st
4470 20103 mto
4480 20032 lto
4491 19954 lto
st
4510 19806 mto
4523 19706 lto
4530 19657 lto
st
4549 19508 mto
4555 19457 lto
4568 19359 lto
st
4586 19210 mto
4591 19172 lto
4605 19062 lto
st
4624 18913 mto
4642 18764 lto
st
4660 18615 mto
4678 18474 lto
4679 18466 lto
st
4697 18317 mto
4704 18263 lto
4716 18168 lto
st
4735 18020 mto
4747 17921 lto
4754 17871 lto
st
4773 17722 mto
4779 17674 lto
4792 17573 lto
st
4812 17425 mto
4815 17401 lto
4832 17276 lto
st
4852 17127 mto
4864 17037 lto
4872 16979 lto
st
4893 16830 mto
4894 16820 lto
4900 16781 lto
4915 16682 lto
st
4936 16533 mto
4947 16462 lto
4959 16385 lto
st
4982 16237 mto
4994 16162 lto
5006 16089 lto
st
5030 15941 mto
5040 15886 lto
5055 15798 lto
5056 15793 lto
st
5082 15645 mto
5085 15631 lto
5100 15551 lto
5110 15498 lto
st
5139 15351 mto
5144 15326 lto
5159 15256 lto
5170 15204 lto
st
5202 15057 mto
5208 15031 lto
5222 14971 lto
5237 14911 lto
st
5273 14766 mto
5281 14737 lto
5297 14680 lto
5312 14624 lto
5313 14621 lto
st
5356 14478 mto
5370 14432 lto
5387 14382 lto
5403 14335 lto
st
5456 14195 mto
5460 14183 lto
5476 14144 lto
5493 14107 lto
5509 14072 lto
5516 14058 lto
st
5590 13927 mto
5591 13925 lto
5600 13912 lto
5616 13891 lto
5632 13871 lto
5648 13852 lto
5664 13835 lto
5681 13819 lto
5687 13814 lto
st
5818 13742 mto
5823 13741 lto
5845 13738 lto
5866 13736 lto
5880 13735 lto
5901 13736 lto
5923 13739 lto
5945 13744 lto
5966 13750 lto
st
6098 13819 mto
6123 13837 lto
6151 13860 lto
6160 13867 lto
6193 13895 lto
6214 13914 lto
st
6319 14021 mto
6332 14035 lto
6364 14073 lto
6397 14113 lto
6415 14137 lto
st
6503 14258 mto
6505 14260 lto
6540 14311 lto
6578 14368 lto
6580 14371 lto
6587 14382 lto
st
6668 14508 mto
6670 14511 lto
6720 14590 lto
6748 14635 lto
st
6827 14762 mto
6860 14815 lto
6906 14890 lto
st
6985 15018 mto
7000 15041 lto
7064 15145 lto
st
7143 15273 mto
7222 15400 lto
st
7301 15528 mto
7381 15655 lto
st
7460 15782 mto
7539 15910 lto
st
7619 16036 mto
7650 16085 lto
7700 16163 lto
st
7782 16288 mto
7840 16376 lto
7865 16413 lto
st
7949 16538 mto
7974 16574 lto
7980 16582 lto
8035 16661 lto
st
8123 16782 mto
8184 16866 lto
8212 16903 lto
st
8303 17022 mto
8325 17051 lto
8392 17135 lto
8396 17140 lto
st
8490 17256 mto
8538 17314 lto
8540 17316 lto
8587 17371 lto
st
8685 17485 mto
8757 17565 lto
8785 17596 lto
st
8886 17707 mto
8899 17721 lto
8960 17786 lto
8989 17816 lto
st
9094 17924 mto
9100 17930 lto
9181 18011 lto
9200 18029 lto
st
9308 18133 mto
9322 18146 lto
9380 18201 lto
9418 18236 lto
st
9529 18336 mto
9603 18400 lto
9643 18434 lto
st
9758 18530 mto
9800 18565 lto
9875 18624 lto
st
9994 18716 mto
10028 18742 lto
10080 18781 lto
10114 18806 lto
st
10236 18893 mto
10313 18946 lto
10360 18978 lto
st
10484 19061 mto
10500 19071 lto
10598 19133 lto
10611 19141 lto
st
10739 19220 mto
10741 19221 lto
10780 19244 lto
10869 19295 lto
st
10999 19369 mto
11028 19385 lto
11060 19402 lto
11131 19440 lto
st
11264 19510 mto
11314 19535 lto
11340 19548 lto
11398 19577 lto
st
11533 19642 mto
11601 19674 lto
11620 19683 lto
11669 19706 lto
st
11806 19767 mto
11887 19802 lto
11900 19808 lto
11944 19826 lto
st
12082 19884 mto
12173 19921 lto
12180 19924 lto
12221 19940 lto
st
12361 19994 mto
12458 20030 lto
12460 20031 lto
12502 20046 lto
st
12643 20097 mto
12740 20130 lto
12785 20145 lto
st
12927 20193 mto
13020 20223 lto
13070 20238 lto
st
13214 20282 mto
13300 20308 lto
13357 20325 lto
st
13502 20366 mto
13580 20388 lto
13646 20406 lto
st
13791 20444 mto
13860 20462 lto
13937 20482 lto
st
14082 20518 mto
14140 20532 lto
14228 20553 lto
st
14374 20586 mto
14420 20596 lto
14521 20618 lto
st
14667 20650 mto
14700 20657 lto
14814 20681 lto
st
14961 20710 mto
14980 20714 lto
15108 20739 lto
st
15256 20766 mto
15260 20767 lto
15400 20793 lto
15403 20794 lto
st
15551 20819 mto
15680 20841 lto
15699 20844 lto
st
15847 20868 mto
15960 20887 lto
15995 20893 lto
st
16143 20916 mto
16240 20930 lto
16292 20938 lto
st
16440 20960 mto
16520 20971 lto
16589 20980 lto
st
16737 21001 mto
16800 21009 lto
16886 21021 lto
st
17035 21040 mto
17080 21046 lto
17184 21059 lto
st
17333 21077 mto
17360 21080 lto
17481 21095 lto
st
3780 22000 mto
0 255 div 255 255 div 0 255 div setrgbcolor
3782 22000 lto
st
3853 22000 mto
3875 21999 lto
3907 21997 lto
3920 21996 lto
3941 21993 lto
3950 21991 lto
st
4041 21952 mto
4051 21944 lto
4060 21936 lto
4073 21923 lto
4087 21908 lto
4100 21891 lto
4109 21878 lto
st
4159 21792 mto
4161 21787 lto
4173 21762 lto
4185 21735 lto
4196 21707 lto
4199 21700 lto
st
4232 21606 mto
4235 21598 lto
4247 21561 lto
4259 21521 lto
4262 21511 lto
st
4289 21414 mto
4295 21390 lto
4308 21342 lto
4314 21318 lto
st
4337 21220 mto
4340 21206 lto
4352 21152 lto
4359 21123 lto
st
4379 21025 mto
4390 20972 lto
4400 20927 lto
st
4419 20829 mto
4431 20765 lto
4437 20730 lto
st
4456 20632 mto
4460 20609 lto
4474 20534 lto
st
4491 20435 mto
4496 20410 lto
4508 20337 lto
st
4525 20238 mto
4529 20216 lto
4542 20140 lto
st
4558 20041 mto
4566 19995 lto
4575 19942 lto
st
4591 19844 mto
4608 19745 lto
st
4624 19646 mto
4640 19548 lto
st
4656 19449 mto
4672 19350 lto
st
4689 19252 mto
4705 19153 lto
st
4721 19054 mto
4737 18956 lto
st
4754 18857 mto
4760 18823 lto
4771 18759 lto
st
4788 18660 mto
4803 18573 lto
4805 18561 lto
st
4822 18463 mto
4823 18457 lto
4840 18365 lto
st
4858 18266 mto
4862 18242 lto
4875 18168 lto
st
4894 18069 mto
4899 18045 lto
4900 18038 lto
4913 17971 lto
st
4932 17873 mto
4937 17849 lto
4952 17775 lto
st
4971 17677 mto
4972 17672 lto
4990 17587 lto
4992 17579 lto
st
5013 17481 mto
5025 17425 lto
5034 17384 lto
st
5056 17286 mto
5057 17283 lto
5075 17210 lto
5080 17189 lto
st
5104 17092 mto
5109 17070 lto
5126 17003 lto
5128 16995 lto
st
5154 16898 mto
5160 16876 lto
5177 16816 lto
5180 16806 lto
5181 16802 lto
st
5210 16706 mto
5214 16693 lto
5231 16639 lto
5240 16611 lto
st
5272 16516 mto
5282 16487 lto
5299 16440 lto
5306 16422 lto
st
5343 16329 mto
5354 16302 lto
5372 16263 lto
5384 16238 lto
st
5428 16148 mto
5444 16119 lto
5460 16090 lto
5477 16061 lto
st
5533 15979 mto
5536 15975 lto
5556 15950 lto
5576 15926 lto
5596 15905 lto
5598 15902 lto
st
5674 15838 mto
5683 15831 lto
5705 15818 lto
5726 15806 lto
5740 15800 lto
5762 15791 lto
5762 15791 lto
st
5860 15774 mto
5879 15774 lto
5880 15774 lto
5905 15776 lto
5931 15779 lto
5957 15785 lto
5959 15786 lto
st
6053 15820 mto
6077 15833 lto
6107 15850 lto
6137 15868 lto
6140 15870 lto
st
6220 15929 mto
6224 15932 lto
6258 15960 lto
6293 15991 lto
6296 15994 lto
st
6369 16063 mto
6376 16070 lto
6416 16112 lto
6438 16135 lto
st
6505 16209 mto
6535 16242 lto
6571 16284 lto
st
6637 16360 mto
6639 16362 lto
6700 16437 lto
st
6763 16514 mto
6795 16553 lto
6826 16592 lto
st
6889 16670 mto
6951 16749 lto
st
7013 16827 mto
7075 16906 lto
st
7136 16984 mto
7140 16989 lto
7198 17063 lto
st
7260 17142 mto
7280 17167 lto
7322 17220 lto
st
7384 17298 mto
7408 17328 lto
7420 17343 lto
7447 17376 lto
st
7510 17454 mto
7522 17469 lto
7560 17516 lto
7573 17532 lto
st
7637 17608 mto
7650 17624 lto
7700 17684 lto
7701 17685 lto
st
7766 17761 mto
7783 17781 lto
7832 17837 lto
st
7898 17911 mto
7920 17936 lto
7965 17986 lto
st
8032 18060 mto
8058 18088 lto
8100 18133 lto
st
8169 18205 mto
8197 18234 lto
8239 18276 lto
st
8310 18347 mto
8338 18375 lto
8382 18417 lto
st
8454 18486 mto
8479 18510 lto
8527 18554 lto
st
8601 18621 mto
8621 18639 lto
8676 18688 lto
st
8752 18753 mto
8763 18763 lto
8820 18811 lto
8828 18818 lto
st
8905 18881 mto
8960 18926 lto
8983 18944 lto
st
9062 19006 mto
9100 19035 lto
9142 19066 lto
st
9222 19126 mto
9240 19140 lto
9303 19185 lto
st
9384 19243 mto
9467 19299 lto
st
9550 19355 mto
9615 19397 lto
9634 19409 lto
st
9718 19462 mto
9757 19486 lto
9800 19513 lto
9803 19515 lto
st
9890 19566 mto
9899 19571 lto
9940 19596 lto
9976 19616 lto
st
10063 19665 mto
10080 19675 lto
10151 19713 lto
st
10239 19760 mto
10326 19805 lto
10328 19806 lto
st
10417 19850 mto
10469 19876 lto
10500 19891 lto
10507 19894 lto
st
10598 19937 mto
10612 19944 lto
10640 19957 lto
10689 19979 lto
st
10780 20019 mto
10872 20059 lto
st
10964 20097 mto
11042 20130 lto
11057 20136 lto
st
11149 20173 mto
11186 20187 lto
11200 20192 lto
11243 20208 lto
st
11336 20244 mto
11340 20245 lto
11431 20277 lto
st
11525 20311 mto
11617 20343 lto
11619 20344 lto
st
11714 20375 mto
11760 20390 lto
11809 20406 lto
st
11905 20436 mto
12000 20466 lto
st
12096 20494 mto
12180 20519 lto
12192 20522 lto
st
12288 20550 mto
12320 20559 lto
12384 20577 lto
st
12481 20603 mto
12578 20628 lto
st
12675 20653 mto
12740 20670 lto
12771 20678 lto
st
12869 20701 mto
12880 20704 lto
12966 20724 lto
st
13063 20747 mto
13160 20768 lto
13161 20768 lto
st
13259 20790 mto
13300 20799 lto
13357 20811 lto
st
13454 20831 mto
13552 20851 lto
st
13650 20871 mto
13720 20884 lto
13749 20890 lto
st
13847 20908 mto
13860 20911 lto
13945 20926 lto
st
14044 20944 mto
14140 20961 lto
14142 20961 lto
st
14241 20978 mto
14280 20985 lto
14339 20995 lto
st
14438 21011 mto
14537 21027 lto
st
14636 21042 mto
14700 21052 lto
14734 21057 lto
st
14833 21072 mto
14840 21073 lto
14932 21086 lto
st
15031 21100 mto
15120 21113 lto
15130 21114 lto
st
15229 21128 mto
15260 21132 lto
15329 21141 lto
st
15428 21154 mto
15527 21166 lto
st
15626 21179 mto
15680 21186 lto
15725 21191 lto
st
15825 21203 mto
15924 21215 lto
st
16023 21226 mto
16100 21234 lto
16123 21237 lto
st
16222 21248 mto
16240 21250 lto
16322 21259 lto
st
16421 21269 mto
16520 21279 lto
16521 21279 lto
st
16620 21289 mto
16660 21293 lto
16720 21299 lto
st
16819 21309 mto
16919 21318 lto
st
17018 21327 mto
17080 21333 lto
17118 21336 lto
st
17217 21345 mto
17220 21345 lto
17317 21353 lto
st
17417 21362 mto
17500 21369 lto
st
3780 22000 mto
0 255 div 0 255 div 0 255 div setrgbcolor
3789 22000 lto
st
3859 22000 mto
3904 21999 lto
3920 21998 lto
3949 21995 lto
3973 21992 lto
3996 21988 lto
4016 21983 lto
4035 21976 lto
4054 21968 lto
4060 21965 lto
4078 21955 lto
4096 21944 lto
4113 21931 lto
4130 21916 lto
4147 21900 lto
4163 21883 lto
4179 21864 lto
4194 21843 lto
4200 21835 lto
4216 21812 lto
4232 21787 lto
4248 21760 lto
4264 21730 lto
4280 21699 lto
4296 21665 lto
4313 21629 lto
4330 21591 lto
4340 21566 lto
4356 21526 lto
4373 21483 lto
4390 21437 lto
4408 21389 lto
4426 21337 lto
4445 21283 lto
4464 21224 lto
4480 21174 lto
4501 21109 lto
4523 21038 lto
4546 20962 lto
4571 20879 lto
4598 20786 lto
4620 20712 lto
4658 20581 lto
4704 20425 lto
4738 20312 lto
4760 20237 lto
4789 20143 lto
4816 20055 lto
4842 19974 lto
4866 19898 lto
4890 19826 lto
4900 19797 lto
4924 19728 lto
4947 19662 lto
4970 19599 lto
4993 19538 lto
5016 19479 lto
5038 19424 lto
5040 19420 lto
5063 19366 lto
5085 19314 lto
5108 19264 lto
5131 19215 lto
5153 19169 lto
5176 19124 lto
5180 19117 lto
5203 19075 lto
5226 19035 lto
5249 18996 lto
5272 18959 lto
5295 18924 lto
5318 18890 lto
5320 18888 lto
5344 18856 lto
5367 18826 lto
5392 18797 lto
5416 18770 lto
5440 18745 lto
5460 18726 lto
5485 18703 lto
5510 18683 lto
5536 18663 lto
5562 18646 lto
5588 18630 lto
5600 18623 lto
5627 18610 lto
5654 18598 lto
5682 18588 lto
5711 18579 lto
5739 18572 lto
5740 18572 lto
5770 18567 lto
5800 18563 lto
5831 18562 lto
5863 18562 lto
5880 18562 lto
5913 18565 lto
5947 18570 lto
5983 18577 lto
6019 18586 lto
6020 18586 lto
6058 18597 lto
6097 18610 lto
6138 18626 lto
6160 18635 lto
6204 18654 lto
6249 18676 lto
6297 18701 lto
6300 18702 lto
6351 18731 lto
6405 18762 lto
6440 18784 lto
6501 18822 lto
6566 18866 lto
6580 18875 lto
6654 18926 lto
6720 18973 lto
6815 19041 lto
6860 19074 lto
6997 19175 lto
7000 19177 lto
7140 19280 lto
7280 19381 lto
7408 19473 lto
7420 19481 lto
7536 19561 lto
7560 19578 lto
7670 19651 lto
7700 19671 lto
7806 19740 lto
7840 19761 lto
7945 19827 lto
7980 19848 lto
8085 19911 lto
8120 19931 lto
8224 19991 lto
8260 20011 lto
8366 20069 lto
8400 20087 lto
8506 20142 lto
8540 20159 lto
8649 20213 lto
8680 20229 lto
8790 20281 lto
8820 20295 lto
8933 20346 lto
8960 20358 lto
9075 20407 lto
9100 20418 lto
9218 20467 lto
9240 20475 lto
9360 20523 lto
9380 20530 lto
9503 20576 lto
9520 20582 lto
9646 20627 lto
9660 20632 lto
9789 20676 lto
9800 20680 lto
9933 20723 lto
9940 20725 lto
10076 20767 lto
10080 20768 lto
10220 20809 lto
10360 20848 lto
10500 20886 lto
10640 20922 lto
10780 20956 lto
10920 20989 lto
11060 21020 lto
11200 21050 lto
11340 21079 lto
11480 21107 lto
11620 21133 lto
11760 21158 lto
11900 21183 lto
12040 21206 lto
12180 21228 lto
12320 21249 lto
12460 21270 lto
12600 21290 lto
12740 21309 lto
12880 21327 lto
13020 21345 lto
13160 21362 lto
13300 21378 lto
13440 21393 lto
13580 21409 lto
13720 21423 lto
13860 21437 lto
14000 21451 lto
14140 21464 lto
14280 21477 lto
14420 21489 lto
14560 21501 lto
14700 21512 lto
14840 21523 lto
14980 21534 lto
15120 21544 lto
15260 21554 lto
15400 21564 lto
15540 21573 lto
15680 21582 lto
15820 21591 lto
15960 21599 lto
16100 21607 lto
16240 21615 lto
16380 21623 lto
16520 21631 lto
16660 21638 lto
16800 21645 lto
16940 21652 lto
17080 21659 lto
17220 21665 lto
17360 21672 lto
17500 21678 lto
st
255 255 div 0 255 div 0 255 div setrgbcolor
[] 0 60 0 0 10 lsty
13200 11576 mto
14800 11576 lto
st
0 255 div 0 255 div 255 255 div setrgbcolor
[100 100 ] 0 40 0 0 10 lsty
13200 12252 mto
14800 12252 lto
st
0 255 div 0 255 div 0 255 div setrgbcolor
[150 150 ] 0 40 0 0 10 lsty
13200 12928 mto
14800 12928 lto
st
255 255 div 0 255 div 255 255 div setrgbcolor
[450 150 ] 0 40 0 0 10 lsty
13200 13604 mto
14800 13604 lto
st
0 255 div 255 255 div 0 255 div setrgbcolor
[450 150 150 150 ] 0 40 0 0 10 lsty
13200 14280 mto
14800 14280 lto
st
255 255 div 128 255 div 0 255 div setrgbcolor
[450 150 150 150 150 150 ] 0 40 0 0 10 lsty
13200 14956 mto
14800 14956 lto
st
0 255 div 255 255 div 255 255 div setrgbcolor
[450 150 450 150 150 150 ] 0 40 0 0 10 lsty
13200 15632 mto
14800 15632 lto
st
255 255 div 0 255 div 255 255 div setrgbcolor
[150 150 ] 0 40 0 0 10 lsty
13200 16308 mto
14800 16308 lto
st
0 255 div 255 255 div 0 255 div setrgbcolor
[100 100 ] 0 40 0 0 10 lsty
13200 16984 mto
14800 16984 lto
st
0 255 div 0 255 div 0 255 div setrgbcolor
[] 0 40 0 0 10 lsty
13200 17660 mto
14800 17660 lto
st
12200 23400 mto
0 0 (T) ashow
1800 15400 mto
[4.32014e-14 -705.556 -705.556 -4.32014e-14 0 0] /Helvetica-ISOLatin1 F
0 0 (C/N) ashow
172 0 rmto
[3.0241e-14 -493.889 -493.889 -3.0241e-14 0 0] /Helvetica-ISOLatin1 F
0 0 (spin) ashow
-172 0 rmto
15082 11764 mto
[564.444 -0 -0 -564.444 0 0] /Helvetica-ISOLatin1 F
0 0 (x=0.0) ashow
15082 12440 mto
0 0 (x=0.1) ashow
15082 13116 mto
0 0 (x=0.2) ashow
15082 13792 mto
0 0 (x=0.3) ashow
15082 14468 mto
0 0 (x=0.4) ashow
15082 15144 mto
0 0 (x=0.5) ashow
15082 15820 mto
0 0 (x=0.6) ashow
15082 16496 mto
0 0 (x=0.7) ashow
15082 17172 mto
0 0 (x=0.8) ashow
15082 17848 mto
0 0 (x=0.9) ashow
EndPage
PageRestore
showpage
end
%%Trailer
%%DocumentNeededResources: 
% font /Helvetica-ISOLatin1
%%EOF
