%!PS-Adobe-3.0 EPSF-3.0
%%Creator: GRA2PS 2.03.20
%%Title: Ngraph
%%CreationDate: 4-30-2017 3:12
%%Pages: 1
%%DocumentNeededResources: (atend)
%%BoundingBox: 32 170 501 534
%%EndComments
%
% Ngraph.ps 2.03.20
%
%%BeginProlog
%
/NgraphDict 100 dict def
NgraphDict begin
%
% Procedure Definition
%
/PageSave {/Sobject save def} bind def
/PageRestore {Sobject restore} bind def
/@Paper {
  72 2540 div -72 2540 div scale % 1unit = 0.01mm
  ANGLE rotate
  0 bottom translate                    % origin is (0 bottom)
} bind def
/BeginPage {@Paper gsave} bind def
/EndPage {grestore} bind def
/box {
  moveto
  1 index 0 rlineto
  0 exch rlineto
  neg 0 rlineto
  closepath } bind def
/view {
  mark
  currentfont
  currentmiterlimit
  currentlinejoin
  currentlinecap
  currentlinewidth
  currentdash
  currentgray
  currentrgbcolor
  grestore gsave
  counttomark dup 6 add exch roll
  pop
  5 3 roll
  translate
  1 eq { 0 0 box clip newpath } { pop pop } ifelse
  setrgbcolor
  setgray
  setdash
  setlinewidth
  setlinecap
  setlinejoin
  setmiterlimit
  setfont
 } bind def
/viewc {
  mark
  currentfont
  currentmiterlimit
  currentlinejoin
  currentlinecap
  currentlinewidth
  currentdash
  currentrgbcolor
  currentgray
  grestore gsave
  counttomark dup 6 add exch roll
  pop
  5 3 roll
  translate
  1 eq { 0 0 box clip newpath } { pop pop } ifelse
  setgray
  setrgbcolor
  setdash
  setlinewidth
  setlinecap
  setlinejoin
  setmiterlimit
  setfont
 } bind def
/F { findfont exch makefont setfont } bind def
/lsty {
  setmiterlimit
  setlinejoin
  setlinecap
  setlinewidth
  setdash } bind def
/mto /moveto load def
/rmto /rmoveto load def
/lto /lineto load def
/rlto /rlineto load def
/st /stroke load def
/l { moveto lineto stroke } bind def
/e { 
  gsave
  newpath
  translate
  0 index 1 exch div 5 1 roll
  1 index 1 exch div 6 1 roll
  scale
  0 0 1 5 3 roll exch 100 div exch 100 div arc
  scale
  stroke
  grestore } bind def
/fe {
  gsave
  newpath
  translate
  0 index 1 exch div 5 1 roll
  1 index 1 exch div 6 1 roll
  scale
  0 0 moveto 0 0 1 5 3 roll exch 100 div exch 100 div arc closepath
  scale
  fill 
  grestore } bind def
/ae {
  gsave
  newpath
  translate
  0 index 1 exch div 5 1 roll
  1 index 1 exch div 6 1 roll
  scale
  0 0 1 5 3 roll exch 100 div exch 100 div arc closepath
  scale
  fill
  grestore } bind def
/pix {
  newpath 20 0 360 arc closepath fill } bind def
/rec {
  box stroke } bind def
/bar {
  box fill } bind def
/lines {
  1 sub
  3 1 roll
  moveto
  {lineto} repeat } bind def
/poly {
  1 sub
  3 1 roll
  moveto
  {lineto} repeat closepath } bind def
/rpo { lines stroke } bind def
/dpo { poly stroke } bind def
/fpo { poly fill } bind def
/epo { poly eofill } bind def
/ashowB {
  3 copy 3 copy 3 copy
  gsave BOLDS 0 rmoveto ashow grestore
  gsave 0 BOLDS rmoveto ashow grestore
  gsave BOLDS BOLDS rmoveto ashow grestore
  ashow } bind def
end
%
% ISOLatin1Encoding
%
/NGPLatin1Encoding 256 array def
0 1 255 {NGPLatin1Encoding exch /.notdef put} for
NGPLatin1Encoding
dup 8#101 /A put          dup 8#306 /AE put         dup 8#301 /Aacute put
dup 8#302 /Acircumflex put dup 8#304 /Adieresis put dup 8#300 /Agrave put
dup 8#305 /Aring put      dup 8#303 /Atilde put     dup 8#102 /B put
dup 8#103 /C put          dup 8#307 /Ccedilla put   dup 8#104 /D put
dup 8#105 /E put          dup 8#311 /Eacute put     dup 8#312 /Ecircumflex put
dup 8#313 /Edieresis put  dup 8#310 /Egrave put     dup 8#320 /Eth put
dup 8#106 /F put          dup 8#107 /G put          dup 8#110 /H put
dup 8#111 /I put          dup 8#315 /Iacute put     dup 8#316 /Icircumflex put
dup 8#317 /Idieresis put  dup 8#314 /Igrave put     dup 8#112 /J put
dup 8#113 /K put          dup 8#114 /L put          dup 8#115 /M put
dup 8#116 /N put          dup 8#321 /Ntilde put     dup 8#117 /O put
dup 8#323 /Oacute put     dup 8#324 /Ocircumflex put dup 8#326 /Odieresis put
dup 8#322 /Ograve put     dup 8#330 /Oslash put     dup 8#325 /Otilde put
dup 8#120 /P put          dup 8#121 /Q put          dup 8#122 /R put
dup 8#123 /S put          dup 8#124 /T put          dup 8#336 /Thorn put
dup 8#125 /U put          dup 8#332 /Uacute put     dup 8#333 /Ucircumflex put
dup 8#334 /Udieresis put  dup 8#331 /Ugrave put     dup 8#126 /V put
dup 8#127 /W put          dup 8#130 /X put          dup 8#131 /Y put
dup 8#335 /Yacute put     dup 8#132 /Z put          dup 8#141 /a put
dup 8#341 /aacute put     dup 8#342 /acircumflex put dup 8#264 /acute put
dup 8#344 /adieresis put  dup 8#346 /ae put         dup 8#340 /agrave put
dup 8#046 /ampersand put  dup 8#345 /aring put      dup 8#136 /asciicircum put
dup 8#176 /asciitilde put dup 8#052 /asterisk put   dup 8#100 /at put
dup 8#343 /atilde put     dup 8#142 /b put          dup 8#134 /backslash put
dup 8#174 /bar put        dup 8#173 /braceleft put  dup 8#175 /braceright put
dup 8#133 /bracketleft put dup 8#135 /bracketright put dup 8#246 /brokenbar put
dup 8#143 /c put          dup 8#347 /ccedilla put   dup 8#242 /cent put
dup 8#072 /colon put      dup 8#054 /comma put      dup 8#251 /copyright put
dup 8#244 /currency put   dup 8#144 /d put          dup 8#260 /degree put
dup 8#367 /divide put     dup 8#044 /dollar put     dup 8#145 /e put
dup 8#351 /eacute put     dup 8#352 /ecircumflex put dup 8#353 /edieresis put
dup 8#350 /egrave put     dup 8#070 /eight put      dup 8#075 /equal put
dup 8#360 /eth put        dup 8#041 /exclam put     dup 8#241 /exclamdown put
dup 8#146 /f put          dup 8#065 /five put       dup 8#064 /four put
dup 8#147 /g put          dup 8#337 /germandbls put dup 8#076 /greater put
dup 8#253 /guillemotleft put dup 8#273 /guillemotright put dup 8#150 /h put
dup 8#255 /hyphen put     dup 8#151 /i put          dup 8#355 /iacute put
dup 8#356 /icircumflex put dup 8#357 /idieresis put dup 8#354 /igrave put
dup 8#152 /j put          dup 8#153 /k put          dup 8#154 /l put
dup 8#074 /less put       dup 8#254 /logicalnot put dup 8#155 /m put
dup 8#055 /minus put      dup 8#265 /mu put         dup 8#327 /multiply put
dup 8#156 /n put          dup 8#071 /nine put       dup 8#361 /ntilde put
dup 8#043 /numbersign put dup 8#157 /o put          dup 8#363 /oacute put
dup 8#364 /ocircumflex put dup 8#366 /odieresis put dup 8#362 /ograve put
dup 8#061 /one put        dup 8#275 /onehalf put    dup 8#274 /onequarter put
dup 8#271 /onesuperior put dup 8#252 /ordfeminine put dup 8#272 /ordmasculine put
dup 8#370 /oslash put     dup 8#365 /otilde put     dup 8#160 /p put
dup 8#266 /paragraph put  dup 8#050 /parenleft put  dup 8#051 /parenright put
dup 8#045 /percent put    dup 8#056 /period put     dup 8#267 /periodcentered put
dup 8#053 /plus put       dup 8#261 /plusminus put  dup 8#161 /q put
dup 8#077 /question put   dup 8#277 /questiondown put dup 8#042 /quotedbl put
dup 8#140 /quoteleft put  dup 8#047 /quoteright put dup 8#162 /r put
dup 8#256 /registered put dup 8#163 /s put          dup 8#247 /section put
dup 8#073 /semicolon put  dup 8#067 /seven put      dup 8#066 /six put
dup 8#057 /slash put      dup 8#040 /space put      dup 8#243 /sterling put
dup 8#164 /t put          dup 8#376 /thorn put      dup 8#063 /three put
dup 8#276 /threequarters put dup 8#263 /threesuperior put dup 8#062 /two put
dup 8#262 /twosuperior put dup 8#165 /u put         dup 8#372 /uacute put
dup 8#373 /ucircumflex put dup 8#374 /udieresis put dup 8#371 /ugrave put
dup 8#137 /underscore put dup 8#166 /v put          dup 8#167 /w put
dup 8#170 /x put          dup 8#171 /y put          dup 8#375 /yacute put
dup 8#377 /ydieresis put  dup 8#245 /yen put        dup 8#172 /z put
dup 8#060 /zero put       dup 8#250 /dieresis put   dup 8#257 /macron put
dup 8#270 /cedilla put
% for ISOLatin1Encoding
%dup 8#220 /dotlessi put   dup 8#221 /grave put      dup 8#222 /acute put
%dup 8#223 /circumflex put dup 8#224 /tilde put      dup 8#225 /macron put
%dup 8#226 /breve put      dup 8#227 /dotaccent put  dup 8#230 /dieresis put
%dup 8#232 /ring put       dup 8#233 /cedilla put    dup 8#235 /hungarumlaut put
%dup 8#236 /ogonek put     dup 8#237 /caron put
% for Windows
dup 8#200 /colonmonetary put dup 8#202 /comma put   dup 8#203 /florin put
dup 8#204 /quotedblbase put dup 8#205 /ellipsis put dup 8#206 /dagger put
dup 8#207 /daggerdbl put  dup 8#210 /circumflex put dup 8#211 /perthousand put
dup 8#212 /Scaron put    dup 8#213 /guilsinglleft put dup 8#214 /OE put
dup 8#221 /quoteleft put dup 8#222 /quoteright put   dup 8#223 /quotedblleft put
dup 8#224 /quotedblright put dup 8#225 /bullet put dup 8#226 /hyphen put
dup 8#227 /emdash put  dup 8#230 /hungarumlaut put dup 8#231 /trademark put
dup 8#232 /scaron put  dup 8#233 /guilsinglright put dup 8#234 /oe put
dup 8#237 /Ydieresis put
pop
/ReEncode {
  findfont
  dup length dict begin
    {1 index /FID ne {def} {pop pop} ifelse} forall
    /Encoding NGPLatin1Encoding def
    currentdict
  end
  definefont
  pop
} bind def
/Times-Roman-ISOLatin1 /Times-Roman ReEncode
/Times-Bold-ISOLatin1 /Times-Bold ReEncode
/Times-Italic-ISOLatin1 /Times-Italic ReEncode
/Times-BoldItalic-ISOLatin1 /Times-BoldItalic ReEncode
/Helvetica-ISOLatin1 /Helvetica ReEncode
/Helvetica-Bold-ISOLatin1 /Helvetica-Bold ReEncode
/Helvetica-Oblique-ISOLatin1 /Helvetica-Oblique ReEncode
/Helvetica-BoldOblique-ISOLatin1 /Helvetica-BoldOblique ReEncode
/Courier-ISOLatin1 /Courier ReEncode
/Courier-Bold-ISOLatin1 /Courier-Bold ReEncode
/Courier-Oblique-ISOLatin1 /Courier-Oblique ReEncode
/Courier-BoldOblique-ISOLatin1 /Courier-BoldOblique ReEncode
%
%%EndProlog
%%Page: Figure 1
%%BeginPageSetup
/ANGLE 0 def
/bottom -29700 def
NgraphDict begin
PageSave
BeginPage
%%EndPageSetup
0 0 21000 29700 1 viewc
0 255 div 0 255 div 0 255 div setrgbcolor
[] 0 40 2 0 10 lsty
3500 22000 17500 22000 l
[] 0 40 0 0 10 lsty
3500 22000 3500 21700 l
4900 22000 4900 21900 l
6300 22000 6300 21800 l
7700 22000 7700 21900 l
9100 22000 9100 21800 l
10500 22000 10500 21900 l
11900 22000 11900 21800 l
13300 22000 13300 21900 l
14700 22000 14700 21800 l
16100 22000 16100 21900 l
17500 22000 17500 21800 l
3304 22738 mto
%IncludeResource: font /Helvetica-ISOLatin1
[705.556 -0 -0 -705.556 0 0] /Helvetica-ISOLatin1 F
0 0 (0) ashow
8904 22738 mto
0 0 (2) ashow
14504 22738 mto
0 0 (4) ashow
[] 0 40 2 0 10 lsty
3500 22000 3500 11000 l
[] 0 40 0 0 10 lsty
3500 22000 3800 22000 l
3500 20428 3600 20428 l
3500 18857 3700 18857 l
3500 17285 3600 17285 l
3500 15714 3700 15714 l
3500 14142 3600 14142 l
3500 12571 3700 12571 l
3008 22244 mto
0 0 (0) ashow
2420 19101 mto
0 0 (0.1) ashow
2420 15958 mto
0 0 (0.2) ashow
2420 12815 mto
0 0 (0.3) ashow
[] 0 40 2 0 10 lsty
3500 11000 17500 11000 l
[] 0 40 0 0 10 lsty
3500 11000 3500 11300 l
4900 11000 4900 11100 l
6300 11000 6300 11200 l
7700 11000 7700 11100 l
9100 11000 9100 11200 l
10500 11000 10500 11100 l
11900 11000 11900 11200 l
13300 11000 13300 11100 l
14700 11000 14700 11200 l
16100 11000 16100 11100 l
17500 11000 17500 11200 l
[] 0 40 2 0 10 lsty
17500 22000 17500 11000 l
[] 0 40 0 0 10 lsty
17500 22000 17200 21999 l
17500 20428 17400 20427 l
17500 18857 17300 18856 l
17500 17285 17400 17284 l
17500 15714 17300 15713 l
17500 14142 17400 14141 l
17500 12571 17300 12570 l
[] 0 60 0 0 10 lsty
3780 22000 mto
255 255 div 0 255 div 0 255 div setrgbcolor
3811 21996 lto
3835 21993 lto
3856 21992 lto
3875 21993 lto
3893 21994 lto
3910 21997 lto
3920 22000 lto
3920 22000 lto
st
4046 22000 mto
4051 21994 lto
4059 21985 lto
4060 21983 lto
4067 21973 lto
4074 21961 lto
4082 21947 lto
4089 21931 lto
4097 21914 lto
4105 21895 lto
4113 21873 lto
4121 21851 lto
4130 21826 lto
4139 21799 lto
4148 21769 lto
4158 21738 lto
4168 21704 lto
4179 21667 lto
4190 21626 lto
4200 21591 lto
4212 21548 lto
4223 21508 lto
4233 21471 lto
4243 21436 lto
4252 21401 lto
4260 21366 lto
4268 21332 lto
4276 21298 lto
4284 21264 lto
4291 21229 lto
4299 21194 lto
4306 21158 lto
4313 21122 lto
4319 21085 lto
4326 21047 lto
4333 21009 lto
4339 20969 lto
4340 20963 lto
4346 20923 lto
4352 20881 lto
4359 20837 lto
4365 20791 lto
4372 20742 lto
4379 20691 lto
4386 20638 lto
4393 20581 lto
4400 20522 lto
4408 20460 lto
4416 20394 lto
4424 20325 lto
4433 20252 lto
4442 20174 lto
4451 20091 lto
4462 20001 lto
4473 19903 lto
4480 19840 lto
4498 19684 lto
4517 19517 lto
4539 19331 lto
4564 19116 lto
4590 18893 lto
4611 18707 lto
4620 18630 lto
4638 18470 lto
4658 18295 lto
4681 18096 lto
4708 17857 lto
4731 17654 lto
4751 17480 lto
4760 17400 lto
4777 17250 lto
4794 17111 lto
4809 16981 lto
4824 16859 lto
4838 16743 lto
4851 16632 lto
4864 16527 lto
4877 16427 lto
4889 16331 lto
4900 16250 lto
4912 16159 lto
4925 16067 lto
4937 15976 lto
4950 15884 lto
4963 15793 lto
4977 15702 lto
4990 15610 lto
5004 15518 lto
5019 15426 lto
5033 15333 lto
5040 15291 lto
5055 15199 lto
5069 15112 lto
5083 15030 lto
5096 14952 lto
5109 14878 lto
5122 14807 lto
5134 14739 lto
5146 14675 lto
5158 14614 lto
5170 14555 lto
5180 14505 lto
5191 14451 lto
5203 14399 lto
5215 14347 lto
5226 14295 lto
5239 14245 lto
5251 14195 lto
5263 14146 lto
5276 14098 lto
5290 14050 lto
5303 14002 lto
5317 13955 lto
5320 13945 lto
5336 13892 lto
5352 13842 lto
5368 13793 lto
5384 13747 lto
5400 13703 lto
5416 13660 lto
5432 13620 lto
5448 13582 lto
5460 13555 lto
5475 13521 lto
5490 13490 lto
5505 13461 lto
5520 13435 lto
5535 13410 lto
5549 13388 lto
5564 13367 lto
5578 13349 lto
5592 13333 lto
5600 13324 lto
5613 13312 lto
5626 13302 lto
5639 13292 lto
5653 13284 lto
5668 13276 lto
5683 13270 lto
5699 13264 lto
5716 13260 lto
5734 13256 lto
5740 13255 lto
5764 13252 lto
5786 13250 lto
5807 13250 lto
5826 13251 lto
5844 13254 lto
5862 13259 lto
5879 13265 lto
5880 13265 lto
5897 13273 lto
5914 13282 lto
5932 13294 lto
5950 13307 lto
5969 13323 lto
5988 13341 lto
6009 13361 lto
6020 13373 lto
6042 13397 lto
6065 13424 lto
6090 13454 lto
6116 13487 lto
6145 13525 lto
6160 13546 lto
6202 13604 lto
6239 13656 lto
6273 13706 lto
6300 13746 lto
6332 13796 lto
6364 13848 lto
6397 13904 lto
6432 13964 lto
6440 13978 lto
6472 14034 lto
6507 14099 lto
6550 14177 lto
6580 14231 lto
6626 14315 lto
6685 14421 lto
6720 14484 lto
6771 14577 lto
6831 14688 lto
6860 14742 lto
6941 14892 lto
6994 14988 lto
7000 14998 lto
7044 15077 lto
7095 15166 lto
7140 15244 lto
7230 15400 lto
7280 15484 lto
7337 15579 lto
7392 15670 lto
7420 15715 lto
7472 15796 lto
7527 15883 lto
7560 15933 lto
7627 16035 lto
7687 16124 lto
7700 16143 lto
7755 16222 lto
7806 16294 lto
7840 16341 lto
7886 16403 lto
7936 16468 lto
7980 16525 lto
8046 16607 lto
8114 16691 lto
8120 16699 lto
8188 16780 lto
8248 16852 lto
8260 16865 lto
8318 16931 lto
8377 16996 lto
8400 17021 lto
8458 17082 lto
8518 17144 lto
8540 17166 lto
8608 17233 lto
8678 17301 lto
8680 17303 lto
8755 17373 lto
8820 17432 lto
8895 17499 lto
8960 17555 lto
9034 17617 lto
9100 17671 lto
9176 17731 lto
9240 17780 lto
9321 17841 lto
9380 17884 lto
9464 17943 lto
9520 17982 lto
9606 18040 lto
9660 18075 lto
9755 18136 lto
9800 18164 lto
9900 18225 lto
9940 18249 lto
10044 18310 lto
10080 18330 lto
10183 18388 lto
10220 18408 lto
10324 18463 lto
10360 18482 lto
10462 18533 lto
10500 18552 lto
10610 18605 lto
10640 18620 lto
10753 18672 lto
10780 18684 lto
10903 18739 lto
10920 18746 lto
11048 18800 lto
11060 18805 lto
11197 18862 lto
11200 18863 lto
11340 18919 lto
11480 18973 lto
11620 19025 lto
11760 19076 lto
11900 19125 lto
12040 19173 lto
12180 19219 lto
12320 19264 lto
12460 19307 lto
12600 19349 lto
12740 19391 lto
12880 19431 lto
13020 19470 lto
13160 19508 lto
13300 19545 lto
13440 19581 lto
13580 19616 lto
13720 19651 lto
13860 19684 lto
14000 19717 lto
14140 19749 lto
14280 19781 lto
14420 19812 lto
14560 19842 lto
14700 19871 lto
14840 19900 lto
14980 19929 lto
15120 19956 lto
15260 19983 lto
15400 20010 lto
15540 20036 lto
15680 20062 lto
15820 20087 lto
15960 20112 lto
16100 20136 lto
16240 20160 lto
16380 20183 lto
16520 20206 lto
16660 20229 lto
16800 20251 lto
16940 20273 lto
17080 20294 lto
17220 20315 lto
17360 20335 lto
17500 20356 lto
st
[] 0 40 0 0 10 lsty
3780 22000 mto
0 255 div 0 255 div 255 255 div setrgbcolor
3782 22000 lto
st
3852 22000 mto
3871 22000 lto
3902 21997 lto
3920 21995 lto
3940 21992 lto
3949 21990 lto
st
4039 21948 mto
4044 21943 lto
4056 21932 lto
4060 21928 lto
4073 21914 lto
4085 21898 lto
4097 21881 lto
4103 21872 lto
st
4151 21784 mto
4156 21772 lto
4168 21745 lto
4179 21717 lto
4189 21692 lto
st
4220 21597 mto
4222 21591 lto
4233 21554 lto
4245 21514 lto
4249 21501 lto
st
4274 21404 mto
4279 21383 lto
4291 21335 lto
4297 21307 lto
st
4319 21209 mto
4326 21177 lto
4338 21120 lto
4340 21111 lto
st
4359 21013 mto
4364 20989 lto
4376 20925 lto
4378 20915 lto
st
4396 20817 mto
4401 20789 lto
4414 20718 lto
st
4431 20620 mto
4440 20564 lto
4447 20521 lto
st
4463 20422 mto
4467 20399 lto
4479 20324 lto
st
4494 20225 mto
4506 20144 lto
4509 20126 lto
st
4524 20027 mto
4535 19952 lto
4538 19928 lto
st
4553 19829 mto
4567 19732 lto
4567 19730 lto
st
4582 19631 mto
4585 19607 lto
4596 19532 lto
st
4610 19433 mto
4620 19363 lto
4624 19334 lto
st
4638 19235 mto
4652 19136 lto
st
4667 19037 mto
4681 18938 lto
st
4696 18839 mto
4709 18750 lto
4710 18740 lto
st
4725 18641 mto
4732 18590 lto
4739 18543 lto
st
4754 18444 mto
4754 18441 lto
4760 18404 lto
4769 18345 lto
st
4784 18246 mto
4799 18147 lto
st
4814 18048 mto
4819 18017 lto
4829 17949 lto
st
4845 17851 mto
4855 17791 lto
4861 17752 lto
st
4877 17653 mto
4889 17584 lto
4894 17555 lto
st
4911 17456 mto
4917 17419 lto
4928 17358 lto
st
4945 17259 mto
4950 17228 lto
4962 17161 lto
st
4980 17062 mto
4983 17047 lto
4999 16964 lto
st
5018 16866 mto
5032 16795 lto
5038 16768 lto
st
5058 16670 mto
5071 16605 lto
5078 16572 lto
st
5100 16474 mto
5104 16457 lto
5120 16383 lto
5121 16377 lto
st
5144 16279 mto
5155 16236 lto
5168 16182 lto
st
5191 16085 mto
5196 16066 lto
5212 16005 lto
5216 15988 lto
st
5243 15892 mto
5256 15844 lto
5269 15797 lto
5270 15795 lto
st
5299 15700 mto
5308 15674 lto
5320 15638 lto
5331 15606 lto
5331 15605 lto
st
5368 15512 mto
5368 15512 lto
5381 15482 lto
5395 15451 lto
5409 15421 lto
st
5453 15331 mto
5460 15318 lto
5460 15317 lto
5482 15274 lto
5499 15242 lto
st
5549 15156 mto
5550 15154 lto
5564 15131 lto
5578 15111 lto
5591 15094 lto
5600 15083 lto
5607 15075 lto
st
5684 15012 mto
5698 15004 lto
5715 14995 lto
5735 14986 lto
5740 14984 lto
5774 14970 lto
5775 14970 lto
st
5870 14941 mto
5874 14940 lto
5880 14940 lto
5903 14938 lto
5926 14938 lto
5949 14940 lto
5970 14944 lto
st
6063 14979 mto
6083 14991 lto
6107 15006 lto
6134 15024 lto
6147 15033 lto
st
6228 15092 mto
6261 15117 lto
6300 15149 lto
6306 15154 lto
st
6381 15220 mto
6388 15226 lto
6432 15267 lto
6440 15274 lto
6454 15288 lto
st
6524 15360 mto
6561 15399 lto
6580 15421 lto
6591 15434 lto
st
6656 15510 mto
6689 15550 lto
6720 15586 lto
6720 15587 lto
st
6786 15662 mto
6821 15703 lto
6852 15738 lto
st
6918 15813 mto
6984 15888 lto
st
7050 15963 mto
7116 16038 lto
st
7181 16114 mto
7224 16163 lto
7247 16189 lto
st
7312 16265 mto
7360 16319 lto
7378 16340 lto
st
7445 16414 mto
7477 16448 lto
7514 16487 lto
st
7582 16559 mto
7652 16632 lto
st
7721 16704 mto
7779 16763 lto
7791 16775 lto
st
7862 16845 mto
7898 16880 lto
7935 16914 lto
st
8008 16982 mto
8052 17022 lto
8082 17049 lto
st
8158 17115 mto
8220 17170 lto
8233 17181 lto
st
8309 17245 mto
8344 17275 lto
8386 17309 lto
st
8464 17372 mto
8478 17384 lto
8540 17433 lto
8542 17435 lto
st
8622 17495 mto
8637 17507 lto
8680 17540 lto
8701 17556 lto
st
8782 17615 mto
8820 17643 lto
8863 17673 lto
st
8945 17731 mto
8960 17742 lto
9027 17787 lto
st
9111 17842 mto
9194 17896 lto
9195 17896 lto
st
9280 17949 mto
9347 17991 lto
9365 18002 lto
st
9451 18053 mto
9489 18076 lto
9520 18094 lto
9537 18104 lto
st
9624 18153 mto
9637 18161 lto
9660 18174 lto
9711 18202 lto
st
9799 18250 mto
9800 18251 lto
9887 18297 lto
st
9976 18343 mto
10061 18387 lto
10065 18389 lto
st
10154 18433 mto
10198 18455 lto
10220 18466 lto
10244 18477 lto
st
10334 18520 mto
10351 18528 lto
10360 18533 lto
10425 18563 lto
st
10516 18604 mto
10607 18645 lto
st
10699 18686 mto
10780 18721 lto
10790 18725 lto
st
10882 18764 mto
10920 18780 lto
10975 18802 lto
st
11068 18840 mto
11161 18877 lto
st
11254 18913 mto
11340 18946 lto
11347 18949 lto
st
11441 18983 mto
11480 18998 lto
11535 19018 lto
st
11629 19052 mto
11723 19085 lto
st
11817 19118 mto
11900 19147 lto
11912 19151 lto
st
12007 19183 mto
12040 19194 lto
12102 19214 lto
st
12197 19245 mto
12292 19276 lto
st
12387 19306 mto
12460 19328 lto
12483 19335 lto
st
12579 19364 mto
12600 19371 lto
12674 19393 lto
st
12770 19421 mto
12867 19448 lto
st
12963 19475 mto
13020 19491 lto
13059 19502 lto
st
13156 19529 mto
13160 19530 lto
13252 19554 lto
st
13349 19580 mto
13440 19604 lto
13446 19605 lto
st
13542 19630 mto
13580 19640 lto
13639 19655 lto
st
13736 19679 mto
13833 19703 lto
st
13931 19727 mto
14000 19744 lto
14028 19751 lto
st
14125 19774 mto
14140 19777 lto
14222 19796 lto
st
14320 19819 mto
14417 19841 lto
st
14515 19863 mto
14560 19873 lto
14613 19884 lto
st
14710 19905 mto
14808 19926 lto
st
14906 19947 mto
14980 19963 lto
15004 19968 lto
st
15102 19987 mto
15120 19991 lto
15200 20007 lto
st
15298 20026 mto
15396 20045 lto
st
15495 20064 mto
15540 20073 lto
15593 20083 lto
st
15691 20102 mto
15789 20120 lto
st
15888 20138 mto
15960 20151 lto
15986 20156 lto
st
16085 20173 mto
16100 20176 lto
16183 20190 lto
st
16282 20207 mto
16380 20224 lto
16380 20224 lto
st
16479 20240 mto
16520 20247 lto
16578 20256 lto
st
16676 20273 mto
16775 20289 lto
st
16874 20305 mto
16940 20315 lto
16972 20320 lto
st
17071 20336 mto
17080 20337 lto
17170 20351 lto
st
17269 20365 mto
17360 20379 lto
17368 20380 lto
st
17467 20394 mto
17500 20399 lto
st
3780 22000 mto
0 255 div 0 255 div 0 255 div setrgbcolor
3782 22000 lto
st
3853 22000 mto
3877 21999 lto
3910 21997 lto
3920 21996 lto
3942 21993 lto
3961 21990 lto
3979 21985 lto
3995 21979 lto
3998 21978 lto
st
4111 21882 mto
4113 21879 lto
4126 21861 lto
4138 21841 lto
4150 21819 lto
4162 21796 lto
4174 21772 lto
4184 21751 lto
st
4236 21611 mto
4247 21579 lto
4259 21540 lto
4271 21500 lto
4280 21467 lto
st
4318 21322 mto
4320 21315 lto
4333 21264 lto
4340 21234 lto
4352 21182 lto
4353 21176 lto
st
4385 21030 mto
4389 21009 lto
4402 20945 lto
4415 20883 lto
st
4444 20735 mto
4444 20733 lto
4459 20654 lto
4471 20588 lto
st
4498 20440 mto
4498 20440 lto
4517 20334 lto
4524 20293 lto
st
4550 20145 mto
4557 20104 lto
4575 19997 lto
st
4601 19849 mto
4603 19838 lto
4620 19738 lto
4626 19701 lto
st
4652 19554 mto
4676 19406 lto
st
4701 19258 mto
4724 19123 lto
4726 19110 lto
st
4751 18962 mto
4754 18942 lto
4760 18909 lto
4776 18814 lto
st
4802 18666 mto
4805 18648 lto
4825 18536 lto
4828 18519 lto
st
4854 18371 mto
4860 18336 lto
4877 18245 lto
4881 18223 lto
st
4909 18076 mto
4916 18038 lto
4933 17954 lto
4938 17929 lto
st
4968 17782 mto
4984 17705 lto
5000 17635 lto
st
5031 17489 mto
5037 17463 lto
5040 17451 lto
5059 17369 lto
5065 17342 lto
st
5100 17197 mto
5116 17132 lto
5136 17057 lto
5137 17051 lto
st
5175 16906 mto
5180 16890 lto
5198 16825 lto
5216 16763 lto
5216 16762 lto
st
5260 16618 mto
5266 16598 lto
5283 16548 lto
5298 16501 lto
5307 16476 lto
st
5361 16336 mto
5366 16323 lto
5382 16286 lto
5398 16249 lto
5415 16213 lto
5422 16199 lto
st
5493 16067 mto
5499 16057 lto
5519 16024 lto
5540 15991 lto
5562 15959 lto
5574 15941 lto
st
5667 15823 mto
5671 15818 lto
5693 15794 lto
5715 15773 lto
5735 15755 lto
5740 15751 lto
5760 15735 lto
5778 15722 lto
st
5914 15663 mto
5930 15660 lto
5956 15656 lto
5982 15654 lto
6009 15654 lto
6020 15655 lto
6047 15657 lto
6063 15660 lto
st
6207 15701 mto
6229 15710 lto
6268 15727 lto
6300 15742 lto
6344 15763 lto
st
6474 15838 mto
6480 15842 lto
6523 15870 lto
6570 15902 lto
6580 15909 lto
6598 15922 lto
st
6717 16013 mto
6720 16015 lto
6764 16051 lto
6815 16094 lto
6832 16109 lto
st
6947 16206 mto
6964 16220 lto
7000 16251 lto
7061 16303 lto
st
7175 16400 mto
7250 16465 lto
7280 16491 lto
7289 16498 lto
st
7402 16597 mto
7420 16612 lto
7516 16695 lto
st
7630 16792 mto
7661 16819 lto
7700 16851 lto
7745 16888 lto
st
7862 16982 mto
7952 17054 lto
7980 17075 lto
st
8098 17167 mto
8120 17185 lto
8217 17259 lto
st
8337 17349 mto
8356 17363 lto
8400 17395 lto
8458 17436 lto
st
8581 17522 mto
8634 17558 lto
8680 17589 lto
8706 17606 lto
st
8831 17688 mto
8957 17769 lto
8957 17769 lto
st
9084 17849 mto
9095 17856 lto
9100 17859 lto
9212 17928 lto
st
9341 18005 mto
9357 18014 lto
9380 18028 lto
9471 18080 lto
st
9602 18152 mto
9629 18167 lto
9660 18184 lto
9734 18223 lto
st
9867 18293 mto
9931 18326 lto
9940 18331 lto
10000 18362 lto
st
10135 18429 mto
10220 18471 lto
10269 18495 lto
st
10405 18559 mto
10494 18600 lto
10500 18603 lto
10541 18622 lto
st
10678 18683 mto
10780 18728 lto
10815 18743 lto
st
10954 18801 mto
11060 18845 lto
11092 18858 lto
st
11232 18914 mto
11340 18957 lto
11371 18969 lto
st
11511 19023 mto
11620 19063 lto
11652 19075 lto
st
11793 19127 mto
11900 19165 lto
11934 19177 lto
st
12076 19226 mto
12180 19261 lto
12218 19274 lto
st
12360 19321 mto
12460 19353 lto
12503 19367 lto
st
12646 19412 mto
12740 19441 lto
12790 19456 lto
st
12933 19499 mto
13020 19524 lto
13077 19540 lto
st
13222 19581 mto
13300 19603 lto
13366 19621 lto
st
13511 19660 mto
13580 19678 lto
13656 19698 lto
st
13802 19736 mto
13860 19751 lto
13947 19773 lto
st
14093 19808 mto
14140 19820 lto
14238 19844 lto
st
14384 19878 mto
14420 19886 lto
14531 19912 lto
st
14677 19945 mto
14700 19950 lto
14823 19977 lto
st
14970 20009 mto
14980 20011 lto
15117 20039 lto
st
15264 20070 mto
15400 20097 lto
15411 20099 lto
st
15558 20128 mto
15680 20152 lto
15705 20157 lto
st
15853 20184 mto
15960 20204 lto
16000 20211 lto
st
16148 20239 mto
16240 20255 lto
16295 20265 lto
st
16443 20290 mto
16520 20303 lto
16591 20315 lto
st
16739 20340 mto
16800 20350 lto
16887 20364 lto
st
17035 20388 mto
17080 20395 lto
17184 20411 lto
st
17332 20434 mto
17360 20438 lto
17480 20456 lto
st
3780 22000 mto
255 255 div 0 255 div 255 255 div setrgbcolor
3782 22000 lto
st
3853 22000 mto
3879 21999 lto
3912 21997 lto
3920 21996 lto
3942 21993 lto
3962 21990 lto
3980 21985 lto
3996 21979 lto
4012 21973 lto
4027 21965 lto
4042 21955 lto
4056 21945 lto
4060 21941 lto
4074 21928 lto
4088 21914 lto
4101 21899 lto
4114 21881 lto
4127 21863 lto
4140 21842 lto
4153 21821 lto
4165 21797 lto
4177 21773 lto
4186 21754 lto
st
4241 21614 mto
4249 21590 lto
4262 21551 lto
4274 21511 lto
4287 21469 lto
4299 21424 lto
4312 21377 lto
4324 21328 lto
4337 21277 lto
4340 21265 lto
4352 21216 lto
4360 21180 lto
st
4392 21034 mto
4402 20988 lto
4416 20924 lto
4430 20855 lto
4444 20783 lto
4459 20706 lto
4475 20624 lto
4480 20597 lto
4481 20593 lto
st
4508 20445 mto
4519 20386 lto
4540 20273 lto
4562 20154 lto
4584 20027 lto
4588 20002 lto
st
4615 19855 mto
4620 19824 lto
4642 19699 lto
4666 19556 lto
4691 19411 lto
st
4717 19263 mto
4722 19235 lto
4744 19109 lto
4760 19020 lto
4783 18892 lto
4796 18820 lto
st
4823 18673 mto
4828 18645 lto
4851 18525 lto
4873 18408 lto
4895 18294 lto
4900 18270 lto
4908 18231 lto
st
4937 18084 mto
4942 18061 lto
4962 17962 lto
4982 17868 lto
5001 17777 lto
5020 17690 lto
5030 17644 lto
st
5064 17497 mto
5076 17445 lto
5094 17372 lto
5111 17301 lto
5128 17233 lto
5145 17169 lto
5162 17107 lto
5174 17061 lto
st
5216 16917 mto
5229 16876 lto
5245 16823 lto
5263 16771 lto
5280 16719 lto
5298 16667 lto
5316 16616 lto
5320 16607 lto
5340 16553 lto
5360 16502 lto
5364 16492 lto
st
5423 16354 mto
5438 16322 lto
5457 16282 lto
5460 16276 lto
5478 16241 lto
5496 16207 lto
5515 16174 lto
5535 16140 lto
5555 16107 lto
5577 16074 lto
5599 16040 lto
5600 16039 lto
5624 16004 lto
5647 15973 lto
5651 15968 lto
st
5752 15857 mto
5757 15853 lto
5776 15838 lto
5795 15825 lto
5814 15812 lto
5835 15800 lto
5858 15789 lto
5880 15778 lto
5912 15765 lto
5942 15754 lto
5970 15746 lto
5996 15739 lto
6020 15735 lto
6044 15732 lto
6069 15731 lto
6096 15732 lto
6124 15734 lto
6154 15737 lto
6160 15738 lto
6171 15740 lto
st
6316 15778 mto
6331 15783 lto
6363 15797 lto
6398 15814 lto
6437 15833 lto
6440 15835 lto
6488 15861 lto
6542 15891 lto
6580 15913 lto
6651 15955 lto
6703 15987 lto
6711 15993 lto
st
6834 16079 mto
6860 16098 lto
6907 16135 lto
6961 16178 lto
7000 16210 lto
7134 16320 lto
7140 16324 lto
7184 16361 lto
st
7301 16455 mto
7372 16514 lto
7420 16554 lto
7521 16639 lto
7560 16672 lto
7647 16743 lto
st
7763 16838 mto
7817 16881 lto
7840 16899 lto
7980 17011 lto
8115 17117 lto
8116 17117 lto
st
8235 17208 mto
8260 17228 lto
8371 17310 lto
8400 17332 lto
8507 17409 lto
8540 17433 lto
8598 17474 lto
st
8721 17560 mto
8820 17628 lto
8956 17719 lto
8960 17722 lto
9078 17800 lto
9095 17811 lto
st
9221 17892 mto
9240 17904 lto
9355 17975 lto
9380 17990 lto
9508 18067 lto
9520 18074 lto
9606 18124 lto
st
9736 18200 mto
9794 18233 lto
9800 18236 lto
9929 18308 lto
9940 18314 lto
10065 18381 lto
10080 18389 lto
10131 18415 lto
st
10264 18484 mto
10352 18529 lto
10360 18533 lto
10500 18602 lto
10640 18669 lto
10668 18682 lto
st
10804 18745 mto
10920 18798 lto
11060 18860 lto
11200 18921 lto
11215 18928 lto
st
11354 18986 mto
11480 19037 lto
11620 19093 lto
11760 19148 lto
11772 19152 lto
st
11912 19205 mto
12040 19252 lto
12180 19302 lto
12320 19351 lto
12336 19356 lto
st
12478 19405 mto
12600 19445 lto
12740 19490 lto
12880 19535 lto
12906 19543 lto
st
13050 19587 mto
13160 19620 lto
13300 19661 lto
13440 19701 lto
13482 19713 lto
st
13626 19753 mto
13720 19778 lto
13860 19815 lto
14000 19851 lto
14062 19867 lto
st
14207 19903 mto
14280 19921 lto
14420 19955 lto
14560 19989 lto
14645 20008 lto
st
14791 20042 mto
14840 20053 lto
14980 20084 lto
15120 20114 lto
15231 20137 lto
st
15377 20167 mto
15400 20172 lto
15540 20200 lto
15680 20228 lto
15819 20255 lto
st
15966 20282 mto
16100 20307 lto
16240 20332 lto
16380 20357 lto
16409 20362 lto
st
16557 20387 mto
16660 20405 lto
16800 20428 lto
16940 20451 lto
17001 20461 lto
st
17149 20484 mto
17220 20495 lto
17360 20516 lto
17500 20537 lto
st
3780 22000 mto
0 255 div 255 255 div 0 255 div setrgbcolor
3782 22000 lto
st
3853 22000 mto
3877 21999 lto
3910 21997 lto
3920 21996 lto
3942 21993 lto
3961 21990 lto
3979 21985 lto
3995 21979 lto
4011 21972 lto
4026 21964 lto
4040 21955 lto
4053 21945 lto
4060 21939 lto
4074 21926 lto
4087 21912 lto
4100 21896 lto
4113 21878 lto
4126 21859 lto
4139 21839 lto
4151 21817 lto
4164 21793 lto
4176 21768 lto
4184 21751 lto
st
4237 21611 mto
4248 21579 lto
4260 21540 lto
4273 21499 lto
4282 21467 lto
st
4321 21323 mto
4323 21314 lto
4336 21262 lto
4340 21243 lto
4352 21190 lto
4365 21135 lto
4378 21076 lto
4391 21015 lto
4405 20951 lto
4418 20883 lto
st
4448 20736 mto
4462 20661 lto
4475 20589 lto
st
4502 20441 mto
4512 20389 lto
4529 20294 lto
4546 20192 lto
4566 20082 lto
4580 19998 lto
st
4605 19850 mto
4609 19825 lto
4620 19763 lto
4630 19702 lto
st
4656 19554 mto
4690 19352 lto
4731 19111 lto
st
4756 18963 mto
4760 18940 lto
4781 18815 lto
st
4807 18667 mto
4810 18650 lto
4829 18537 lto
4847 18435 lto
4864 18340 lto
4880 18253 lto
4885 18224 lto
st
4913 18077 mto
4916 18061 lto
4932 17978 lto
4941 17929 lto
st
4971 17783 mto
4981 17734 lto
4998 17654 lto
5016 17575 lto
5033 17496 lto
5040 17465 lto
5058 17385 lto
5068 17343 lto
st
5103 17197 mto
5114 17153 lto
5133 17078 lto
5140 17052 lto
st
5178 16907 mto
5180 16901 lto
5199 16831 lto
5218 16764 lto
5237 16700 lto
5255 16639 lto
5274 16581 lto
5291 16525 lto
5308 16476 lto
st
5358 16335 mto
5373 16297 lto
5391 16251 lto
5409 16207 lto
5414 16195 lto
st
5477 16059 mto
5480 16052 lto
5500 16012 lto
5520 15974 lto
5540 15938 lto
5561 15902 lto
5582 15868 lto
5600 15841 lto
5623 15808 lto
5645 15777 lto
5668 15748 lto
5690 15722 lto
5713 15697 lto
5724 15686 lto
st
5841 15592 mto
5853 15585 lto
5877 15573 lto
5880 15571 lto
5905 15560 lto
5931 15551 lto
5957 15543 lto
5980 15538 lto
st
6129 15528 mto
6146 15530 lto
6160 15532 lto
6191 15537 lto
6223 15545 lto
6257 15554 lto
6292 15565 lto
6300 15568 lto
6341 15583 lto
6381 15600 lto
6421 15619 lto
6440 15629 lto
6477 15649 lto
6516 15672 lto
6545 15690 lto
st
6668 15775 mto
6673 15779 lto
6720 15814 lto
6787 15866 lto
st
6906 15958 mto
6953 15996 lto
7000 16034 lto
7071 16094 lto
7140 16153 lto
7202 16208 lto
7248 16250 lto
st
7358 16352 mto
7374 16366 lto
7420 16409 lto
7468 16454 lto
st
7579 16555 mto
7665 16633 lto
7700 16664 lto
7794 16746 lto
7840 16786 lto
7916 16853 lto
st
8030 16951 mto
8120 17028 lto
8144 17048 lto
st
8259 17145 mto
8260 17146 lto
8363 17230 lto
8400 17260 lto
8511 17349 lto
8540 17372 lto
8610 17426 lto
st
8728 17518 mto
8800 17573 lto
8820 17588 lto
8848 17609 lto
st
8968 17698 mto
9062 17765 lto
9100 17792 lto
9208 17866 lto
9240 17889 lto
9338 17955 lto
st
9463 18037 mto
9510 18068 lto
9520 18074 lto
9589 18119 lto
st
9716 18199 mto
9789 18244 lto
9800 18251 lto
9926 18327 lto
9940 18335 lto
10060 18406 lto
10080 18417 lto
10102 18430 lto
st
10233 18504 mto
10340 18563 lto
10360 18574 lto
10364 18576 lto
st
10497 18646 mto
10500 18648 lto
10628 18714 lto
10640 18720 lto
10774 18787 lto
10780 18790 lto
10899 18847 lto
st
11035 18912 mto
11060 18924 lto
11171 18975 lto
st
11308 19036 mto
11340 19050 lto
11480 19111 lto
11620 19170 lto
11722 19212 lto
st
11861 19267 mto
11900 19283 lto
12001 19322 lto
st
12141 19375 mto
12180 19390 lto
12320 19441 lto
12460 19491 lto
12565 19527 lto
st
12707 19575 mto
12740 19586 lto
12849 19622 lto
st
12992 19668 mto
13020 19677 lto
13160 19720 lto
13300 19762 lto
13423 19799 lto
st
13567 19840 mto
13580 19844 lto
13711 19881 lto
st
13856 19920 mto
13860 19921 lto
14000 19958 lto
14140 19994 lto
14280 20029 lto
14292 20032 lto
st
14438 20067 mto
14560 20096 lto
14584 20102 lto
st
14730 20136 mto
14840 20161 lto
14980 20192 lto
15120 20222 lto
15169 20232 lto
st
15316 20263 mto
15400 20280 lto
15463 20293 lto
st
15610 20322 mto
15680 20335 lto
15820 20362 lto
15960 20388 lto
16052 20405 lto
st
16200 20432 mto
16240 20439 lto
16348 20457 lto
st
16496 20483 mto
16520 20487 lto
16660 20510 lto
16800 20533 lto
16940 20556 lto
st
17088 20578 mto
17220 20599 lto
17236 20601 lto
st
17385 20624 mto
17500 20640 lto
st
3780 22000 mto
255 255 div 128 255 div 0 255 div setrgbcolor
3782 22000 lto
st
3853 22000 mto
3874 21999 lto
3907 21997 lto
3920 21996 lto
3941 21993 lto
3960 21989 lto
3977 21984 lto
3993 21979 lto
4008 21972 lto
4023 21964 lto
4037 21954 lto
4050 21944 lto
4060 21935 lto
4073 21922 lto
4086 21907 lto
4099 21890 lto
4112 21872 lto
4125 21853 lto
4137 21832 lto
4149 21809 lto
4161 21785 lto
4173 21760 lto
4179 21746 lto
st
4231 21605 mto
4235 21594 lto
4247 21556 lto
4259 21516 lto
4271 21474 lto
4274 21461 lto
st
4313 21316 mto
4320 21285 lto
4332 21232 lto
4340 21198 lto
4346 21170 lto
st
4378 21024 mto
4389 20965 lto
4402 20900 lto
4415 20832 lto
4429 20761 lto
4443 20686 lto
4457 20608 lto
4462 20581 lto
st
4487 20434 mto
4495 20389 lto
4510 20297 lto
4512 20286 lto
st
4536 20138 mto
4543 20097 lto
4561 19990 lto
st
4585 19842 mto
4602 19732 lto
4620 19621 lto
4656 19397 lto
st
4679 19249 mto
4692 19167 lto
4703 19101 lto
st
4726 18953 mto
4747 18828 lto
4751 18805 lto
st
4775 18657 mto
4784 18604 lto
4806 18468 lto
4828 18339 lto
4849 18217 lto
4850 18213 lto
st
4875 18065 mto
4889 17988 lto
4900 17927 lto
4902 17918 lto
st
4929 17770 mto
4938 17720 lto
4956 17623 lto
st
4985 17475 mto
4992 17438 lto
5009 17351 lto
5026 17267 lto
5040 17201 lto
5057 17120 lto
5075 17041 lto
5076 17035 lto
st
5109 16888 mto
5109 16887 lto
5127 16813 lto
5144 16742 lto
st
5180 16597 mto
5198 16531 lto
5216 16465 lto
5219 16452 lto
st
5260 16308 mto
5269 16279 lto
5287 16221 lto
5305 16164 lto
5320 16119 lto
5338 16067 lto
5355 16017 lto
5373 15968 lto
5392 15920 lto
5407 15883 lto
st
5466 15745 mto
5479 15716 lto
5499 15676 lto
5518 15638 lto
5533 15611 lto
st
5613 15484 mto
5618 15476 lto
5636 15452 lto
5655 15429 lto
5675 15406 lto
5695 15385 lto
5710 15370 lto
st
5827 15277 mto
5843 15268 lto
5868 15255 lto
5880 15249 lto
5905 15239 lto
5930 15230 lto
5956 15223 lto
5982 15218 lto
6008 15215 lto
6020 15214 lto
6047 15213 lto
6074 15215 lto
6102 15218 lto
6131 15223 lto
6160 15229 lto
6189 15238 lto
6220 15248 lto
6252 15261 lto
6258 15264 lto
st
6392 15331 mto
6422 15350 lto
6440 15361 lto
6478 15387 lto
6517 15414 lto
st
6633 15508 mto
6658 15530 lto
6704 15571 lto
6720 15586 lto
6745 15609 lto
st
6854 15712 mto
6860 15718 lto
6953 15809 lto
7000 15855 lto
7085 15941 lto
7140 15997 lto
7172 16030 lto
st
7276 16138 mto
7280 16143 lto
7379 16247 lto
st
7484 16355 mto
7559 16432 lto
7560 16434 lto
7588 16462 lto
st
7693 16569 mto
7700 16576 lto
7840 16718 lto
7980 16857 lto
8011 16888 lto
st
8118 16992 mto
8120 16994 lto
8218 17088 lto
8227 17096 lto
st
8337 17198 mto
8357 17216 lto
8400 17256 lto
8448 17299 lto
st
8560 17398 mto
8641 17468 lto
8680 17502 lto
8778 17584 lto
8820 17619 lto
8905 17688 lto
st
9022 17781 mto
9064 17815 lto
9100 17842 lto
9140 17873 lto
st
9260 17964 mto
9353 18034 lto
9380 18053 lto
9380 18053 lto
st
9502 18141 mto
9520 18154 lto
9628 18230 lto
9660 18251 lto
9767 18324 lto
9800 18346 lto
9874 18394 lto
st
10001 18474 mto
10050 18505 lto
10080 18523 lto
10129 18553 lto
st
10257 18630 mto
10336 18675 lto
10360 18689 lto
10387 18704 lto
st
10519 18777 mto
10625 18836 lto
10640 18844 lto
10767 18911 lto
10780 18917 lto
10909 18983 lto
10917 18987 lto
st
11051 19054 mto
11052 19054 lto
11060 19058 lto
11187 19118 lto
st
11322 19182 mto
11336 19188 lto
11340 19190 lto
11459 19243 lto
st
11597 19303 mto
11620 19313 lto
11760 19372 lto
11900 19429 lto
12013 19474 lto
st
12153 19528 mto
12180 19539 lto
12293 19581 lto
st
12434 19632 mto
12460 19641 lto
12576 19682 lto
st
12718 19730 mto
12740 19738 lto
12880 19784 lto
13020 19829 lto
13146 19868 lto
st
13290 19911 mto
13300 19914 lto
13434 19953 lto
st
13578 19994 mto
13580 19995 lto
13720 20034 lto
13722 20035 lto
st
13867 20073 mto
14000 20108 lto
14140 20144 lto
14280 20178 lto
14304 20184 lto
st
14449 20219 mto
14560 20245 lto
14595 20253 lto
st
14742 20286 mto
14840 20308 lto
14888 20319 lto
st
15035 20350 mto
15120 20368 lto
15260 20397 lto
15400 20425 lto
15476 20440 lto
st
15623 20468 mto
15680 20479 lto
15770 20496 lto
st
15918 20523 mto
15960 20530 lto
16066 20549 lto
st
16214 20574 mto
16240 20579 lto
16380 20602 lto
16520 20625 lto
16658 20648 lto
st
16806 20671 mto
16940 20691 lto
16954 20693 lto
st
17102 20715 mto
17220 20732 lto
17251 20736 lto
st
17399 20758 mto
17500 20772 lto
st
3780 22000 mto
0 255 div 255 255 div 255 255 div setrgbcolor
3781 22000 lto
st
3854 22000 mto
3873 22000 lto
3905 21997 lto
3920 21996 lto
3941 21993 lto
3959 21989 lto
3976 21984 lto
3992 21978 lto
4007 21971 lto
4021 21963 lto
4035 21954 lto
4048 21944 lto
4060 21932 lto
4073 21919 lto
4086 21904 lto
4098 21887 lto
4111 21869 lto
4123 21849 lto
4135 21828 lto
4147 21806 lto
4158 21782 lto
4170 21756 lto
4176 21740 lto
st
4228 21600 mto
4234 21579 lto
4246 21541 lto
4257 21501 lto
4269 21458 lto
4281 21414 lto
4292 21367 lto
4304 21318 lto
4316 21267 lto
4328 21214 lto
4339 21164 lto
st
4370 21017 mto
4376 20986 lto
4388 20922 lto
4398 20870 lto
st
4425 20722 mto
4427 20713 lto
4440 20637 lto
4454 20557 lto
4468 20472 lto
4480 20403 lto
4496 20308 lto
4501 20279 lto
st
4525 20130 mto
4529 20103 lto
4546 19992 lto
4565 19873 lto
4585 19745 lto
4594 19686 lto
st
4617 19538 mto
4620 19516 lto
4639 19389 lto
st
4662 19241 mto
4675 19152 lto
4703 18972 lto
4726 18821 lto
4730 18796 lto
st
4753 18648 mto
4760 18603 lto
4782 18466 lto
4803 18332 lto
4825 18204 lto
st
4849 18056 mto
4867 17947 lto
4874 17908 lto
st
4899 17760 mto
4900 17755 lto
4919 17645 lto
4938 17540 lto
4956 17440 lto
4974 17344 lto
4979 17317 lto
st
5007 17170 mto
5008 17165 lto
5024 17081 lto
5040 17002 lto
5057 16921 lto
5073 16841 lto
5090 16763 lto
5098 16729 lto
st
5131 16583 mto
5140 16543 lto
5157 16473 lto
5166 16437 lto
st
5203 16292 mto
5213 16256 lto
5229 16195 lto
5246 16136 lto
5263 16079 lto
5280 16022 lto
5297 15967 lto
5314 15913 lto
5320 15896 lto
5332 15860 lto
st
5383 15719 mto
5392 15694 lto
5410 15649 lto
5428 15606 lto
5446 15564 lto
5460 15534 lto
5477 15498 lto
5495 15463 lto
5513 15429 lto
5531 15397 lto
5549 15366 lto
5568 15336 lto
5581 15316 lto
st
5673 15198 mto
5683 15187 lto
5704 15166 lto
5726 15147 lto
5740 15135 lto
5761 15120 lto
5782 15106 lto
5788 15103 lto
st
5928 15051 mto
5930 15051 lto
5956 15049 lto
5982 15048 lto
6009 15049 lto
6020 15049 lto
6048 15053 lto
6076 15059 lto
6105 15066 lto
6134 15076 lto
6160 15086 lto
6189 15099 lto
6219 15114 lto
6250 15131 lto
6282 15151 lto
6300 15163 lto
6336 15188 lto
6343 15193 lto
st
6461 15286 mto
6484 15306 lto
6529 15346 lto
6574 15388 lto
6580 15394 lto
6624 15437 lto
6670 15485 lto
6720 15537 lto
6776 15597 lto
6780 15602 lto
st
6880 15714 mto
6944 15787 lto
6979 15827 lto
st
7076 15941 mto
7091 15958 lto
7140 16015 lto
7250 16145 lto
7280 16181 lto
7367 16284 lto
st
7464 16399 mto
7542 16489 lto
7560 16510 lto
7672 16639 lto
7700 16670 lto
7760 16738 lto
st
7860 16849 mto
7941 16939 lto
7961 16960 lto
st
8063 17070 mto
8074 17082 lto
8120 17130 lto
8210 17224 lto
8260 17275 lto
8349 17364 lto
8378 17392 lto
st
8485 17497 mto
8491 17503 lto
8540 17549 lto
8632 17635 lto
8680 17679 lto
8773 17764 lto
8816 17802 lto
st
8929 17900 mto
8960 17926 lto
9044 17997 lto
st
9160 18092 mto
9194 18120 lto
9240 18156 lto
9337 18232 lto
9380 18264 lto
9478 18338 lto
9516 18366 lto
st
9638 18454 mto
9660 18470 lto
9762 18541 lto
9800 18567 lto
9905 18637 lto
9940 18660 lto
10011 18706 lto
st
10138 18786 mto
10188 18818 lto
10220 18837 lto
10266 18864 lto
st
10395 18940 mto
10472 18985 lto
10500 19001 lto
10615 19064 lto
10640 19078 lto
10758 19141 lto
10780 19153 lto
10789 19158 lto
st
10922 19226 mto
11043 19286 lto
11060 19294 lto
11186 19355 lto
11200 19361 lto
11328 19421 lto
st
11465 19481 mto
11471 19484 lto
11480 19488 lto
11603 19541 lto
st
11741 19599 mto
11757 19606 lto
11760 19607 lto
11900 19663 lto
11900 19663 lto
12040 19718 lto
12160 19763 lto
st
12301 19814 mto
12320 19821 lto
12460 19870 lto
12600 19918 lto
12727 19960 lto
st
12870 20005 mto
12880 20008 lto
13013 20049 lto
st
13157 20092 mto
13160 20093 lto
13300 20134 lto
13440 20173 lto
13580 20211 lto
13590 20214 lto
st
13735 20252 mto
13860 20284 lto
14000 20319 lto
14140 20352 lto
14172 20360 lto
st
14318 20394 mto
14420 20417 lto
14465 20427 lto
st
14611 20459 mto
14700 20478 lto
14840 20507 lto
14980 20535 lto
15052 20549 lto
st
15199 20578 mto
15260 20590 lto
15400 20616 lto
15540 20641 lto
15642 20659 lto
st
15790 20685 mto
15820 20690 lto
15938 20709 lto
st
16086 20734 mto
16100 20736 lto
16240 20758 lto
16380 20780 lto
16520 20801 lto
16530 20803 lto
st
16679 20825 mto
16800 20842 lto
16940 20861 lto
17080 20880 lto
17125 20886 lto
st
17273 20906 mto
17360 20917 lto
17422 20925 lto
st
3780 22000 mto
255 255 div 0 255 div 255 255 div setrgbcolor
3782 22000 lto
st
3853 22000 mto
3874 21999 lto
3907 21997 lto
3920 21996 lto
3941 21993 lto
3960 21989 lto
3977 21984 lto
3993 21979 lto
3998 21977 lto
st
4109 21878 mto
4112 21873 lto
4124 21854 lto
4136 21833 lto
4148 21811 lto
4160 21787 lto
4172 21762 lto
4179 21746 lto
st
4231 21605 mto
4235 21594 lto
4246 21557 lto
4258 21517 lto
4270 21475 lto
4274 21461 lto
st
4311 21316 mto
4318 21287 lto
4330 21234 lto
4340 21191 lto
4345 21170 lto
st
4376 21023 mto
4376 21022 lto
4388 20960 lto
4401 20895 lto
4405 20876 lto
st
4433 20728 mto
4442 20679 lto
4456 20599 lto
4459 20581 lto
st
4485 20433 mto
4497 20365 lto
4510 20285 lto
st
4535 20137 mto
4551 20042 lto
4559 19989 lto
st
4583 19841 mto
4591 19790 lto
4607 19693 lto
st
4630 19545 mto
4644 19458 lto
4654 19397 lto
st
4677 19249 mto
4700 19100 lto
st
4724 18952 mto
4728 18926 lto
4748 18804 lto
st
4772 18656 mto
4781 18598 lto
4796 18508 lto
st
4821 18360 mto
4822 18356 lto
4841 18243 lto
4846 18212 lto
st
4872 18065 mto
4878 18031 lto
4896 17932 lto
4899 17917 lto
st
4926 17769 mto
4935 17718 lto
4953 17627 lto
4954 17622 lto
st
4983 17475 mto
4987 17453 lto
5004 17371 lto
5013 17328 lto
st
5044 17181 mto
5056 17127 lto
5073 17054 lto
5077 17035 lto
st
5112 16889 mto
5124 16842 lto
5141 16773 lto
5148 16744 lto
st
5187 16599 mto
5198 16559 lto
5216 16496 lto
5228 16454 lto
st
5272 16311 mto
5286 16267 lto
5304 16216 lto
5320 16169 lto
5320 16169 lto
st
5373 16028 mto
5389 15991 lto
5406 15951 lto
5424 15912 lto
5434 15891 lto
st
5504 15759 mto
5515 15739 lto
5534 15710 lto
5553 15681 lto
5572 15654 lto
5588 15635 lto
st
5692 15527 mto
5702 15519 lto
5724 15504 lto
5740 15493 lto
5761 15481 lto
5783 15471 lto
5805 15462 lto
5823 15456 lto
st
5971 15439 mto
5993 15441 lto
6020 15445 lto
6047 15452 lto
6075 15460 lto
6103 15470 lto
6116 15475 lto
st
6245 15550 mto
6246 15551 lto
6278 15574 lto
6300 15591 lto
6335 15620 lto
6362 15644 lto
st
6473 15745 mto
6493 15765 lto
6547 15818 lto
6579 15851 lto
st
6682 15960 mto
6690 15969 lto
6720 16003 lto
6776 16066 lto
6782 16072 lto
st
6879 16186 mto
6937 16255 lto
6976 16301 lto
st
7072 16417 mto
7119 16474 lto
7140 16500 lto
7167 16532 lto
st
7262 16648 mto
7280 16670 lto
7358 16764 lto
st
7454 16879 mto
7528 16968 lto
7550 16994 lto
st
7648 17108 mto
7653 17114 lto
7700 17167 lto
7747 17220 lto
st
7847 17332 mto
7929 17422 lto
7948 17443 lto
st
8051 17552 mto
8069 17572 lto
8120 17625 lto
8154 17661 lto
st
8260 17768 mto
8260 17768 lto
8349 17855 lto
8367 17873 lto
st
8475 17976 mto
8486 17987 lto
8540 18038 lto
8585 18079 lto
st
8696 18179 mto
8766 18240 lto
8809 18278 lto
st
8924 18375 mto
8960 18404 lto
9040 18469 lto
st
9158 18562 mto
9191 18587 lto
9240 18624 lto
9278 18652 lto
st
9399 18741 mto
9477 18796 lto
9520 18826 lto
9522 18827 lto
st
9646 18911 mto
9660 18921 lto
9763 18989 lto
9771 18994 lto
st
9898 19074 mto
9904 19078 lto
9940 19101 lto
10025 19153 lto
st
10155 19229 mto
10188 19248 lto
10220 19266 lto
10285 19303 lto
st
10417 19374 mto
10472 19404 lto
10500 19419 lto
10549 19445 lto
st
10683 19512 mto
10757 19549 lto
10780 19560 lto
10818 19578 lto
st
10954 19642 mto
11043 19683 lto
11060 19690 lto
11091 19703 lto
st
11228 19763 mto
11329 19806 lto
11340 19811 lto
11366 19822 lto
st
11506 19877 mto
11615 19920 lto
11620 19922 lto
11645 19932 lto
st
11786 19984 mto
11900 20026 lto
11927 20035 lto
st
12069 20085 mto
12180 20122 lto
12211 20132 lto
st
12353 20179 mto
12460 20212 lto
12497 20223 lto
st
12640 20266 mto
12740 20295 lto
12784 20308 lto
st
12929 20348 mto
13020 20373 lto
13074 20387 lto
st
13219 20425 mto
13300 20446 lto
13364 20462 lto
st
13510 20498 mto
13580 20514 lto
13656 20532 lto
st
13802 20565 mto
13860 20578 lto
13949 20598 lto
st
14095 20629 mto
14140 20638 lto
14242 20659 lto
st
14390 20688 mto
14420 20694 lto
14537 20717 lto
st
14684 20744 mto
14700 20747 lto
14832 20771 lto
st
14980 20797 mto
14980 20797 lto
15120 20821 lto
15127 20822 lto
st
15275 20847 mto
15400 20867 lto
15423 20871 lto
st
15572 20893 mto
15680 20910 lto
15720 20916 lto
st
15869 20937 mto
15960 20950 lto
16017 20958 lto
st
16166 20979 mto
16240 20989 lto
16314 20999 lto
st
16463 21018 mto
16520 21025 lto
16612 21037 lto
st
16761 21055 mto
16800 21060 lto
16910 21073 lto
st
17059 21090 mto
17080 21092 lto
17208 21107 lto
st
17357 21123 mto
17360 21123 lto
17500 21138 lto
st
3780 22000 mto
0 255 div 255 255 div 0 255 div setrgbcolor
3782 22000 lto
st
3853 22000 mto
3881 21999 lto
3915 21997 lto
3920 21996 lto
3943 21994 lto
3951 21992 lto
st
4043 21957 mto
4044 21956 lto
4058 21945 lto
4060 21944 lto
4074 21931 lto
4088 21917 lto
4102 21902 lto
4114 21886 lto
st
4167 21802 mto
4180 21778 lto
4192 21752 lto
4200 21734 lto
4209 21711 lto
st
4245 21618 mto
4250 21605 lto
4263 21568 lto
4275 21528 lto
4276 21523 lto
st
4305 21427 mto
4314 21396 lto
4328 21347 lto
4332 21331 lto
st
4357 21234 mto
4366 21196 lto
4379 21140 lto
4380 21137 lto
st
4402 21039 mto
4407 21019 lto
4422 20953 lto
4424 20942 lto
st
4445 20844 mto
4452 20811 lto
4465 20746 lto
st
4485 20648 mto
4498 20586 lto
4505 20550 lto
st
4524 20452 mto
4536 20393 lto
4543 20354 lto
st
4562 20256 mto
4578 20169 lto
4580 20157 lto
st
4599 20059 mto
4603 20040 lto
4618 19961 lto
st
4636 19863 mto
4654 19768 lto
4655 19764 lto
st
4673 19666 mto
4691 19568 lto
st
4710 19469 mto
4727 19377 lto
4728 19371 lto
st
4747 19273 mto
4754 19235 lto
4760 19205 lto
4766 19175 lto
st
4785 19077 mto
4804 18978 lto
st
4823 18880 mto
4830 18847 lto
4843 18782 lto
st
4863 18684 mto
4871 18643 lto
4883 18586 lto
st
4904 18488 mto
4920 18415 lto
4925 18391 lto
st
4947 18293 mto
4959 18240 lto
4969 18196 lto
st
4992 18098 mto
4997 18076 lto
5015 18001 lto
st
5039 17904 mto
5040 17899 lto
5059 17826 lto
5064 17807 lto
st
5089 17710 mto
5096 17686 lto
5115 17620 lto
5117 17614 lto
st
5144 17518 mto
5151 17493 lto
5170 17433 lto
5173 17422 lto
st
5204 17327 mto
5217 17289 lto
5235 17236 lto
5236 17233 lto
st
5271 17139 mto
5272 17135 lto
5290 17088 lto
5307 17046 lto
st
5347 16954 mto
5357 16934 lto
5375 16895 lto
5391 16864 lto
st
5440 16777 mto
5451 16758 lto
5460 16744 lto
5479 16715 lto
5494 16693 lto
st
5557 16615 mto
5577 16595 lto
5597 16575 lto
5600 16573 lto
5621 16555 lto
5630 16547 lto
st
5715 16494 mto
5732 16487 lto
5740 16483 lto
5765 16474 lto
5791 16466 lto
5809 16462 lto
st
5909 16453 mto
5909 16453 lto
5938 16455 lto
5968 16459 lto
5998 16464 lto
6008 16467 lto
st
6102 16499 mto
6110 16503 lto
6142 16518 lto
6160 16528 lto
6191 16545 lto
st
6274 16601 mto
6295 16616 lto
6300 16620 lto
6338 16650 lto
6353 16662 lto
st
6429 16727 mto
6440 16736 lto
6489 16781 lto
6503 16794 lto
st
6575 16863 mto
6580 16868 lto
6641 16929 lto
6646 16934 lto
st
6716 17005 mto
6720 17009 lto
6786 17077 lto
st
6854 17150 mto
6860 17156 lto
6922 17223 lto
st
6990 17296 mto
7000 17307 lto
7058 17370 lto
st
7126 17443 mto
7140 17458 lto
7194 17516 lto
st
7262 17590 mto
7280 17609 lto
7331 17663 lto
st
7399 17736 mto
7420 17758 lto
7468 17808 lto
st
7537 17881 mto
7555 17900 lto
7560 17906 lto
7606 17953 lto
st
7675 18025 mto
7679 18029 lto
7700 18051 lto
7745 18096 lto
st
7815 18167 mto
7840 18192 lto
7886 18238 lto
st
7958 18308 mto
7980 18329 lto
8030 18377 lto
st
8103 18446 mto
8120 18462 lto
8176 18514 lto
st
8251 18581 mto
8260 18589 lto
8326 18647 lto
st
8401 18712 mto
8478 18776 lto
st
8555 18839 mto
8624 18894 lto
8634 18902 lto
st
8713 18962 mto
8767 19004 lto
8793 19023 lto
st
8873 19082 mto
8909 19108 lto
8955 19140 lto
st
9037 19197 mto
9052 19208 lto
9100 19240 lto
9120 19253 lto
st
9203 19308 mto
9240 19332 lto
9287 19362 lto
st
9372 19415 mto
9380 19420 lto
9458 19467 lto
st
9544 19518 mto
9623 19564 lto
9630 19568 lto
st
9718 19617 mto
9766 19643 lto
9800 19662 lto
9805 19665 lto
st
9894 19711 mto
9909 19719 lto
9940 19735 lto
9983 19757 lto
st
10072 19802 mto
10080 19806 lto
10162 19846 lto
st
10252 19889 mto
10337 19928 lto
10343 19931 lto
st
10434 19972 mto
10480 19992 lto
10500 20001 lto
10526 20012 lto
st
10618 20051 mto
10622 20053 lto
10640 20061 lto
10710 20089 lto
st
10803 20127 mto
10896 20163 lto
st
10990 20199 mto
11051 20222 lto
11060 20225 lto
11083 20233 lto
st
11177 20268 mto
11195 20274 lto
11200 20275 lto
11272 20300 lto
st
11366 20333 mto
11461 20364 lto
st
11557 20395 mto
11620 20415 lto
11652 20425 lto
st
11747 20454 mto
11760 20458 lto
11843 20482 lto
st
11939 20510 mto
12036 20538 lto
st
12132 20564 mto
12180 20577 lto
12229 20590 lto
st
12326 20614 mto
12422 20639 lto
st
12519 20663 mto
12600 20683 lto
12617 20687 lto
st
12714 20710 mto
12740 20716 lto
12812 20732 lto
st
12909 20753 mto
13007 20775 lto
st
13105 20796 mto
13160 20807 lto
13203 20816 lto
st
13301 20835 mto
13399 20855 lto
st
13497 20874 mto
13580 20889 lto
13595 20892 lto
st
13694 20910 mto
13720 20915 lto
13792 20927 lto
st
13891 20944 mto
13989 20961 lto
st
14088 20977 mto
14140 20986 lto
14187 20994 lto
st
14285 21010 mto
14384 21025 lto
st
14483 21040 mto
14560 21051 lto
14582 21054 lto
st
14681 21069 mto
14700 21072 lto
14780 21083 lto
st
14879 21097 mto
14978 21111 lto
st
15077 21123 mto
15120 21129 lto
15176 21136 lto
st
15276 21149 mto
15375 21161 lto
st
15474 21173 mto
15540 21181 lto
15573 21185 lto
st
15673 21197 mto
15680 21198 lto
15772 21209 lto
st
15871 21220 mto
15960 21229 lto
15971 21230 lto
st
16070 21241 mto
16100 21244 lto
16170 21251 lto
st
16269 21262 mto
16369 21272 lto
st
16468 21282 mto
16520 21287 lto
16568 21291 lto
st
16667 21301 mto
16767 21310 lto
st
16866 21319 mto
16940 21326 lto
16966 21328 lto
st
17066 21337 mto
17080 21338 lto
17165 21345 lto
st
17265 21354 mto
17360 21362 lto
17365 21362 lto
st
17464 21370 mto
17500 21373 lto
st
3780 22000 mto
0 255 div 0 255 div 0 255 div setrgbcolor
3794 22000 lto
st
3860 22000 mto
3907 21999 lto
3920 21998 lto
3949 21996 lto
3974 21992 lto
3997 21988 lto
4018 21983 lto
4037 21976 lto
4056 21968 lto
4060 21967 lto
4079 21957 lto
4097 21945 lto
4114 21933 lto
4131 21918 lto
4148 21902 lto
4165 21885 lto
4181 21866 lto
4197 21846 lto
4200 21842 lto
4216 21819 lto
4232 21795 lto
4249 21768 lto
4265 21739 lto
4282 21708 lto
4298 21674 lto
4315 21639 lto
4332 21601 lto
4340 21584 lto
4357 21544 lto
4374 21502 lto
4391 21458 lto
4409 21410 lto
4428 21359 lto
4447 21305 lto
4467 21247 lto
4480 21209 lto
4501 21145 lto
4524 21075 lto
4548 20999 lto
4574 20916 lto
4603 20823 lto
4620 20768 lto
4661 20634 lto
4705 20491 lto
4739 20382 lto
4760 20317 lto
4789 20225 lto
4817 20140 lto
4844 20061 lto
4869 19987 lto
4894 19917 lto
4900 19899 lto
4924 19832 lto
4949 19767 lto
4972 19705 lto
4996 19646 lto
5019 19590 lto
5040 19541 lto
5063 19488 lto
5087 19437 lto
5110 19388 lto
5133 19341 lto
5157 19296 lto
5180 19253 lto
5203 19213 lto
5226 19174 lto
5250 19137 lto
5273 19101 lto
5297 19067 lto
5320 19036 lto
5344 19005 lto
5368 18976 lto
5393 18949 lto
5418 18923 lto
5443 18898 lto
5460 18883 lto
5486 18861 lto
5512 18841 lto
5539 18822 lto
5566 18804 lto
5594 18788 lto
5600 18785 lto
5629 18771 lto
5658 18759 lto
5687 18748 lto
5717 18739 lto
5740 18733 lto
5771 18727 lto
5803 18723 lto
5835 18721 lto
5868 18720 lto
5880 18720 lto
5914 18722 lto
5948 18726 lto
5984 18731 lto
6020 18739 lto
6058 18749 lto
6097 18760 lto
6137 18775 lto
6160 18783 lto
6203 18801 lto
6249 18822 lto
6296 18845 lto
6300 18847 lto
6352 18874 lto
6407 18905 lto
6440 18923 lto
6504 18961 lto
6573 19004 lto
6580 19009 lto
6661 19061 lto
6720 19099 lto
6827 19170 lto
6860 19193 lto
7000 19288 lto
7140 19383 lto
7280 19477 lto
7420 19570 lto
7549 19653 lto
7560 19660 lto
7680 19735 lto
7700 19748 lto
7815 19818 lto
7840 19832 lto
7953 19898 lto
7980 19914 lto
8091 19977 lto
8120 19993 lto
8231 20053 lto
8260 20068 lto
8371 20126 lto
8400 20140 lto
8512 20196 lto
8540 20210 lto
8653 20263 lto
8680 20276 lto
8795 20328 lto
8820 20339 lto
8937 20389 lto
8960 20399 lto
9079 20448 lto
9100 20457 lto
9222 20505 lto
9240 20512 lto
9364 20558 lto
9380 20564 lto
9507 20610 lto
9520 20614 lto
9650 20659 lto
9660 20662 lto
9793 20706 lto
9800 20708 lto
9937 20750 lto
9940 20751 lto
10080 20793 lto
10220 20833 lto
10360 20871 lto
10500 20907 lto
10640 20941 lto
10780 20975 lto
10920 21006 lto
11060 21037 lto
11200 21066 lto
11340 21094 lto
11480 21120 lto
11620 21146 lto
11760 21170 lto
11900 21194 lto
12040 21216 lto
12180 21238 lto
12320 21259 lto
12460 21279 lto
12600 21298 lto
12740 21316 lto
12880 21334 lto
13020 21351 lto
13160 21368 lto
13300 21384 lto
13440 21399 lto
13580 21414 lto
13720 21428 lto
13860 21442 lto
14000 21455 lto
14140 21468 lto
14280 21480 lto
14420 21492 lto
14560 21504 lto
14700 21515 lto
14840 21525 lto
14980 21536 lto
15120 21546 lto
15260 21556 lto
15400 21565 lto
15540 21574 lto
15680 21583 lto
15820 21592 lto
15960 21600 lto
16100 21608 lto
16240 21616 lto
16380 21624 lto
16520 21631 lto
16660 21639 lto
16800 21646 lto
16940 21652 lto
17080 21659 lto
17220 21665 lto
17360 21672 lto
17500 21678 lto
st
255 255 div 0 255 div 0 255 div setrgbcolor
[] 0 60 0 0 10 lsty
13200 11976 mto
14800 11976 lto
st
0 255 div 0 255 div 255 255 div setrgbcolor
[100 100 ] 0 40 0 0 10 lsty
13200 12652 mto
14800 12652 lto
st
0 255 div 0 255 div 0 255 div setrgbcolor
[150 150 ] 0 40 0 0 10 lsty
13200 13328 mto
14800 13328 lto
st
255 255 div 0 255 div 255 255 div setrgbcolor
[450 150 ] 0 40 0 0 10 lsty
13200 14004 mto
14800 14004 lto
st
0 255 div 255 255 div 0 255 div setrgbcolor
[450 150 150 150 ] 0 40 0 0 10 lsty
13200 14680 mto
14800 14680 lto
st
255 255 div 128 255 div 0 255 div setrgbcolor
[450 150 150 150 150 150 ] 0 40 0 0 10 lsty
13200 15356 mto
14800 15356 lto
st
0 255 div 255 255 div 255 255 div setrgbcolor
[450 150 450 150 150 150 ] 0 40 0 0 10 lsty
13200 16032 mto
14800 16032 lto
st
255 255 div 0 255 div 255 255 div setrgbcolor
[150 150 ] 0 40 0 0 10 lsty
13200 16708 mto
14800 16708 lto
st
0 255 div 255 255 div 0 255 div setrgbcolor
[100 100 ] 0 40 0 0 10 lsty
13200 17384 mto
14800 17384 lto
st
0 255 div 0 255 div 0 255 div setrgbcolor
[] 0 40 0 0 10 lsty
13200 18060 mto
14800 18060 lto
st
12200 23400 mto
0 0 (T) ashow
1800 15400 mto
[4.32014e-14 -705.556 -705.556 -4.32014e-14 0 0] /Helvetica-ISOLatin1 F
0 0 (C/N) ashow
172 0 rmto
[3.0241e-14 -493.889 -493.889 -3.0241e-14 0 0] /Helvetica-ISOLatin1 F
0 0 (spin) ashow
-172 0 rmto
15082 12164 mto
[564.444 -0 -0 -564.444 0 0] /Helvetica-ISOLatin1 F
0 0 (x=0.0) ashow
15082 12840 mto
0 0 (x=0.1) ashow
15082 13516 mto
0 0 (x=0.2) ashow
15082 14192 mto
0 0 (x=0.3) ashow
15082 14868 mto
0 0 (x=0.4) ashow
15082 15544 mto
0 0 (x=0.5) ashow
15082 16220 mto
0 0 (x=0.6) ashow
15082 16896 mto
0 0 (x=0.7) ashow
15082 17572 mto
0 0 (x=0.8) ashow
15082 18248 mto
0 0 (x=0.9) ashow
EndPage
PageRestore
showpage
end
%%Trailer
%%DocumentNeededResources: 
% font /Helvetica-ISOLatin1
%%EOF
