%!PS-Adobe-3.0 EPSF-3.0
%%Creator: GRA2PS 2.03.20
%%Title: Ngraph
%%CreationDate: 4-30-2017 2:28
%%Pages: 1
%%DocumentNeededResources: (atend)
%%BoundingBox: 32 170 501 534
%%EndComments
%
% Ngraph.ps 2.03.20
%
%%BeginProlog
%
/NgraphDict 100 dict def
NgraphDict begin
%
% Procedure Definition
%
/PageSave {/Sobject save def} bind def
/PageRestore {Sobject restore} bind def
/@Paper {
  72 2540 div -72 2540 div scale % 1unit = 0.01mm
  ANGLE rotate
  0 bottom translate                    % origin is (0 bottom)
} bind def
/BeginPage {@Paper gsave} bind def
/EndPage {grestore} bind def
/box {
  moveto
  1 index 0 rlineto
  0 exch rlineto
  neg 0 rlineto
  closepath } bind def
/view {
  mark
  currentfont
  currentmiterlimit
  currentlinejoin
  currentlinecap
  currentlinewidth
  currentdash
  currentgray
  currentrgbcolor
  grestore gsave
  counttomark dup 6 add exch roll
  pop
  5 3 roll
  translate
  1 eq { 0 0 box clip newpath } { pop pop } ifelse
  setrgbcolor
  setgray
  setdash
  setlinewidth
  setlinecap
  setlinejoin
  setmiterlimit
  setfont
 } bind def
/viewc {
  mark
  currentfont
  currentmiterlimit
  currentlinejoin
  currentlinecap
  currentlinewidth
  currentdash
  currentrgbcolor
  currentgray
  grestore gsave
  counttomark dup 6 add exch roll
  pop
  5 3 roll
  translate
  1 eq { 0 0 box clip newpath } { pop pop } ifelse
  setgray
  setrgbcolor
  setdash
  setlinewidth
  setlinecap
  setlinejoin
  setmiterlimit
  setfont
 } bind def
/F { findfont exch makefont setfont } bind def
/lsty {
  setmiterlimit
  setlinejoin
  setlinecap
  setlinewidth
  setdash } bind def
/mto /moveto load def
/rmto /rmoveto load def
/lto /lineto load def
/rlto /rlineto load def
/st /stroke load def
/l { moveto lineto stroke } bind def
/e { 
  gsave
  newpath
  translate
  0 index 1 exch div 5 1 roll
  1 index 1 exch div 6 1 roll
  scale
  0 0 1 5 3 roll exch 100 div exch 100 div arc
  scale
  stroke
  grestore } bind def
/fe {
  gsave
  newpath
  translate
  0 index 1 exch div 5 1 roll
  1 index 1 exch div 6 1 roll
  scale
  0 0 moveto 0 0 1 5 3 roll exch 100 div exch 100 div arc closepath
  scale
  fill 
  grestore } bind def
/ae {
  gsave
  newpath
  translate
  0 index 1 exch div 5 1 roll
  1 index 1 exch div 6 1 roll
  scale
  0 0 1 5 3 roll exch 100 div exch 100 div arc closepath
  scale
  fill
  grestore } bind def
/pix {
  newpath 20 0 360 arc closepath fill } bind def
/rec {
  box stroke } bind def
/bar {
  box fill } bind def
/lines {
  1 sub
  3 1 roll
  moveto
  {lineto} repeat } bind def
/poly {
  1 sub
  3 1 roll
  moveto
  {lineto} repeat closepath } bind def
/rpo { lines stroke } bind def
/dpo { poly stroke } bind def
/fpo { poly fill } bind def
/epo { poly eofill } bind def
/ashowB {
  3 copy 3 copy 3 copy
  gsave BOLDS 0 rmoveto ashow grestore
  gsave 0 BOLDS rmoveto ashow grestore
  gsave BOLDS BOLDS rmoveto ashow grestore
  ashow } bind def
end
%
% ISOLatin1Encoding
%
/NGPLatin1Encoding 256 array def
0 1 255 {NGPLatin1Encoding exch /.notdef put} for
NGPLatin1Encoding
dup 8#101 /A put          dup 8#306 /AE put         dup 8#301 /Aacute put
dup 8#302 /Acircumflex put dup 8#304 /Adieresis put dup 8#300 /Agrave put
dup 8#305 /Aring put      dup 8#303 /Atilde put     dup 8#102 /B put
dup 8#103 /C put          dup 8#307 /Ccedilla put   dup 8#104 /D put
dup 8#105 /E put          dup 8#311 /Eacute put     dup 8#312 /Ecircumflex put
dup 8#313 /Edieresis put  dup 8#310 /Egrave put     dup 8#320 /Eth put
dup 8#106 /F put          dup 8#107 /G put          dup 8#110 /H put
dup 8#111 /I put          dup 8#315 /Iacute put     dup 8#316 /Icircumflex put
dup 8#317 /Idieresis put  dup 8#314 /Igrave put     dup 8#112 /J put
dup 8#113 /K put          dup 8#114 /L put          dup 8#115 /M put
dup 8#116 /N put          dup 8#321 /Ntilde put     dup 8#117 /O put
dup 8#323 /Oacute put     dup 8#324 /Ocircumflex put dup 8#326 /Odieresis put
dup 8#322 /Ograve put     dup 8#330 /Oslash put     dup 8#325 /Otilde put
dup 8#120 /P put          dup 8#121 /Q put          dup 8#122 /R put
dup 8#123 /S put          dup 8#124 /T put          dup 8#336 /Thorn put
dup 8#125 /U put          dup 8#332 /Uacute put     dup 8#333 /Ucircumflex put
dup 8#334 /Udieresis put  dup 8#331 /Ugrave put     dup 8#126 /V put
dup 8#127 /W put          dup 8#130 /X put          dup 8#131 /Y put
dup 8#335 /Yacute put     dup 8#132 /Z put          dup 8#141 /a put
dup 8#341 /aacute put     dup 8#342 /acircumflex put dup 8#264 /acute put
dup 8#344 /adieresis put  dup 8#346 /ae put         dup 8#340 /agrave put
dup 8#046 /ampersand put  dup 8#345 /aring put      dup 8#136 /asciicircum put
dup 8#176 /asciitilde put dup 8#052 /asterisk put   dup 8#100 /at put
dup 8#343 /atilde put     dup 8#142 /b put          dup 8#134 /backslash put
dup 8#174 /bar put        dup 8#173 /braceleft put  dup 8#175 /braceright put
dup 8#133 /bracketleft put dup 8#135 /bracketright put dup 8#246 /brokenbar put
dup 8#143 /c put          dup 8#347 /ccedilla put   dup 8#242 /cent put
dup 8#072 /colon put      dup 8#054 /comma put      dup 8#251 /copyright put
dup 8#244 /currency put   dup 8#144 /d put          dup 8#260 /degree put
dup 8#367 /divide put     dup 8#044 /dollar put     dup 8#145 /e put
dup 8#351 /eacute put     dup 8#352 /ecircumflex put dup 8#353 /edieresis put
dup 8#350 /egrave put     dup 8#070 /eight put      dup 8#075 /equal put
dup 8#360 /eth put        dup 8#041 /exclam put     dup 8#241 /exclamdown put
dup 8#146 /f put          dup 8#065 /five put       dup 8#064 /four put
dup 8#147 /g put          dup 8#337 /germandbls put dup 8#076 /greater put
dup 8#253 /guillemotleft put dup 8#273 /guillemotright put dup 8#150 /h put
dup 8#255 /hyphen put     dup 8#151 /i put          dup 8#355 /iacute put
dup 8#356 /icircumflex put dup 8#357 /idieresis put dup 8#354 /igrave put
dup 8#152 /j put          dup 8#153 /k put          dup 8#154 /l put
dup 8#074 /less put       dup 8#254 /logicalnot put dup 8#155 /m put
dup 8#055 /minus put      dup 8#265 /mu put         dup 8#327 /multiply put
dup 8#156 /n put          dup 8#071 /nine put       dup 8#361 /ntilde put
dup 8#043 /numbersign put dup 8#157 /o put          dup 8#363 /oacute put
dup 8#364 /ocircumflex put dup 8#366 /odieresis put dup 8#362 /ograve put
dup 8#061 /one put        dup 8#275 /onehalf put    dup 8#274 /onequarter put
dup 8#271 /onesuperior put dup 8#252 /ordfeminine put dup 8#272 /ordmasculine put
dup 8#370 /oslash put     dup 8#365 /otilde put     dup 8#160 /p put
dup 8#266 /paragraph put  dup 8#050 /parenleft put  dup 8#051 /parenright put
dup 8#045 /percent put    dup 8#056 /period put     dup 8#267 /periodcentered put
dup 8#053 /plus put       dup 8#261 /plusminus put  dup 8#161 /q put
dup 8#077 /question put   dup 8#277 /questiondown put dup 8#042 /quotedbl put
dup 8#140 /quoteleft put  dup 8#047 /quoteright put dup 8#162 /r put
dup 8#256 /registered put dup 8#163 /s put          dup 8#247 /section put
dup 8#073 /semicolon put  dup 8#067 /seven put      dup 8#066 /six put
dup 8#057 /slash put      dup 8#040 /space put      dup 8#243 /sterling put
dup 8#164 /t put          dup 8#376 /thorn put      dup 8#063 /three put
dup 8#276 /threequarters put dup 8#263 /threesuperior put dup 8#062 /two put
dup 8#262 /twosuperior put dup 8#165 /u put         dup 8#372 /uacute put
dup 8#373 /ucircumflex put dup 8#374 /udieresis put dup 8#371 /ugrave put
dup 8#137 /underscore put dup 8#166 /v put          dup 8#167 /w put
dup 8#170 /x put          dup 8#171 /y put          dup 8#375 /yacute put
dup 8#377 /ydieresis put  dup 8#245 /yen put        dup 8#172 /z put
dup 8#060 /zero put       dup 8#250 /dieresis put   dup 8#257 /macron put
dup 8#270 /cedilla put
% for ISOLatin1Encoding
%dup 8#220 /dotlessi put   dup 8#221 /grave put      dup 8#222 /acute put
%dup 8#223 /circumflex put dup 8#224 /tilde put      dup 8#225 /macron put
%dup 8#226 /breve put      dup 8#227 /dotaccent put  dup 8#230 /dieresis put
%dup 8#232 /ring put       dup 8#233 /cedilla put    dup 8#235 /hungarumlaut put
%dup 8#236 /ogonek put     dup 8#237 /caron put
% for Windows
dup 8#200 /colonmonetary put dup 8#202 /comma put   dup 8#203 /florin put
dup 8#204 /quotedblbase put dup 8#205 /ellipsis put dup 8#206 /dagger put
dup 8#207 /daggerdbl put  dup 8#210 /circumflex put dup 8#211 /perthousand put
dup 8#212 /Scaron put    dup 8#213 /guilsinglleft put dup 8#214 /OE put
dup 8#221 /quoteleft put dup 8#222 /quoteright put   dup 8#223 /quotedblleft put
dup 8#224 /quotedblright put dup 8#225 /bullet put dup 8#226 /hyphen put
dup 8#227 /emdash put  dup 8#230 /hungarumlaut put dup 8#231 /trademark put
dup 8#232 /scaron put  dup 8#233 /guilsinglright put dup 8#234 /oe put
dup 8#237 /Ydieresis put
pop
/ReEncode {
  findfont
  dup length dict begin
    {1 index /FID ne {def} {pop pop} ifelse} forall
    /Encoding NGPLatin1Encoding def
    currentdict
  end
  definefont
  pop
} bind def
/Times-Roman-ISOLatin1 /Times-Roman ReEncode
/Times-Bold-ISOLatin1 /Times-Bold ReEncode
/Times-Italic-ISOLatin1 /Times-Italic ReEncode
/Times-BoldItalic-ISOLatin1 /Times-BoldItalic ReEncode
/Helvetica-ISOLatin1 /Helvetica ReEncode
/Helvetica-Bold-ISOLatin1 /Helvetica-Bold ReEncode
/Helvetica-Oblique-ISOLatin1 /Helvetica-Oblique ReEncode
/Helvetica-BoldOblique-ISOLatin1 /Helvetica-BoldOblique ReEncode
/Courier-ISOLatin1 /Courier ReEncode
/Courier-Bold-ISOLatin1 /Courier-Bold ReEncode
/Courier-Oblique-ISOLatin1 /Courier-Oblique ReEncode
/Courier-BoldOblique-ISOLatin1 /Courier-BoldOblique ReEncode
%
%%EndProlog
%%Page: Figure 1
%%BeginPageSetup
/ANGLE 0 def
/bottom -29700 def
NgraphDict begin
PageSave
BeginPage
%%EndPageSetup
0 0 21000 29700 1 viewc
0 255 div 0 255 div 0 255 div setrgbcolor
[] 0 40 2 0 10 lsty
3500 22000 17500 22000 l
[] 0 40 0 0 10 lsty
3500 22000 3500 21700 l
4900 22000 4900 21900 l
6300 22000 6300 21800 l
7700 22000 7700 21900 l
9100 22000 9100 21800 l
10500 22000 10500 21900 l
11900 22000 11900 21800 l
13300 22000 13300 21900 l
14700 22000 14700 21800 l
16100 22000 16100 21900 l
17500 22000 17500 21800 l
3304 22738 mto
%IncludeResource: font /Helvetica-ISOLatin1
[705.556 -0 -0 -705.556 0 0] /Helvetica-ISOLatin1 F
0 0 (0) ashow
8904 22738 mto
0 0 (2) ashow
14504 22738 mto
0 0 (4) ashow
[] 0 40 2 0 10 lsty
3500 22000 3500 11000 l
[] 0 40 0 0 10 lsty
3500 22000 3800 22000 l
3500 20472 3700 20472 l
3500 18944 3700 18944 l
3500 17416 3700 17416 l
3500 15888 3700 15888 l
3500 14361 3700 14361 l
3500 12833 3700 12833 l
3500 11305 3700 11305 l
3008 22244 mto
0 0 (0) ashow
2420 19188 mto
0 0 (0.2) ashow
2420 16132 mto
0 0 (0.4) ashow
2420 13077 mto
0 0 (0.6) ashow
[] 0 40 2 0 10 lsty
3500 11000 17500 11000 l
[] 0 40 0 0 10 lsty
3500 11000 3500 11300 l
4900 11000 4900 11100 l
6300 11000 6300 11200 l
7700 11000 7700 11100 l
9100 11000 9100 11200 l
10500 11000 10500 11100 l
11900 11000 11900 11200 l
13300 11000 13300 11100 l
14700 11000 14700 11200 l
16100 11000 16100 11100 l
17500 11000 17500 11200 l
[] 0 40 2 0 10 lsty
17500 22000 17500 11000 l
[] 0 40 0 0 10 lsty
17500 22000 17200 21999 l
17500 20472 17300 20471 l
17500 18944 17300 18943 l
17500 17416 17300 17415 l
17500 15888 17300 15887 l
17500 14361 17300 14360 l
17500 12833 17300 12832 l
17500 11305 17300 11304 l
[] 0 60 0 0 10 lsty
3780 18856 mto
255 255 div 0 255 div 0 255 div setrgbcolor
3920 18856 lto
4046 18856 lto
4060 18856 lto
4101 18855 lto
4133 18853 lto
4160 18850 lto
4185 18846 lto
4200 18843 lto
4225 18836 lto
4250 18827 lto
4275 18816 lto
4302 18803 lto
4329 18788 lto
4340 18782 lto
4367 18764 lto
4393 18746 lto
4417 18726 lto
4441 18706 lto
4464 18684 lto
4480 18668 lto
4502 18644 lto
4525 18618 lto
4548 18590 lto
4572 18558 lto
4597 18524 lto
4620 18491 lto
4648 18448 lto
4677 18404 lto
4707 18356 lto
4736 18306 lto
4760 18265 lto
4790 18211 lto
4820 18154 lto
4853 18093 lto
4886 18027 lto
4900 18000 lto
4938 17925 lto
4978 17842 lto
5021 17751 lto
5040 17712 lto
5095 17595 lto
5157 17462 lto
5180 17412 lto
5259 17242 lto
5320 17109 lto
5392 16955 lto
5460 16812 lto
5460 16812 lto
5519 16689 lto
5573 16580 lto
5600 16525 lto
5650 16425 lto
5701 16327 lto
5740 16252 lto
5790 16158 lto
5839 16067 lto
5880 15994 lto
5929 15909 lto
5977 15825 lto
6020 15753 lto
6068 15674 lto
6116 15597 lto
6160 15528 lto
6208 15456 lto
6257 15383 lto
6300 15320 lto
6351 15248 lto
6403 15177 lto
6440 15127 lto
6491 15061 lto
6542 14996 lto
6580 14949 lto
6633 14884 lto
6688 14821 lto
6720 14784 lto
6776 14721 lto
6833 14660 lto
6860 14631 lto
6918 14571 lto
6977 14513 lto
7000 14490 lto
7061 14432 lto
7123 14374 lto
7140 14359 lto
7204 14302 lto
7269 14246 lto
7280 14237 lto
7347 14182 lto
7415 14128 lto
7420 14124 lto
7490 14071 lto
7560 14019 lto
7634 13966 lto
7700 13921 lto
7776 13870 lto
7840 13829 lto
7921 13779 lto
7980 13743 lto
8065 13694 lto
8120 13662 lto
8208 13614 lto
8260 13587 lto
8353 13539 lto
8400 13516 lto
8496 13469 lto
8540 13448 lto
8642 13402 lto
8680 13385 lto
8786 13339 lto
8820 13325 lto
8929 13280 lto
8960 13268 lto
9076 13223 lto
9100 13214 lto
9217 13171 lto
9240 13163 lto
9367 13119 lto
9380 13114 lto
9507 13072 lto
9520 13068 lto
9655 13025 lto
9660 13023 lto
9800 12981 lto
9800 12981 lto
9940 12941 lto
10080 12902 lto
10220 12865 lto
10360 12829 lto
10500 12795 lto
10640 12762 lto
10780 12731 lto
10920 12700 lto
11060 12671 lto
11200 12643 lto
11340 12616 lto
11480 12589 lto
11620 12564 lto
11760 12540 lto
11900 12516 lto
12040 12493 lto
12180 12471 lto
12320 12450 lto
12460 12429 lto
12600 12409 lto
12740 12389 lto
12880 12370 lto
13020 12352 lto
13160 12334 lto
13300 12317 lto
13440 12300 lto
13580 12284 lto
13720 12268 lto
13860 12253 lto
14000 12238 lto
14140 12223 lto
14280 12209 lto
14420 12195 lto
14560 12182 lto
14700 12169 lto
14840 12156 lto
14980 12143 lto
15120 12131 lto
15260 12120 lto
15400 12108 lto
15540 12097 lto
15680 12086 lto
15820 12075 lto
15960 12065 lto
16100 12055 lto
16240 12045 lto
16380 12035 lto
16520 12026 lto
16660 12016 lto
16800 12007 lto
16940 11998 lto
17080 11990 lto
17220 11981 lto
17360 11973 lto
17500 11965 lto
st
[] 0 40 0 0 10 lsty
3780 17856 mto
0 255 div 0 255 div 255 255 div setrgbcolor
3880 17856 lto
st
3980 17855 mto
4015 17855 lto
4060 17854 lto
4080 17853 lto
st
4179 17842 mto
4200 17838 lto
4232 17830 lto
4263 17821 lto
4276 17816 lto
st
4367 17775 mto
4369 17774 lto
4398 17757 lto
4427 17737 lto
4450 17721 lto
st
4527 17656 mto
4537 17647 lto
4566 17618 lto
4596 17587 lto
4597 17585 lto
st
4663 17510 mto
4680 17488 lto
4712 17448 lto
4725 17431 lto
st
4784 17350 mto
4795 17335 lto
4831 17282 lto
4840 17268 lto
st
4896 17185 mto
4900 17178 lto
4943 17110 lto
4949 17100 lto
st
5002 17015 mto
5038 16956 lto
5040 16953 lto
5054 16930 lto
st
5105 16844 mto
5156 16758 lto
st
5207 16672 mto
5258 16586 lto
st
5309 16500 mto
5320 16481 lto
5360 16414 lto
st
5411 16328 mto
5460 16246 lto
5462 16242 lto
st
5514 16157 mto
5531 16129 lto
5566 16071 lto
st
5620 15987 mto
5662 15920 lto
5673 15902 lto
st
5728 15818 mto
5740 15799 lto
5783 15735 lto
st
5839 15652 mto
5855 15628 lto
5880 15592 lto
5896 15570 lto
st
5954 15488 mto
5996 15429 lto
6012 15407 lto
st
6072 15327 mto
6076 15321 lto
6133 15247 lto
st
6195 15169 mto
6216 15142 lto
6258 15092 lto
st
6322 15015 mto
6359 14971 lto
6387 14939 lto
st
6454 14865 mto
6501 14813 lto
6522 14791 lto
st
6590 14718 mto
6642 14666 lto
6661 14647 lto
st
6732 14577 mto
6783 14529 lto
6805 14509 lto
st
6879 14441 mto
6928 14398 lto
6954 14375 lto
st
7030 14311 mto
7070 14278 lto
7108 14247 lto
st
7186 14186 mto
7213 14165 lto
7266 14125 lto
st
7346 14065 mto
7355 14059 lto
7420 14014 lto
7428 14008 lto
st
7511 13952 mto
7560 13919 lto
7594 13897 lto
st
7679 13843 mto
7700 13830 lto
7764 13791 lto
st
7851 13741 mto
7930 13696 lto
7938 13692 lto
st
8025 13644 mto
8074 13618 lto
8114 13597 lto
st
8203 13551 mto
8217 13544 lto
8260 13523 lto
8293 13508 lto
st
8383 13465 mto
8400 13457 lto
8474 13423 lto
st
8565 13382 mto
8649 13346 lto
8657 13343 lto
st
8750 13305 mto
8794 13287 lto
8820 13276 lto
8842 13267 lto
st
8936 13232 mto
8937 13231 lto
8960 13222 lto
9029 13196 lto
st
9123 13162 mto
9217 13129 lto
st
9312 13097 mto
9374 13076 lto
9380 13074 lto
9407 13065 lto
st
9502 13034 mto
9514 13030 lto
9520 13029 lto
9598 13005 lto
st
9693 12975 mto
9789 12947 lto
st
9885 12920 mto
9940 12904 lto
9982 12893 lto
st
10078 12867 mto
10080 12866 lto
10175 12842 lto
st
10272 12817 mto
10360 12795 lto
10369 12793 lto
st
10466 12769 mto
10500 12761 lto
10563 12746 lto
st
10661 12724 mto
10759 12703 lto
st
10856 12682 mto
10920 12668 lto
10954 12661 lto
st
11052 12641 mto
11060 12639 lto
11150 12621 lto
st
11248 12602 mto
11340 12584 lto
11346 12583 lto
st
11445 12565 mto
11480 12558 lto
11543 12547 lto
st
11642 12529 mto
11740 12512 lto
st
11839 12495 mto
11900 12485 lto
11937 12479 lto
st
12036 12463 mto
12040 12462 lto
12135 12447 lto
st
12234 12432 mto
12320 12419 lto
12333 12417 lto
st
12431 12402 mto
12460 12398 lto
12531 12388 lto
st
12630 12375 mto
12729 12361 lto
st
12828 12348 mto
12880 12341 lto
12927 12335 lto
st
13026 12321 mto
13125 12309 lto
st
13225 12297 mto
13300 12288 lto
13324 12285 lto
st
13423 12273 mto
13440 12271 lto
13522 12262 lto
st
13622 12250 mto
13720 12239 lto
13721 12239 lto
st
13821 12228 mto
13860 12224 lto
13920 12218 lto
st
14019 12207 mto
14119 12197 lto
st
14218 12187 mto
14280 12181 lto
14318 12177 lto
st
14417 12167 mto
14420 12167 lto
14517 12158 lto
st
14617 12149 mto
14700 12141 lto
14716 12140 lto
st
14816 12130 mto
14840 12128 lto
14915 12122 lto
st
15015 12113 mto
15115 12104 lto
st
15214 12097 mto
15260 12093 lto
15314 12088 lto
st
15414 12080 mto
15513 12072 lto
st
15613 12065 mto
15680 12060 lto
15713 12057 lto
st
15812 12050 mto
15820 12049 lto
15912 12042 lto
st
16012 12035 mto
16100 12029 lto
16112 12028 lto
st
16211 12021 mto
16240 12019 lto
16311 12014 lto
st
16411 12008 mto
16511 12002 lto
st
16611 11995 mto
16660 11992 lto
16710 11989 lto
st
16810 11982 mto
16910 11976 lto
st
17010 11970 mto
17080 11966 lto
17110 11964 lto
st
17209 11959 mto
17220 11958 lto
17309 11953 lto
st
17409 11947 mto
17500 11942 lto
st
3780 17382 mto
0 255 div 0 255 div 0 255 div setrgbcolor
3920 17382 lto
3930 17382 lto
st
4080 17379 mto
4110 17377 lto
4152 17373 lto
4189 17368 lto
4200 17366 lto
4229 17361 lto
st
4370 17312 mto
4371 17312 lto
4402 17297 lto
4433 17279 lto
4464 17259 lto
4480 17247 lto
4498 17234 lto
st
4612 17137 mto
4620 17130 lto
4653 17097 lto
4687 17061 lto
4716 17029 lto
st
4812 16914 mto
4834 16887 lto
4874 16835 lto
4900 16801 lto
4904 16795 lto
st
4992 16674 mto
5040 16607 lto
5079 16551 lto
st
5163 16428 mto
5171 16416 lto
5180 16403 lto
5247 16303 lto
st
5331 16179 mto
5416 16055 lto
st
5501 15931 mto
5540 15875 lto
5587 15809 lto
st
5674 15687 mto
5740 15596 lto
5763 15566 lto
st
5853 15446 mto
5872 15421 lto
5880 15411 lto
5944 15329 lto
5945 15328 lto
st
6040 15211 mto
6084 15159 lto
6137 15096 lto
st
6235 14984 mto
6286 14928 lto
6300 14913 lto
6337 14873 lto
st
6440 14765 mto
6506 14699 lto
6547 14659 lto
st
6655 14555 mto
6717 14499 lto
6720 14496 lto
6767 14455 lto
st
6880 14357 mto
6932 14314 lto
6996 14262 lto
st
7115 14170 mto
7140 14151 lto
7218 14093 lto
7235 14081 lto
st
7358 13994 mto
7361 13992 lto
7420 13952 lto
7483 13911 lto
st
7610 13831 mto
7647 13808 lto
7700 13776 lto
7738 13754 lto
st
7868 13679 mto
7934 13643 lto
7980 13618 lto
8000 13607 lto
st
8133 13538 mto
8221 13495 lto
8260 13476 lto
8268 13472 lto
st
8404 13409 mto
8509 13362 lto
8540 13349 lto
8541 13349 lto
st
8679 13289 mto
8680 13289 lto
8797 13242 lto
8818 13234 lto
st
8958 13180 mto
8960 13179 lto
9083 13134 lto
9099 13128 lto
st
9240 13078 mto
9371 13035 lto
9380 13031 lto
9382 13030 lto
st
9526 12985 mto
9659 12944 lto
9660 12944 lto
9669 12941 lto
st
9813 12898 mto
9940 12863 lto
9957 12858 lto
st
10102 12819 mto
10220 12788 lto
10247 12781 lto
st
10393 12745 mto
10500 12720 lto
10539 12711 lto
st
10685 12678 mto
10780 12656 lto
10831 12645 lto
st
10978 12614 mto
11060 12598 lto
11125 12585 lto
st
11273 12556 mto
11340 12543 lto
11420 12528 lto
st
11568 12501 mto
11620 12492 lto
11715 12476 lto
st
11863 12451 mto
11900 12445 lto
12011 12427 lto
st
12159 12403 mto
12180 12400 lto
12308 12381 lto
st
12456 12360 mto
12460 12359 lto
12600 12339 lto
12605 12338 lto
st
12753 12318 mto
12880 12301 lto
12902 12298 lto
st
13051 12279 mto
13160 12266 lto
13200 12261 lto
st
13349 12243 mto
13440 12233 lto
13498 12226 lto
st
13647 12209 mto
13720 12201 lto
13796 12193 lto
st
13945 12178 mto
14000 12172 lto
14094 12163 lto
st
14244 12148 mto
14280 12144 lto
14393 12134 lto
st
14542 12120 mto
14560 12118 lto
14692 12106 lto
st
14841 12093 mto
14980 12081 lto
14990 12080 lto
st
15140 12067 mto
15260 12058 lto
15290 12056 lto
st
15439 12044 mto
15540 12036 lto
15589 12033 lto
st
15738 12022 mto
15820 12016 lto
15888 12011 lto
st
16037 12000 mto
16100 11996 lto
16187 11990 lto
st
16337 11981 mto
16380 11978 lto
16487 11971 lto
st
16636 11962 mto
16660 11960 lto
16786 11952 lto
st
16936 11943 mto
16940 11943 lto
17080 11935 lto
17085 11935 lto
st
17235 11926 mto
17360 11919 lto
17385 11918 lto
st
3780 17278 mto
255 255 div 0 255 div 255 255 div setrgbcolor
3920 17278 lto
4029 17277 lto
4060 17276 lto
4111 17274 lto
4154 17270 lto
4193 17265 lto
4200 17264 lto
4229 17258 lto
st
4371 17212 mto
4372 17212 lto
4403 17197 lto
4435 17179 lto
4467 17160 lto
4480 17151 lto
4511 17129 lto
4542 17105 lto
4574 17079 lto
4607 17050 lto
4620 17038 lto
4653 17006 lto
4688 16971 lto
4722 16935 lto
st
4820 16821 mto
4836 16802 lto
4877 16751 lto
4900 16722 lto
4946 16662 lto
4995 16596 lto
5040 16535 lto
5091 16463 lto
st
5178 16340 mto
5180 16337 lto
5272 16206 lto
5320 16137 lto
5436 15971 lto
st
5522 15849 mto
5547 15814 lto
5600 15741 lto
5677 15636 lto
5740 15552 lto
5790 15487 lto
st
5881 15368 mto
5947 15286 lto
6014 15204 lto
6020 15197 lto
6086 15118 lto
6153 15041 lto
6160 15033 lto
6169 15023 lto
st
6269 14911 mto
6292 14886 lto
6300 14877 lto
6367 14806 lto
6434 14736 lto
6440 14730 lto
6507 14663 lto
6575 14597 lto
6580 14592 lto
6583 14589 lto
st
6693 14486 mto
6720 14462 lto
6792 14397 lto
6860 14339 lto
6933 14277 lto
7000 14223 lto
7036 14195 lto
st
7154 14103 mto
7218 14055 lto
7280 14011 lto
7362 13953 lto
7420 13914 lto
7504 13858 lto
7523 13846 lto
st
7650 13765 mto
7700 13735 lto
7791 13681 lto
7840 13653 lto
7934 13600 lto
7980 13575 lto
8041 13543 lto
st
8175 13474 mto
8221 13451 lto
8260 13432 lto
8364 13382 lto
8400 13365 lto
8509 13316 lto
8540 13302 lto
8582 13284 lto
st
8720 13225 mto
8797 13194 lto
8820 13185 lto
8938 13139 lto
8960 13130 lto
9085 13084 lto
9100 13078 lto
9140 13064 lto
st
9282 13015 mto
9374 12983 lto
9380 12981 lto
9513 12938 lto
9520 12936 lto
9660 12893 lto
9711 12878 lto
st
9855 12836 mto
9940 12812 lto
10080 12774 lto
10220 12737 lto
10289 12720 lto
st
10435 12684 mto
10500 12668 lto
10640 12636 lto
10780 12605 lto
10874 12585 lto
st
11021 12554 mto
11060 12546 lto
11200 12519 lto
11340 12492 lto
11463 12469 lto
st
11610 12443 mto
11620 12441 lto
11760 12418 lto
11900 12395 lto
12040 12372 lto
12054 12370 lto
st
12203 12348 mto
12320 12330 lto
12460 12310 lto
12600 12291 lto
12648 12284 lto
st
12797 12265 mto
12880 12254 lto
13020 12236 lto
13160 12219 lto
13243 12209 lto
st
13393 12192 mto
13440 12187 lto
13580 12171 lto
13720 12156 lto
13840 12144 lto
st
13989 12129 mto
14000 12128 lto
14140 12114 lto
14280 12101 lto
14420 12088 lto
14437 12086 lto
st
14587 12073 mto
14700 12063 lto
14840 12051 lto
14980 12040 lto
15035 12036 lto
st
15185 12024 mto
15260 12018 lto
15400 12007 lto
15540 11997 lto
15633 11990 lto
st
15783 11980 mto
15820 11977 lto
15960 11968 lto
16100 11958 lto
16232 11950 lto
st
16382 11941 mto
16520 11932 lto
16660 11924 lto
16800 11916 lto
16831 11914 lto
st
16981 11906 mto
17080 11900 lto
17220 11892 lto
17360 11885 lto
17430 11882 lto
st
3780 17323 mto
0 255 div 255 255 div 0 255 div setrgbcolor
3920 17323 lto
4028 17322 lto
4060 17321 lto
4111 17318 lto
4153 17315 lto
4192 17310 lto
4200 17308 lto
4229 17303 lto
st
4371 17256 mto
4371 17256 lto
4403 17240 lto
4434 17223 lto
4465 17203 lto
4480 17193 lto
4499 17179 lto
st
4614 17083 mto
4620 17078 lto
4653 17045 lto
4686 17010 lto
4721 16973 lto
4757 16932 lto
4760 16928 lto
4797 16884 lto
4835 16837 lto
4875 16786 lto
4900 16753 lto
4908 16743 lto
st
4996 16621 mto
5039 16561 lto
5040 16560 lto
5082 16499 lto
st
5168 16375 mto
5172 16369 lto
5180 16357 lto
5264 16234 lto
5320 16150 lto
5420 16003 lto
st
5505 15879 mto
5548 15816 lto
5590 15756 lto
st
5677 15634 mto
5740 15547 lto
5809 15453 lto
5876 15365 lto
5880 15359 lto
5946 15274 lto
5947 15273 lto
st
6040 15156 mto
6085 15100 lto
6136 15040 lto
st
6233 14926 mto
6290 14861 lto
6300 14850 lto
6366 14778 lto
6432 14707 lto
6440 14698 lto
6507 14629 lto
6539 14597 lto
st
6646 14491 mto
6648 14489 lto
6717 14424 lto
6720 14421 lto
6755 14389 lto
st
6867 14288 mto
6932 14232 lto
7000 14175 lto
7075 14114 lto
7140 14063 lto
7216 14004 lto
st
7337 13916 mto
7359 13900 lto
7420 13857 lto
7460 13830 lto
st
7585 13747 mto
7645 13708 lto
7700 13674 lto
7788 13621 lto
7840 13590 lto
7932 13537 lto
7971 13516 lto
st
8103 13445 mto
8120 13436 lto
8218 13385 lto
8236 13376 lto
st
8371 13311 mto
8400 13297 lto
8504 13249 lto
8540 13233 lto
8650 13185 lto
8680 13172 lto
8783 13130 lto
st
8922 13074 mto
8937 13068 lto
8960 13059 lto
9063 13021 lto
st
9204 12970 mto
9225 12962 lto
9240 12957 lto
9370 12913 lto
9380 12910 lto
9511 12867 lto
9520 12864 lto
9631 12830 lto
st
9775 12787 mto
9800 12780 lto
9919 12746 lto
st
10064 12706 mto
10080 12702 lto
10220 12666 lto
10360 12632 lto
10500 12598 lto
10501 12598 lto
st
10647 12565 mto
10780 12536 lto
10794 12533 lto
st
10941 12503 mto
11060 12478 lto
11200 12451 lto
11340 12425 lto
11383 12417 lto
st
11530 12391 mto
11620 12376 lto
11678 12366 lto
st
11826 12342 mto
11900 12330 lto
12040 12309 lto
12180 12288 lto
12271 12275 lto
st
12420 12254 mto
12460 12249 lto
12568 12234 lto
st
12717 12215 mto
12740 12212 lto
12880 12195 lto
13020 12178 lto
13160 12161 lto
13164 12161 lto
st
13313 12145 mto
13440 12130 lto
13462 12128 lto
st
13611 12113 mto
13720 12101 lto
13860 12087 lto
14000 12074 lto
14059 12069 lto
st
14208 12055 mto
14280 12048 lto
14358 12041 lto
st
14507 12029 mto
14560 12024 lto
14700 12013 lto
14840 12002 lto
14956 11993 lto
st
15105 11981 mto
15120 11980 lto
15255 11970 lto
st
15405 11960 mto
15540 11950 lto
15680 11941 lto
15820 11932 lto
15854 11930 lto
st
16003 11920 mto
16100 11914 lto
16153 11911 lto
st
16303 11902 mto
16380 11898 lto
16520 11890 lto
16660 11882 lto
16752 11877 lto
st
16902 11869 mto
16940 11867 lto
17052 11861 lto
st
17201 11854 mto
17220 11853 lto
17360 11846 lto
17500 11839 lto
st
3780 17395 mto
255 255 div 128 255 div 0 255 div setrgbcolor
3920 17395 lto
4025 17394 lto
4060 17393 lto
4110 17391 lto
4152 17387 lto
4189 17382 lto
4200 17380 lto
4229 17374 lto
st
4370 17325 mto
4370 17325 lto
4401 17310 lto
4431 17292 lto
4461 17272 lto
4480 17259 lto
4497 17246 lto
st
4610 17147 mto
4620 17137 lto
4651 17104 lto
4684 17068 lto
4711 17037 lto
st
4806 16920 mto
4834 16883 lto
4873 16830 lto
4900 16793 lto
4943 16731 lto
4989 16664 lto
5039 16590 lto
5040 16588 lto
5064 16552 lto
st
5146 16426 mto
5158 16407 lto
5180 16374 lto
5227 16300 lto
st
5308 16174 mto
5320 16155 lto
5389 16048 lto
st
5470 15922 mto
5544 15810 lto
5600 15724 lto
5670 15620 lto
5720 15547 lto
st
5806 15425 mto
5870 15335 lto
5880 15321 lto
5894 15303 lto
st
5983 15182 mto
6007 15151 lto
6020 15134 lto
6075 15064 lto
st
6168 14946 mto
6222 14880 lto
6285 14806 lto
6300 14788 lto
6363 14716 lto
6427 14645 lto
6440 14630 lto
6462 14606 lto
st
6565 14496 mto
6569 14492 lto
6580 14481 lto
6645 14415 lto
6671 14390 lto
st
6779 14286 mto
6787 14278 lto
6855 14215 lto
6860 14211 lto
6889 14185 lto
st
7002 14086 mto
7072 14028 lto
7140 13972 lto
7214 13914 lto
7280 13863 lto
7355 13807 lto
st
7478 13721 mto
7500 13706 lto
7560 13665 lto
7603 13638 lto
st
7729 13557 mto
7786 13522 lto
7840 13490 lto
7858 13480 lto
st
7988 13406 mto
8072 13359 lto
8120 13334 lto
8216 13284 lto
8260 13262 lto
8358 13214 lto
8388 13200 lto
st
8525 13138 mto
8540 13131 lto
8646 13084 lto
8662 13077 lto
st
8801 13021 mto
8820 13013 lto
8935 12968 lto
8940 12966 lto
st
9081 12913 mto
9100 12906 lto
9223 12863 lto
9240 12857 lto
9365 12815 lto
9380 12811 lto
9507 12770 lto
st
9651 12726 mto
9655 12725 lto
9660 12724 lto
9795 12685 lto
st
9940 12645 mto
9940 12645 lto
10080 12608 lto
10085 12607 lto
st
10230 12571 mto
10360 12540 lto
10500 12507 lto
10640 12477 lto
10669 12471 lto
st
10816 12440 mto
10920 12419 lto
10963 12411 lto
st
11110 12383 mto
11200 12366 lto
11258 12356 lto
st
11406 12331 mto
11480 12318 lto
11620 12295 lto
11760 12273 lto
11850 12260 lto
st
11998 12237 mto
12040 12231 lto
12147 12217 lto
st
12295 12196 mto
12320 12193 lto
12444 12176 lto
st
12593 12158 mto
12600 12157 lto
12740 12140 lto
12880 12124 lto
13020 12108 lto
13040 12106 lto
st
13189 12090 mto
13300 12078 lto
13338 12074 lto
st
13488 12059 mto
13580 12050 lto
13637 12045 lto
st
13786 12031 mto
13860 12024 lto
14000 12012 lto
14140 12000 lto
14234 11992 lto
st
14384 11980 mto
14420 11977 lto
14534 11968 lto
st
14683 11956 mto
14700 11955 lto
14833 11946 lto
st
14982 11935 mto
15120 11925 lto
15260 11916 lto
15400 11907 lto
15431 11905 lto
st
15581 11895 mto
15680 11889 lto
15731 11886 lto
st
15880 11878 mto
15960 11873 lto
16030 11869 lto
st
16180 11860 mto
16240 11857 lto
16380 11850 lto
16520 11842 lto
16629 11837 lto
st
16779 11829 mto
16800 11828 lto
16929 11822 lto
st
17079 11815 mto
17080 11815 lto
17220 11809 lto
17229 11809 lto
st
17379 11802 mto
17500 11797 lto
st
3780 17321 mto
0 255 div 255 255 div 255 255 div setrgbcolor
3920 17321 lto
4025 17320 lto
4060 17319 lto
4109 17316 lto
4151 17313 lto
4188 17308 lto
4200 17306 lto
4229 17300 lto
st
4370 17250 mto
4370 17250 lto
4399 17234 lto
4429 17216 lto
4458 17196 lto
4480 17180 lto
4509 17158 lto
4538 17133 lto
4568 17106 lto
4598 17076 lto
4620 17053 lto
4651 17020 lto
4682 16984 lto
4706 16956 lto
st
4798 16838 mto
4832 16792 lto
4870 16738 lto
4886 16716 lto
st
4970 16591 mto
4988 16563 lto
5037 16487 lto
5040 16483 lto
5094 16398 lto
5155 16300 lto
5180 16260 lto
5210 16211 lto
st
5289 16083 mto
5320 16033 lto
5436 15846 lto
5460 15807 lto
5527 15701 lto
st
5608 15575 mto
5668 15483 lto
5690 15450 lto
st
5774 15325 mto
5803 15282 lto
5865 15194 lto
5880 15172 lto
5941 15087 lto
6001 15004 lto
6020 14979 lto
6035 14959 lto
st
6127 14840 mto
6141 14822 lto
6160 14798 lto
6220 14723 lto
6281 14649 lto
6300 14627 lto
6360 14556 lto
6414 14494 lto
st
6516 14384 mto
6565 14332 lto
6580 14316 lto
6619 14275 lto
st
6726 14169 mto
6785 14112 lto
6851 14051 lto
6860 14043 lto
6927 13983 lto
6995 13924 lto
7000 13920 lto
7060 13869 lto
st
7177 13775 mto
7212 13748 lto
7280 13696 lto
7355 13641 lto
7420 13595 lto
7497 13542 lto
7542 13512 lto
st
7668 13431 mto
7700 13411 lto
7784 13361 lto
7797 13353 lto
st
7927 13278 mto
7927 13278 lto
7980 13249 lto
8070 13201 lto
8120 13176 lto
8215 13128 lto
8260 13106 lto
8328 13074 lto
st
8464 13012 mto
8501 12996 lto
8540 12979 lto
8645 12935 lto
8680 12921 lto
8789 12877 lto
8820 12866 lto
8881 12843 lto
st
9022 12791 mto
9076 12772 lto
9100 12764 lto
9164 12743 lto
st
9306 12696 mto
9366 12677 lto
9380 12673 lto
9510 12634 lto
9520 12631 lto
9656 12592 lto
9660 12591 lto
9738 12570 lto
st
9883 12532 mto
9940 12517 lto
10080 12483 lto
10220 12450 lto
10321 12428 lto
st
10468 12396 mto
10500 12389 lto
10615 12366 lto
st
10762 12337 mto
10780 12334 lto
10920 12308 lto
11060 12283 lto
11200 12259 lto
11205 12258 lto
st
11353 12234 mto
11480 12214 lto
11620 12194 lto
11760 12173 lto
11798 12168 lto
st
11947 12148 mto
12040 12136 lto
12095 12129 lto
st
12244 12110 mto
12320 12101 lto
12460 12084 lto
12600 12069 lto
12691 12059 lto
st
12841 12043 mto
12880 12039 lto
13020 12024 lto
13160 12011 lto
13288 11999 lto
st
13438 11985 mto
13440 11985 lto
13580 11973 lto
13587 11972 lto
st
13737 11960 mto
13860 11949 lto
14000 11938 lto
14140 11928 lto
14185 11924 lto
st
14335 11913 mto
14420 11907 lto
14560 11898 lto
14700 11888 lto
14784 11883 lto
st
14933 11873 mto
14980 11870 lto
15083 11864 lto
st
15233 11856 mto
15260 11854 lto
15400 11846 lto
15540 11838 lto
15680 11830 lto
15682 11830 lto
st
15832 11822 mto
15960 11816 lto
16100 11809 lto
16240 11802 lto
16281 11800 lto
st
16431 11794 mto
16520 11790 lto
16581 11787 lto
st
16731 11780 mto
16800 11777 lto
16940 11772 lto
17080 11766 lto
17181 11762 lto
st
17331 11756 mto
17360 11755 lto
17500 11750 lto
st
3780 16818 mto
255 255 div 0 255 div 255 255 div setrgbcolor
3920 16818 lto
3930 16818 lto
st
4080 16815 mto
4112 16813 lto
4154 16810 lto
4193 16805 lto
4200 16804 lto
4229 16798 lto
st
4371 16752 mto
4401 16737 lto
4431 16720 lto
4460 16701 lto
4480 16687 lto
4498 16673 lto
st
4612 16575 mto
4620 16567 lto
4651 16534 lto
4683 16499 lto
4713 16465 lto
st
4808 16348 mto
4832 16317 lto
4871 16265 lto
4897 16228 lto
st
4983 16105 mto
4990 16095 lto
5040 16020 lto
5067 15980 lto
st
5149 15855 mto
5164 15832 lto
5180 15807 lto
5231 15729 lto
st
5312 15603 mto
5320 15591 lto
5394 15477 lto
st
5476 15352 mto
5537 15260 lto
5559 15227 lto
st
5644 15103 mto
5667 15069 lto
5730 14980 lto
st
5817 14859 mto
5865 14794 lto
5880 14774 lto
5907 14738 lto
st
5999 14620 mto
6003 14614 lto
6020 14592 lto
6081 14516 lto
6092 14502 lto
st
6189 14387 mto
6221 14350 lto
6282 14281 lto
6288 14275 lto
st
6390 14165 mto
6422 14130 lto
6440 14111 lto
6493 14056 lto
st
6600 13951 mto
6644 13909 lto
6709 13849 lto
6710 13848 lto
st
6823 13750 mto
6853 13724 lto
6860 13718 lto
6928 13661 lto
6938 13653 lto
st
7056 13561 mto
7071 13550 lto
7140 13498 lto
7176 13472 lto
st
7299 13386 mto
7356 13348 lto
7420 13306 lto
7424 13303 lto
st
7552 13225 mto
7560 13220 lto
7642 13172 lto
7682 13149 lto
st
7814 13078 mto
7840 13064 lto
7930 13018 lto
7947 13009 lto
st
8082 12945 mto
8120 12927 lto
8217 12883 lto
8219 12882 lto
st
8357 12824 mto
8361 12822 lto
8400 12806 lto
8496 12768 lto
st
8637 12715 mto
8650 12710 lto
8680 12699 lto
8778 12665 lto
st
8920 12617 mto
8937 12612 lto
8960 12604 lto
9063 12572 lto
st
9207 12530 mto
9226 12524 lto
9240 12520 lto
9351 12489 lto
st
9496 12451 mto
9519 12445 lto
9520 12444 lto
9642 12414 lto
st
9788 12380 mto
9800 12377 lto
9934 12346 lto
st
10081 12315 mto
10220 12287 lto
10228 12286 lto
st
10375 12257 mto
10500 12235 lto
10523 12231 lto
st
10670 12205 mto
10780 12187 lto
10818 12181 lto
st
10967 12158 mto
11060 12144 lto
11115 12136 lto
st
11263 12114 mto
11340 12104 lto
11412 12094 lto
st
11561 12075 mto
11620 12068 lto
11710 12057 lto
st
11859 12039 mto
11900 12034 lto
12008 12022 lto
st
12157 12006 mto
12180 12004 lto
12306 11990 lto
st
12455 11976 mto
12460 11976 lto
12600 11962 lto
12605 11962 lto
st
12754 11949 mto
12880 11937 lto
12904 11935 lto
st
13053 11923 mto
13160 11914 lto
13203 11911 lto
st
13352 11899 mto
13440 11893 lto
13502 11889 lto
st
13651 11878 mto
13720 11873 lto
13801 11867 lto
st
13951 11857 mto
14000 11854 lto
14100 11848 lto
st
14250 11839 mto
14280 11837 lto
14400 11829 lto
st
14550 11822 mto
14560 11821 lto
14699 11813 lto
st
14849 11805 mto
14980 11798 lto
14999 11797 lto
st
15149 11790 mto
15260 11784 lto
15299 11782 lto
st
15448 11776 mto
15540 11771 lto
15598 11769 lto
st
15748 11762 mto
15820 11759 lto
15898 11756 lto
st
16048 11750 mto
16100 11748 lto
16198 11744 lto
st
16348 11738 mto
16380 11737 lto
16497 11733 lto
st
16647 11727 mto
16660 11727 lto
16797 11722 lto
st
16947 11717 mto
17080 11713 lto
17097 11712 lto
st
17247 11707 mto
17360 11704 lto
17397 11703 lto
st
3780 15857 mto
0 255 div 255 255 div 0 255 div setrgbcolor
3880 15857 lto
st
3980 15857 mto
4043 15856 lto
4060 15855 lto
4080 15854 lto
st
4180 15847 mto
4200 15845 lto
4239 15839 lto
4276 15832 lto
4278 15831 lto
st
4374 15803 mto
4406 15789 lto
4439 15774 lto
4464 15760 lto
st
4549 15706 mto
4576 15686 lto
4609 15660 lto
4620 15651 lto
4627 15645 lto
st
4702 15578 mto
4723 15557 lto
4760 15520 lto
4772 15507 lto
st
4840 15433 mto
4880 15387 lto
4900 15364 lto
4905 15358 lto
st
4969 15280 mto
4996 15247 lto
5032 15203 lto
st
5093 15124 mto
5101 15113 lto
5154 15044 lto
st
5215 14965 mto
5274 14887 lto
5275 14885 lto
st
5336 14806 mto
5397 14727 lto
st
5458 14647 mto
5460 14644 lto
5519 14568 lto
st
5581 14490 mto
5600 14467 lto
5644 14413 lto
st
5708 14335 mto
5739 14298 lto
5740 14296 lto
5772 14259 lto
st
5837 14183 mto
5873 14142 lto
5880 14135 lto
5904 14108 lto
st
5971 14034 mto
6011 13991 lto
6020 13982 lto
6040 13961 lto
st
6109 13890 mto
6151 13848 lto
6160 13838 lto
6180 13819 lto
st
6252 13749 mto
6290 13713 lto
6300 13704 lto
6325 13681 lto
st
6399 13614 mto
6432 13586 lto
6440 13578 lto
6475 13549 lto
st
6552 13485 mto
6575 13466 lto
6580 13462 lto
6630 13422 lto
st
6709 13361 mto
6719 13354 lto
6720 13353 lto
6790 13302 lto
st
6871 13244 mto
6934 13201 lto
6954 13188 lto
st
7038 13134 mto
7076 13109 lto
7123 13081 lto
st
7208 13029 mto
7219 13023 lto
7280 12989 lto
7296 12980 lto
st
7383 12932 mto
7420 12913 lto
7472 12886 lto
st
7561 12841 mto
7649 12800 lto
7652 12799 lto
st
7743 12757 mto
7793 12735 lto
7834 12717 lto
st
7927 12679 mto
7936 12675 lto
7980 12657 lto
8020 12642 lto
st
8113 12606 mto
8120 12604 lto
8207 12572 lto
st
8301 12539 mto
8370 12516 lto
8396 12507 lto
st
8492 12478 mto
8514 12471 lto
8540 12462 lto
8587 12448 lto
st
8683 12420 mto
8780 12394 lto
st
8876 12368 mto
8949 12349 lto
8960 12346 lto
8973 12343 lto
st
9070 12319 mto
9093 12313 lto
9100 12311 lto
9167 12296 lto
st
9265 12273 mto
9363 12252 lto
st
9461 12232 mto
9520 12220 lto
9559 12212 lto
st
9657 12193 mto
9660 12192 lto
9755 12174 lto
st
9853 12157 mto
9940 12142 lto
9952 12140 lto
st
10051 12124 mto
10080 12119 lto
10149 12108 lto
st
10248 12093 mto
10347 12078 lto
st
10446 12064 mto
10500 12056 lto
10545 12050 lto
st
10644 12036 mto
10744 12024 lto
st
10843 12011 mto
10920 12002 lto
10942 11999 lto
st
11041 11988 mto
11060 11986 lto
11141 11977 lto
st
11240 11966 mto
11340 11956 lto
st
11439 11946 mto
11480 11942 lto
11539 11936 lto
st
11638 11926 mto
11738 11917 lto
st
11837 11908 mto
11900 11903 lto
11937 11900 lto
st
12037 11891 mto
12040 11891 lto
12136 11883 lto
st
12236 11876 mto
12320 11869 lto
12336 11868 lto
st
12435 11860 mto
12460 11858 lto
12535 11853 lto
st
12635 11846 mto
12735 11839 lto
st
12834 11832 mto
12880 11829 lto
12934 11826 lto
st
13034 11820 mto
13134 11814 lto
st
13234 11808 mto
13300 11804 lto
13334 11802 lto
st
13433 11796 mto
13440 11796 lto
13533 11791 lto
st
13633 11785 mto
13720 11781 lto
13733 11780 lto
st
13833 11775 mto
13860 11774 lto
13933 11770 lto
st
14033 11766 mto
14132 11761 lto
st
14232 11756 mto
14280 11754 lto
14332 11752 lto
st
14432 11747 mto
14532 11743 lto
st
14632 11739 mto
14700 11737 lto
14732 11736 lto
st
14832 11731 mto
14840 11731 lto
14932 11728 lto
st
15032 11724 mto
15120 11721 lto
15132 11721 lto
st
15232 11717 mto
15260 11716 lto
15332 11713 lto
st
15431 11710 mto
15531 11706 lto
st
15631 11703 mto
15680 11702 lto
15731 11700 lto
st
15831 11697 mto
15931 11694 lto
st
16031 11691 mto
16100 11689 lto
16131 11688 lto
st
16231 11685 mto
16240 11685 lto
16331 11682 lto
st
16431 11680 mto
16520 11677 lto
16531 11677 lto
st
16631 11675 mto
16660 11674 lto
16731 11672 lto
st
16831 11669 mto
16931 11667 lto
st
17031 11664 mto
17080 11663 lto
17131 11662 lto
st
17231 11660 mto
17331 11658 lto
st
17431 11655 mto
17500 11654 lto
st
3780 13976 mto
0 255 div 0 255 div 0 255 div setrgbcolor
3920 13976 lto
4060 13975 lto
4144 13973 lto
4200 13970 lto
4256 13966 lto
4307 13960 lto
4340 13956 lto
4387 13948 lto
4432 13938 lto
4475 13926 lto
4480 13925 lto
4523 13911 lto
4567 13896 lto
4611 13878 lto
4620 13874 lto
4663 13855 lto
4708 13832 lto
4753 13808 lto
4760 13804 lto
4807 13777 lto
4856 13746 lto
4900 13718 lto
4956 13681 lto
5016 13638 lto
5040 13621 lto
5112 13569 lto
5180 13518 lto
5291 13435 lto
5320 13413 lto
5460 13308 lto
5571 13226 lto
5600 13205 lto
5696 13137 lto
5740 13107 lto
5829 13047 lto
5880 13013 lto
5966 12958 lto
6020 12925 lto
6105 12874 lto
6160 12842 lto
6245 12794 lto
6300 12764 lto
6385 12720 lto
6440 12692 lto
6526 12650 lto
6580 12625 lto
6670 12584 lto
6720 12562 lto
6811 12524 lto
6860 12504 lto
6957 12467 lto
7000 12451 lto
7098 12415 lto
7140 12401 lto
7245 12366 lto
7280 12355 lto
7387 12321 lto
7420 12312 lto
7533 12279 lto
7560 12272 lto
7676 12241 lto
7700 12234 lto
7823 12204 lto
7840 12200 lto
7967 12170 lto
7980 12168 lto
8113 12139 lto
8120 12137 lto
8257 12110 lto
8260 12109 lto
8400 12083 lto
8540 12058 lto
8680 12035 lto
8820 12014 lto
8960 11994 lto
9100 11975 lto
9240 11957 lto
9380 11940 lto
9520 11924 lto
9660 11909 lto
9800 11895 lto
9940 11881 lto
10080 11869 lto
10220 11857 lto
10360 11846 lto
10500 11835 lto
10640 11825 lto
10780 11815 lto
10920 11806 lto
11060 11797 lto
11200 11789 lto
11340 11781 lto
11480 11773 lto
11620 11766 lto
11760 11759 lto
11900 11753 lto
12040 11746 lto
12180 11740 lto
12320 11734 lto
12460 11729 lto
12600 11724 lto
12740 11719 lto
12880 11714 lto
13020 11709 lto
13160 11705 lto
13300 11700 lto
13440 11696 lto
13580 11692 lto
13720 11688 lto
13860 11685 lto
14000 11681 lto
14140 11678 lto
14280 11675 lto
14420 11671 lto
14560 11668 lto
14700 11665 lto
14840 11663 lto
14980 11660 lto
15120 11657 lto
15260 11655 lto
15400 11652 lto
15540 11650 lto
15680 11647 lto
15820 11645 lto
15960 11643 lto
16100 11641 lto
16240 11639 lto
16380 11637 lto
16520 11635 lto
16660 11633 lto
16800 11631 lto
16940 11629 lto
17080 11628 lto
17220 11626 lto
17360 11625 lto
17500 11623 lto
st
255 255 div 0 255 div 0 255 div setrgbcolor
[] 0 60 0 0 10 lsty
13200 20860 mto
14800 20860 lto
st
0 255 div 0 255 div 255 255 div setrgbcolor
[100 100 ] 0 40 0 0 10 lsty
13200 20184 mto
14800 20184 lto
st
0 255 div 0 255 div 0 255 div setrgbcolor
[150 150 ] 0 40 0 0 10 lsty
13200 19508 mto
14800 19508 lto
st
255 255 div 0 255 div 255 255 div setrgbcolor
[450 150 ] 0 40 0 0 10 lsty
13200 18832 mto
14800 18832 lto
st
0 255 div 255 255 div 0 255 div setrgbcolor
[450 150 150 150 ] 0 40 0 0 10 lsty
13200 18156 mto
14800 18156 lto
st
255 255 div 128 255 div 0 255 div setrgbcolor
[450 150 150 150 150 150 ] 0 40 0 0 10 lsty
13200 17480 mto
14800 17480 lto
st
0 255 div 255 255 div 255 255 div setrgbcolor
[450 150 450 150 150 150 ] 0 40 0 0 10 lsty
13200 16804 mto
14800 16804 lto
st
255 255 div 0 255 div 255 255 div setrgbcolor
[150 150 ] 0 40 0 0 10 lsty
13200 16128 mto
14800 16128 lto
st
0 255 div 255 255 div 0 255 div setrgbcolor
[100 100 ] 0 40 0 0 10 lsty
13200 15452 mto
14800 15452 lto
st
0 255 div 0 255 div 0 255 div setrgbcolor
[] 0 40 0 0 10 lsty
13200 14776 mto
14800 14776 lto
st
12200 23400 mto
0 0 (T) ashow
1800 15400 mto
[4.32014e-14 -705.556 -705.556 -4.32014e-14 0 0] /Helvetica-ISOLatin1 F
0 0 (S/N) ashow
172 0 rmto
[3.0241e-14 -493.889 -493.889 -3.0241e-14 0 0] /Helvetica-ISOLatin1 F
0 0 (spin) ashow
-172 0 rmto
15082 21048 mto
[564.444 -0 -0 -564.444 0 0] /Helvetica-ISOLatin1 F
0 0 (x=0.0) ashow
15082 20372 mto
0 0 (x=0.1) ashow
15082 19696 mto
0 0 (x=0.2) ashow
15082 19020 mto
0 0 (x=0.3) ashow
15082 18344 mto
0 0 (x=0.4) ashow
15082 17668 mto
0 0 (x=0.5) ashow
15082 16992 mto
0 0 (x=0.6) ashow
15082 16316 mto
0 0 (x=0.7) ashow
15082 15640 mto
0 0 (x=0.8) ashow
15082 14964 mto
0 0 (x=0.9) ashow
EndPage
PageRestore
showpage
end
%%Trailer
%%DocumentNeededResources: 
% font /Helvetica-ISOLatin1
%%EOF
