%!PS-Adobe-3.0 EPSF-3.0
%%Creator: GRA2PS 2.03.20
%%Title: Ngraph
%%CreationDate: 4-30-2017 2:0
%%Pages: 1
%%DocumentNeededResources: (atend)
%%BoundingBox: 32 169 501 541
%%EndComments
%
% Ngraph.ps 2.03.20
%
%%BeginProlog
%
/NgraphDict 100 dict def
NgraphDict begin
%
% Procedure Definition
%
/PageSave {/Sobject save def} bind def
/PageRestore {Sobject restore} bind def
/@Paper {
  72 2540 div -72 2540 div scale % 1unit = 0.01mm
  ANGLE rotate
  0 bottom translate                    % origin is (0 bottom)
} bind def
/BeginPage {@Paper gsave} bind def
/EndPage {grestore} bind def
/box {
  moveto
  1 index 0 rlineto
  0 exch rlineto
  neg 0 rlineto
  closepath } bind def
/view {
  mark
  currentfont
  currentmiterlimit
  currentlinejoin
  currentlinecap
  currentlinewidth
  currentdash
  currentgray
  currentrgbcolor
  grestore gsave
  counttomark dup 6 add exch roll
  pop
  5 3 roll
  translate
  1 eq { 0 0 box clip newpath } { pop pop } ifelse
  setrgbcolor
  setgray
  setdash
  setlinewidth
  setlinecap
  setlinejoin
  setmiterlimit
  setfont
 } bind def
/viewc {
  mark
  currentfont
  currentmiterlimit
  currentlinejoin
  currentlinecap
  currentlinewidth
  currentdash
  currentrgbcolor
  currentgray
  grestore gsave
  counttomark dup 6 add exch roll
  pop
  5 3 roll
  translate
  1 eq { 0 0 box clip newpath } { pop pop } ifelse
  setgray
  setrgbcolor
  setdash
  setlinewidth
  setlinecap
  setlinejoin
  setmiterlimit
  setfont
 } bind def
/F { findfont exch makefont setfont } bind def
/lsty {
  setmiterlimit
  setlinejoin
  setlinecap
  setlinewidth
  setdash } bind def
/mto /moveto load def
/rmto /rmoveto load def
/lto /lineto load def
/rlto /rlineto load def
/st /stroke load def
/l { moveto lineto stroke } bind def
/e { 
  gsave
  newpath
  translate
  0 index 1 exch div 5 1 roll
  1 index 1 exch div 6 1 roll
  scale
  0 0 1 5 3 roll exch 100 div exch 100 div arc
  scale
  stroke
  grestore } bind def
/fe {
  gsave
  newpath
  translate
  0 index 1 exch div 5 1 roll
  1 index 1 exch div 6 1 roll
  scale
  0 0 moveto 0 0 1 5 3 roll exch 100 div exch 100 div arc closepath
  scale
  fill 
  grestore } bind def
/ae {
  gsave
  newpath
  translate
  0 index 1 exch div 5 1 roll
  1 index 1 exch div 6 1 roll
  scale
  0 0 1 5 3 roll exch 100 div exch 100 div arc closepath
  scale
  fill
  grestore } bind def
/pix {
  newpath 20 0 360 arc closepath fill } bind def
/rec {
  box stroke } bind def
/bar {
  box fill } bind def
/lines {
  1 sub
  3 1 roll
  moveto
  {lineto} repeat } bind def
/poly {
  1 sub
  3 1 roll
  moveto
  {lineto} repeat closepath } bind def
/rpo { lines stroke } bind def
/dpo { poly stroke } bind def
/fpo { poly fill } bind def
/epo { poly eofill } bind def
/ashowB {
  3 copy 3 copy 3 copy
  gsave BOLDS 0 rmoveto ashow grestore
  gsave 0 BOLDS rmoveto ashow grestore
  gsave BOLDS BOLDS rmoveto ashow grestore
  ashow } bind def
end
%
% ISOLatin1Encoding
%
/NGPLatin1Encoding 256 array def
0 1 255 {NGPLatin1Encoding exch /.notdef put} for
NGPLatin1Encoding
dup 8#101 /A put          dup 8#306 /AE put         dup 8#301 /Aacute put
dup 8#302 /Acircumflex put dup 8#304 /Adieresis put dup 8#300 /Agrave put
dup 8#305 /Aring put      dup 8#303 /Atilde put     dup 8#102 /B put
dup 8#103 /C put          dup 8#307 /Ccedilla put   dup 8#104 /D put
dup 8#105 /E put          dup 8#311 /Eacute put     dup 8#312 /Ecircumflex put
dup 8#313 /Edieresis put  dup 8#310 /Egrave put     dup 8#320 /Eth put
dup 8#106 /F put          dup 8#107 /G put          dup 8#110 /H put
dup 8#111 /I put          dup 8#315 /Iacute put     dup 8#316 /Icircumflex put
dup 8#317 /Idieresis put  dup 8#314 /Igrave put     dup 8#112 /J put
dup 8#113 /K put          dup 8#114 /L put          dup 8#115 /M put
dup 8#116 /N put          dup 8#321 /Ntilde put     dup 8#117 /O put
dup 8#323 /Oacute put     dup 8#324 /Ocircumflex put dup 8#326 /Odieresis put
dup 8#322 /Ograve put     dup 8#330 /Oslash put     dup 8#325 /Otilde put
dup 8#120 /P put          dup 8#121 /Q put          dup 8#122 /R put
dup 8#123 /S put          dup 8#124 /T put          dup 8#336 /Thorn put
dup 8#125 /U put          dup 8#332 /Uacute put     dup 8#333 /Ucircumflex put
dup 8#334 /Udieresis put  dup 8#331 /Ugrave put     dup 8#126 /V put
dup 8#127 /W put          dup 8#130 /X put          dup 8#131 /Y put
dup 8#335 /Yacute put     dup 8#132 /Z put          dup 8#141 /a put
dup 8#341 /aacute put     dup 8#342 /acircumflex put dup 8#264 /acute put
dup 8#344 /adieresis put  dup 8#346 /ae put         dup 8#340 /agrave put
dup 8#046 /ampersand put  dup 8#345 /aring put      dup 8#136 /asciicircum put
dup 8#176 /asciitilde put dup 8#052 /asterisk put   dup 8#100 /at put
dup 8#343 /atilde put     dup 8#142 /b put          dup 8#134 /backslash put
dup 8#174 /bar put        dup 8#173 /braceleft put  dup 8#175 /braceright put
dup 8#133 /bracketleft put dup 8#135 /bracketright put dup 8#246 /brokenbar put
dup 8#143 /c put          dup 8#347 /ccedilla put   dup 8#242 /cent put
dup 8#072 /colon put      dup 8#054 /comma put      dup 8#251 /copyright put
dup 8#244 /currency put   dup 8#144 /d put          dup 8#260 /degree put
dup 8#367 /divide put     dup 8#044 /dollar put     dup 8#145 /e put
dup 8#351 /eacute put     dup 8#352 /ecircumflex put dup 8#353 /edieresis put
dup 8#350 /egrave put     dup 8#070 /eight put      dup 8#075 /equal put
dup 8#360 /eth put        dup 8#041 /exclam put     dup 8#241 /exclamdown put
dup 8#146 /f put          dup 8#065 /five put       dup 8#064 /four put
dup 8#147 /g put          dup 8#337 /germandbls put dup 8#076 /greater put
dup 8#253 /guillemotleft put dup 8#273 /guillemotright put dup 8#150 /h put
dup 8#255 /hyphen put     dup 8#151 /i put          dup 8#355 /iacute put
dup 8#356 /icircumflex put dup 8#357 /idieresis put dup 8#354 /igrave put
dup 8#152 /j put          dup 8#153 /k put          dup 8#154 /l put
dup 8#074 /less put       dup 8#254 /logicalnot put dup 8#155 /m put
dup 8#055 /minus put      dup 8#265 /mu put         dup 8#327 /multiply put
dup 8#156 /n put          dup 8#071 /nine put       dup 8#361 /ntilde put
dup 8#043 /numbersign put dup 8#157 /o put          dup 8#363 /oacute put
dup 8#364 /ocircumflex put dup 8#366 /odieresis put dup 8#362 /ograve put
dup 8#061 /one put        dup 8#275 /onehalf put    dup 8#274 /onequarter put
dup 8#271 /onesuperior put dup 8#252 /ordfeminine put dup 8#272 /ordmasculine put
dup 8#370 /oslash put     dup 8#365 /otilde put     dup 8#160 /p put
dup 8#266 /paragraph put  dup 8#050 /parenleft put  dup 8#051 /parenright put
dup 8#045 /percent put    dup 8#056 /period put     dup 8#267 /periodcentered put
dup 8#053 /plus put       dup 8#261 /plusminus put  dup 8#161 /q put
dup 8#077 /question put   dup 8#277 /questiondown put dup 8#042 /quotedbl put
dup 8#140 /quoteleft put  dup 8#047 /quoteright put dup 8#162 /r put
dup 8#256 /registered put dup 8#163 /s put          dup 8#247 /section put
dup 8#073 /semicolon put  dup 8#067 /seven put      dup 8#066 /six put
dup 8#057 /slash put      dup 8#040 /space put      dup 8#243 /sterling put
dup 8#164 /t put          dup 8#376 /thorn put      dup 8#063 /three put
dup 8#276 /threequarters put dup 8#263 /threesuperior put dup 8#062 /two put
dup 8#262 /twosuperior put dup 8#165 /u put         dup 8#372 /uacute put
dup 8#373 /ucircumflex put dup 8#374 /udieresis put dup 8#371 /ugrave put
dup 8#137 /underscore put dup 8#166 /v put          dup 8#167 /w put
dup 8#170 /x put          dup 8#171 /y put          dup 8#375 /yacute put
dup 8#377 /ydieresis put  dup 8#245 /yen put        dup 8#172 /z put
dup 8#060 /zero put       dup 8#250 /dieresis put   dup 8#257 /macron put
dup 8#270 /cedilla put
% for ISOLatin1Encoding
%dup 8#220 /dotlessi put   dup 8#221 /grave put      dup 8#222 /acute put
%dup 8#223 /circumflex put dup 8#224 /tilde put      dup 8#225 /macron put
%dup 8#226 /breve put      dup 8#227 /dotaccent put  dup 8#230 /dieresis put
%dup 8#232 /ring put       dup 8#233 /cedilla put    dup 8#235 /hungarumlaut put
%dup 8#236 /ogonek put     dup 8#237 /caron put
% for Windows
dup 8#200 /colonmonetary put dup 8#202 /comma put   dup 8#203 /florin put
dup 8#204 /quotedblbase put dup 8#205 /ellipsis put dup 8#206 /dagger put
dup 8#207 /daggerdbl put  dup 8#210 /circumflex put dup 8#211 /perthousand put
dup 8#212 /Scaron put    dup 8#213 /guilsinglleft put dup 8#214 /OE put
dup 8#221 /quoteleft put dup 8#222 /quoteright put   dup 8#223 /quotedblleft put
dup 8#224 /quotedblright put dup 8#225 /bullet put dup 8#226 /hyphen put
dup 8#227 /emdash put  dup 8#230 /hungarumlaut put dup 8#231 /trademark put
dup 8#232 /scaron put  dup 8#233 /guilsinglright put dup 8#234 /oe put
dup 8#237 /Ydieresis put
pop
/ReEncode {
  findfont
  dup length dict begin
    {1 index /FID ne {def} {pop pop} ifelse} forall
    /Encoding NGPLatin1Encoding def
    currentdict
  end
  definefont
  pop
} bind def
/Times-Roman-ISOLatin1 /Times-Roman ReEncode
/Times-Bold-ISOLatin1 /Times-Bold ReEncode
/Times-Italic-ISOLatin1 /Times-Italic ReEncode
/Times-BoldItalic-ISOLatin1 /Times-BoldItalic ReEncode
/Helvetica-ISOLatin1 /Helvetica ReEncode
/Helvetica-Bold-ISOLatin1 /Helvetica-Bold ReEncode
/Helvetica-Oblique-ISOLatin1 /Helvetica-Oblique ReEncode
/Helvetica-BoldOblique-ISOLatin1 /Helvetica-BoldOblique ReEncode
/Courier-ISOLatin1 /Courier ReEncode
/Courier-Bold-ISOLatin1 /Courier-Bold ReEncode
/Courier-Oblique-ISOLatin1 /Courier-Oblique ReEncode
/Courier-BoldOblique-ISOLatin1 /Courier-BoldOblique ReEncode
%
%%EndProlog
%%Page: Figure 1
%%BeginPageSetup
/ANGLE 0 def
/bottom -29700 def
NgraphDict begin
PageSave
BeginPage
%%EndPageSetup
0 0 21000 29700 1 viewc
0 255 div 0 255 div 0 255 div setrgbcolor
[] 0 40 2 0 10 lsty
3500 22000 17500 22000 l
[] 0 40 0 0 10 lsty
3500 22000 3500 21700 l
4900 22000 4900 21900 l
6300 22000 6300 21800 l
7700 22000 7700 21900 l
9100 22000 9100 21800 l
10500 22000 10500 21900 l
11900 22000 11900 21800 l
13300 22000 13300 21900 l
14700 22000 14700 21800 l
16100 22000 16100 21900 l
17500 22000 17500 21800 l
3304 22738 mto
%IncludeResource: font /Helvetica-ISOLatin1
[705.556 -0 -0 -705.556 0 0] /Helvetica-ISOLatin1 F
0 0 (0) ashow
8904 22738 mto
0 0 (2) ashow
14504 22738 mto
0 0 (4) ashow
[] 0 40 2 0 10 lsty
3500 22000 3500 11000 l
[] 0 40 0 0 10 lsty
3500 22000 3800 22000 l
3500 20625 3600 20625 l
3500 19250 3700 19250 l
3500 17874 3600 17874 l
3500 16500 3700 16500 l
3500 15125 3600 15125 l
3500 13749 3700 13749 l
3500 12374 3600 12374 l
3500 11000 3700 11000 l
3008 22244 mto
0 0 (0) ashow
2420 16744 mto
0 0 (0.2) ashow
2420 11244 mto
0 0 (0.4) ashow
[] 0 40 2 0 10 lsty
3500 11000 17500 11000 l
[] 0 40 0 0 10 lsty
3500 11000 3500 11300 l
4900 11000 4900 11100 l
6300 11000 6300 11200 l
7700 11000 7700 11100 l
9100 11000 9100 11200 l
10500 11000 10500 11100 l
11900 11000 11900 11200 l
13300 11000 13300 11100 l
14700 11000 14700 11200 l
16100 11000 16100 11100 l
17500 11000 17500 11200 l
[] 0 40 2 0 10 lsty
17500 22000 17500 11000 l
[] 0 40 0 0 10 lsty
17500 22000 17200 21999 l
17500 20625 17400 20624 l
17500 19250 17300 19249 l
17500 17874 17400 17873 l
17500 16500 17300 16499 l
17500 15125 17400 15124 l
17500 13749 17300 13748 l
17500 12374 17400 12373 l
17500 11000 17300 10999 l
[] 0 60 0 0 10 lsty
3780 22000 mto
255 255 div 0 255 div 0 255 div setrgbcolor
3780 22000 mto
3920 22000 lto
4060 22000 lto
4151 21999 lto
4200 21997 lto
4235 21995 lto
4263 21992 lto
4289 21988 lto
4313 21982 lto
4335 21976 lto
4340 21974 lto
4361 21966 lto
4381 21956 lto
4400 21945 lto
4419 21933 lto
4437 21920 lto
4454 21905 lto
4471 21889 lto
4480 21880 lto
4496 21862 lto
4512 21843 lto
4528 21821 lto
4546 21797 lto
4565 21770 lto
4585 21740 lto
4607 21706 lto
4620 21686 lto
4653 21633 lto
4682 21586 lto
4708 21542 lto
4732 21499 lto
4755 21458 lto
4760 21448 lto
4776 21416 lto
4791 21387 lto
4805 21357 lto
4818 21328 lto
4831 21299 lto
4843 21270 lto
4855 21240 lto
4866 21210 lto
4877 21179 lto
4888 21148 lto
4898 21115 lto
4900 21109 lto
4910 21075 lto
4921 21038 lto
4932 20999 lto
4943 20957 lto
4954 20913 lto
4966 20867 lto
4977 20817 lto
4989 20765 lto
5002 20710 lto
5015 20652 lto
5028 20590 lto
5040 20533 lto
5053 20468 lto
5067 20399 lto
5082 20324 lto
5099 20242 lto
5117 20148 lto
5138 20044 lto
5155 19957 lto
5171 19880 lto
5180 19834 lto
5196 19755 lto
5213 19675 lto
5231 19594 lto
5249 19512 lto
5268 19428 lto
5287 19343 lto
5308 19254 lto
5320 19203 lto
5347 19091 lto
5373 18981 lto
5400 18872 lto
5427 18765 lto
5454 18658 lto
5460 18637 lto
5487 18532 lto
5515 18430 lto
5542 18331 lto
5568 18235 lto
5595 18141 lto
5600 18123 lto
5627 18032 lto
5653 17942 lto
5680 17854 lto
5707 17767 lto
5734 17683 lto
5740 17663 lto
5766 17584 lto
5791 17508 lto
5816 17436 lto
5840 17367 lto
5864 17302 lto
5880 17259 lto
5903 17198 lto
5927 17138 lto
5951 17079 lto
5975 17022 lto
5999 16966 lto
6020 16920 lto
6045 16865 lto
6070 16813 lto
6095 16763 lto
6120 16715 lto
6145 16669 lto
6160 16643 lto
6185 16600 lto
6209 16560 lto
6234 16521 lto
6259 16484 lto
6284 16449 lto
6300 16428 lto
6324 16397 lto
6349 16367 lto
6374 16338 lto
6401 16310 lto
6429 16282 lto
6440 16270 lto
6470 16242 lto
6499 16217 lto
6527 16194 lto
6554 16174 lto
6580 16157 lto
6580 16157 lto
6606 16141 lto
6632 16127 lto
6658 16115 lto
6686 16104 lto
6714 16095 lto
6720 16093 lto
6748 16086 lto
6777 16080 lto
6808 16075 lto
6842 16071 lto
6860 16069 lto
6909 16066 lto
6955 16065 lto
6998 16066 lto
7000 16066 lto
7043 16068 lto
7084 16073 lto
7125 16079 lto
7140 16082 lto
7179 16090 lto
7220 16101 lto
7262 16114 lto
7280 16120 lto
7326 16137 lto
7373 16156 lto
7420 16176 lto
7476 16202 lto
7533 16230 lto
7560 16244 lto
7617 16275 lto
7677 16310 lto
7700 16323 lto
7770 16366 lto
7840 16410 lto
7923 16464 lto
7980 16502 lto
8069 16563 lto
8120 16599 lto
8225 16673 lto
8260 16698 lto
8400 16797 lto
8540 16896 lto
8680 16994 lto
8820 17092 lto
8960 17192 lto
9100 17292 lto
9240 17391 lto
9369 17479 lto
9380 17487 lto
9520 17582 lto
9660 17675 lto
9800 17766 lto
9921 17842 lto
9940 17854 lto
10054 17925 lto
10080 17940 lto
10190 18006 lto
10220 18023 lto
10340 18092 lto
10360 18103 lto
10490 18176 lto
10500 18181 lto
10640 18257 lto
10780 18332 lto
10920 18404 lto
11060 18475 lto
11200 18543 lto
11340 18610 lto
11340 18610 lto
11478 18674 lto
11480 18675 lto
11620 18738 lto
11760 18799 lto
11900 18860 lto
12040 18918 lto
12180 18976 lto
12320 19032 lto
12460 19086 lto
12600 19139 lto
12740 19191 lto
12880 19241 lto
13020 19290 lto
13160 19337 lto
13300 19383 lto
13440 19428 lto
13580 19472 lto
13720 19515 lto
13860 19557 lto
14000 19597 lto
14140 19637 lto
14280 19676 lto
14420 19713 lto
14560 19750 lto
14700 19786 lto
14840 19822 lto
14980 19856 lto
15120 19890 lto
15260 19922 lto
15400 19955 lto
15540 19986 lto
15680 20016 lto
15820 20046 lto
15960 20076 lto
16100 20104 lto
16240 20132 lto
16380 20159 lto
16520 20186 lto
16660 20212 lto
16800 20238 lto
16940 20263 lto
17080 20287 lto
17220 20311 lto
17360 20335 lto
17500 20358 lto
st
[] 0 40 0 0 10 lsty
3780 22000 mto
0 255 div 0 255 div 255 255 div setrgbcolor
3781 22000 lto
st
3872 22000 mto
3883 21999 lto
3907 21997 lto
3920 21994 lto
3940 21990 lto
3958 21985 lto
3969 21981 lto
st
4052 21927 mto
4060 21919 lto
4075 21903 lto
4089 21885 lto
4104 21865 lto
4115 21849 lto
st
4166 21763 mto
4180 21734 lto
4196 21702 lto
4200 21693 lto
4209 21673 lto
st
4248 21581 mto
4248 21581 lto
4263 21540 lto
4279 21497 lto
4283 21487 lto
st
4315 21393 mto
4325 21359 lto
4340 21312 lto
4344 21297 lto
st
4372 21201 mto
4385 21154 lto
4399 21105 lto
st
4424 21008 mto
4432 20975 lto
4448 20911 lto
st
4471 20813 mto
4480 20774 lto
4493 20716 lto
st
4515 20618 mto
4529 20551 lto
4535 20521 lto
st
4556 20423 mto
4564 20386 lto
4577 20325 lto
st
4596 20227 mto
4600 20206 lto
4615 20129 lto
st
4634 20030 mto
4641 19997 lto
4653 19932 lto
st
4672 19834 mto
4683 19772 lto
4690 19736 lto
st
4707 19637 mto
4725 19539 lto
st
4743 19440 mto
4748 19412 lto
4760 19342 lto
4760 19342 lto
st
4778 19243 mto
4781 19224 lto
4794 19145 lto
st
4810 19046 mto
4819 18994 lto
4827 18947 lto
st
4843 18849 mto
4856 18771 lto
4859 18750 lto
st
4875 18651 mto
4891 18553 lto
st
4906 18454 mto
4916 18391 lto
4921 18355 lto
st
4936 18256 mto
4949 18169 lto
4951 18157 lto
st
4966 18058 mto
4967 18049 lto
4980 17959 lto
st
4994 17860 mto
5005 17783 lto
5008 17761 lto
st
5023 17662 mto
5027 17634 lto
5037 17563 lto
st
5051 17464 mto
5065 17368 lto
5065 17365 lto
st
5079 17266 mto
5093 17167 lto
st
5107 17068 mto
5122 16969 lto
st
5136 16870 mto
5147 16794 lto
5150 16771 lto
st
5164 16672 mto
5168 16647 lto
5179 16573 lto
st
5193 16475 mto
5198 16443 lto
5208 16376 lto
st
5223 16277 mto
5231 16225 lto
5238 16178 lto
st
5253 16079 mto
5260 16032 lto
5268 15980 lto
st
5284 15881 mto
5288 15860 lto
5301 15783 lto
st
5317 15684 mto
5320 15669 lto
5333 15594 lto
5334 15586 lto
st
5352 15487 mto
5359 15448 lto
5370 15389 lto
st
5390 15291 mto
5401 15234 lto
5409 15193 lto
st
5429 15095 mto
5444 15026 lto
5450 14997 lto
st
5471 14899 mto
5475 14883 lto
5490 14818 lto
5494 14802 lto
st
5518 14705 mto
5520 14696 lto
5534 14639 lto
5542 14608 lto
st
5568 14511 mto
5576 14484 lto
5590 14437 lto
5596 14415 lto
st
5626 14320 mto
5640 14281 lto
5653 14242 lto
5659 14225 lto
st
5696 14133 mto
5697 14131 lto
5712 14095 lto
5727 14060 lto
5736 14041 lto
st
5780 13951 mto
5791 13932 lto
5807 13903 lto
5823 13877 lto
5831 13865 lto
st
5892 13786 mto
5894 13783 lto
5909 13769 lto
5924 13756 lto
5939 13745 lto
5955 13734 lto
5971 13726 lto
st
6066 13695 mto
6066 13695 lto
6090 13692 lto
6113 13692 lto
6137 13694 lto
6160 13697 lto
6165 13698 lto
st
6259 13732 mto
6280 13744 lto
6300 13756 lto
6326 13774 lto
6343 13786 lto
st
6419 13851 mto
6433 13865 lto
6440 13872 lto
6465 13897 lto
6488 13923 lto
st
6553 13999 mto
6580 14032 lto
6616 14077 lto
st
6678 14155 mto
6708 14193 lto
6720 14209 lto
6739 14234 lto
st
6799 14314 mto
6838 14366 lto
6859 14394 lto
st
6917 14476 mto
6966 14545 lto
6975 14558 lto
st
7032 14640 mto
7089 14722 lto
st
7146 14804 mto
7204 14886 lto
st
7261 14967 mto
7276 14989 lto
7280 14995 lto
7318 15049 lto
st
7376 15131 mto
7420 15191 lto
7435 15212 lto
st
7494 15292 mto
7513 15318 lto
7553 15373 lto
st
7613 15453 mto
7644 15495 lto
7673 15533 lto
st
7734 15613 mto
7772 15662 lto
7795 15692 lto
st
7857 15770 mto
7916 15844 lto
7920 15848 lto
st
7983 15926 mto
8047 16003 lto
st
8111 16079 mto
8120 16090 lto
8176 16155 lto
st
8241 16231 mto
8260 16252 lto
8308 16306 lto
st
8375 16380 mto
8400 16408 lto
8442 16454 lto
st
8510 16527 mto
8540 16559 lto
8579 16600 lto
st
8649 16672 mto
8680 16704 lto
8719 16742 lto
st
8790 16813 mto
8820 16843 lto
8862 16883 lto
st
8934 16952 mto
8960 16976 lto
9007 17020 lto
st
9081 17087 mto
9100 17104 lto
9156 17154 lto
st
9231 17220 mto
9240 17228 lto
9307 17285 lto
st
9383 17350 mto
9460 17413 lto
st
9538 17476 mto
9614 17536 lto
9616 17538 lto
st
9695 17599 mto
9754 17644 lto
9775 17660 lto
st
9855 17719 mto
9901 17753 lto
9936 17778 lto
st
10018 17836 mto
10042 17853 lto
10080 17879 lto
10100 17893 lto
st
10182 17950 mto
10190 17955 lto
10220 17975 lto
10266 18005 lto
st
10349 18060 mto
10360 18067 lto
10434 18114 lto
st
10518 18167 mto
10603 18220 lto
st
10689 18271 mto
10753 18310 lto
10775 18322 lto
st
10861 18372 mto
10899 18394 lto
10920 18406 lto
10948 18422 lto
st
11036 18470 mto
11037 18471 lto
11060 18483 lto
11124 18517 lto
st
11212 18564 mto
11301 18611 lto
st
11390 18656 mto
11469 18695 lto
11479 18701 lto
st
11569 18744 mto
11610 18764 lto
11620 18769 lto
11660 18788 lto
st
11750 18830 mto
11754 18832 lto
11760 18835 lto
11841 18871 lto
st
11932 18912 mto
12024 18953 lto
st
12116 18992 mto
12180 19020 lto
12208 19032 lto
st
12300 19070 mto
12320 19079 lto
12392 19108 lto
st
12485 19145 mto
12578 19182 lto
st
12672 19218 mto
12740 19244 lto
12765 19253 lto
st
12859 19288 mto
12880 19296 lto
12953 19323 lto
st
13047 19356 mto
13141 19389 lto
st
13236 19422 mto
13300 19444 lto
13331 19454 lto
st
13426 19485 mto
13440 19490 lto
13521 19516 lto
st
13616 19546 mto
13711 19576 lto
st
13807 19606 mto
13860 19622 lto
13903 19635 lto
st
13999 19663 mto
14000 19663 lto
14095 19691 lto
st
14191 19718 mto
14280 19743 lto
14287 19745 lto
st
14383 19772 mto
14420 19782 lto
14480 19798 lto
st
14577 19823 mto
14673 19849 lto
st
14770 19874 mto
14840 19891 lto
14867 19898 lto
st
14964 19922 mto
14980 19926 lto
15061 19946 lto
st
15159 19969 mto
15256 19992 lto
st
15354 20014 mto
15400 20025 lto
15451 20036 lto
st
15549 20058 mto
15646 20080 lto
st
15744 20101 mto
15820 20117 lto
15842 20122 lto
st
15940 20143 mto
15960 20147 lto
16038 20163 lto
st
16136 20182 mto
16234 20202 lto
st
16332 20221 mto
16380 20231 lto
16430 20241 lto
st
16528 20260 mto
16626 20278 lto
st
16725 20296 mto
16800 20309 lto
16823 20313 lto
st
16922 20332 mto
16940 20335 lto
17020 20349 lto
st
17119 20366 mto
17217 20383 lto
st
17316 20399 mto
17360 20407 lto
17414 20416 lto
st
3780 22000 mto
0 255 div 0 255 div 0 255 div setrgbcolor
3782 22000 lto
st
3840 22000 mto
3854 21999 lto
3872 21997 lto
3890 21993 lto
3906 21988 lto
3920 21983 lto
3936 21975 lto
3951 21966 lto
3966 21955 lto
3975 21948 lto
st
4067 21830 mto
4072 21822 lto
4084 21800 lto
4095 21777 lto
4107 21752 lto
4118 21727 lto
4128 21700 lto
4130 21694 lto
st
4179 21552 mto
4180 21550 lto
4189 21516 lto
4199 21481 lto
4200 21476 lto
4209 21440 lto
4218 21408 lto
st
4251 21261 mto
4258 21226 lto
4269 21176 lto
4279 21123 lto
4281 21114 lto
st
4309 20967 mto
4313 20945 lto
4325 20880 lto
4335 20819 lto
st
4361 20672 mto
4370 20618 lto
4386 20525 lto
4386 20524 lto
st
4411 20376 mto
4418 20329 lto
4434 20227 lto
st
4457 20079 mto
4468 20008 lto
4479 19931 lto
st
4502 19783 mto
4515 19687 lto
4523 19634 lto
st
4545 19486 mto
4553 19427 lto
4566 19337 lto
st
4587 19189 mto
4593 19143 lto
4607 19040 lto
st
4628 18891 mto
4643 18778 lto
4648 18743 lto
st
4669 18594 mto
4688 18446 lto
st
4708 18297 mto
4720 18209 lto
4728 18148 lto
st
4747 17999 mto
4748 17994 lto
4760 17905 lto
4767 17851 lto
st
4787 17702 mto
4792 17663 lto
4806 17553 lto
st
4826 17405 mto
4828 17388 lto
4845 17256 lto
st
4865 17107 mto
4871 17058 lto
4884 16958 lto
st
4904 16810 mto
4923 16661 lto
st
4943 16512 mto
4960 16380 lto
4962 16364 lto
st
4982 16215 mto
5001 16066 lto
st
5021 15917 mto
5024 15892 lto
5040 15772 lto
5040 15769 lto
st
5060 15620 mto
5064 15587 lto
5080 15471 lto
st
5099 15323 mto
5102 15302 lto
5119 15180 lto
5120 15174 lto
st
5140 15025 mto
5149 14963 lto
5161 14877 lto
st
5182 14728 mto
5195 14644 lto
5204 14580 lto
st
5226 14432 mto
5238 14360 lto
5250 14283 lto
st
5274 14135 mto
5281 14094 lto
5295 14010 lto
5299 13987 lto
st
5326 13840 mto
5334 13795 lto
5347 13722 lto
5353 13692 lto
st
5382 13545 mto
5387 13519 lto
5400 13456 lto
5412 13398 lto
st
5446 13252 mto
5451 13231 lto
5460 13195 lto
5472 13148 lto
5483 13107 lto
st
5524 12962 mto
5535 12925 lto
5548 12882 lto
5562 12840 lto
5569 12819 lto
st
5620 12678 mto
5631 12650 lto
5647 12613 lto
5661 12579 lto
5676 12547 lto
5679 12541 lto
st
5753 12410 mto
5753 12410 lto
5766 12393 lto
5780 12377 lto
5793 12362 lto
5807 12349 lto
5821 12337 lto
5836 12327 lto
5851 12318 lto
5864 12312 lto
st
6009 12312 mto
6020 12316 lto
6039 12326 lto
6059 12338 lto
6079 12352 lto
6099 12368 lto
6120 12386 lto
6131 12397 lto
st
6228 12512 mto
6246 12536 lto
6269 12570 lto
6294 12607 lto
6300 12617 lto
6312 12636 lto
st
6389 12765 mto
6414 12808 lto
6440 12855 lto
6462 12896 lto
st
6533 13028 mto
6563 13087 lto
6580 13120 lto
6601 13162 lto
st
6669 13296 mto
6681 13320 lto
6720 13397 lto
6736 13430 lto
st
6803 13564 mto
6812 13583 lto
6860 13680 lto
6869 13699 lto
st
6935 13834 mto
6983 13934 lto
7000 13968 lto
7000 13968 lto
st
7066 14103 mto
7114 14198 lto
7134 14237 lto
st
7202 14370 mto
7236 14435 lto
7272 14503 lto
st
7344 14635 mto
7402 14742 lto
7416 14767 lto
st
7490 14897 mto
7537 14980 lto
7560 15020 lto
7564 15027 lto
st
7641 15156 mto
7670 15205 lto
7700 15254 lto
7719 15284 lto
st
7799 15411 mto
7818 15442 lto
7840 15477 lto
7879 15538 lto
st
7962 15663 mto
7968 15673 lto
7980 15691 lto
8041 15780 lto
8046 15787 lto
st
8132 15910 mto
8178 15976 lto
8219 16032 lto
st
8309 16152 mto
8320 16166 lto
8382 16246 lto
8400 16269 lto
8401 16271 lto
st
8495 16387 mto
8535 16436 lto
8540 16443 lto
8591 16503 lto
st
8688 16617 mto
8749 16687 lto
8787 16730 lto
st
8889 16840 mto
8892 16843 lto
8960 16916 lto
8992 16949 lto
st
9097 17056 mto
9100 17059 lto
9178 17137 lto
9204 17162 lto
st
9312 17265 mto
9321 17273 lto
9380 17328 lto
9423 17367 lto
st
9534 17467 mto
9607 17530 lto
9648 17565 lto
st
9763 17661 mto
9800 17691 lto
9880 17754 lto
st
9999 17846 mto
10031 17871 lto
10080 17908 lto
10119 17937 lto
st
10240 18024 mto
10315 18077 lto
10360 18108 lto
10363 18110 lto
st
10488 18194 mto
10500 18202 lto
10603 18269 lto
10613 18276 lto
st
10741 18355 mto
10750 18361 lto
10780 18380 lto
10868 18434 lto
st
10998 18509 mto
11034 18530 lto
11060 18545 lto
11128 18584 lto
st
11260 18656 mto
11318 18688 lto
11340 18699 lto
11392 18726 lto
st
11525 18796 mto
11605 18836 lto
11620 18843 lto
11660 18862 lto
st
11795 18927 mto
11893 18974 lto
11900 18977 lto
11930 18991 lto
st
12067 19053 mto
12174 19100 lto
12180 19103 lto
12204 19113 lto
st
12342 19172 mto
12460 19221 lto
12481 19229 lto
st
12620 19285 mto
12740 19331 lto
12760 19339 lto
st
12901 19392 mto
13020 19435 lto
13042 19443 lto
st
13183 19493 mto
13300 19533 lto
13325 19541 lto
st
13467 19589 mto
13580 19626 lto
13610 19635 lto
st
13753 19680 mto
13860 19713 lto
13897 19724 lto
st
14040 19767 mto
14140 19796 lto
14184 19809 lto
st
14329 19849 mto
14420 19874 lto
14474 19889 lto
st
14619 19927 mto
14700 19948 lto
14764 19964 lto
st
14909 20001 mto
14980 20018 lto
15055 20036 lto
st
15201 20071 mto
15260 20085 lto
15347 20105 lto
st
15493 20138 mto
15540 20148 lto
15640 20169 lto
st
15787 20201 mto
15820 20208 lto
15934 20232 lto
st
16081 20261 mto
16100 20265 lto
16228 20291 lto
st
16375 20319 mto
16380 20320 lto
16520 20346 lto
16522 20346 lto
st
16670 20374 mto
16800 20397 lto
16818 20400 lto
st
16965 20426 mto
17080 20446 lto
17113 20451 lto
st
17261 20476 mto
17360 20492 lto
17409 20500 lto
st
3780 22000 mto
255 255 div 0 255 div 255 255 div setrgbcolor
3814 22000 lto
3839 21998 lto
3862 21996 lto
3882 21993 lto
3901 21988 lto
3918 21983 lto
3920 21982 lto
3935 21976 lto
3949 21969 lto
3962 21960 lto
3975 21951 lto
3987 21941 lto
3999 21929 lto
4010 21916 lto
4021 21903 lto
4032 21887 lto
4043 21871 lto
4053 21853 lto
4060 21841 lto
4070 21820 lto
4081 21798 lto
4091 21775 lto
4101 21749 lto
4102 21745 lto
st
4149 21603 mto
4149 21602 lto
4158 21568 lto
4167 21532 lto
4176 21495 lto
4185 21457 lto
4194 21417 lto
4200 21390 lto
4208 21351 lto
4217 21309 lto
4225 21264 lto
4234 21218 lto
4243 21168 lto
4244 21163 lto
st
4269 21015 mto
4271 21004 lto
4281 20944 lto
4292 20880 lto
4302 20812 lto
4313 20741 lto
4325 20665 lto
4337 20584 lto
4339 20571 lto
st
4361 20422 mto
4371 20353 lto
4385 20253 lto
4399 20154 lto
4412 20056 lto
4423 19977 lto
st
4443 19828 mto
4451 19768 lto
4463 19673 lto
4475 19578 lto
4480 19538 lto
4491 19450 lto
4499 19382 lto
st
4517 19233 mto
4526 19159 lto
4538 19052 lto
4551 18937 lto
4565 18815 lto
4568 18786 lto
st
4585 18637 mto
4597 18539 lto
4615 18376 lto
4620 18331 lto
4636 18189 lto
st
4653 18040 mto
4661 17968 lto
4703 17593 lto
st
4720 17444 mto
4760 17091 lto
4771 16997 lto
st
4787 16848 mto
4812 16628 lto
4834 16435 lto
4838 16401 lto
st
4855 16252 mto
4871 16109 lto
4888 15965 lto
4900 15865 lto
4907 15805 lto
st
4925 15656 mto
4932 15598 lto
4947 15473 lto
4962 15353 lto
4976 15237 lto
4980 15209 lto
st
4999 15060 mto
5004 15018 lto
5018 14915 lto
5031 14815 lto
5040 14752 lto
5053 14656 lto
5059 14614 lto
st
5080 14466 mto
5094 14372 lto
5108 14279 lto
5122 14186 lto
5136 14094 lto
5148 14021 lto
st
5171 13873 mto
5180 13822 lto
5195 13734 lto
5209 13650 lto
5223 13570 lto
5237 13493 lto
5248 13430 lto
st
5277 13282 mto
5277 13280 lto
5290 13215 lto
5302 13153 lto
5315 13093 lto
5320 13069 lto
5333 13011 lto
5345 12955 lto
5358 12900 lto
5371 12847 lto
5372 12843 lto
st
5410 12697 mto
5423 12652 lto
5436 12607 lto
5450 12564 lto
5460 12532 lto
5473 12493 lto
5487 12455 lto
5500 12418 lto
5514 12383 lto
5528 12349 lto
5542 12317 lto
5556 12287 lto
5562 12275 lto
st
5637 12145 mto
5644 12135 lto
5660 12115 lto
5675 12097 lto
5691 12081 lto
5707 12066 lto
5723 12052 lto
5739 12040 lto
5740 12040 lto
5758 12029 lto
5775 12020 lto
5793 12013 lto
5811 12008 lto
5828 12005 lto
5845 12004 lto
5863 12005 lto
5880 12008 lto
5880 12008 lto
5896 12012 lto
5913 12019 lto
5930 12027 lto
5948 12037 lto
5965 12049 lto
5984 12064 lto
6002 12080 lto
6010 12087 lto
st
6108 12200 mto
6126 12224 lto
6150 12258 lto
6160 12273 lto
6188 12315 lto
6216 12359 lto
6243 12404 lto
6270 12450 lto
6297 12498 lto
6300 12504 lto
6324 12548 lto
6342 12584 lto
st
6410 12718 mto
6438 12777 lto
6440 12781 lto
6486 12877 lto
6541 12993 lto
6580 13075 lto
6603 13124 lto
st
6668 13259 mto
6720 13369 lto
6786 13509 lto
6859 13667 lto
st
6922 13803 mto
6928 13815 lto
6989 13944 lto
7000 13968 lto
7052 14077 lto
7106 14187 lto
7117 14209 lto
st
7183 14343 mto
7198 14373 lto
7258 14492 lto
7280 14536 lto
7343 14659 lto
7388 14744 lto
st
7459 14876 mto
7475 14907 lto
7529 15005 lto
7560 15061 lto
7612 15153 lto
7665 15244 lto
7679 15268 lto
st
7756 15398 mto
7809 15484 lto
7840 15535 lto
7896 15623 lto
7953 15712 lto
7980 15753 lto
7996 15778 lto
st
8080 15902 mto
8102 15934 lto
8120 15960 lto
8186 16056 lto
8253 16149 lto
8260 16159 lto
8325 16249 lto
8340 16269 lto
st
8431 16388 mto
8464 16431 lto
8527 16512 lto
8540 16528 lto
8602 16605 lto
8666 16682 lto
8680 16699 lto
8714 16739 lto
st
8812 16852 mto
8820 16860 lto
8891 16939 lto
8960 17014 lto
9036 17095 lto
9100 17161 lto
9119 17181 lto
st
9225 17287 mto
9240 17302 lto
9320 17380 lto
9380 17437 lto
9461 17512 lto
9520 17566 lto
9553 17595 lto
st
9666 17694 mto
9744 17761 lto
9800 17807 lto
9887 17877 lto
9940 17919 lto
10015 17977 lto
st
10135 18068 mto
10174 18098 lto
10220 18131 lto
10317 18201 lto
10360 18231 lto
10460 18299 lto
10500 18326 lto
10502 18328 lto
st
10628 18410 mto
10640 18418 lto
10745 18485 lto
10780 18507 lto
10888 18573 lto
10920 18592 lto
11011 18646 lto
st
11141 18720 mto
11172 18738 lto
11200 18753 lto
11315 18816 lto
11340 18829 lto
11457 18891 lto
11480 18902 lto
11538 18932 lto
st
11672 18999 mto
11745 19034 lto
11760 19041 lto
11891 19103 lto
11900 19107 lto
12029 19166 lto
12040 19171 lto
12080 19189 lto
st
12218 19249 mto
12317 19291 lto
12320 19292 lto
12460 19350 lto
12600 19406 lto
12634 19419 lto
st
12774 19473 mto
12880 19512 lto
13020 19563 lto
13160 19612 lto
13198 19625 lto
st
13340 19673 mto
13440 19706 lto
13580 19751 lto
13720 19795 lto
13769 19810 lto
st
13912 19852 mto
14000 19878 lto
14140 19918 lto
14280 19957 lto
14345 19975 lto
st
14490 20014 mto
14560 20032 lto
14700 20067 lto
14840 20102 lto
14927 20123 lto
st
15073 20158 mto
15120 20169 lto
15260 20201 lto
15400 20232 lto
15512 20256 lto
st
15658 20287 mto
15680 20292 lto
15820 20321 lto
15960 20349 lto
16100 20376 lto
st
16247 20404 mto
16380 20429 lto
16520 20455 lto
16660 20479 lto
16690 20484 lto
st
16837 20510 mto
16940 20527 lto
17080 20550 lto
17220 20573 lto
17282 20583 lto
st
17430 20605 mto
17500 20616 lto
st
3780 22000 mto
0 255 div 255 255 div 0 255 div setrgbcolor
3781 22000 lto
st
3858 22000 mto
3879 21999 lto
3903 21996 lto
3920 21993 lto
3936 21989 lto
3950 21984 lto
3963 21979 lto
3976 21973 lto
3988 21965 lto
3999 21957 lto
4010 21947 lto
4021 21936 lto
4031 21924 lto
4041 21911 lto
4051 21897 lto
4060 21883 lto
4070 21865 lto
4080 21845 lto
4090 21824 lto
4099 21802 lto
4109 21777 lto
4119 21752 lto
4128 21724 lto
4137 21696 lto
st
4177 21552 mto
4183 21527 lto
4192 21489 lto
4200 21451 lto
4209 21409 lto
4210 21405 lto
st
4238 21258 mto
4245 21220 lto
4254 21167 lto
4263 21113 lto
4272 21056 lto
4281 20997 lto
4291 20935 lto
4300 20872 lto
4309 20813 lto
st
4329 20665 mto
4338 20594 lto
4340 20580 lto
4348 20516 lto
st
4367 20367 mto
4367 20366 lto
4376 20288 lto
4386 20207 lto
4396 20121 lto
4406 20031 lto
4417 19936 lto
4419 19920 lto
st
4436 19771 mto
4440 19730 lto
4452 19622 lto
st
4468 19473 mto
4480 19369 lto
4515 19046 lto
4517 19026 lto
st
4534 18877 mto
4550 18727 lto
st
4566 18578 mto
4608 18194 lto
4615 18131 lto
st
4631 17982 mto
4647 17833 lto
st
4663 17684 mto
4672 17603 lto
4693 17413 lto
4712 17240 lto
4712 17236 lto
st
4729 17087 mto
4730 17080 lto
4746 16938 lto
st
4763 16789 mto
4777 16665 lto
4795 16518 lto
4812 16374 lto
4816 16342 lto
st
4833 16193 mto
4845 16096 lto
4852 16044 lto
st
4870 15896 mto
4878 15831 lto
4894 15703 lto
4900 15659 lto
4916 15538 lto
4927 15449 lto
st
4947 15301 mto
4961 15199 lto
4968 15152 lto
st
4988 15003 mto
4990 14989 lto
5005 14890 lto
5019 14793 lto
5033 14699 lto
5040 14651 lto
5054 14561 lto
5054 14558 lto
st
5078 14410 mto
5081 14388 lto
5095 14306 lto
5102 14262 lto
st
5128 14114 mto
5135 14074 lto
5148 14001 lto
5161 13931 lto
5174 13863 lto
5180 13833 lto
5193 13771 lto
5205 13709 lto
5213 13672 lto
st
5245 13526 mto
5258 13471 lto
5271 13414 lto
5280 13380 lto
st
5317 13235 mto
5320 13224 lto
5335 13168 lto
5351 13113 lto
5366 13062 lto
5381 13012 lto
5396 12965 lto
5411 12921 lto
5426 12878 lto
5440 12838 lto
5453 12806 lto
st
5512 12668 mto
5518 12656 lto
5532 12628 lto
5547 12600 lto
5563 12574 lto
5578 12550 lto
5586 12538 lto
st
5687 12428 mto
5700 12418 lto
5716 12408 lto
5733 12401 lto
5740 12398 lto
5755 12393 lto
5771 12390 lto
5787 12389 lto
5804 12389 lto
5821 12391 lto
5838 12394 lto
5857 12400 lto
5876 12406 lto
5880 12408 lto
5903 12419 lto
5927 12431 lto
5950 12445 lto
5973 12462 lto
5996 12480 lto
6019 12500 lto
6020 12501 lto
6042 12522 lto
6064 12545 lto
6073 12555 lto
st
6166 12672 mto
6186 12700 lto
6213 12740 lto
6241 12782 lto
6250 12797 lto
st
6327 12925 mto
6330 12930 lto
6361 12986 lto
6395 13048 lto
6433 13117 lto
6440 13130 lto
6498 13239 lto
6541 13321 lto
st
6610 13454 mto
6633 13499 lto
6678 13588 lto
st
6745 13722 mto
6826 13884 lto
6860 13952 lto
6947 14125 lto
st
7014 14258 mto
7082 14392 lto
st
7152 14525 mto
7213 14644 lto
7280 14770 lto
7342 14887 lto
7362 14923 lto
st
7435 15054 mto
7477 15131 lto
7508 15185 lto
st
7583 15315 mto
7617 15373 lto
7676 15471 lto
7700 15511 lto
7763 15614 lto
7817 15699 lto
st
7897 15826 mto
7903 15835 lto
7966 15930 lto
7980 15951 lto
st
8064 16076 mto
8103 16134 lto
8120 16158 lto
8181 16244 lto
8243 16330 lto
8260 16353 lto
8324 16439 lto
8326 16441 lto
st
8416 16561 mto
8468 16627 lto
8509 16679 lto
st
8604 16795 mto
8610 16803 lto
8679 16887 lto
8680 16887 lto
8750 16969 lto
8820 17049 lto
8890 17128 lto
8897 17136 lto
st
9000 17245 mto
9033 17281 lto
9100 17350 lto
9104 17354 lto
st
9209 17460 mto
9240 17490 lto
9318 17566 lto
9380 17624 lto
9462 17700 lto
9520 17753 lto
9537 17768 lto
st
9650 17867 mto
9660 17875 lto
9747 17949 lto
9765 17964 lto
st
9881 18058 mto
9888 18064 lto
9940 18106 lto
10030 18176 lto
10080 18213 lto
10171 18281 lto
10220 18317 lto
10239 18331 lto
st
10362 18416 mto
10456 18481 lto
10486 18501 lto
st
10612 18583 mto
10640 18601 lto
10743 18666 lto
10780 18688 lto
10887 18753 lto
10920 18772 lto
10997 18816 lto
st
11127 18890 mto
11175 18917 lto
11200 18931 lto
11258 18962 lto
st
11391 19032 mto
11460 19068 lto
11480 19078 lto
11602 19139 lto
11620 19148 lto
11746 19209 lto
11760 19215 lto
11795 19231 lto
st
11931 19294 mto
12030 19338 lto
12040 19343 lto
12068 19355 lto
st
12206 19414 mto
12317 19460 lto
12320 19462 lto
12460 19518 lto
12600 19573 lto
12623 19582 lto
st
12764 19634 mto
12880 19676 lto
12905 19685 lto
st
13046 19735 mto
13160 19774 lto
13300 19820 lto
13440 19865 lto
13474 19876 lto
st
13617 19920 mto
13720 19951 lto
13761 19963 lto
st
13905 20005 mto
14000 20031 lto
14140 20070 lto
14280 20107 lto
14339 20123 lto
st
14484 20160 mto
14560 20179 lto
14630 20196 lto
st
14776 20231 mto
14840 20247 lto
14980 20279 lto
15120 20311 lto
15215 20331 lto
st
15361 20363 mto
15400 20371 lto
15508 20393 lto
st
15655 20423 mto
15680 20428 lto
15820 20456 lto
15960 20483 lto
16097 20508 lto
st
16245 20535 mto
16380 20559 lto
16392 20561 lto
st
16540 20586 mto
16660 20607 lto
16800 20630 lto
16940 20652 lto
16984 20659 lto
st
17132 20682 mto
17220 20695 lto
17281 20704 lto
st
17429 20726 mto
17500 20736 lto
st
3780 22000 mto
255 255 div 128 255 div 0 255 div setrgbcolor
3781 22000 lto
st
3859 22000 mto
3883 21998 lto
3907 21995 lto
3920 21993 lto
3936 21990 lto
3951 21985 lto
3965 21980 lto
3978 21974 lto
3991 21966 lto
4003 21958 lto
4014 21948 lto
4025 21938 lto
4036 21926 lto
4047 21913 lto
4057 21898 lto
4060 21893 lto
4070 21876 lto
4081 21858 lto
4091 21838 lto
4101 21816 lto
4111 21793 lto
4121 21768 lto
4131 21742 lto
4140 21714 lto
4144 21702 lto
st
4186 21557 mto
4187 21552 lto
4196 21515 lto
4200 21498 lto
4209 21459 lto
4218 21417 lto
4219 21411 lto
st
4249 21264 mto
4255 21230 lto
4265 21177 lto
4274 21122 lto
4275 21117 lto
st
4299 20969 mto
4303 20944 lto
4313 20880 lto
4323 20813 lto
4333 20744 lto
4340 20699 lto
4350 20628 lto
4360 20554 lto
4364 20523 lto
st
4384 20375 mto
4392 20314 lto
4403 20228 lto
4403 20226 lto
st
4421 20077 mto
4425 20045 lto
4437 19947 lto
4439 19928 lto
st
4457 19779 mto
4461 19740 lto
4474 19630 lto
4480 19575 lto
4493 19459 lto
4507 19336 lto
4507 19332 lto
st
4524 19183 mto
4536 19067 lto
4540 19034 lto
st
4556 18885 mto
4570 18753 lto
4572 18735 lto
st
4589 18586 mto
4591 18567 lto
4615 18345 lto
4620 18294 lto
4637 18139 lto
st
4653 17990 mto
4665 17885 lto
4670 17841 lto
st
4686 17692 mto
4702 17542 lto
st
4719 17393 mto
4721 17378 lto
4738 17227 lto
4755 17084 lto
4760 17037 lto
4771 16946 lto
st
4789 16797 mto
4791 16777 lto
4805 16656 lto
4806 16648 lto
st
4824 16500 mto
4833 16427 lto
4843 16351 lto
st
4862 16202 mto
4873 16116 lto
4886 16019 lto
4898 15926 lto
4900 15912 lto
4913 15820 lto
4922 15756 lto
st
4943 15607 mto
4951 15550 lto
4965 15462 lto
4965 15459 lto
st
4988 15311 mto
4991 15290 lto
5005 15205 lto
5012 15163 lto
st
5036 15015 mto
5040 14992 lto
5054 14909 lto
5069 14828 lto
5083 14748 lto
5098 14670 lto
5112 14594 lto
5116 14572 lto
st
5146 14425 mto
5156 14377 lto
5171 14309 lto
5177 14278 lto
st
5210 14132 mto
5224 14075 lto
5239 14015 lto
5246 13986 lto
st
5284 13841 mto
5298 13793 lto
5313 13741 lto
5320 13718 lto
5335 13669 lto
5350 13622 lto
5365 13577 lto
5381 13534 lto
5396 13494 lto
5411 13455 lto
5426 13418 lto
5427 13415 lto
st
5492 13280 mto
5504 13260 lto
5519 13235 lto
5534 13212 lto
5550 13190 lto
5566 13169 lto
5577 13156 lto
st
5692 13062 mto
5707 13056 lto
5725 13050 lto
5740 13046 lto
5759 13043 lto
5777 13042 lto
5797 13043 lto
5817 13045 lto
5837 13049 lto
5839 13049 lto
st
5973 13115 mto
5976 13117 lto
6000 13135 lto
6020 13152 lto
6046 13174 lto
6071 13199 lto
6097 13226 lto
6123 13255 lto
6149 13287 lto
6160 13300 lto
6184 13332 lto
6210 13366 lto
6237 13404 lto
6266 13446 lto
6269 13450 lto
st
6350 13577 mto
6380 13624 lto
6425 13697 lto
6429 13704 lto
st
6506 13832 mto
6561 13925 lto
6580 13958 lto
6582 13962 lto
st
6656 14092 mto
6695 14160 lto
6720 14205 lto
6777 14309 lto
6844 14431 lto
6860 14461 lto
6874 14486 lto
st
6945 14618 mto
6960 14645 lto
7000 14719 lto
7017 14750 lto
st
7089 14881 mto
7140 14972 lto
7163 15012 lto
st
7237 15143 mto
7280 15218 lto
7351 15339 lto
7420 15456 lto
7465 15530 lto
st
7543 15658 mto
7556 15679 lto
7560 15686 lto
7623 15785 lto
st
7703 15912 mto
7767 16010 lto
7785 16038 lto
st
7869 16162 mto
7907 16219 lto
7974 16316 lto
7980 16324 lto
8047 16418 lto
8114 16511 lto
8120 16519 lto
8128 16530 lto
st
8218 16650 mto
8254 16698 lto
8260 16706 lto
8309 16769 lto
st
8402 16887 mto
8470 16971 lto
8497 17003 lto
st
8594 17118 mto
8612 17139 lto
8680 17218 lto
8753 17300 lto
8820 17374 lto
8893 17452 lto
8894 17453 lto
st
8998 17561 mto
9035 17598 lto
9100 17664 lto
9103 17667 lto
st
9211 17772 mto
9240 17799 lto
9318 17872 lto
9321 17874 lto
st
9433 17974 mto
9462 18000 lto
9520 18051 lto
9604 18122 lto
9660 18169 lto
9747 18239 lto
9777 18263 lto
st
9896 18355 mto
9940 18389 lto
10016 18446 lto
st
10137 18533 mto
10174 18559 lto
10220 18591 lto
10260 18619 lto
st
10385 18702 mto
10459 18751 lto
10500 18777 lto
10603 18842 lto
10640 18864 lto
10745 18928 lto
10767 18940 lto
st
10897 19016 mto
10920 19029 lto
11028 19088 lto
st
11160 19160 mto
11173 19167 lto
11200 19181 lto
11293 19228 lto
st
11427 19296 mto
11460 19312 lto
11480 19322 lto
11604 19381 lto
11620 19388 lto
11747 19446 lto
11760 19452 lto
11835 19485 lto
st
11973 19545 mto
12032 19570 lto
12040 19574 lto
12111 19603 lto
st
12250 19659 mto
12318 19686 lto
12320 19687 lto
12390 19714 lto
st
12530 19766 mto
12600 19792 lto
12740 19842 lto
12880 19890 lto
12955 19915 lto
st
13098 19961 mto
13160 19981 lto
13241 20006 lto
st
13384 20050 mto
13440 20067 lto
13528 20093 lto
st
13672 20134 mto
13720 20148 lto
13860 20186 lto
14000 20223 lto
14107 20251 lto
st
14252 20287 mto
14280 20294 lto
14398 20323 lto
st
14544 20357 mto
14560 20361 lto
14690 20391 lto
st
14837 20423 mto
14840 20424 lto
14980 20454 lto
15120 20484 lto
15260 20512 lto
15277 20515 lto
st
15424 20545 mto
15540 20567 lto
15572 20573 lto
st
15719 20600 mto
15820 20618 lto
15867 20626 lto
st
16015 20652 mto
16100 20667 lto
16240 20691 lto
16380 20714 lto
16458 20726 lto
st
16607 20750 mto
16660 20758 lto
16755 20772 lto
st
16903 20794 mto
16940 20800 lto
17052 20816 lto
st
17200 20836 mto
17220 20839 lto
17360 20858 lto
17500 20877 lto
st
3780 22000 mto
0 255 div 255 255 div 255 255 div setrgbcolor
3781 22000 lto
st
3860 22000 mto
3861 22000 lto
3890 21998 lto
3915 21995 lto
3920 21994 lto
3938 21991 lto
3954 21987 lto
3968 21981 lto
3982 21975 lto
3996 21968 lto
4008 21960 lto
4021 21950 lto
4032 21940 lto
4044 21928 lto
4055 21915 lto
4060 21908 lto
4071 21892 lto
4082 21875 lto
4093 21856 lto
4104 21836 lto
4115 21814 lto
4125 21791 lto
4135 21766 lto
4146 21740 lto
4156 21712 lto
4156 21712 lto
st
4200 21568 mto
4200 21567 lto
4210 21530 lto
4219 21491 lto
4229 21450 lto
4235 21422 lto
st
4267 21276 mto
4269 21265 lto
4279 21213 lto
4290 21159 lto
4295 21128 lto
st
4321 20981 mto
4332 20919 lto
4340 20868 lto
4350 20803 lto
4361 20736 lto
4371 20665 lto
4382 20592 lto
4390 20536 lto
st
4411 20388 mto
4416 20352 lto
4428 20266 lto
4432 20239 lto
st
4452 20090 mto
4453 20080 lto
4466 19981 lto
4471 19942 lto
st
4490 19793 mto
4494 19757 lto
4509 19639 lto
4524 19514 lto
4541 19382 lto
4545 19346 lto
st
4563 19197 mto
4576 19086 lto
4580 19048 lto
st
4598 18899 mto
4616 18750 lto
st
4634 18601 mto
4647 18491 lto
4670 18300 lto
4688 18155 lto
st
4706 18006 mto
4708 17986 lto
4724 17857 lto
st
4743 17708 mto
4756 17602 lto
4760 17568 lto
4761 17559 lto
st
4780 17410 mto
4792 17321 lto
4808 17201 lto
4823 17085 lto
4839 16971 lto
4840 16964 lto
st
4860 16816 mto
4869 16753 lto
4881 16667 lto
st
4903 16519 mto
4915 16443 lto
4926 16371 lto
st
4949 16222 mto
4958 16166 lto
4972 16079 lto
4986 15995 lto
4999 15914 lto
5013 15836 lto
5023 15778 lto
st
5050 15631 mto
5053 15615 lto
5067 15545 lto
5079 15484 lto
st
5109 15337 mto
5121 15279 lto
5135 15215 lto
5141 15190 lto
st
5175 15044 mto
5178 15031 lto
5180 15025 lto
5195 14963 lto
5211 14903 lto
5226 14845 lto
5242 14789 lto
5257 14735 lto
5273 14683 lto
5288 14633 lto
5295 14611 lto
st
5344 14469 mto
5351 14450 lto
5366 14410 lto
5382 14371 lto
5397 14335 lto
5399 14330 lto
st
5467 14196 mto
5475 14182 lto
5490 14158 lto
5506 14135 lto
5522 14113 lto
5538 14092 lto
5554 14074 lto
st
5670 13981 mto
5678 13977 lto
5698 13969 lto
5718 13962 lto
5738 13957 lto
5740 13957 lto
5760 13954 lto
5781 13953 lto
5802 13954 lto
5824 13957 lto
5845 13961 lto
5868 13968 lto
5880 13972 lto
5903 13982 lto
5926 13993 lto
5951 14007 lto
5975 14022 lto
6001 14040 lto
6020 14055 lto
6047 14077 lto
6073 14101 lto
st
6179 14207 mto
6193 14223 lto
6227 14262 lto
6261 14304 lto
6275 14322 lto
st
6366 14442 mto
6371 14449 lto
6409 14503 lto
6440 14549 lto
6451 14565 lto
st
6534 14690 mto
6535 14691 lto
6580 14761 lto
6643 14860 lto
6712 14969 lto
6720 14982 lto
6775 15070 lto
st
6854 15198 mto
6860 15208 lto
6932 15326 lto
st
7011 15453 mto
7090 15581 lto
st
7170 15708 mto
7230 15803 lto
7280 15881 lto
7365 16012 lto
7414 16086 lto
st
7497 16211 mto
7501 16217 lto
7560 16305 lto
7581 16335 lto
st
7666 16458 mto
7700 16507 lto
7752 16581 lto
st
7840 16703 mto
7908 16794 lto
7977 16884 lto
7980 16888 lto
8049 16977 lto
8115 17059 lto
st
8209 17176 mto
8260 17238 lto
8305 17291 lto
st
8403 17405 mto
8474 17485 lto
8503 17517 lto
st
8605 17627 mto
8615 17638 lto
8680 17707 lto
8756 17785 lto
8820 17849 lto
8898 17926 lto
8920 17947 lto
st
9029 18051 mto
9040 18061 lto
9100 18116 lto
9140 18152 lto
st
9252 18251 mto
9325 18313 lto
9366 18348 lto
st
9482 18444 mto
9520 18474 lto
9608 18543 lto
9660 18583 lto
9750 18650 lto
9800 18687 lto
9840 18716 lto
st
9963 18802 mto
10035 18852 lto
10080 18882 lto
10087 18887 lto
st
10213 18968 mto
10220 18973 lto
10320 19036 lto
10340 19048 lto
st
10469 19125 mto
10500 19144 lto
10606 19205 lto
10640 19224 lto
10748 19284 lto
10780 19301 lto
10861 19345 lto
st
10995 19414 mto
11034 19434 lto
11060 19446 lto
11129 19480 lto
st
11265 19544 mto
11321 19571 lto
11340 19580 lto
11401 19608 lto
st
11538 19668 mto
11607 19698 lto
11620 19704 lto
11750 19758 lto
11760 19762 lto
11894 19815 lto
11900 19818 lto
11954 19839 lto
st
12094 19892 mto
12180 19924 lto
12235 19944 lto
st
12377 19994 mto
12460 20023 lto
12518 20043 lto
st
12661 20090 mto
12740 20115 lto
12880 20158 lto
13020 20200 lto
13091 20221 lto
st
13235 20263 mto
13300 20281 lto
13380 20303 lto
st
13525 20341 mto
13580 20355 lto
13670 20378 lto
st
13816 20415 mto
13860 20426 lto
14000 20459 lto
14140 20491 lto
14254 20517 lto
st
14401 20549 mto
14420 20553 lto
14547 20580 lto
st
14694 20610 mto
14700 20611 lto
14840 20639 lto
14841 20639 lto
st
14989 20668 mto
15120 20692 lto
15260 20717 lto
15400 20742 lto
15431 20747 lto
st
15579 20772 mto
15680 20789 lto
15727 20797 lto
st
15875 20821 mto
15960 20834 lto
16024 20844 lto
st
16172 20866 mto
16240 20876 lto
16380 20896 lto
16520 20916 lto
16618 20929 lto
st
16766 20949 mto
16800 20954 lto
16915 20969 lto
st
17064 20988 mto
17080 20990 lto
17213 21006 lto
st
17362 21024 mto
17500 21040 lto
st
3780 22000 mto
255 255 div 0 255 div 255 255 div setrgbcolor
3781 22000 lto
st
3855 22000 mto
3870 22000 lto
3901 21998 lto
3920 21995 lto
3940 21992 lto
3958 21988 lto
3974 21984 lto
3989 21978 lto
4000 21973 lto
st
4105 21868 mto
4109 21862 lto
4120 21842 lto
4132 21821 lto
4143 21798 lto
4155 21774 lto
4166 21748 lto
4172 21734 lto
st
4221 21592 mto
4222 21588 lto
4232 21551 lto
4243 21512 lto
4254 21471 lto
4260 21448 lto
st
4296 21302 mto
4300 21284 lto
4311 21232 lto
4323 21177 lto
4327 21155 lto
st
4356 21008 mto
4363 20974 lto
4375 20910 lto
4384 20861 lto
st
4409 20713 mto
4411 20702 lto
4424 20626 lto
4434 20565 lto
st
4458 20417 mto
4465 20374 lto
4480 20281 lto
4480 20280 lto
4482 20269 lto
st
4505 20120 mto
4513 20067 lto
4527 19972 lto
st
4550 19824 mto
4568 19700 lto
4572 19675 lto
st
4593 19527 mto
4610 19410 lto
4614 19379 lto
st
4636 19230 mto
4642 19187 lto
4657 19082 lto
st
4679 18933 mto
4692 18839 lto
4700 18785 lto
st
4722 18636 mto
4731 18570 lto
4743 18488 lto
st
4766 18339 mto
4777 18262 lto
4788 18191 lto
st
4811 18043 mto
4828 17942 lto
4836 17895 lto
st
4859 17747 mto
4875 17655 lto
4884 17599 lto
st
4910 17451 mto
4915 17425 lto
4931 17339 lto
4938 17304 lto
st
4965 17156 mto
4978 17093 lto
4994 17014 lto
4995 17009 lto
st
5026 16862 mto
5026 16861 lto
5040 16795 lto
5056 16722 lto
5057 16716 lto
st
5091 16570 mto
5105 16511 lto
5122 16444 lto
5127 16424 lto
st
5165 16279 mto
5172 16255 lto
5180 16225 lto
5197 16166 lto
5206 16135 lto
st
5250 15991 mto
5264 15948 lto
5281 15898 lto
5299 15850 lto
5299 15850 lto
st
5353 15710 mto
5355 15706 lto
5372 15665 lto
5389 15626 lto
5407 15590 lto
5415 15573 lto
st
5489 15443 mto
5495 15433 lto
5513 15408 lto
5531 15384 lto
5549 15362 lto
5567 15342 lto
5582 15326 lto
st
5707 15244 mto
5713 15242 lto
5734 15236 lto
5740 15234 lto
5763 15230 lto
5787 15227 lto
5811 15225 lto
5836 15226 lto
5855 15227 lto
st
5997 15271 mto
6012 15279 lto
6020 15283 lto
6045 15298 lto
6070 15315 lto
6096 15334 lto
6121 15355 lto
st
6231 15457 mto
6255 15482 lto
6292 15521 lto
6300 15530 lto
6333 15567 lto
st
6432 15680 mto
6440 15689 lto
6496 15756 lto
6527 15795 lto
st
6620 15913 mto
6631 15927 lto
6687 16000 lto
6711 16033 lto
st
6799 16154 mto
6860 16236 lto
6888 16275 lto
st
6977 16396 mto
7000 16428 lto
7065 16517 lto
st
7155 16637 mto
7244 16758 lto
st
7335 16877 mto
7382 16939 lto
7420 16988 lto
7426 16996 lto
st
7518 17115 mto
7560 17168 lto
7611 17232 lto
st
7706 17349 mto
7780 17439 lto
7801 17464 lto
st
7899 17578 mto
7918 17601 lto
7980 17672 lto
7997 17691 lto
st
8098 17803 mto
8120 17827 lto
8197 17911 lto
8199 17913 lto
st
8304 18021 mto
8338 18056 lto
8400 18119 lto
8409 18128 lto
st
8516 18233 mto
8540 18255 lto
8621 18331 lto
8626 18335 lto
st
8737 18436 mto
8761 18457 lto
8820 18509 lto
8850 18535 lto
st
8964 18632 mto
9045 18698 lto
9081 18726 lto
st
9199 18818 mto
9240 18849 lto
9319 18908 lto
st
9441 18995 mto
9470 19016 lto
9520 19051 lto
9564 19081 lto
st
9689 19164 mto
9755 19206 lto
9800 19234 lto
9816 19244 lto
st
9944 19322 mto
10041 19380 lto
10073 19398 lto
st
10204 19472 mto
10220 19481 lto
10327 19539 lto
10336 19544 lto
st
10469 19613 mto
10470 19613 lto
10500 19628 lto
10603 19679 lto
st
10739 19744 mto
10756 19752 lto
10780 19763 lto
10875 19807 lto
st
11012 19867 mto
11043 19880 lto
11060 19888 lto
11150 19925 lto
st
11289 19982 mto
11329 19998 lto
11340 20002 lto
11429 20036 lto
st
11569 20090 mto
11616 20107 lto
11620 20108 lto
11710 20141 lto
st
11852 20190 mto
11900 20206 lto
11994 20237 lto
st
12137 20283 mto
12180 20296 lto
12281 20327 lto
st
12424 20370 mto
12460 20381 lto
12569 20411 lto
st
12713 20451 mto
12740 20459 lto
12858 20490 lto
st
13003 20527 mto
13020 20531 lto
13149 20563 lto
st
13295 20598 mto
13300 20599 lto
13440 20631 lto
13441 20631 lto
st
13588 20664 mto
13720 20692 lto
13734 20695 lto
st
13881 20726 mto
14000 20750 lto
14028 20755 lto
st
14175 20784 mto
14280 20803 lto
14323 20811 lto
st
14471 20838 mto
14560 20853 lto
14618 20863 lto
st
14766 20888 mto
14840 20901 lto
14914 20913 lto
st
15062 20936 mto
15120 20945 lto
15211 20959 lto
st
15359 20981 mto
15400 20987 lto
15507 21002 lto
st
15656 21023 mto
15680 21026 lto
15805 21043 lto
st
15953 21062 mto
15960 21063 lto
16100 21081 lto
16102 21081 lto
st
16251 21099 mto
16380 21115 lto
16400 21117 lto
st
16549 21134 mto
16660 21147 lto
16698 21151 lto
st
16847 21168 mto
16940 21178 lto
16996 21184 lto
st
17146 21199 mto
17220 21207 lto
17295 21214 lto
st
17444 21228 mto
17500 21234 lto
st
3780 22000 mto
0 255 div 255 255 div 0 255 div setrgbcolor
3782 22000 lto
st
3853 22000 mto
3882 21999 lto
3916 21997 lto
3920 21997 lto
3943 21994 lto
3951 21992 lto
st
4043 21957 mto
4045 21956 lto
4059 21946 lto
4060 21945 lto
4074 21933 lto
4089 21919 lto
4103 21904 lto
4115 21888 lto
st
4169 21804 mto
4169 21804 lto
4181 21780 lto
4194 21754 lto
4200 21741 lto
4212 21714 lto
st
4248 21621 mto
4251 21613 lto
4263 21576 lto
4276 21537 lto
4280 21526 lto
st
4309 21430 mto
4316 21406 lto
4329 21357 lto
4336 21334 lto
st
4361 21237 mto
4366 21215 lto
4380 21160 lto
4385 21140 lto
st
4407 21043 mto
4408 21040 lto
4423 20975 lto
4430 20945 lto
st
4450 20847 mto
4453 20835 lto
4469 20759 lto
4471 20749 lto
st
4491 20651 mto
4497 20622 lto
4511 20553 lto
st
4531 20455 mto
4534 20438 lto
4550 20357 lto
st
4569 20259 mto
4575 20225 lto
4588 20161 lto
st
4606 20063 mto
4620 19991 lto
4625 19964 lto
st
4644 19866 mto
4654 19814 lto
4663 19768 lto
st
4681 19670 mto
4688 19635 lto
4700 19571 lto
st
4719 19473 mto
4738 19375 lto
st
4757 19277 mto
4760 19264 lto
4777 19179 lto
st
4796 19081 mto
4803 19048 lto
4817 18983 lto
st
4837 18885 mto
4843 18855 lto
4858 18787 lto
st
4879 18689 mto
4881 18680 lto
4899 18599 lto
4900 18597 lto
4901 18592 lto
st
4924 18495 mto
4938 18433 lto
4947 18397 lto
st
4970 18300 mto
4975 18278 lto
4994 18204 lto
4994 18203 lto
st
5020 18106 mto
5032 18061 lto
5040 18032 lto
5046 18010 lto
st
5073 17914 mto
5077 17900 lto
5096 17838 lto
5102 17818 lto
st
5132 17722 mto
5133 17719 lto
5151 17663 lto
5163 17627 lto
st
5196 17533 mto
5198 17528 lto
5216 17480 lto
5232 17440 lto
st
5270 17347 mto
5271 17345 lto
5290 17303 lto
5308 17264 lto
5312 17256 lto
st
5357 17167 mto
5375 17137 lto
5394 17106 lto
5409 17082 lto
st
5466 17000 mto
5481 16981 lto
5503 16956 lto
5524 16932 lto
5532 16924 lto
st
5606 16857 mto
5624 16844 lto
5648 16828 lto
5672 16814 lto
5691 16805 lto
st
5785 16773 mto
5789 16772 lto
5814 16769 lto
5839 16768 lto
5865 16768 lto
5880 16769 lto
5885 16770 lto
st
5982 16791 mto
5989 16793 lto
6018 16805 lto
6020 16805 lto
6050 16819 lto
6074 16830 lto
st
6160 16881 mto
6160 16881 lto
6196 16905 lto
6233 16932 lto
6242 16939 lto
st
6320 17001 mto
6343 17021 lto
6389 17061 lto
6395 17067 lto
st
6469 17135 mto
6495 17159 lto
6541 17204 lto
st
6612 17274 mto
6649 17311 lto
6682 17345 lto
st
6751 17417 mto
6809 17477 lto
6821 17489 lto
st
6889 17562 mto
6958 17635 lto
st
7026 17708 mto
7094 17781 lto
st
7163 17854 mto
7232 17927 lto
st
7301 17999 mto
7370 18071 lto
st
7440 18143 mto
7510 18214 lto
st
7580 18285 mto
7651 18356 lto
st
7723 18425 mto
7794 18493 lto
7795 18494 lto
st
7868 18563 mto
7931 18621 lto
7942 18631 lto
st
8016 18698 mto
8068 18745 lto
8090 18764 lto
st
8166 18829 mto
8207 18864 lto
8242 18894 lto
st
8320 18958 mto
8346 18979 lto
8397 19021 lto
st
8476 19083 mto
8486 19091 lto
8540 19131 lto
8556 19143 lto
st
8636 19202 mto
8680 19235 lto
8717 19261 lto
st
8799 19318 mto
8820 19333 lto
8882 19374 lto
st
8965 19429 mto
9049 19484 lto
st
9134 19537 mto
9195 19574 lto
9220 19588 lto
st
9306 19638 mto
9338 19657 lto
9380 19681 lto
9393 19688 lto
st
9481 19736 mto
9482 19737 lto
9520 19758 lto
9569 19784 lto
st
9657 19830 mto
9660 19832 lto
9746 19876 lto
st
9836 19919 mto
9912 19956 lto
9926 19963 lto
st
10017 20005 mto
10056 20023 lto
10080 20034 lto
10108 20046 lto
st
10200 20087 mto
10220 20095 lto
10292 20126 lto
st
10384 20164 mto
10477 20202 lto
st
10570 20238 mto
10629 20261 lto
10640 20265 lto
10663 20274 lto
st
10757 20309 mto
10771 20314 lto
10780 20317 lto
10851 20342 lto
st
10945 20376 mto
11040 20408 lto
st
11135 20440 mto
11200 20461 lto
11230 20470 lto
st
11325 20500 mto
11340 20505 lto
11421 20529 lto
st
11517 20558 mto
11613 20586 lto
st
11709 20613 mto
11760 20627 lto
11806 20639 lto
st
11902 20665 mto
11999 20689 lto
st
12096 20714 mto
12180 20735 lto
12193 20738 lto
st
12290 20761 mto
12320 20768 lto
12388 20784 lto
st
12485 20806 mto
12583 20827 lto
st
12681 20848 mto
12740 20860 lto
12779 20868 lto
st
12877 20888 mto
12880 20889 lto
12975 20907 lto
st
13073 20926 mto
13160 20943 lto
13171 20945 lto
st
13270 20963 mto
13300 20968 lto
13368 20980 lto
st
13467 20998 mto
13565 21014 lto
st
13664 21031 mto
13720 21040 lto
13763 21047 lto
st
13861 21062 mto
13960 21077 lto
st
14059 21092 mto
14140 21104 lto
14158 21107 lto
st
14257 21121 mto
14280 21124 lto
14356 21134 lto
st
14455 21148 mto
14554 21161 lto
st
14654 21174 mto
14700 21180 lto
14753 21186 lto
st
14852 21198 mto
14951 21211 lto
st
15051 21223 mto
15120 21231 lto
15150 21234 lto
st
15249 21246 mto
15260 21247 lto
15349 21257 lto
st
15448 21267 mto
15540 21277 lto
15548 21278 lto
st
15647 21288 mto
15680 21292 lto
15746 21299 lto
st
15846 21309 mto
15945 21319 lto
st
16045 21328 mto
16100 21333 lto
16145 21337 lto
st
16244 21346 mto
16344 21355 lto
st
16443 21364 mto
16520 21371 lto
16543 21373 lto
st
16643 21382 mto
16660 21383 lto
16742 21389 lto
st
16842 21397 mto
16940 21405 lto
16942 21405 lto
st
17041 21413 mto
17080 21416 lto
17141 21421 lto
st
17241 21428 mto
17341 21436 lto
st
17440 21443 mto
17500 21447 lto
st
3780 22000 mto
0 255 div 0 255 div 0 255 div setrgbcolor
3862 22000 lto
3911 21999 lto
3920 21998 lto
3950 21996 lto
3976 21993 lto
4000 21988 lto
4021 21983 lto
4042 21977 lto
4060 21969 lto
4079 21960 lto
4098 21949 lto
4116 21936 lto
4134 21922 lto
4152 21907 lto
4169 21890 lto
4186 21871 lto
4200 21854 lto
4217 21832 lto
4234 21809 lto
4251 21783 lto
4268 21754 lto
4285 21724 lto
4303 21692 lto
4321 21657 lto
4339 21620 lto
4340 21617 lto
4358 21579 lto
4376 21538 lto
4394 21495 lto
4413 21448 lto
4433 21398 lto
4454 21345 lto
4476 21287 lto
4480 21275 lto
4503 21212 lto
4528 21143 lto
4555 21067 lto
4584 20982 lto
4618 20884 lto
4620 20878 lto
4669 20734 lto
4713 20608 lto
4748 20507 lto
4760 20474 lto
4792 20385 lto
4822 20304 lto
4850 20227 lto
4877 20156 lto
4900 20099 lto
4926 20034 lto
4952 19972 lto
4978 19913 lto
5003 19856 lto
5027 19803 lto
5040 19776 lto
5065 19725 lto
5089 19676 lto
5114 19630 lto
5138 19585 lto
5163 19543 lto
5180 19514 lto
5204 19476 lto
5229 19439 lto
5253 19404 lto
5278 19370 lto
5303 19338 lto
5320 19317 lto
5345 19288 lto
5370 19261 lto
5396 19236 lto
5422 19211 lto
5448 19189 lto
5460 19179 lto
5487 19159 lto
5514 19140 lto
5542 19122 lto
5571 19107 lto
5600 19092 lto
5600 19092 lto
5630 19079 lto
5660 19068 lto
5691 19058 lto
5723 19050 lto
5740 19047 lto
5773 19041 lto
5807 19037 lto
5842 19035 lto
5877 19035 lto
5880 19035 lto
5917 19037 lto
5955 19041 lto
5993 19046 lto
6020 19051 lto
6061 19060 lto
6103 19071 lto
6147 19084 lto
6160 19088 lto
6206 19105 lto
6254 19123 lto
6300 19143 lto
6353 19167 lto
6408 19194 lto
6440 19210 lto
6502 19244 lto
6569 19281 lto
6580 19287 lto
6655 19331 lto
6720 19370 lto
6817 19430 lto
6860 19457 lto
7000 19545 lto
7000 19545 lto
7140 19633 lto
7280 19720 lto
7419 19804 lto
7420 19805 lto
7546 19880 lto
7560 19888 lto
7679 19956 lto
7700 19968 lto
7815 20032 lto
7840 20046 lto
7954 20106 lto
7980 20120 lto
8094 20178 lto
8120 20191 lto
8234 20247 lto
8260 20260 lto
8374 20313 lto
8400 20325 lto
8516 20377 lto
8540 20387 lto
8657 20437 lto
8680 20447 lto
8800 20496 lto
8820 20504 lto
8942 20551 lto
8960 20558 lto
9084 20604 lto
9100 20610 lto
9227 20655 lto
9240 20659 lto
9370 20703 lto
9380 20706 lto
9513 20749 lto
9520 20751 lto
9657 20793 lto
9660 20794 lto
9800 20835 lto
9800 20835 lto
9940 20874 lto
10080 20911 lto
10220 20947 lto
10360 20981 lto
10500 21014 lto
10640 21045 lto
10780 21074 lto
10920 21103 lto
11060 21130 lto
11200 21156 lto
11340 21181 lto
11480 21205 lto
11620 21228 lto
11760 21250 lto
11900 21271 lto
12040 21291 lto
12180 21310 lto
12320 21329 lto
12460 21347 lto
12600 21364 lto
12740 21381 lto
12880 21397 lto
13020 21412 lto
13160 21427 lto
13300 21441 lto
13440 21455 lto
13580 21468 lto
13720 21481 lto
13860 21493 lto
14000 21505 lto
14140 21517 lto
14280 21528 lto
14420 21539 lto
14560 21549 lto
14700 21559 lto
14840 21569 lto
14980 21578 lto
15120 21587 lto
15260 21596 lto
15400 21605 lto
15540 21613 lto
15680 21621 lto
15820 21629 lto
15960 21637 lto
16100 21644 lto
16240 21651 lto
16380 21658 lto
16520 21665 lto
16660 21671 lto
16800 21678 lto
16940 21684 lto
17080 21690 lto
17220 21695 lto
17360 21701 lto
17500 21707 lto
st
255 255 div 0 255 div 0 255 div setrgbcolor
[] 0 60 0 0 10 lsty
13200 11576 mto
14800 11576 lto
st
0 255 div 0 255 div 255 255 div setrgbcolor
[100 100 ] 0 40 0 0 10 lsty
13200 12252 mto
14800 12252 lto
st
0 255 div 0 255 div 0 255 div setrgbcolor
[150 150 ] 0 40 0 0 10 lsty
13200 12928 mto
14800 12928 lto
st
255 255 div 0 255 div 255 255 div setrgbcolor
[450 150 ] 0 40 0 0 10 lsty
13200 13604 mto
14800 13604 lto
st
0 255 div 255 255 div 0 255 div setrgbcolor
[450 150 150 150 ] 0 40 0 0 10 lsty
13200 14280 mto
14800 14280 lto
st
255 255 div 128 255 div 0 255 div setrgbcolor
[450 150 150 150 150 150 ] 0 40 0 0 10 lsty
13200 14956 mto
14800 14956 lto
st
0 255 div 255 255 div 255 255 div setrgbcolor
[450 150 450 150 150 150 ] 0 40 0 0 10 lsty
13200 15632 mto
14800 15632 lto
st
255 255 div 0 255 div 255 255 div setrgbcolor
[150 150 ] 0 40 0 0 10 lsty
13200 16308 mto
14800 16308 lto
st
0 255 div 255 255 div 0 255 div setrgbcolor
[100 100 ] 0 40 0 0 10 lsty
13200 16984 mto
14800 16984 lto
st
0 255 div 0 255 div 0 255 div setrgbcolor
[] 0 40 0 0 10 lsty
13200 17660 mto
14800 17660 lto
st
12200 23400 mto
0 0 (T) ashow
1800 15400 mto
[4.32014e-14 -705.556 -705.556 -4.32014e-14 0 0] /Helvetica-ISOLatin1 F
0 0 (C/N) ashow
172 0 rmto
[3.0241e-14 -493.889 -493.889 -3.0241e-14 0 0] /Helvetica-ISOLatin1 F
0 0 (spin) ashow
-172 0 rmto
15082 11764 mto
[564.444 -0 -0 -564.444 0 0] /Helvetica-ISOLatin1 F
0 0 (x=0.0) ashow
15082 12440 mto
0 0 (x=0.1) ashow
15082 13116 mto
0 0 (x=0.2) ashow
15082 13792 mto
0 0 (x=0.3) ashow
15082 14468 mto
0 0 (x=0.4) ashow
15082 15144 mto
0 0 (x=0.5) ashow
15082 15820 mto
0 0 (x=0.6) ashow
15082 16496 mto
0 0 (x=0.7) ashow
15082 17172 mto
0 0 (x=0.8) ashow
15082 17848 mto
0 0 (x=0.9) ashow
EndPage
PageRestore
showpage
end
%%Trailer
%%DocumentNeededResources: 
% font /Helvetica-ISOLatin1
%%EOF
