%!PS-Adobe-3.0 EPSF-3.0
%%Creator: GRA2PS 2.03.20
%%Title: Ngraph
%%CreationDate: 10-5-2016 2:22
%%Pages: 1
%%DocumentNeededResources: (atend)
%%BoundingBox: 14 160 526 534
%%EndComments
%
% Ngraph.ps 2.03.20
%
%%BeginProlog
%
/NgraphDict 100 dict def
NgraphDict begin
%
% Procedure Definition
%
/PageSave {/Sobject save def} bind def
/PageRestore {Sobject restore} bind def
/@Paper {
  72 2540 div -72 2540 div scale % 1unit = 0.01mm
  ANGLE rotate
  0 bottom translate                    % origin is (0 bottom)
} bind def
/BeginPage {@Paper gsave} bind def
/EndPage {grestore} bind def
/box {
  moveto
  1 index 0 rlineto
  0 exch rlineto
  neg 0 rlineto
  closepath } bind def
/view {
  mark
  currentfont
  currentmiterlimit
  currentlinejoin
  currentlinecap
  currentlinewidth
  currentdash
  currentgray
  currentrgbcolor
  grestore gsave
  counttomark dup 6 add exch roll
  pop
  5 3 roll
  translate
  1 eq { 0 0 box clip newpath } { pop pop } ifelse
  setrgbcolor
  setgray
  setdash
  setlinewidth
  setlinecap
  setlinejoin
  setmiterlimit
  setfont
 } bind def
/viewc {
  mark
  currentfont
  currentmiterlimit
  currentlinejoin
  currentlinecap
  currentlinewidth
  currentdash
  currentrgbcolor
  currentgray
  grestore gsave
  counttomark dup 6 add exch roll
  pop
  5 3 roll
  translate
  1 eq { 0 0 box clip newpath } { pop pop } ifelse
  setgray
  setrgbcolor
  setdash
  setlinewidth
  setlinecap
  setlinejoin
  setmiterlimit
  setfont
 } bind def
/F { findfont exch makefont setfont } bind def
/lsty {
  setmiterlimit
  setlinejoin
  setlinecap
  setlinewidth
  setdash } bind def
/mto /moveto load def
/rmto /rmoveto load def
/lto /lineto load def
/rlto /rlineto load def
/st /stroke load def
/l { moveto lineto stroke } bind def
/e { 
  gsave
  newpath
  translate
  0 index 1 exch div 5 1 roll
  1 index 1 exch div 6 1 roll
  scale
  0 0 1 5 3 roll exch 100 div exch 100 div arc
  scale
  stroke
  grestore } bind def
/fe {
  gsave
  newpath
  translate
  0 index 1 exch div 5 1 roll
  1 index 1 exch div 6 1 roll
  scale
  0 0 moveto 0 0 1 5 3 roll exch 100 div exch 100 div arc closepath
  scale
  fill 
  grestore } bind def
/ae {
  gsave
  newpath
  translate
  0 index 1 exch div 5 1 roll
  1 index 1 exch div 6 1 roll
  scale
  0 0 1 5 3 roll exch 100 div exch 100 div arc closepath
  scale
  fill
  grestore } bind def
/pix {
  newpath 20 0 360 arc closepath fill } bind def
/rec {
  box stroke } bind def
/bar {
  box fill } bind def
/lines {
  1 sub
  3 1 roll
  moveto
  {lineto} repeat } bind def
/poly {
  1 sub
  3 1 roll
  moveto
  {lineto} repeat closepath } bind def
/rpo { lines stroke } bind def
/dpo { poly stroke } bind def
/fpo { poly fill } bind def
/epo { poly eofill } bind def
/ashowB {
  3 copy 3 copy 3 copy
  gsave BOLDS 0 rmoveto ashow grestore
  gsave 0 BOLDS rmoveto ashow grestore
  gsave BOLDS BOLDS rmoveto ashow grestore
  ashow } bind def
end
%
% ISOLatin1Encoding
%
/NGPLatin1Encoding 256 array def
0 1 255 {NGPLatin1Encoding exch /.notdef put} for
NGPLatin1Encoding
dup 8#101 /A put          dup 8#306 /AE put         dup 8#301 /Aacute put
dup 8#302 /Acircumflex put dup 8#304 /Adieresis put dup 8#300 /Agrave put
dup 8#305 /Aring put      dup 8#303 /Atilde put     dup 8#102 /B put
dup 8#103 /C put          dup 8#307 /Ccedilla put   dup 8#104 /D put
dup 8#105 /E put          dup 8#311 /Eacute put     dup 8#312 /Ecircumflex put
dup 8#313 /Edieresis put  dup 8#310 /Egrave put     dup 8#320 /Eth put
dup 8#106 /F put          dup 8#107 /G put          dup 8#110 /H put
dup 8#111 /I put          dup 8#315 /Iacute put     dup 8#316 /Icircumflex put
dup 8#317 /Idieresis put  dup 8#314 /Igrave put     dup 8#112 /J put
dup 8#113 /K put          dup 8#114 /L put          dup 8#115 /M put
dup 8#116 /N put          dup 8#321 /Ntilde put     dup 8#117 /O put
dup 8#323 /Oacute put     dup 8#324 /Ocircumflex put dup 8#326 /Odieresis put
dup 8#322 /Ograve put     dup 8#330 /Oslash put     dup 8#325 /Otilde put
dup 8#120 /P put          dup 8#121 /Q put          dup 8#122 /R put
dup 8#123 /S put          dup 8#124 /T put          dup 8#336 /Thorn put
dup 8#125 /U put          dup 8#332 /Uacute put     dup 8#333 /Ucircumflex put
dup 8#334 /Udieresis put  dup 8#331 /Ugrave put     dup 8#126 /V put
dup 8#127 /W put          dup 8#130 /X put          dup 8#131 /Y put
dup 8#335 /Yacute put     dup 8#132 /Z put          dup 8#141 /a put
dup 8#341 /aacute put     dup 8#342 /acircumflex put dup 8#264 /acute put
dup 8#344 /adieresis put  dup 8#346 /ae put         dup 8#340 /agrave put
dup 8#046 /ampersand put  dup 8#345 /aring put      dup 8#136 /asciicircum put
dup 8#176 /asciitilde put dup 8#052 /asterisk put   dup 8#100 /at put
dup 8#343 /atilde put     dup 8#142 /b put          dup 8#134 /backslash put
dup 8#174 /bar put        dup 8#173 /braceleft put  dup 8#175 /braceright put
dup 8#133 /bracketleft put dup 8#135 /bracketright put dup 8#246 /brokenbar put
dup 8#143 /c put          dup 8#347 /ccedilla put   dup 8#242 /cent put
dup 8#072 /colon put      dup 8#054 /comma put      dup 8#251 /copyright put
dup 8#244 /currency put   dup 8#144 /d put          dup 8#260 /degree put
dup 8#367 /divide put     dup 8#044 /dollar put     dup 8#145 /e put
dup 8#351 /eacute put     dup 8#352 /ecircumflex put dup 8#353 /edieresis put
dup 8#350 /egrave put     dup 8#070 /eight put      dup 8#075 /equal put
dup 8#360 /eth put        dup 8#041 /exclam put     dup 8#241 /exclamdown put
dup 8#146 /f put          dup 8#065 /five put       dup 8#064 /four put
dup 8#147 /g put          dup 8#337 /germandbls put dup 8#076 /greater put
dup 8#253 /guillemotleft put dup 8#273 /guillemotright put dup 8#150 /h put
dup 8#255 /hyphen put     dup 8#151 /i put          dup 8#355 /iacute put
dup 8#356 /icircumflex put dup 8#357 /idieresis put dup 8#354 /igrave put
dup 8#152 /j put          dup 8#153 /k put          dup 8#154 /l put
dup 8#074 /less put       dup 8#254 /logicalnot put dup 8#155 /m put
dup 8#055 /minus put      dup 8#265 /mu put         dup 8#327 /multiply put
dup 8#156 /n put          dup 8#071 /nine put       dup 8#361 /ntilde put
dup 8#043 /numbersign put dup 8#157 /o put          dup 8#363 /oacute put
dup 8#364 /ocircumflex put dup 8#366 /odieresis put dup 8#362 /ograve put
dup 8#061 /one put        dup 8#275 /onehalf put    dup 8#274 /onequarter put
dup 8#271 /onesuperior put dup 8#252 /ordfeminine put dup 8#272 /ordmasculine put
dup 8#370 /oslash put     dup 8#365 /otilde put     dup 8#160 /p put
dup 8#266 /paragraph put  dup 8#050 /parenleft put  dup 8#051 /parenright put
dup 8#045 /percent put    dup 8#056 /period put     dup 8#267 /periodcentered put
dup 8#053 /plus put       dup 8#261 /plusminus put  dup 8#161 /q put
dup 8#077 /question put   dup 8#277 /questiondown put dup 8#042 /quotedbl put
dup 8#140 /quoteleft put  dup 8#047 /quoteright put dup 8#162 /r put
dup 8#256 /registered put dup 8#163 /s put          dup 8#247 /section put
dup 8#073 /semicolon put  dup 8#067 /seven put      dup 8#066 /six put
dup 8#057 /slash put      dup 8#040 /space put      dup 8#243 /sterling put
dup 8#164 /t put          dup 8#376 /thorn put      dup 8#063 /three put
dup 8#276 /threequarters put dup 8#263 /threesuperior put dup 8#062 /two put
dup 8#262 /twosuperior put dup 8#165 /u put         dup 8#372 /uacute put
dup 8#373 /ucircumflex put dup 8#374 /udieresis put dup 8#371 /ugrave put
dup 8#137 /underscore put dup 8#166 /v put          dup 8#167 /w put
dup 8#170 /x put          dup 8#171 /y put          dup 8#375 /yacute put
dup 8#377 /ydieresis put  dup 8#245 /yen put        dup 8#172 /z put
dup 8#060 /zero put       dup 8#250 /dieresis put   dup 8#257 /macron put
dup 8#270 /cedilla put
% for ISOLatin1Encoding
%dup 8#220 /dotlessi put   dup 8#221 /grave put      dup 8#222 /acute put
%dup 8#223 /circumflex put dup 8#224 /tilde put      dup 8#225 /macron put
%dup 8#226 /breve put      dup 8#227 /dotaccent put  dup 8#230 /dieresis put
%dup 8#232 /ring put       dup 8#233 /cedilla put    dup 8#235 /hungarumlaut put
%dup 8#236 /ogonek put     dup 8#237 /caron put
% for Windows
dup 8#200 /colonmonetary put dup 8#202 /comma put   dup 8#203 /florin put
dup 8#204 /quotedblbase put dup 8#205 /ellipsis put dup 8#206 /dagger put
dup 8#207 /daggerdbl put  dup 8#210 /circumflex put dup 8#211 /perthousand put
dup 8#212 /Scaron put    dup 8#213 /guilsinglleft put dup 8#214 /OE put
dup 8#221 /quoteleft put dup 8#222 /quoteright put   dup 8#223 /quotedblleft put
dup 8#224 /quotedblright put dup 8#225 /bullet put dup 8#226 /hyphen put
dup 8#227 /emdash put  dup 8#230 /hungarumlaut put dup 8#231 /trademark put
dup 8#232 /scaron put  dup 8#233 /guilsinglright put dup 8#234 /oe put
dup 8#237 /Ydieresis put
pop
/ReEncode {
  findfont
  dup length dict begin
    {1 index /FID ne {def} {pop pop} ifelse} forall
    /Encoding NGPLatin1Encoding def
    currentdict
  end
  definefont
  pop
} bind def
/Times-Roman-ISOLatin1 /Times-Roman ReEncode
/Times-Bold-ISOLatin1 /Times-Bold ReEncode
/Times-Italic-ISOLatin1 /Times-Italic ReEncode
/Times-BoldItalic-ISOLatin1 /Times-BoldItalic ReEncode
/Helvetica-ISOLatin1 /Helvetica ReEncode
/Helvetica-Bold-ISOLatin1 /Helvetica-Bold ReEncode
/Helvetica-Oblique-ISOLatin1 /Helvetica-Oblique ReEncode
/Helvetica-BoldOblique-ISOLatin1 /Helvetica-BoldOblique ReEncode
/Courier-ISOLatin1 /Courier ReEncode
/Courier-Bold-ISOLatin1 /Courier-Bold ReEncode
/Courier-Oblique-ISOLatin1 /Courier-Oblique ReEncode
/Courier-BoldOblique-ISOLatin1 /Courier-BoldOblique ReEncode
%
%%EndProlog
%%Page: Figure 1
%%BeginPageSetup
/ANGLE 0 def
/bottom -29700 def
NgraphDict begin
PageSave
BeginPage
%%EndPageSetup
0 0 21000 29700 1 viewc
0 255 div 0 255 div 0 255 div setrgbcolor
[] 0 40 2 0 10 lsty
3500 22000 17500 22000 l
[] 0 40 0 0 10 lsty
3500 22000 3500 21700 l
5833 22000 5833 21800 l
8166 22000 8166 21800 l
10500 22000 10500 21800 l
12833 22000 12833 21800 l
15166 22000 15166 21800 l
17500 22000 17500 21800 l
3304 22738 mto
%IncludeResource: font /Helvetica-ISOLatin1
[705.556 -0 -0 -705.556 0 0] /Helvetica-ISOLatin1 F
0 0 (0) ashow
7284 22738 mto
0 0 (0.001) ashow
11951 22738 mto
0 0 (0.002) ashow
16618 22738 mto
0 0 (0.003) ashow
[] 0 40 2 0 10 lsty
3500 22000 3500 11000 l
[] 0 40 0 0 10 lsty
3500 22000 3700 22000 l
3500 20428 3700 20428 l
3500 18857 3700 18857 l
3500 17285 3700 17285 l
3500 15714 3700 15714 l
3500 14142 3700 14142 l
3500 12571 3700 12571 l
1636 22244 mto
0 0 (0.202) ashow
1636 19101 mto
0 0 (0.204) ashow
1636 15958 mto
0 0 (0.206) ashow
1636 12815 mto
0 0 (0.208) ashow
[] 0 40 2 0 10 lsty
3500 11000 17500 11000 l
[] 0 40 0 0 10 lsty
3500 11000 3500 11300 l
5833 11000 5833 11200 l
8166 11000 8166 11200 l
10500 11000 10500 11200 l
12833 11000 12833 11200 l
15166 11000 15166 11200 l
17500 11000 17500 11200 l
[] 0 40 2 0 10 lsty
17500 22000 17500 11000 l
[] 0 40 0 0 10 lsty
17500 22000 17300 21999 l
17500 20428 17300 20427 l
17500 18857 17300 18856 l
17500 17285 17300 17284 l
17500 15714 17300 15713 l
17500 14142 17300 14141 l
17500 12571 17300 12570 l
255 255 div 0 255 div 0 255 div setrgbcolor
-36000 0 100 100 14302 12542 fe
-36000 0 100 100 8057 14819 fe
-36000 0 100 100 5833 15710 fe
-36000 0 100 100 4850 16091 fe
14302 12441 14302 12642 l
14202 12441 14402 12441 l
14202 12642 14402 12642 l
8057 14765 8057 14872 l
7957 14765 8157 14765 l
7957 14872 8157 14872 l
5833 15664 5833 15755 l
5733 15664 5933 15664 l
5733 15755 5933 15755 l
4850 16057 4850 16126 l
4750 16057 4950 16057 l
4750 16126 4950 16126 l
0 255 div 0 255 div 0 255 div setrgbcolor
3500 17270 mto
3600 17270 lto
st
3700 17270 mto
3800 17270 lto
st
3900 17270 mto
4000 17270 lto
st
4100 17270 mto
4200 17270 lto
st
4300 17270 mto
4400 17270 lto
st
4500 17270 mto
4600 17270 lto
st
4700 17270 mto
4800 17270 lto
st
4900 17270 mto
5000 17270 lto
st
5100 17270 mto
5200 17270 lto
st
5300 17270 mto
5400 17270 lto
st
5500 17270 mto
5600 17270 lto
st
5700 17270 mto
5800 17270 lto
st
5900 17270 mto
6000 17270 lto
st
6100 17270 mto
6200 17270 lto
st
6300 17270 mto
6400 17270 lto
st
6500 17270 mto
6600 17270 lto
st
6700 17270 mto
6800 17270 lto
st
6900 17270 mto
7000 17270 lto
st
7100 17270 mto
7200 17270 lto
st
7300 17270 mto
7400 17270 lto
st
7500 17270 mto
7600 17270 lto
st
7700 17270 mto
7800 17270 lto
st
7900 17270 mto
8000 17270 lto
st
8100 17270 mto
8200 17270 lto
st
8300 17270 mto
8400 17270 lto
st
8500 17270 mto
8600 17270 lto
st
8700 17270 mto
8800 17270 lto
st
8900 17270 mto
9000 17270 lto
st
9100 17270 mto
9200 17270 lto
st
9300 17270 mto
9400 17270 lto
st
9500 17270 mto
9600 17270 lto
st
9700 17270 mto
9800 17270 lto
st
9900 17270 mto
10000 17270 lto
st
10100 17270 mto
10200 17270 lto
st
10300 17270 mto
10400 17270 lto
st
10500 17270 mto
10600 17270 lto
st
10700 17270 mto
10800 17270 lto
st
10900 17270 mto
11000 17270 lto
st
11100 17270 mto
11200 17270 lto
st
11300 17270 mto
11400 17270 lto
st
11500 17270 mto
11600 17270 lto
st
11700 17270 mto
11800 17270 lto
st
11900 17270 mto
12000 17270 lto
st
12100 17270 mto
12200 17270 lto
st
12300 17270 mto
12400 17270 lto
st
12500 17270 mto
12600 17270 lto
st
12700 17270 mto
12800 17270 lto
st
12900 17270 mto
13000 17270 lto
st
13100 17270 mto
13200 17270 lto
st
13300 17270 mto
13400 17270 lto
st
13500 17270 mto
13600 17270 lto
st
13700 17270 mto
13800 17270 lto
st
13900 17270 mto
14000 17270 lto
st
14100 17270 mto
14200 17270 lto
st
14300 17270 mto
14400 17270 lto
st
14500 17270 mto
14600 17270 lto
st
14700 17270 mto
14800 17270 lto
st
14900 17270 mto
15000 17270 lto
st
15100 17270 mto
15200 17270 lto
st
15300 17270 mto
15400 17270 lto
st
15500 17270 mto
15600 17270 lto
st
15700 17270 mto
15800 17270 lto
st
15900 17270 mto
16000 17270 lto
st
16100 17270 mto
16200 17270 lto
st
16300 17270 mto
16400 17270 lto
st
16500 17270 mto
16600 17270 lto
st
16700 17270 mto
16800 17270 lto
st
16900 17270 mto
17000 17270 lto
st
17100 17270 mto
17200 17270 lto
st
17300 17270 mto
17400 17270 lto
st
3500 20853 mto
3600 20853 lto
st
3700 20853 mto
3800 20853 lto
st
3900 20853 mto
4000 20853 lto
st
4100 20853 mto
4200 20853 lto
st
4300 20853 mto
4400 20853 lto
st
4500 20853 mto
4600 20853 lto
st
4700 20853 mto
4800 20853 lto
st
4900 20853 mto
5000 20853 lto
st
5100 20853 mto
5200 20853 lto
st
5300 20853 mto
5400 20853 lto
st
5500 20853 mto
5600 20853 lto
st
5700 20853 mto
5800 20853 lto
st
5900 20853 mto
6000 20853 lto
st
6100 20853 mto
6200 20853 lto
st
6300 20853 mto
6400 20853 lto
st
6500 20853 mto
6600 20853 lto
st
6700 20853 mto
6800 20853 lto
st
6900 20853 mto
7000 20853 lto
st
7100 20853 mto
7200 20853 lto
st
7300 20853 mto
7400 20853 lto
st
7500 20853 mto
7600 20853 lto
st
7700 20853 mto
7800 20853 lto
st
7900 20853 mto
8000 20853 lto
st
8100 20853 mto
8200 20853 lto
st
8300 20853 mto
8400 20853 lto
st
8500 20853 mto
8600 20853 lto
st
8700 20853 mto
8800 20853 lto
st
8900 20853 mto
9000 20853 lto
st
9100 20853 mto
9200 20853 lto
st
9300 20853 mto
9400 20853 lto
st
9500 20853 mto
9600 20853 lto
st
9700 20853 mto
9800 20853 lto
st
9900 20853 mto
10000 20853 lto
st
10100 20853 mto
10200 20853 lto
st
10300 20853 mto
10400 20853 lto
st
10500 20853 mto
10600 20853 lto
st
10700 20853 mto
10800 20853 lto
st
10900 20853 mto
11000 20853 lto
st
11100 20853 mto
11200 20853 lto
st
11300 20853 mto
11400 20853 lto
st
11500 20853 mto
11600 20853 lto
st
11700 20853 mto
11800 20853 lto
st
11900 20853 mto
12000 20853 lto
st
12100 20853 mto
12200 20853 lto
st
12300 20853 mto
12400 20853 lto
st
12500 20853 mto
12600 20853 lto
st
12700 20853 mto
12800 20853 lto
st
12900 20853 mto
13000 20853 lto
st
13100 20853 mto
13200 20853 lto
st
13300 20853 mto
13400 20853 lto
st
13500 20853 mto
13600 20853 lto
st
13700 20853 mto
13800 20853 lto
st
13900 20853 mto
14000 20853 lto
st
14100 20853 mto
14200 20853 lto
st
14300 20853 mto
14400 20853 lto
st
14500 20853 mto
14600 20853 lto
st
14700 20853 mto
14800 20853 lto
st
14900 20853 mto
15000 20853 lto
st
15100 20853 mto
15200 20853 lto
st
15300 20853 mto
15400 20853 lto
st
15500 20853 mto
15600 20853 lto
st
15700 20853 mto
15800 20853 lto
st
15900 20853 mto
16000 20853 lto
st
16100 20853 mto
16200 20853 lto
st
16300 20853 mto
16400 20853 lto
st
16500 20853 mto
16600 20853 lto
st
16700 20853 mto
16800 20853 lto
st
16900 20853 mto
17000 20853 lto
st
17100 20853 mto
17200 20853 lto
st
17300 20853 mto
17400 20853 lto
st
255 255 div 0 255 div 0 255 div setrgbcolor
[] 0 80 0 0 10 lsty
2000 17300 mto
3031 17300 lto
st
[] 0 1 0 0 10 lsty
3021 17540 3600 17300 3021 17060 3021 17540 4 epo
0 255 div 0 255 div 255 255 div setrgbcolor
[] 0 80 0 0 10 lsty
2000 20900 mto
3031 20900 lto
st
[] 0 1 0 0 10 lsty
3021 21140 3600 20900 3021 20660 3021 21140 4 epo
0 255 div 0 255 div 0 255 div setrgbcolor
13200 23600 mto
0 0 (1/N) ashow
0 172 rmto
[493.889 -0 -0 -493.889 0 0] /Helvetica-ISOLatin1 F
0 0 (spin) ashow
0 -172 rmto
1200 15400 mto
[4.32014e-14 -705.556 -705.556 -4.32014e-14 0 0] /Helvetica-ISOLatin1 F
0 0 (S) ashow
172 0 rmto
[3.0241e-14 -493.889 -493.889 -3.0241e-14 0 0] /Helvetica-ISOLatin1 F
0 0 (0) ashow
-172 0 rmto
[4.32014e-14 -705.556 -705.556 -4.32014e-14 0 0] /Helvetica-ISOLatin1 F
0 0 (/N) ashow
172 0 rmto
[3.0241e-14 -493.889 -493.889 -3.0241e-14 0 0] /Helvetica-ISOLatin1 F
0 0 (spin) ashow
-172 0 rmto
EndPage
PageRestore
showpage
end
%%Trailer
%%DocumentNeededResources: 
% font /Helvetica-ISOLatin1
%%EOF
