set terminal pngcairo dashed size 1000,786 linewidth 2.5 fontscale 2.25
set output 'honeycomb_30_S.png'

set key top left Left reverse
set logscale x
set ylabel 'S/(k_BN)' offset 1.6,0
set xlabel 'k_B T/D' offset 0.3,0.5
plot [][0:0.7] 'honeycomb_30_sr_term.dat' using 1:4 with lines lw 1.5 dt (12,5) lc 'black' t 'близкодействие', \
'honeycomb_30_lr_term.dat' using 1:4 with lines lw 2 lc 'black' t 'дальнодействие'