%!PS-Adobe-3.0 EPSF-3.0
%%Creator: GRA2PS 2.03.20
%%Title: Ngraph
%%CreationDate: 8-16-2016 1:26
%%Pages: 1
%%DocumentNeededResources: (atend)
%%BoundingBox: 32 170 501 534
%%EndComments
%
% Ngraph.ps 2.03.20
%
%%BeginProlog
%
/NgraphDict 100 dict def
NgraphDict begin
%
% Procedure Definition
%
/PageSave {/Sobject save def} bind def
/PageRestore {Sobject restore} bind def
/@Paper {
  72 2540 div -72 2540 div scale % 1unit = 0.01mm
  ANGLE rotate
  0 bottom translate                    % origin is (0 bottom)
} bind def
/BeginPage {@Paper gsave} bind def
/EndPage {grestore} bind def
/box {
  moveto
  1 index 0 rlineto
  0 exch rlineto
  neg 0 rlineto
  closepath } bind def
/view {
  mark
  currentfont
  currentmiterlimit
  currentlinejoin
  currentlinecap
  currentlinewidth
  currentdash
  currentgray
  currentrgbcolor
  grestore gsave
  counttomark dup 6 add exch roll
  pop
  5 3 roll
  translate
  1 eq { 0 0 box clip newpath } { pop pop } ifelse
  setrgbcolor
  setgray
  setdash
  setlinewidth
  setlinecap
  setlinejoin
  setmiterlimit
  setfont
 } bind def
/viewc {
  mark
  currentfont
  currentmiterlimit
  currentlinejoin
  currentlinecap
  currentlinewidth
  currentdash
  currentrgbcolor
  currentgray
  grestore gsave
  counttomark dup 6 add exch roll
  pop
  5 3 roll
  translate
  1 eq { 0 0 box clip newpath } { pop pop } ifelse
  setgray
  setrgbcolor
  setdash
  setlinewidth
  setlinecap
  setlinejoin
  setmiterlimit
  setfont
 } bind def
/F { findfont exch makefont setfont } bind def
/lsty {
  setmiterlimit
  setlinejoin
  setlinecap
  setlinewidth
  setdash } bind def
/mto /moveto load def
/rmto /rmoveto load def
/lto /lineto load def
/rlto /rlineto load def
/st /stroke load def
/l { moveto lineto stroke } bind def
/e { 
  gsave
  newpath
  translate
  0 index 1 exch div 5 1 roll
  1 index 1 exch div 6 1 roll
  scale
  0 0 1 5 3 roll exch 100 div exch 100 div arc
  scale
  stroke
  grestore } bind def
/fe {
  gsave
  newpath
  translate
  0 index 1 exch div 5 1 roll
  1 index 1 exch div 6 1 roll
  scale
  0 0 moveto 0 0 1 5 3 roll exch 100 div exch 100 div arc closepath
  scale
  fill 
  grestore } bind def
/ae {
  gsave
  newpath
  translate
  0 index 1 exch div 5 1 roll
  1 index 1 exch div 6 1 roll
  scale
  0 0 1 5 3 roll exch 100 div exch 100 div arc closepath
  scale
  fill
  grestore } bind def
/pix {
  newpath 20 0 360 arc closepath fill } bind def
/rec {
  box stroke } bind def
/bar {
  box fill } bind def
/lines {
  1 sub
  3 1 roll
  moveto
  {lineto} repeat } bind def
/poly {
  1 sub
  3 1 roll
  moveto
  {lineto} repeat closepath } bind def
/rpo { lines stroke } bind def
/dpo { poly stroke } bind def
/fpo { poly fill } bind def
/epo { poly eofill } bind def
/ashowB {
  3 copy 3 copy 3 copy
  gsave BOLDS 0 rmoveto ashow grestore
  gsave 0 BOLDS rmoveto ashow grestore
  gsave BOLDS BOLDS rmoveto ashow grestore
  ashow } bind def
end
%
% ISOLatin1Encoding
%
/NGPLatin1Encoding 256 array def
0 1 255 {NGPLatin1Encoding exch /.notdef put} for
NGPLatin1Encoding
dup 8#101 /A put          dup 8#306 /AE put         dup 8#301 /Aacute put
dup 8#302 /Acircumflex put dup 8#304 /Adieresis put dup 8#300 /Agrave put
dup 8#305 /Aring put      dup 8#303 /Atilde put     dup 8#102 /B put
dup 8#103 /C put          dup 8#307 /Ccedilla put   dup 8#104 /D put
dup 8#105 /E put          dup 8#311 /Eacute put     dup 8#312 /Ecircumflex put
dup 8#313 /Edieresis put  dup 8#310 /Egrave put     dup 8#320 /Eth put
dup 8#106 /F put          dup 8#107 /G put          dup 8#110 /H put
dup 8#111 /I put          dup 8#315 /Iacute put     dup 8#316 /Icircumflex put
dup 8#317 /Idieresis put  dup 8#314 /Igrave put     dup 8#112 /J put
dup 8#113 /K put          dup 8#114 /L put          dup 8#115 /M put
dup 8#116 /N put          dup 8#321 /Ntilde put     dup 8#117 /O put
dup 8#323 /Oacute put     dup 8#324 /Ocircumflex put dup 8#326 /Odieresis put
dup 8#322 /Ograve put     dup 8#330 /Oslash put     dup 8#325 /Otilde put
dup 8#120 /P put          dup 8#121 /Q put          dup 8#122 /R put
dup 8#123 /S put          dup 8#124 /T put          dup 8#336 /Thorn put
dup 8#125 /U put          dup 8#332 /Uacute put     dup 8#333 /Ucircumflex put
dup 8#334 /Udieresis put  dup 8#331 /Ugrave put     dup 8#126 /V put
dup 8#127 /W put          dup 8#130 /X put          dup 8#131 /Y put
dup 8#335 /Yacute put     dup 8#132 /Z put          dup 8#141 /a put
dup 8#341 /aacute put     dup 8#342 /acircumflex put dup 8#264 /acute put
dup 8#344 /adieresis put  dup 8#346 /ae put         dup 8#340 /agrave put
dup 8#046 /ampersand put  dup 8#345 /aring put      dup 8#136 /asciicircum put
dup 8#176 /asciitilde put dup 8#052 /asterisk put   dup 8#100 /at put
dup 8#343 /atilde put     dup 8#142 /b put          dup 8#134 /backslash put
dup 8#174 /bar put        dup 8#173 /braceleft put  dup 8#175 /braceright put
dup 8#133 /bracketleft put dup 8#135 /bracketright put dup 8#246 /brokenbar put
dup 8#143 /c put          dup 8#347 /ccedilla put   dup 8#242 /cent put
dup 8#072 /colon put      dup 8#054 /comma put      dup 8#251 /copyright put
dup 8#244 /currency put   dup 8#144 /d put          dup 8#260 /degree put
dup 8#367 /divide put     dup 8#044 /dollar put     dup 8#145 /e put
dup 8#351 /eacute put     dup 8#352 /ecircumflex put dup 8#353 /edieresis put
dup 8#350 /egrave put     dup 8#070 /eight put      dup 8#075 /equal put
dup 8#360 /eth put        dup 8#041 /exclam put     dup 8#241 /exclamdown put
dup 8#146 /f put          dup 8#065 /five put       dup 8#064 /four put
dup 8#147 /g put          dup 8#337 /germandbls put dup 8#076 /greater put
dup 8#253 /guillemotleft put dup 8#273 /guillemotright put dup 8#150 /h put
dup 8#255 /hyphen put     dup 8#151 /i put          dup 8#355 /iacute put
dup 8#356 /icircumflex put dup 8#357 /idieresis put dup 8#354 /igrave put
dup 8#152 /j put          dup 8#153 /k put          dup 8#154 /l put
dup 8#074 /less put       dup 8#254 /logicalnot put dup 8#155 /m put
dup 8#055 /minus put      dup 8#265 /mu put         dup 8#327 /multiply put
dup 8#156 /n put          dup 8#071 /nine put       dup 8#361 /ntilde put
dup 8#043 /numbersign put dup 8#157 /o put          dup 8#363 /oacute put
dup 8#364 /ocircumflex put dup 8#366 /odieresis put dup 8#362 /ograve put
dup 8#061 /one put        dup 8#275 /onehalf put    dup 8#274 /onequarter put
dup 8#271 /onesuperior put dup 8#252 /ordfeminine put dup 8#272 /ordmasculine put
dup 8#370 /oslash put     dup 8#365 /otilde put     dup 8#160 /p put
dup 8#266 /paragraph put  dup 8#050 /parenleft put  dup 8#051 /parenright put
dup 8#045 /percent put    dup 8#056 /period put     dup 8#267 /periodcentered put
dup 8#053 /plus put       dup 8#261 /plusminus put  dup 8#161 /q put
dup 8#077 /question put   dup 8#277 /questiondown put dup 8#042 /quotedbl put
dup 8#140 /quoteleft put  dup 8#047 /quoteright put dup 8#162 /r put
dup 8#256 /registered put dup 8#163 /s put          dup 8#247 /section put
dup 8#073 /semicolon put  dup 8#067 /seven put      dup 8#066 /six put
dup 8#057 /slash put      dup 8#040 /space put      dup 8#243 /sterling put
dup 8#164 /t put          dup 8#376 /thorn put      dup 8#063 /three put
dup 8#276 /threequarters put dup 8#263 /threesuperior put dup 8#062 /two put
dup 8#262 /twosuperior put dup 8#165 /u put         dup 8#372 /uacute put
dup 8#373 /ucircumflex put dup 8#374 /udieresis put dup 8#371 /ugrave put
dup 8#137 /underscore put dup 8#166 /v put          dup 8#167 /w put
dup 8#170 /x put          dup 8#171 /y put          dup 8#375 /yacute put
dup 8#377 /ydieresis put  dup 8#245 /yen put        dup 8#172 /z put
dup 8#060 /zero put       dup 8#250 /dieresis put   dup 8#257 /macron put
dup 8#270 /cedilla put
% for ISOLatin1Encoding
%dup 8#220 /dotlessi put   dup 8#221 /grave put      dup 8#222 /acute put
%dup 8#223 /circumflex put dup 8#224 /tilde put      dup 8#225 /macron put
%dup 8#226 /breve put      dup 8#227 /dotaccent put  dup 8#230 /dieresis put
%dup 8#232 /ring put       dup 8#233 /cedilla put    dup 8#235 /hungarumlaut put
%dup 8#236 /ogonek put     dup 8#237 /caron put
% for Windows
dup 8#200 /colonmonetary put dup 8#202 /comma put   dup 8#203 /florin put
dup 8#204 /quotedblbase put dup 8#205 /ellipsis put dup 8#206 /dagger put
dup 8#207 /daggerdbl put  dup 8#210 /circumflex put dup 8#211 /perthousand put
dup 8#212 /Scaron put    dup 8#213 /guilsinglleft put dup 8#214 /OE put
dup 8#221 /quoteleft put dup 8#222 /quoteright put   dup 8#223 /quotedblleft put
dup 8#224 /quotedblright put dup 8#225 /bullet put dup 8#226 /hyphen put
dup 8#227 /emdash put  dup 8#230 /hungarumlaut put dup 8#231 /trademark put
dup 8#232 /scaron put  dup 8#233 /guilsinglright put dup 8#234 /oe put
dup 8#237 /Ydieresis put
pop
/ReEncode {
  findfont
  dup length dict begin
    {1 index /FID ne {def} {pop pop} ifelse} forall
    /Encoding NGPLatin1Encoding def
    currentdict
  end
  definefont
  pop
} bind def
/Times-Roman-ISOLatin1 /Times-Roman ReEncode
/Times-Bold-ISOLatin1 /Times-Bold ReEncode
/Times-Italic-ISOLatin1 /Times-Italic ReEncode
/Times-BoldItalic-ISOLatin1 /Times-BoldItalic ReEncode
/Helvetica-ISOLatin1 /Helvetica ReEncode
/Helvetica-Bold-ISOLatin1 /Helvetica-Bold ReEncode
/Helvetica-Oblique-ISOLatin1 /Helvetica-Oblique ReEncode
/Helvetica-BoldOblique-ISOLatin1 /Helvetica-BoldOblique ReEncode
/Courier-ISOLatin1 /Courier ReEncode
/Courier-Bold-ISOLatin1 /Courier-Bold ReEncode
/Courier-Oblique-ISOLatin1 /Courier-Oblique ReEncode
/Courier-BoldOblique-ISOLatin1 /Courier-BoldOblique ReEncode
%
%%EndProlog
%%Page: Figure 1
%%BeginPageSetup
/ANGLE 0 def
/bottom -29700 def
NgraphDict begin
PageSave
BeginPage
%%EndPageSetup
0 0 21000 29700 1 viewc
0 255 div 0 255 div 0 255 div setrgbcolor
[] 0 40 2 0 10 lsty
3500 22000 17500 22000 l
[] 0 40 0 0 10 lsty
3500 22000 3500 21700 l
4900 22000 4900 21900 l
6300 22000 6300 21800 l
7700 22000 7700 21900 l
9100 22000 9100 21800 l
10500 22000 10500 21900 l
11900 22000 11900 21800 l
13300 22000 13300 21900 l
14700 22000 14700 21800 l
16100 22000 16100 21900 l
17500 22000 17500 21800 l
3304 22738 mto
%IncludeResource: font /Helvetica-ISOLatin1
[705.556 -0 -0 -705.556 0 0] /Helvetica-ISOLatin1 F
0 0 (0) ashow
8904 22738 mto
0 0 (2) ashow
14504 22738 mto
0 0 (4) ashow
[] 0 40 2 0 10 lsty
3500 22000 3500 11000 l
[] 0 40 0 0 10 lsty
3500 22000 3800 22000 l
3500 20472 3700 20472 l
3500 18944 3700 18944 l
3500 17416 3700 17416 l
3500 15888 3700 15888 l
3500 14361 3700 14361 l
3500 12833 3700 12833 l
3500 11305 3700 11305 l
3008 22244 mto
0 0 (0) ashow
2420 19188 mto
0 0 (0.2) ashow
2420 16132 mto
0 0 (0.4) ashow
2420 13077 mto
0 0 (0.6) ashow
[] 0 40 2 0 10 lsty
3500 11000 17500 11000 l
[] 0 40 0 0 10 lsty
3500 11000 3500 11300 l
4900 11000 4900 11100 l
6300 11000 6300 11200 l
7700 11000 7700 11100 l
9100 11000 9100 11200 l
10500 11000 10500 11100 l
11900 11000 11900 11200 l
13300 11000 13300 11100 l
14700 11000 14700 11200 l
16100 11000 16100 11100 l
17500 11000 17500 11200 l
[] 0 40 2 0 10 lsty
17500 22000 17500 11000 l
[] 0 40 0 0 10 lsty
17500 22000 17200 21999 l
17500 20472 17300 20471 l
17500 18944 17300 18943 l
17500 17416 17300 17415 l
17500 15888 17300 15887 l
17500 14361 17300 14360 l
17500 12833 17300 12832 l
17500 11305 17300 11304 l
[] 0 60 0 0 10 lsty
3780 14333 mto
255 255 div 0 255 div 0 255 div setrgbcolor
3920 14333 lto
4060 14333 lto
4200 14333 lto
4340 14333 lto
4480 14333 lto
4620 14332 lto
4760 14330 lto
4882 14327 lto
4900 14326 lto
5003 14321 lto
5040 14318 lto
5133 14311 lto
5180 14306 lto
5268 14296 lto
5320 14289 lto
5407 14276 lto
5460 14267 lto
5546 14251 lto
5600 14240 lto
5689 14220 lto
5740 14208 lto
5832 14185 lto
5880 14172 lto
5977 14144 lto
6020 14131 lto
6125 14099 lto
6160 14088 lto
6272 14050 lto
6300 14041 lto
6423 13998 lto
6440 13992 lto
6578 13941 lto
6580 13940 lto
6720 13888 lto
6860 13834 lto
7000 13780 lto
7140 13726 lto
7280 13671 lto
7420 13617 lto
7560 13563 lto
7700 13510 lto
7840 13457 lto
7980 13405 lto
8120 13355 lto
8260 13305 lto
8400 13256 lto
8540 13209 lto
8680 13163 lto
8820 13118 lto
8960 13074 lto
9100 13031 lto
9240 12990 lto
9380 12950 lto
9520 12911 lto
9660 12873 lto
9800 12836 lto
9940 12801 lto
10080 12766 lto
10220 12733 lto
10360 12700 lto
10500 12669 lto
10640 12639 lto
10780 12609 lto
10920 12581 lto
11060 12553 lto
11200 12527 lto
11340 12501 lto
11480 12476 lto
11620 12451 lto
11760 12428 lto
11900 12405 lto
12040 12383 lto
12180 12362 lto
12320 12341 lto
12460 12321 lto
12600 12301 lto
12740 12282 lto
12880 12264 lto
13020 12246 lto
13160 12229 lto
13300 12212 lto
13440 12196 lto
13580 12180 lto
13720 12165 lto
13860 12150 lto
14000 12135 lto
14140 12121 lto
14280 12107 lto
14420 12094 lto
14560 12081 lto
14700 12069 lto
14840 12056 lto
14980 12045 lto
15120 12033 lto
15260 12022 lto
15400 12011 lto
15540 12000 lto
15680 11990 lto
15820 11980 lto
15960 11970 lto
16100 11960 lto
16240 11951 lto
16380 11942 lto
16520 11933 lto
16660 11924 lto
16800 11916 lto
16940 11907 lto
17080 11899 lto
17220 11891 lto
17360 11884 lto
17500 11876 lto
st
[] 0 40 0 0 10 lsty
3780 15687 mto
0 255 div 0 255 div 255 255 div setrgbcolor
3920 15687 lto
4060 15687 lto
4141 15685 lto
4200 15682 lto
4256 15677 lto
4307 15671 lto
4340 15666 lto
4388 15657 lto
4436 15647 lto
4480 15635 lto
4526 15621 lto
4573 15605 lto
4620 15587 lto
4669 15566 lto
4719 15543 lto
4760 15523 lto
4813 15495 lto
4869 15464 lto
4900 15446 lto
4962 15409 lto
5026 15369 lto
5040 15360 lto
5109 15315 lto
5180 15266 lto
5268 15205 lto
5320 15168 lto
5427 15091 lto
5460 15067 lto
5600 14964 lto
5740 14861 lto
5880 14758 lto
6020 14656 lto
6160 14556 lto
6294 14462 lto
6300 14458 lto
6428 14371 lto
6440 14363 lto
6565 14279 lto
6580 14269 lto
6702 14190 lto
6720 14179 lto
6839 14104 lto
6860 14091 lto
6979 14018 lto
7000 14006 lto
7118 13936 lto
7140 13923 lto
7259 13855 lto
7280 13843 lto
7398 13779 lto
7420 13767 lto
7539 13703 lto
7560 13693 lto
7680 13631 lto
7700 13621 lto
7823 13560 lto
7840 13552 lto
7962 13494 lto
7980 13486 lto
8106 13429 lto
8120 13422 lto
8247 13366 lto
8260 13361 lto
8390 13306 lto
8400 13302 lto
8530 13249 lto
8540 13245 lto
8676 13192 lto
8680 13190 lto
8815 13139 lto
8820 13138 lto
8960 13087 lto
8960 13087 lto
9099 13039 lto
9100 13038 lto
9240 12992 lto
9380 12947 lto
9520 12903 lto
9660 12862 lto
9800 12822 lto
9940 12783 lto
10080 12746 lto
10220 12710 lto
10360 12676 lto
10500 12643 lto
10640 12611 lto
10780 12580 lto
10920 12550 lto
11060 12521 lto
11200 12494 lto
11340 12467 lto
11480 12441 lto
11620 12416 lto
11760 12393 lto
11900 12369 lto
12040 12347 lto
12180 12325 lto
12320 12304 lto
12460 12284 lto
12600 12265 lto
12740 12246 lto
12880 12227 lto
13020 12210 lto
13160 12193 lto
13300 12176 lto
13440 12160 lto
13580 12144 lto
13720 12129 lto
13860 12115 lto
14000 12100 lto
14140 12087 lto
14280 12073 lto
14420 12060 lto
14560 12048 lto
14700 12035 lto
14840 12023 lto
14980 12012 lto
15120 12001 lto
15260 11990 lto
15400 11979 lto
15540 11969 lto
15680 11959 lto
15820 11949 lto
15960 11940 lto
16100 11930 lto
16240 11921 lto
16380 11913 lto
16520 11904 lto
16660 11896 lto
16800 11888 lto
16940 11880 lto
17080 11872 lto
17220 11865 lto
17360 11857 lto
17500 11850 lto
st
3780 16661 mto
0 255 div 128 255 div 0 255 div setrgbcolor
3920 16661 lto
4045 16660 lto
4060 16659 lto
4119 16657 lto
4168 16653 lto
4200 16650 lto
4241 16644 lto
4280 16637 lto
4317 16628 lto
4340 16621 lto
4376 16610 lto
4413 16596 lto
4449 16580 lto
4480 16565 lto
4515 16546 lto
4552 16525 lto
4588 16501 lto
4620 16479 lto
4658 16452 lto
4696 16422 lto
4736 16389 lto
4760 16368 lto
4802 16331 lto
4845 16290 lto
4891 16246 lto
4900 16237 lto
4949 16187 lto
5002 16132 lto
5040 16091 lto
5101 16024 lto
5169 15947 lto
5180 15936 lto
5266 15838 lto
5320 15776 lto
5447 15629 lto
5460 15614 lto
5600 15454 lto
5703 15338 lto
5740 15297 lto
5834 15194 lto
5880 15145 lto
5967 15052 lto
6020 14997 lto
6103 14911 lto
6160 14855 lto
6241 14775 lto
6300 14718 lto
6380 14642 lto
6440 14588 lto
6522 14514 lto
6580 14463 lto
6662 14392 lto
6720 14344 lto
6803 14276 lto
6860 14231 lto
6943 14166 lto
7000 14123 lto
7087 14058 lto
7140 14020 lto
7228 13958 lto
7280 13922 lto
7370 13862 lto
7420 13829 lto
7513 13770 lto
7560 13741 lto
7654 13684 lto
7700 13657 lto
7798 13600 lto
7840 13577 lto
7939 13522 lto
7980 13500 lto
8084 13446 lto
8120 13428 lto
8225 13375 lto
8260 13359 lto
8371 13306 lto
8400 13293 lto
8512 13242 lto
8540 13230 lto
8656 13180 lto
8680 13169 lto
8798 13121 lto
8820 13112 lto
8941 13065 lto
8960 13057 lto
9086 13010 lto
9100 13005 lto
9228 12959 lto
9240 12955 lto
9372 12910 lto
9380 12907 lto
9518 12862 lto
9520 12862 lto
9658 12819 lto
9660 12818 lto
9800 12776 lto
9940 12736 lto
10080 12698 lto
10220 12661 lto
10360 12626 lto
10500 12592 lto
10640 12559 lto
10780 12528 lto
10920 12498 lto
11060 12469 lto
11200 12442 lto
11340 12415 lto
11480 12389 lto
11620 12365 lto
11760 12341 lto
11900 12318 lto
12040 12296 lto
12180 12275 lto
12320 12254 lto
12460 12234 lto
12600 12215 lto
12740 12197 lto
12880 12179 lto
13020 12162 lto
13160 12145 lto
13300 12129 lto
13440 12113 lto
13580 12098 lto
13720 12084 lto
13860 12070 lto
14000 12056 lto
14140 12043 lto
14280 12030 lto
14420 12017 lto
14560 12005 lto
14700 11994 lto
14840 11982 lto
14980 11971 lto
15120 11961 lto
15260 11950 lto
15400 11940 lto
15540 11930 lto
15680 11921 lto
15820 11912 lto
15960 11903 lto
16100 11894 lto
16240 11885 lto
16380 11877 lto
16520 11869 lto
16660 11861 lto
16800 11854 lto
16940 11846 lto
17080 11839 lto
17220 11832 lto
17360 11825 lto
17500 11818 lto
st
3780 17270 mto
255 255 div 128 255 div 0 255 div setrgbcolor
3920 17270 lto
4029 17269 lto
4060 17268 lto
4112 17265 lto
4155 17261 lto
4193 17256 lto
4200 17255 lto
4236 17249 lto
4270 17240 lto
4303 17231 lto
4335 17220 lto
4340 17217 lto
4372 17204 lto
4404 17188 lto
4436 17171 lto
4468 17151 lto
4480 17143 lto
4511 17121 lto
4543 17097 lto
4575 17071 lto
4608 17043 lto
4620 17031 lto
4653 17000 lto
4687 16965 lto
4722 16928 lto
4758 16888 lto
4760 16887 lto
4797 16844 lto
4835 16798 lto
4875 16748 lto
4900 16716 lto
4945 16658 lto
4993 16594 lto
5040 16529 lto
5096 16451 lto
5158 16362 lto
5180 16330 lto
5264 16210 lto
5320 16127 lto
5460 15924 lto
5559 15782 lto
5600 15724 lto
5680 15613 lto
5740 15530 lto
5812 15432 lto
5880 15342 lto
5950 15252 lto
6018 15165 lto
6020 15163 lto
6088 15079 lto
6155 14997 lto
6160 14992 lto
6227 14912 lto
6294 14835 lto
6300 14829 lto
6367 14755 lto
6434 14682 lto
6440 14675 lto
6508 14604 lto
6576 14533 lto
6580 14530 lto
6650 14460 lto
6720 14392 lto
6791 14325 lto
6860 14262 lto
6932 14199 lto
7000 14140 lto
7075 14077 lto
7140 14024 lto
7216 13964 lto
7280 13916 lto
7359 13856 lto
7420 13813 lto
7502 13755 lto
7560 13716 lto
7644 13660 lto
7700 13624 lto
7787 13569 lto
7840 13537 lto
7930 13484 lto
7980 13455 lto
8073 13404 lto
8120 13378 lto
8217 13327 lto
8260 13305 lto
8359 13255 lto
8400 13235 lto
8503 13186 lto
8540 13169 lto
8647 13121 lto
8680 13107 lto
8789 13060 lto
8820 13047 lto
8935 13001 lto
8960 12991 lto
9077 12946 lto
9100 12937 lto
9221 12893 lto
9240 12886 lto
9366 12842 lto
9380 12838 lto
9507 12796 lto
9520 12792 lto
9655 12749 lto
9660 12748 lto
9796 12707 lto
9800 12705 lto
9940 12665 lto
10080 12627 lto
10220 12591 lto
10360 12556 lto
10500 12522 lto
10640 12490 lto
10780 12459 lto
10920 12430 lto
11060 12402 lto
11200 12375 lto
11340 12349 lto
11480 12324 lto
11620 12300 lto
11760 12277 lto
11900 12255 lto
12040 12234 lto
12180 12214 lto
12320 12194 lto
12460 12175 lto
12600 12157 lto
12740 12139 lto
12880 12122 lto
13020 12106 lto
13160 12090 lto
13300 12075 lto
13440 12060 lto
13580 12046 lto
13720 12032 lto
13860 12019 lto
14000 12006 lto
14140 11993 lto
14280 11981 lto
14420 11970 lto
14560 11958 lto
14700 11947 lto
14840 11937 lto
14980 11926 lto
15120 11916 lto
15260 11907 lto
15400 11897 lto
15540 11888 lto
15680 11879 lto
15820 11871 lto
15960 11862 lto
16100 11854 lto
16240 11847 lto
16380 11839 lto
16520 11831 lto
16660 11824 lto
16800 11817 lto
16940 11810 lto
17080 11804 lto
17220 11797 lto
17360 11791 lto
17500 11785 lto
st
3780 17530 mto
0 255 div 0 255 div 0 255 div setrgbcolor
3920 17530 lto
4022 17529 lto
4060 17528 lto
4108 17525 lto
4149 17521 lto
4185 17516 lto
4200 17514 lto
4234 17507 lto
4266 17498 lto
4296 17488 lto
4326 17477 lto
4340 17471 lto
4370 17456 lto
4400 17440 lto
4430 17421 lto
4459 17401 lto
4480 17386 lto
4509 17362 lto
4539 17337 lto
4569 17309 lto
4599 17279 lto
4620 17258 lto
4651 17224 lto
4682 17188 lto
4715 17149 lto
4748 17107 lto
4760 17092 lto
4795 17046 lto
4832 16996 lto
4870 16942 lto
4900 16898 lto
4942 16835 lto
4987 16767 lto
5036 16692 lto
5040 16685 lto
5094 16600 lto
5154 16503 lto
5180 16460 lto
5260 16330 lto
5320 16231 lto
5446 16026 lto
5460 16003 lto
5542 15871 lto
5600 15779 lto
5671 15669 lto
5738 15567 lto
5740 15563 lto
5805 15466 lto
5868 15373 lto
5880 15355 lto
5942 15266 lto
6004 15180 lto
6020 15158 lto
6081 15075 lto
6142 14994 lto
6160 14971 lto
6220 14893 lto
6281 14817 lto
6300 14794 lto
6361 14720 lto
6423 14647 lto
6440 14628 lto
6502 14557 lto
6565 14488 lto
6580 14471 lto
6644 14403 lto
6708 14337 lto
6720 14325 lto
6785 14260 lto
6851 14196 lto
6860 14187 lto
6927 14124 lto
6995 14062 lto
7000 14058 lto
7069 13997 lto
7139 13937 lto
7140 13937 lto
7212 13877 lto
7280 13823 lto
7354 13766 lto
7420 13716 lto
7497 13661 lto
7560 13616 lto
7640 13562 lto
7700 13522 lto
7783 13469 lto
7840 13434 lto
7926 13382 lto
7980 13350 lto
8069 13300 lto
8120 13272 lto
8213 13223 lto
8260 13198 lto
8355 13150 lto
8400 13128 lto
8500 13081 lto
8540 13063 lto
8642 13017 lto
8680 13000 lto
8787 12955 lto
8820 12942 lto
8931 12897 lto
8960 12886 lto
9074 12843 lto
9100 12833 lto
9219 12791 lto
9240 12783 lto
9362 12742 lto
9380 12736 lto
9506 12695 lto
9520 12691 lto
9653 12651 lto
9660 12648 lto
9793 12610 lto
9800 12608 lto
9940 12569 lto
10080 12532 lto
10220 12497 lto
10360 12464 lto
10500 12432 lto
10640 12401 lto
10780 12372 lto
10920 12344 lto
11060 12318 lto
11200 12292 lto
11340 12268 lto
11480 12244 lto
11620 12222 lto
11760 12200 lto
11900 12180 lto
12040 12160 lto
12180 12141 lto
12320 12123 lto
12460 12105 lto
12600 12088 lto
12740 12072 lto
12880 12056 lto
13020 12041 lto
13160 12026 lto
13300 12012 lto
13440 11999 lto
13580 11985 lto
13720 11973 lto
13860 11961 lto
14000 11949 lto
14140 11937 lto
14280 11926 lto
14420 11916 lto
14560 11905 lto
14700 11895 lto
14840 11886 lto
14980 11876 lto
15120 11867 lto
15260 11858 lto
15400 11850 lto
15540 11842 lto
15680 11834 lto
15820 11826 lto
15960 11818 lto
16100 11811 lto
16240 11804 lto
16380 11797 lto
16520 11790 lto
16660 11784 lto
16800 11777 lto
16940 11771 lto
17080 11765 lto
17220 11759 lto
17360 11754 lto
17500 11748 lto
st
3780 17388 mto
255 255 div 0 255 div 0 255 div setrgbcolor
3880 17388 lto
st
3980 17387 mto
4021 17387 lto
4060 17386 lto
4080 17385 lto
st
4179 17375 mto
4184 17374 lto
4200 17372 lto
4233 17364 lto
4265 17356 lto
4277 17352 lto
st
4369 17313 mto
4369 17313 lto
4399 17296 lto
4428 17278 lto
4453 17260 lto
st
4530 17197 mto
4537 17191 lto
4567 17163 lto
4597 17132 lto
4602 17127 lto
st
4669 17052 mto
4682 17036 lto
4714 16996 lto
4731 16974 lto
st
4791 16894 mto
4795 16889 lto
4831 16839 lto
4849 16813 lto
st
4904 16729 mto
4941 16673 lto
4959 16645 lto
st
5012 16561 mto
5033 16528 lto
5040 16516 lto
5065 16476 lto
st
5117 16390 mto
5157 16323 lto
5168 16305 lto
st
5219 16219 mto
5270 16133 lto
st
5322 16047 mto
5373 15961 lto
st
5424 15875 mto
5437 15854 lto
5460 15816 lto
5476 15790 lto
st
5528 15705 mto
5538 15689 lto
5581 15619 lto
st
5634 15534 mto
5666 15483 lto
5687 15450 lto
st
5742 15366 mto
5797 15283 lto
st
5852 15199 mto
5862 15185 lto
5880 15159 lto
5909 15117 lto
st
5966 15035 mto
5998 14990 lto
6020 14959 lto
6024 14954 lto
st
6083 14873 mto
6138 14801 lto
6144 14793 lto
st
6205 14714 mto
6219 14696 lto
6267 14636 lto
st
6330 14558 mto
6360 14523 lto
6395 14482 lto
st
6460 14406 mto
6501 14361 lto
6527 14332 lto
st
6595 14258 mto
6641 14209 lto
6664 14186 lto
st
6734 14115 mto
6784 14066 lto
6806 14045 lto
st
6878 13976 mto
6925 13933 lto
6952 13909 lto
st
7027 13843 mto
7068 13808 lto
7104 13778 lto
st
7181 13715 mto
7210 13692 lto
7260 13654 lto
st
7340 13593 mto
7353 13583 lto
7420 13534 lto
7420 13534 lto
st
7502 13477 mto
7560 13437 lto
7585 13421 lto
st
7669 13367 mto
7700 13347 lto
7754 13314 lto
st
7840 13262 mto
7840 13262 lto
7925 13213 lto
7926 13212 lto
st
8014 13164 mto
8069 13134 lto
8102 13117 lto
st
8191 13071 mto
8211 13061 lto
8260 13037 lto
8281 13027 lto
st
8371 12984 mto
8400 12971 lto
8462 12943 lto
st
8554 12903 mto
8644 12865 lto
8646 12864 lto
st
8739 12827 mto
8787 12808 lto
8820 12795 lto
8832 12791 lto
st
8926 12755 mto
8932 12753 lto
8960 12743 lto
9020 12722 lto
st
9114 12689 mto
9209 12657 lto
st
9304 12627 mto
9362 12609 lto
9380 12603 lto
9400 12597 lto
st
9496 12569 mto
9511 12564 lto
9520 12561 lto
9592 12541 lto
st
9688 12514 mto
9785 12489 lto
st
9881 12463 mto
9940 12448 lto
9978 12439 lto
st
10076 12416 mto
10080 12415 lto
10173 12393 lto
st
10271 12371 mto
10360 12352 lto
10368 12350 lto
st
10466 12329 mto
10500 12322 lto
10564 12310 lto
st
10662 12291 mto
10761 12272 lto
st
10859 12254 mto
10920 12243 lto
10957 12236 lto
st
11056 12219 mto
11060 12218 lto
11155 12202 lto
st
11253 12187 mto
11340 12173 lto
11352 12171 lto
st
11451 12156 mto
11480 12152 lto
11550 12142 lto
st
11649 12128 mto
11748 12114 lto
st
11847 12101 mto
11900 12094 lto
11946 12088 lto
st
12046 12075 mto
12145 12063 lto
st
12244 12051 mto
12320 12042 lto
12343 12039 lto
st
12443 12028 mto
12460 12026 lto
12542 12017 lto
st
12642 12007 mto
12740 11996 lto
12741 11996 lto
st
12840 11986 mto
12880 11982 lto
12940 11976 lto
st
13040 11967 mto
13139 11958 lto
st
13239 11949 mto
13300 11943 lto
13338 11940 lto
st
13438 11931 mto
13440 11931 lto
13538 11923 lto
st
13637 11915 mto
13720 11908 lto
13737 11907 lto
st
13837 11899 mto
13860 11897 lto
13936 11892 lto
st
14036 11884 mto
14136 11877 lto
st
14236 11870 mto
14280 11867 lto
14335 11863 lto
st
14435 11857 mto
14535 11851 lto
st
14635 11844 mto
14700 11840 lto
14735 11838 lto
st
14834 11831 mto
14840 11831 lto
14934 11826 lto
st
15034 11820 mto
15120 11815 lto
15134 11814 lto
st
15234 11809 mto
15260 11807 lto
15334 11803 lto
st
15433 11798 mto
15533 11792 lto
st
15633 11787 mto
15680 11785 lto
15733 11783 lto
st
15833 11778 mto
15933 11773 lto
st
16033 11768 mto
16100 11765 lto
16133 11764 lto
st
16233 11759 mto
16240 11759 lto
16332 11755 lto
st
16432 11751 mto
16520 11747 lto
16532 11746 lto
st
16632 11742 mto
16660 11741 lto
16732 11738 lto
st
16832 11735 mto
16932 11731 lto
st
17032 11727 mto
17080 11725 lto
17132 11723 lto
st
17232 11720 mto
17332 11716 lto
st
17432 11712 mto
17500 11710 lto
st
3780 16914 mto
0 255 div 0 255 div 255 255 div setrgbcolor
3880 16914 lto
st
3980 16913 mto
4025 16913 lto
4060 16912 lto
4080 16911 lto
st
4179 16901 mto
4188 16900 lto
4200 16898 lto
4234 16891 lto
4266 16883 lto
4277 16880 lto
st
4370 16843 mto
4370 16843 lto
4399 16827 lto
4429 16809 lto
4455 16791 lto
st
4534 16730 mto
4538 16727 lto
4567 16700 lto
4597 16670 lto
4606 16661 lto
st
4674 16587 mto
4683 16577 lto
4716 16539 lto
4738 16511 lto
st
4799 16431 mto
4832 16388 lto
4858 16351 lto
st
4915 16268 mto
4942 16229 lto
4971 16185 lto
st
5026 16102 mto
5037 16084 lto
5040 16079 lto
5080 16017 lto
st
5133 15933 mto
5166 15881 lto
5180 15858 lto
5186 15848 lto
st
5239 15763 mto
5269 15716 lto
5292 15679 lto
st
5345 15594 mto
5398 15509 lto
st
5452 15424 mto
5460 15411 lto
5505 15340 lto
st
5560 15256 mto
5600 15194 lto
5614 15172 lto
st
5670 15089 mto
5726 15006 lto
st
5783 14924 mto
5801 14898 lto
5841 14843 lto
st
5899 14761 mto
5940 14705 lto
5958 14681 lto
st
6018 14601 mto
6020 14599 lto
6080 14523 lto
6080 14522 lto
st
6142 14444 mto
6160 14423 lto
6206 14367 lto
st
6271 14291 mto
6278 14282 lto
6300 14257 lto
6337 14215 lto
st
6404 14141 mto
6419 14125 lto
6440 14102 lto
6472 14068 lto
st
6542 13997 mto
6563 13975 lto
6580 13958 lto
6613 13926 lto
st
6684 13856 mto
6707 13835 lto
6720 13823 lto
6758 13789 lto
st
6833 13722 mto
6851 13706 lto
6860 13697 lto
6908 13657 lto
st
6985 13593 mto
6994 13585 lto
7000 13580 lto
7063 13530 lto
st
7142 13469 mto
7211 13419 lto
7223 13410 lto
st
7305 13353 mto
7355 13319 lto
7388 13297 lto
st
7472 13243 mto
7498 13226 lto
7556 13189 lto
st
7642 13138 mto
7700 13105 lto
7729 13089 lto
st
7817 13040 mto
7840 13028 lto
7905 12994 lto
st
7995 12949 mto
8071 12911 lto
8084 12905 lto
st
8175 12863 mto
8215 12845 lto
8260 12825 lto
8267 12822 lto
st
8359 12783 mto
8359 12783 lto
8400 12766 lto
8451 12745 lto
st
8544 12708 mto
8638 12673 lto
st
8732 12639 mto
8791 12618 lto
8820 12608 lto
8826 12606 lto
st
8921 12575 mto
8936 12570 lto
8960 12562 lto
9016 12544 lto
st
9112 12515 mto
9208 12486 lto
st
9304 12459 mto
9366 12442 lto
9380 12438 lto
9400 12433 lto
st
9497 12407 mto
9517 12402 lto
9520 12401 lto
9594 12383 lto
st
9691 12359 mto
9788 12336 lto
st
9886 12314 mto
9940 12302 lto
9984 12293 lto
st
10081 12272 mto
10180 12252 lto
st
10278 12233 mto
10360 12218 lto
10376 12215 lto
st
10474 12197 mto
10500 12192 lto
10573 12180 lto
st
10671 12163 mto
10770 12147 lto
st
10869 12131 mto
10920 12123 lto
10968 12116 lto
st
11067 12101 mto
11166 12087 lto
st
11265 12073 mto
11340 12063 lto
11364 12060 lto
st
11463 12047 mto
11480 12045 lto
11562 12034 lto
st
11661 12022 mto
11760 12010 lto
11761 12010 lto
st
11860 11999 mto
11900 11994 lto
11959 11988 lto
st
12059 11977 mto
12158 11966 lto
st
12258 11956 mto
12320 11950 lto
12357 11947 lto
st
12457 11937 mto
12460 11937 lto
12556 11928 lto
st
12656 11919 mto
12740 11911 lto
12756 11910 lto
st
12855 11901 mto
12880 11899 lto
12955 11893 lto
st
13055 11885 mto
13154 11877 lto
st
13254 11870 mto
13300 11866 lto
13354 11862 lto
st
13453 11855 mto
13553 11848 lto
st
13653 11841 mto
13720 11836 lto
13753 11834 lto
st
13853 11827 mto
13860 11827 lto
13952 11821 lto
st
14052 11815 mto
14140 11810 lto
14152 11809 lto
st
14252 11804 mto
14280 11802 lto
14352 11798 lto
st
14451 11792 mto
14551 11786 lto
st
14651 11781 mto
14700 11779 lto
14751 11776 lto
st
14851 11770 mto
14951 11765 lto
st
15051 11761 mto
15120 11758 lto
15151 11756 lto
st
15250 11751 mto
15260 11751 lto
15350 11747 lto
st
15450 11743 mto
15540 11739 lto
15550 11739 lto
st
15650 11734 mto
15680 11733 lto
15750 11730 lto
st
15850 11726 mto
15950 11722 lto
st
16050 11718 mto
16100 11716 lto
16150 11714 lto
st
16250 11711 mto
16350 11707 lto
st
16449 11704 mto
16520 11701 lto
16549 11700 lto
st
16649 11696 mto
16660 11696 lto
16749 11693 lto
st
16849 11690 mto
16940 11687 lto
16949 11687 lto
st
17049 11684 mto
17080 11683 lto
17149 11681 lto
st
17249 11677 mto
17349 11674 lto
st
17449 11671 mto
17500 11670 lto
st
3780 16111 mto
0 255 div 128 255 div 0 255 div setrgbcolor
3880 16111 lto
st
3980 16110 mto
4035 16110 lto
4060 16109 lto
4080 16108 lto
st
4180 16101 mto
4199 16099 lto
4200 16098 lto
4237 16092 lto
4272 16084 lto
4278 16082 lto
st
4372 16051 mto
4403 16036 lto
4435 16020 lto
4461 16005 lto
st
4543 15948 mto
4573 15924 lto
4605 15897 lto
4620 15883 lto
st
4691 15814 mto
4721 15783 lto
4757 15744 lto
4760 15741 lto
st
4824 15665 mto
4836 15651 lto
4877 15600 lto
4887 15587 lto
st
4949 15508 mto
4995 15447 lto
5009 15428 lto
st
5068 15347 mto
5101 15302 lto
5126 15266 lto
st
5185 15185 mto
5243 15104 lto
st
5301 15022 mto
5320 14996 lto
5359 14941 lto
st
5418 14860 mto
5431 14841 lto
5460 14801 lto
5476 14779 lto
st
5536 14698 mto
5541 14691 lto
5595 14618 lto
st
5656 14538 mto
5669 14521 lto
5717 14459 lto
st
5779 14381 mto
5804 14349 lto
5842 14303 lto
st
5906 14226 mto
5943 14183 lto
5971 14150 lto
st
6037 14075 mto
6082 14025 lto
6104 14001 lto
st
6172 13928 mto
6223 13876 lto
6242 13857 lto
st
6313 13786 mto
6364 13736 lto
6385 13716 lto
st
6458 13648 mto
6505 13606 lto
6532 13582 lto
st
6608 13516 mto
6646 13484 lto
6685 13452 lto
st
6763 13390 mto
6788 13371 lto
6843 13330 lto
st
6924 13270 mto
6931 13265 lto
7000 13217 lto
7006 13213 lto
st
7089 13157 mto
7140 13124 lto
7173 13104 lto
st
7258 13051 mto
7280 13038 lto
7344 13000 lto
st
7431 12951 mto
7503 12912 lto
7519 12904 lto
st
7608 12858 mto
7647 12838 lto
7698 12813 lto
st
7788 12771 mto
7790 12770 lto
7840 12747 lto
7879 12730 lto
st
7971 12691 mto
7980 12687 lto
8064 12652 lto
st
8157 12616 mto
8222 12591 lto
8250 12581 lto
st
8344 12547 mto
8366 12539 lto
8400 12527 lto
8439 12514 lto
st
8534 12483 mto
8540 12481 lto
8629 12453 lto
st
8725 12424 mto
8800 12402 lto
8820 12396 lto
8821 12396 lto
st
8918 12370 mto
8946 12362 lto
8960 12358 lto
9014 12344 lto
st
9111 12318 mto
9208 12295 lto
st
9305 12272 mto
9380 12255 lto
9403 12250 lto
st
9501 12229 mto
9520 12225 lto
9599 12209 lto
st
9697 12189 mto
9795 12170 lto
st
9893 12152 mto
9940 12143 lto
9992 12134 lto
st
10090 12117 mto
10189 12100 lto
st
10288 12085 mto
10360 12074 lto
10386 12070 lto
st
10485 12055 mto
10500 12053 lto
10584 12041 lto
st
10683 12027 mto
10780 12014 lto
10782 12014 lto
st
10882 12001 mto
10920 11996 lto
10981 11989 lto
st
11080 11977 mto
11179 11965 lto
st
11279 11954 mto
11340 11947 lto
11378 11943 lto
st
11478 11933 mto
11480 11933 lto
11577 11923 lto
st
11677 11913 mto
11760 11905 lto
11776 11903 lto
st
11876 11894 mto
11900 11892 lto
11975 11886 lto
st
12075 11877 mto
12175 11868 lto
st
12274 11861 mto
12320 11857 lto
12374 11853 lto
st
12474 11845 mto
12573 11837 lto
st
12673 11830 mto
12740 11825 lto
12773 11823 lto
st
12873 11816 mto
12880 11816 lto
12973 11809 lto
st
13072 11803 mto
13160 11798 lto
13172 11797 lto
st
13272 11791 mto
13300 11789 lto
13372 11785 lto
st
13472 11779 mto
13571 11773 lto
st
13671 11768 mto
13720 11765 lto
13771 11762 lto
st
13871 11757 mto
13971 11752 lto
st
14071 11747 mto
14140 11744 lto
14171 11743 lto
st
14271 11738 mto
14280 11738 lto
14370 11733 lto
st
14470 11729 mto
14560 11725 lto
14570 11725 lto
st
14670 11720 mto
14700 11719 lto
14770 11716 lto
st
14870 11713 mto
14970 11708 lto
st
15070 11705 mto
15120 11703 lto
15170 11701 lto
st
15270 11697 mto
15370 11694 lto
st
15470 11691 mto
15540 11688 lto
15570 11687 lto
st
15669 11683 mto
15680 11683 lto
15769 11680 lto
st
15869 11677 mto
15960 11674 lto
15969 11674 lto
st
16069 11671 mto
16100 11670 lto
16169 11668 lto
st
16269 11665 mto
16369 11662 lto
st
16469 11659 mto
16520 11658 lto
16569 11657 lto
st
16669 11654 mto
16769 11651 lto
st
16869 11649 mto
16940 11647 lto
16969 11646 lto
st
17069 11643 mto
17080 11643 lto
17169 11641 lto
st
17269 11639 mto
17360 11637 lto
17369 11637 lto
st
17469 11635 mto
17500 11634 lto
st
3780 14908 mto
255 255 div 128 255 div 0 255 div setrgbcolor
3880 14908 lto
st
3980 14908 mto
4059 14907 lto
4060 14907 lto
4080 14906 lto
st
4180 14901 mto
4200 14899 lto
4244 14894 lto
4279 14888 lto
st
4376 14864 mto
4377 14864 lto
4414 14852 lto
4450 14838 lto
4470 14829 lto
st
4558 14784 mto
4587 14767 lto
4620 14746 lto
4643 14730 lto
st
4723 14670 mto
4734 14662 lto
4760 14640 lto
4800 14606 lto
st
4874 14539 mto
4893 14522 lto
4900 14515 lto
4946 14470 lto
st
5017 14400 mto
5040 14376 lto
5087 14328 lto
st
5156 14256 mto
5180 14231 lto
5225 14183 lto
st
5294 14111 mto
5320 14083 lto
5363 14038 lto
st
5432 13966 mto
5444 13954 lto
5460 13937 lto
5502 13894 lto
st
5572 13823 mto
5600 13795 lto
5643 13753 lto
st
5715 13683 mto
5740 13659 lto
5787 13614 lto
st
5861 13547 mto
5880 13529 lto
5935 13480 lto
st
6011 13415 mto
6020 13407 lto
6088 13351 lto
st
6166 13288 mto
6232 13236 lto
6245 13227 lto
st
6325 13167 mto
6372 13133 lto
6407 13109 lto
st
6489 13052 mto
6514 13035 lto
6573 12998 lto
st
6657 12944 mto
6720 12907 lto
6743 12893 lto
st
6830 12844 mto
6860 12827 lto
6918 12796 lto
st
7006 12749 mto
7085 12710 lto
7096 12705 lto
st
7186 12662 mto
7229 12642 lto
7277 12620 lto
st
7369 12581 mto
7371 12580 lto
7420 12560 lto
7462 12543 lto
st
7555 12506 mto
7560 12504 lto
7648 12472 lto
st
7743 12438 mto
7803 12417 lto
7837 12406 lto
st
7932 12375 mto
7949 12370 lto
7980 12360 lto
8028 12346 lto
st
8124 12318 mto
8220 12291 lto
st
8317 12265 mto
8384 12248 lto
8400 12244 lto
8414 12241 lto
st
8511 12217 mto
8526 12213 lto
8540 12210 lto
8608 12194 lto
st
8706 12172 mto
8804 12151 lto
st
8902 12132 mto
8960 12120 lto
9000 12112 lto
st
9098 12093 mto
9100 12093 lto
9197 12076 lto
st
9295 12060 mto
9380 12045 lto
9394 12043 lto
st
9493 12027 mto
9520 12023 lto
9591 12012 lto
st
9690 11998 mto
9789 11984 lto
st
9889 11971 mto
9940 11964 lto
9988 11958 lto
st
10087 11946 mto
10186 11934 lto
st
10286 11923 mto
10360 11914 lto
10385 11911 lto
st
10484 11901 mto
10500 11899 lto
10584 11891 lto
st
10683 11881 mto
10780 11872 lto
10783 11872 lto
st
10883 11862 mto
10920 11859 lto
10982 11854 lto
st
11082 11845 mto
11181 11837 lto
st
11281 11829 mto
11340 11824 lto
11381 11821 lto
st
11481 11813 mto
11580 11806 lto
st
11680 11799 mto
11760 11794 lto
11780 11793 lto
st
11880 11785 mto
11900 11784 lto
11979 11779 lto
st
12079 11773 mto
12179 11767 lto
st
12279 11761 mto
12320 11759 lto
12379 11756 lto
st
12479 11750 mto
12578 11745 lto
st
12678 11740 mto
12740 11737 lto
12778 11735 lto
st
12878 11730 mto
12880 11730 lto
12978 11726 lto
st
13078 11721 mto
13160 11717 lto
13178 11716 lto
st
13278 11712 mto
13300 11711 lto
13378 11708 lto
st
13477 11704 mto
13577 11700 lto
st
13677 11696 mto
13720 11694 lto
13777 11692 lto
st
13877 11688 mto
13977 11685 lto
st
14077 11682 mto
14140 11680 lto
14177 11679 lto
st
14277 11675 mto
14280 11675 lto
14377 11672 lto
st
14477 11668 mto
14560 11666 lto
14577 11666 lto
st
14677 11663 mto
14700 11662 lto
14777 11660 lto
st
14877 11657 mto
14977 11654 lto
st
15077 11651 mto
15120 11650 lto
15177 11649 lto
st
15277 11647 mto
15376 11644 lto
st
15476 11641 mto
15540 11640 lto
15576 11639 lto
st
15676 11637 mto
15680 11637 lto
15776 11634 lto
st
15876 11632 mto
15960 11630 lto
15976 11630 lto
st
16076 11628 mto
16100 11627 lto
16176 11625 lto
st
16276 11623 mto
16376 11622 lto
st
16476 11620 mto
16520 11619 lto
16576 11618 lto
st
16676 11616 mto
16776 11614 lto
st
16876 11612 mto
16940 11611 lto
16976 11610 lto
st
17076 11609 mto
17080 11609 lto
17176 11607 lto
st
17276 11605 mto
17360 11604 lto
17376 11604 lto
st
17476 11602 mto
17500 11602 lto
st
3780 13313 mto
0 255 div 0 255 div 0 255 div setrgbcolor
3880 13313 lto
st
3980 13313 mto
4060 13313 lto
4080 13313 lto
st
4180 13311 mto
4200 13310 lto
4268 13306 lto
4280 13305 lto
st
4379 13294 mto
4395 13292 lto
4449 13284 lto
4478 13278 lto
st
4575 13255 mto
4584 13253 lto
4620 13242 lto
4671 13225 lto
st
4764 13190 mto
4815 13169 lto
4856 13151 lto
st
4946 13108 mto
4963 13100 lto
5032 13064 lto
5035 13062 lto
st
5124 13016 mto
5180 12985 lto
5212 12968 lto
st
5299 12919 mto
5320 12907 lto
5386 12870 lto
st
5474 12822 mto
5562 12775 lto
st
5650 12728 mto
5713 12695 lto
5739 12682 lto
st
5829 12637 mto
5843 12630 lto
5880 12612 lto
5919 12594 lto
st
6009 12551 mto
6020 12546 lto
6100 12510 lto
st
6192 12471 mto
6258 12444 lto
6285 12433 lto
st
6378 12397 mto
6398 12389 lto
6440 12374 lto
6472 12362 lto
st
6566 12329 mto
6580 12324 lto
6661 12297 lto
st
6756 12267 mto
6827 12245 lto
6852 12237 lto
st
6948 12210 mto
6971 12203 lto
7000 12195 lto
7044 12183 lto
st
7141 12158 mto
7238 12134 lto
st
7336 12111 mto
7407 12095 lto
7420 12092 lto
7433 12089 lto
st
7531 12069 mto
7547 12066 lto
7560 12063 lto
7629 12049 lto
st
7727 12031 mto
7826 12013 lto
st
7924 11996 mto
7980 11987 lto
8023 11980 lto
st
8122 11965 mto
8221 11950 lto
st
8320 11936 mto
8400 11925 lto
8419 11923 lto
st
8518 11910 mto
8540 11907 lto
8617 11898 lto
st
8716 11886 mto
8816 11874 lto
st
8915 11864 mto
8960 11859 lto
9015 11854 lto
st
9114 11845 mto
9214 11835 lto
st
9313 11826 mto
9380 11820 lto
9413 11817 lto
st
9513 11810 mto
9520 11809 lto
9612 11802 lto
st
9712 11794 mto
9800 11788 lto
9812 11787 lto
st
9912 11780 mto
9940 11778 lto
10011 11773 lto
st
10111 11767 mto
10211 11761 lto
st
10311 11755 mto
10360 11752 lto
10411 11749 lto
st
10511 11743 mto
10610 11738 lto
st
10710 11733 mto
10780 11730 lto
10810 11728 lto
st
10910 11723 mto
10920 11723 lto
11010 11719 lto
st
11110 11715 mto
11200 11711 lto
11210 11711 lto
st
11310 11706 mto
11340 11705 lto
11410 11702 lto
st
11510 11698 mto
11609 11694 lto
st
11709 11691 mto
11760 11689 lto
11809 11688 lto
st
11909 11685 mto
12009 11681 lto
st
12109 11678 mto
12180 11676 lto
12209 11675 lto
st
12309 11672 mto
12320 11672 lto
12409 11669 lto
st
12509 11667 mto
12600 11664 lto
12609 11664 lto
st
12709 11661 mto
12740 11660 lto
12809 11659 lto
st
12909 11656 mto
13009 11653 lto
st
13109 11651 mto
13160 11650 lto
13209 11649 lto
st
13309 11647 mto
13409 11645 lto
st
13509 11643 mto
13580 11641 lto
13609 11640 lto
st
13709 11638 mto
13720 11638 lto
13809 11637 lto
st
13909 11635 mto
14000 11633 lto
14009 11633 lto
st
14109 11631 mto
14140 11631 lto
14209 11630 lto
st
14309 11628 mto
14409 11626 lto
st
14509 11625 mto
14560 11624 lto
14609 11623 lto
st
14709 11622 mto
14809 11620 lto
st
14909 11619 mto
14980 11618 lto
15009 11618 lto
st
15109 11616 mto
15120 11616 lto
15209 11615 lto
st
15308 11613 mto
15400 11612 lto
15408 11612 lto
st
15508 11611 mto
15540 11611 lto
15608 11610 lto
st
15708 11609 mto
15808 11607 lto
st
15908 11606 mto
15960 11606 lto
16008 11605 lto
st
16108 11604 mto
16208 11603 lto
st
16308 11603 mto
16380 11602 lto
16408 11602 lto
st
16508 11600 mto
16520 11600 lto
16608 11599 lto
st
16708 11599 mto
16800 11598 lto
16808 11598 lto
st
16908 11596 mto
16940 11596 lto
17008 11596 lto
st
17108 11595 mto
17208 11594 lto
st
17308 11593 mto
17360 11593 lto
17408 11593 lto
st
255 255 div 0 255 div 0 255 div setrgbcolor
[] 0 60 0 0 10 lsty
13200 14776 mto
14800 14776 lto
st
0 255 div 0 255 div 255 255 div setrgbcolor
[] 0 40 0 0 10 lsty
13200 15452 mto
14800 15452 lto
st
0 255 div 128 255 div 0 255 div setrgbcolor
13200 16128 mto
14800 16128 lto
st
255 255 div 128 255 div 0 255 div setrgbcolor
13200 16804 mto
14800 16804 lto
st
0 255 div 0 255 div 0 255 div setrgbcolor
13200 17480 mto
14800 17480 lto
st
255 255 div 0 255 div 0 255 div setrgbcolor
[100 100 ] 0 40 0 0 10 lsty
13200 18156 mto
14800 18156 lto
st
0 255 div 0 255 div 255 255 div setrgbcolor
13200 18832 mto
14800 18832 lto
st
0 255 div 128 255 div 0 255 div setrgbcolor
13200 19508 mto
14800 19508 lto
st
255 255 div 128 255 div 0 255 div setrgbcolor
13200 20184 mto
14800 20184 lto
st
0 255 div 0 255 div 0 255 div setrgbcolor
13200 20860 mto
14800 20860 lto
st
12200 23400 mto
0 0 (T) ashow
1800 15400 mto
[4.32014e-14 -705.556 -705.556 -4.32014e-14 0 0] /Helvetica-ISOLatin1 F
0 0 (S/N) ashow
172 0 rmto
[3.0241e-14 -493.889 -493.889 -3.0241e-14 0 0] /Helvetica-ISOLatin1 F
0 0 (spin) ashow
-172 0 rmto
15082 14964 mto
[564.444 -0 -0 -564.444 0 0] /Helvetica-ISOLatin1 F
0 0 (x=0.0) ashow
15082 15640 mto
0 0 (x=0.1) ashow
15082 16316 mto
0 0 (x=0.2) ashow
15082 16992 mto
0 0 (x=0.3) ashow
15082 17668 mto
0 0 (x=0.4) ashow
15082 18344 mto
0 0 (x=0.5) ashow
15082 19020 mto
0 0 (x=0.6) ashow
15082 19696 mto
0 0 (x=0.7) ashow
15082 20372 mto
0 0 (x=0.8) ashow
15082 21048 mto
0 0 (x=0.9) ashow
EndPage
PageRestore
showpage
end
%%Trailer
%%DocumentNeededResources: 
% font /Helvetica-ISOLatin1
%%EOF
