%!PS-Adobe-3.0 EPSF-3.0
%%Creator: GRA2PS 2.03.20
%%Title: Ngraph
%%CreationDate: 8-16-2016 1:25
%%Pages: 1
%%DocumentNeededResources: (atend)
%%BoundingBox: 32 170 501 534
%%EndComments
%
% Ngraph.ps 2.03.20
%
%%BeginProlog
%
/NgraphDict 100 dict def
NgraphDict begin
%
% Procedure Definition
%
/PageSave {/Sobject save def} bind def
/PageRestore {Sobject restore} bind def
/@Paper {
  72 2540 div -72 2540 div scale % 1unit = 0.01mm
  ANGLE rotate
  0 bottom translate                    % origin is (0 bottom)
} bind def
/BeginPage {@Paper gsave} bind def
/EndPage {grestore} bind def
/box {
  moveto
  1 index 0 rlineto
  0 exch rlineto
  neg 0 rlineto
  closepath } bind def
/view {
  mark
  currentfont
  currentmiterlimit
  currentlinejoin
  currentlinecap
  currentlinewidth
  currentdash
  currentgray
  currentrgbcolor
  grestore gsave
  counttomark dup 6 add exch roll
  pop
  5 3 roll
  translate
  1 eq { 0 0 box clip newpath } { pop pop } ifelse
  setrgbcolor
  setgray
  setdash
  setlinewidth
  setlinecap
  setlinejoin
  setmiterlimit
  setfont
 } bind def
/viewc {
  mark
  currentfont
  currentmiterlimit
  currentlinejoin
  currentlinecap
  currentlinewidth
  currentdash
  currentrgbcolor
  currentgray
  grestore gsave
  counttomark dup 6 add exch roll
  pop
  5 3 roll
  translate
  1 eq { 0 0 box clip newpath } { pop pop } ifelse
  setgray
  setrgbcolor
  setdash
  setlinewidth
  setlinecap
  setlinejoin
  setmiterlimit
  setfont
 } bind def
/F { findfont exch makefont setfont } bind def
/lsty {
  setmiterlimit
  setlinejoin
  setlinecap
  setlinewidth
  setdash } bind def
/mto /moveto load def
/rmto /rmoveto load def
/lto /lineto load def
/rlto /rlineto load def
/st /stroke load def
/l { moveto lineto stroke } bind def
/e { 
  gsave
  newpath
  translate
  0 index 1 exch div 5 1 roll
  1 index 1 exch div 6 1 roll
  scale
  0 0 1 5 3 roll exch 100 div exch 100 div arc
  scale
  stroke
  grestore } bind def
/fe {
  gsave
  newpath
  translate
  0 index 1 exch div 5 1 roll
  1 index 1 exch div 6 1 roll
  scale
  0 0 moveto 0 0 1 5 3 roll exch 100 div exch 100 div arc closepath
  scale
  fill 
  grestore } bind def
/ae {
  gsave
  newpath
  translate
  0 index 1 exch div 5 1 roll
  1 index 1 exch div 6 1 roll
  scale
  0 0 1 5 3 roll exch 100 div exch 100 div arc closepath
  scale
  fill
  grestore } bind def
/pix {
  newpath 20 0 360 arc closepath fill } bind def
/rec {
  box stroke } bind def
/bar {
  box fill } bind def
/lines {
  1 sub
  3 1 roll
  moveto
  {lineto} repeat } bind def
/poly {
  1 sub
  3 1 roll
  moveto
  {lineto} repeat closepath } bind def
/rpo { lines stroke } bind def
/dpo { poly stroke } bind def
/fpo { poly fill } bind def
/epo { poly eofill } bind def
/ashowB {
  3 copy 3 copy 3 copy
  gsave BOLDS 0 rmoveto ashow grestore
  gsave 0 BOLDS rmoveto ashow grestore
  gsave BOLDS BOLDS rmoveto ashow grestore
  ashow } bind def
end
%
% ISOLatin1Encoding
%
/NGPLatin1Encoding 256 array def
0 1 255 {NGPLatin1Encoding exch /.notdef put} for
NGPLatin1Encoding
dup 8#101 /A put          dup 8#306 /AE put         dup 8#301 /Aacute put
dup 8#302 /Acircumflex put dup 8#304 /Adieresis put dup 8#300 /Agrave put
dup 8#305 /Aring put      dup 8#303 /Atilde put     dup 8#102 /B put
dup 8#103 /C put          dup 8#307 /Ccedilla put   dup 8#104 /D put
dup 8#105 /E put          dup 8#311 /Eacute put     dup 8#312 /Ecircumflex put
dup 8#313 /Edieresis put  dup 8#310 /Egrave put     dup 8#320 /Eth put
dup 8#106 /F put          dup 8#107 /G put          dup 8#110 /H put
dup 8#111 /I put          dup 8#315 /Iacute put     dup 8#316 /Icircumflex put
dup 8#317 /Idieresis put  dup 8#314 /Igrave put     dup 8#112 /J put
dup 8#113 /K put          dup 8#114 /L put          dup 8#115 /M put
dup 8#116 /N put          dup 8#321 /Ntilde put     dup 8#117 /O put
dup 8#323 /Oacute put     dup 8#324 /Ocircumflex put dup 8#326 /Odieresis put
dup 8#322 /Ograve put     dup 8#330 /Oslash put     dup 8#325 /Otilde put
dup 8#120 /P put          dup 8#121 /Q put          dup 8#122 /R put
dup 8#123 /S put          dup 8#124 /T put          dup 8#336 /Thorn put
dup 8#125 /U put          dup 8#332 /Uacute put     dup 8#333 /Ucircumflex put
dup 8#334 /Udieresis put  dup 8#331 /Ugrave put     dup 8#126 /V put
dup 8#127 /W put          dup 8#130 /X put          dup 8#131 /Y put
dup 8#335 /Yacute put     dup 8#132 /Z put          dup 8#141 /a put
dup 8#341 /aacute put     dup 8#342 /acircumflex put dup 8#264 /acute put
dup 8#344 /adieresis put  dup 8#346 /ae put         dup 8#340 /agrave put
dup 8#046 /ampersand put  dup 8#345 /aring put      dup 8#136 /asciicircum put
dup 8#176 /asciitilde put dup 8#052 /asterisk put   dup 8#100 /at put
dup 8#343 /atilde put     dup 8#142 /b put          dup 8#134 /backslash put
dup 8#174 /bar put        dup 8#173 /braceleft put  dup 8#175 /braceright put
dup 8#133 /bracketleft put dup 8#135 /bracketright put dup 8#246 /brokenbar put
dup 8#143 /c put          dup 8#347 /ccedilla put   dup 8#242 /cent put
dup 8#072 /colon put      dup 8#054 /comma put      dup 8#251 /copyright put
dup 8#244 /currency put   dup 8#144 /d put          dup 8#260 /degree put
dup 8#367 /divide put     dup 8#044 /dollar put     dup 8#145 /e put
dup 8#351 /eacute put     dup 8#352 /ecircumflex put dup 8#353 /edieresis put
dup 8#350 /egrave put     dup 8#070 /eight put      dup 8#075 /equal put
dup 8#360 /eth put        dup 8#041 /exclam put     dup 8#241 /exclamdown put
dup 8#146 /f put          dup 8#065 /five put       dup 8#064 /four put
dup 8#147 /g put          dup 8#337 /germandbls put dup 8#076 /greater put
dup 8#253 /guillemotleft put dup 8#273 /guillemotright put dup 8#150 /h put
dup 8#255 /hyphen put     dup 8#151 /i put          dup 8#355 /iacute put
dup 8#356 /icircumflex put dup 8#357 /idieresis put dup 8#354 /igrave put
dup 8#152 /j put          dup 8#153 /k put          dup 8#154 /l put
dup 8#074 /less put       dup 8#254 /logicalnot put dup 8#155 /m put
dup 8#055 /minus put      dup 8#265 /mu put         dup 8#327 /multiply put
dup 8#156 /n put          dup 8#071 /nine put       dup 8#361 /ntilde put
dup 8#043 /numbersign put dup 8#157 /o put          dup 8#363 /oacute put
dup 8#364 /ocircumflex put dup 8#366 /odieresis put dup 8#362 /ograve put
dup 8#061 /one put        dup 8#275 /onehalf put    dup 8#274 /onequarter put
dup 8#271 /onesuperior put dup 8#252 /ordfeminine put dup 8#272 /ordmasculine put
dup 8#370 /oslash put     dup 8#365 /otilde put     dup 8#160 /p put
dup 8#266 /paragraph put  dup 8#050 /parenleft put  dup 8#051 /parenright put
dup 8#045 /percent put    dup 8#056 /period put     dup 8#267 /periodcentered put
dup 8#053 /plus put       dup 8#261 /plusminus put  dup 8#161 /q put
dup 8#077 /question put   dup 8#277 /questiondown put dup 8#042 /quotedbl put
dup 8#140 /quoteleft put  dup 8#047 /quoteright put dup 8#162 /r put
dup 8#256 /registered put dup 8#163 /s put          dup 8#247 /section put
dup 8#073 /semicolon put  dup 8#067 /seven put      dup 8#066 /six put
dup 8#057 /slash put      dup 8#040 /space put      dup 8#243 /sterling put
dup 8#164 /t put          dup 8#376 /thorn put      dup 8#063 /three put
dup 8#276 /threequarters put dup 8#263 /threesuperior put dup 8#062 /two put
dup 8#262 /twosuperior put dup 8#165 /u put         dup 8#372 /uacute put
dup 8#373 /ucircumflex put dup 8#374 /udieresis put dup 8#371 /ugrave put
dup 8#137 /underscore put dup 8#166 /v put          dup 8#167 /w put
dup 8#170 /x put          dup 8#171 /y put          dup 8#375 /yacute put
dup 8#377 /ydieresis put  dup 8#245 /yen put        dup 8#172 /z put
dup 8#060 /zero put       dup 8#250 /dieresis put   dup 8#257 /macron put
dup 8#270 /cedilla put
% for ISOLatin1Encoding
%dup 8#220 /dotlessi put   dup 8#221 /grave put      dup 8#222 /acute put
%dup 8#223 /circumflex put dup 8#224 /tilde put      dup 8#225 /macron put
%dup 8#226 /breve put      dup 8#227 /dotaccent put  dup 8#230 /dieresis put
%dup 8#232 /ring put       dup 8#233 /cedilla put    dup 8#235 /hungarumlaut put
%dup 8#236 /ogonek put     dup 8#237 /caron put
% for Windows
dup 8#200 /colonmonetary put dup 8#202 /comma put   dup 8#203 /florin put
dup 8#204 /quotedblbase put dup 8#205 /ellipsis put dup 8#206 /dagger put
dup 8#207 /daggerdbl put  dup 8#210 /circumflex put dup 8#211 /perthousand put
dup 8#212 /Scaron put    dup 8#213 /guilsinglleft put dup 8#214 /OE put
dup 8#221 /quoteleft put dup 8#222 /quoteright put   dup 8#223 /quotedblleft put
dup 8#224 /quotedblright put dup 8#225 /bullet put dup 8#226 /hyphen put
dup 8#227 /emdash put  dup 8#230 /hungarumlaut put dup 8#231 /trademark put
dup 8#232 /scaron put  dup 8#233 /guilsinglright put dup 8#234 /oe put
dup 8#237 /Ydieresis put
pop
/ReEncode {
  findfont
  dup length dict begin
    {1 index /FID ne {def} {pop pop} ifelse} forall
    /Encoding NGPLatin1Encoding def
    currentdict
  end
  definefont
  pop
} bind def
/Times-Roman-ISOLatin1 /Times-Roman ReEncode
/Times-Bold-ISOLatin1 /Times-Bold ReEncode
/Times-Italic-ISOLatin1 /Times-Italic ReEncode
/Times-BoldItalic-ISOLatin1 /Times-BoldItalic ReEncode
/Helvetica-ISOLatin1 /Helvetica ReEncode
/Helvetica-Bold-ISOLatin1 /Helvetica-Bold ReEncode
/Helvetica-Oblique-ISOLatin1 /Helvetica-Oblique ReEncode
/Helvetica-BoldOblique-ISOLatin1 /Helvetica-BoldOblique ReEncode
/Courier-ISOLatin1 /Courier ReEncode
/Courier-Bold-ISOLatin1 /Courier-Bold ReEncode
/Courier-Oblique-ISOLatin1 /Courier-Oblique ReEncode
/Courier-BoldOblique-ISOLatin1 /Courier-BoldOblique ReEncode
%
%%EndProlog
%%Page: Figure 1
%%BeginPageSetup
/ANGLE 0 def
/bottom -29700 def
NgraphDict begin
PageSave
BeginPage
%%EndPageSetup
0 0 21000 29700 1 viewc
0 255 div 0 255 div 0 255 div setrgbcolor
[] 0 40 2 0 10 lsty
3500 22000 17500 22000 l
[] 0 40 0 0 10 lsty
3500 22000 3500 21700 l
4900 22000 4900 21900 l
6300 22000 6300 21800 l
7700 22000 7700 21900 l
9100 22000 9100 21800 l
10500 22000 10500 21900 l
11900 22000 11900 21800 l
13300 22000 13300 21900 l
14700 22000 14700 21800 l
16100 22000 16100 21900 l
17500 22000 17500 21800 l
3304 22738 mto
%IncludeResource: font /Helvetica-ISOLatin1
[705.556 -0 -0 -705.556 0 0] /Helvetica-ISOLatin1 F
0 0 (0) ashow
8904 22738 mto
0 0 (2) ashow
14504 22738 mto
0 0 (4) ashow
[] 0 40 2 0 10 lsty
3500 22000 3500 11000 l
[] 0 40 0 0 10 lsty
3500 22000 3800 22000 l
3500 21119 3600 21119 l
3500 20239 3600 20239 l
3500 19360 3600 19360 l
3500 18479 3600 18479 l
3500 17599 3700 17599 l
3500 16719 3600 16719 l
3500 15839 3600 15839 l
3500 14959 3600 14959 l
3500 14080 3600 14080 l
3500 13199 3700 13199 l
3500 12319 3600 12319 l
3500 11439 3600 11439 l
3008 22244 mto
0 0 (0) ashow
2420 17843 mto
0 0 (0.1) ashow
2420 13443 mto
0 0 (0.2) ashow
[] 0 40 2 0 10 lsty
3500 11000 17500 11000 l
[] 0 40 0 0 10 lsty
3500 11000 3500 11300 l
4900 11000 4900 11100 l
6300 11000 6300 11200 l
7700 11000 7700 11100 l
9100 11000 9100 11200 l
10500 11000 10500 11100 l
11900 11000 11900 11200 l
13300 11000 13300 11100 l
14700 11000 14700 11200 l
16100 11000 16100 11100 l
17500 11000 17500 11200 l
[] 0 40 2 0 10 lsty
17500 22000 17500 11000 l
[] 0 40 0 0 10 lsty
17500 22000 17200 21999 l
17500 21119 17400 21118 l
17500 20239 17400 20238 l
17500 19360 17400 19359 l
17500 18479 17400 18478 l
17500 17599 17300 17598 l
17500 16719 17400 16718 l
17500 15839 17400 15838 l
17500 14959 17400 14958 l
17500 14080 17400 14079 l
17500 13199 17300 13198 l
17500 12319 17400 12318 l
17500 11439 17400 11438 l
[] 0 60 0 0 10 lsty
3780 22000 mto
255 255 div 0 255 div 0 255 div setrgbcolor
3920 22000 lto
4060 22000 lto
4200 22000 lto
4306 21998 lto
4340 21997 lto
4399 21994 lto
4448 21990 lto
4480 21986 lto
4521 21980 lto
4559 21972 lto
4595 21964 lto
4620 21956 lto
4654 21945 lto
4686 21932 lto
4717 21918 lto
4748 21902 lto
4760 21895 lto
4790 21877 lto
4820 21857 lto
4850 21835 lto
4879 21812 lto
4900 21794 lto
4929 21767 lto
4958 21738 lto
4987 21707 lto
5017 21674 lto
5040 21647 lto
5069 21611 lto
5098 21573 lto
5128 21532 lto
5158 21489 lto
5180 21456 lto
5211 21409 lto
5242 21359 lto
5274 21306 lto
5307 21249 lto
5320 21226 lto
5354 21165 lto
5390 21100 lto
5426 21031 lto
5460 20966 lto
5500 20888 lto
5541 20804 lto
5585 20715 lto
5600 20684 lto
5646 20586 lto
5697 20478 lto
5740 20386 lto
5809 20237 lto
5880 20084 lto
5970 19889 lto
6020 19784 lto
6093 19630 lto
6160 19490 lto
6220 19367 lto
6273 19260 lto
6300 19207 lto
6348 19114 lto
6393 19027 lto
6436 18946 lto
6440 18938 lto
6483 18860 lto
6526 18784 lto
6569 18708 lto
6580 18690 lto
6625 18615 lto
6669 18542 lto
6713 18472 lto
6720 18461 lto
6763 18394 lto
6806 18330 lto
6849 18268 lto
6860 18253 lto
6901 18195 lto
6944 18138 lto
6987 18081 lto
7000 18065 lto
7047 18006 lto
7094 17949 lto
7140 17896 lto
7187 17843 lto
7232 17794 lto
7276 17748 lto
7280 17744 lto
7324 17700 lto
7367 17659 lto
7410 17620 lto
7420 17612 lto
7463 17576 lto
7506 17541 lto
7549 17508 lto
7560 17501 lto
7604 17470 lto
7649 17440 lto
7695 17411 lto
7700 17408 lto
7749 17380 lto
7799 17352 lto
7840 17331 lto
7897 17303 lto
7955 17277 lto
7980 17266 lto
8037 17243 lto
8093 17223 lto
8120 17213 lto
8174 17196 lto
8229 17181 lto
8260 17173 lto
8314 17161 lto
8370 17150 lto
8400 17145 lto
8459 17137 lto
8520 17130 lto
8540 17128 lto
8603 17124 lto
8668 17121 lto
8680 17121 lto
8746 17121 lto
8812 17122 lto
8820 17123 lto
8886 17126 lto
8955 17132 lto
8960 17133 lto
9030 17140 lto
9100 17150 lto
9179 17163 lto
9240 17173 lto
9332 17191 lto
9380 17201 lto
9478 17223 lto
9520 17233 lto
9617 17258 lto
9660 17269 lto
9754 17296 lto
9800 17310 lto
9899 17341 lto
9940 17354 lto
10048 17390 lto
10080 17401 lto
10217 17448 lto
10220 17450 lto
10360 17500 lto
10500 17552 lto
10640 17605 lto
10780 17659 lto
10920 17714 lto
11060 17770 lto
11200 17827 lto
11340 17885 lto
11480 17942 lto
11620 18000 lto
11760 18058 lto
11900 18116 lto
12040 18174 lto
12180 18231 lto
12320 18287 lto
12460 18343 lto
12600 18398 lto
12740 18452 lto
12880 18506 lto
13020 18559 lto
13160 18611 lto
13300 18663 lto
13440 18713 lto
13580 18764 lto
13720 18813 lto
13860 18862 lto
14000 18910 lto
14140 18958 lto
14280 19004 lto
14420 19050 lto
14560 19095 lto
14700 19140 lto
14840 19183 lto
14980 19226 lto
15120 19267 lto
15260 19308 lto
15400 19348 lto
15540 19388 lto
15680 19426 lto
15820 19464 lto
15960 19501 lto
16100 19538 lto
16240 19574 lto
16380 19609 lto
16520 19643 lto
16660 19677 lto
16800 19711 lto
16940 19743 lto
17080 19776 lto
17220 19807 lto
17360 19838 lto
17500 19869 lto
st
[] 0 40 0 0 10 lsty
3780 22000 mto
0 255 div 0 255 div 255 255 div setrgbcolor
3787 22000 lto
st
3858 22000 mto
3903 21999 lto
3920 21998 lto
3948 21995 lto
3973 21992 lto
3995 21988 lto
4015 21982 lto
4034 21976 lto
4052 21968 lto
4060 21964 lto
4078 21954 lto
4095 21943 lto
4112 21929 lto
4129 21915 lto
4146 21899 lto
4162 21881 lto
4177 21862 lto
4193 21841 lto
4200 21831 lto
4216 21808 lto
4231 21782 lto
4247 21754 lto
4263 21724 lto
4279 21693 lto
4295 21659 lto
4312 21622 lto
4328 21584 lto
4340 21554 lto
4356 21514 lto
4372 21471 lto
4389 21426 lto
4405 21378 lto
4423 21326 lto
4441 21272 lto
4459 21214 lto
4478 21152 lto
4480 21148 lto
4501 21079 lto
4522 21007 lto
4544 20931 lto
4567 20849 lto
4592 20762 lto
4617 20669 lto
4620 20659 lto
4647 20558 lto
4678 20446 lto
4712 20317 lto
4753 20160 lto
4760 20135 lto
4818 19917 lto
4867 19736 lto
4900 19613 lto
4940 19468 lto
4976 19337 lto
5010 19216 lto
5040 19111 lto
5070 19008 lto
5098 18911 lto
5125 18822 lto
5151 18737 lto
5176 18657 lto
5180 18646 lto
5204 18572 lto
5228 18497 lto
5254 18421 lto
5281 18342 lto
5310 18260 lto
5320 18231 lto
5353 18139 lto
5384 18055 lto
5413 17977 lto
5440 17905 lto
5460 17854 lto
5486 17788 lto
5513 17722 lto
5541 17656 lto
5570 17590 lto
5600 17523 lto
5600 17523 lto
5633 17451 lto
5665 17382 lto
5697 17315 lto
5729 17250 lto
5740 17230 lto
5771 17170 lto
5802 17111 lto
5835 17052 lto
5869 16992 lto
5880 16973 lto
5916 16912 lto
5950 16856 lto
5983 16803 lto
6015 16754 lto
6020 16747 lto
6052 16700 lto
6084 16654 lto
6117 16611 lto
6149 16569 lto
6160 16556 lto
6191 16519 lto
6223 16482 lto
6257 16445 lto
6293 16407 lto
6300 16399 lto
6342 16358 lto
6384 16317 lto
6427 16279 lto
6440 16267 lto
6483 16231 lto
6524 16198 lto
6564 16167 lto
6580 16156 lto
6619 16128 lto
6659 16103 lto
6700 16079 lto
6720 16068 lto
6760 16047 lto
6801 16027 lto
6845 16008 lto
6860 16001 lto
6910 15982 lto
6959 15965 lto
7000 15952 lto
7048 15939 lto
7097 15927 lto
7140 15919 lto
7187 15912 lto
7235 15906 lto
7280 15902 lto
7331 15900 lto
7384 15899 lto
7420 15900 lto
7480 15902 lto
7540 15906 lto
7560 15908 lto
7618 15915 lto
7678 15924 lto
7700 15928 lto
7764 15940 lto
7829 15954 lto
7840 15957 lto
7908 15974 lto
7975 15993 lto
7980 15994 lto
8044 16014 lto
8112 16037 lto
8120 16040 lto
8193 16066 lto
8260 16092 lto
8364 16133 lto
8400 16147 lto
8491 16186 lto
8540 16208 lto
8619 16244 lto
8680 16274 lto
8758 16313 lto
8820 16345 lto
8928 16402 lto
8960 16419 lto
9100 16495 lto
9240 16573 lto
9373 16649 lto
9380 16653 lto
9520 16734 lto
9660 16816 lto
9800 16897 lto
9940 16978 lto
10080 17059 lto
10220 17140 lto
10360 17221 lto
10500 17301 lto
10640 17381 lto
10780 17460 lto
10920 17539 lto
11060 17617 lto
11200 17693 lto
11340 17769 lto
11480 17844 lto
11620 17918 lto
11760 17990 lto
11900 18061 lto
12040 18131 lto
12180 18199 lto
12320 18265 lto
12460 18330 lto
12600 18394 lto
12740 18457 lto
12880 18519 lto
13020 18579 lto
13160 18639 lto
13300 18697 lto
13440 18754 lto
13580 18810 lto
13720 18865 lto
13860 18919 lto
14000 18972 lto
14140 19023 lto
14280 19073 lto
14420 19122 lto
14560 19170 lto
14700 19217 lto
14840 19263 lto
14980 19308 lto
15120 19352 lto
15260 19395 lto
15400 19437 lto
15540 19478 lto
15680 19518 lto
15820 19557 lto
15960 19596 lto
16100 19633 lto
16240 19670 lto
16380 19706 lto
16520 19742 lto
16660 19776 lto
16800 19810 lto
16940 19844 lto
17080 19876 lto
17220 19908 lto
17360 19939 lto
17500 19970 lto
st
3780 22000 mto
0 255 div 128 255 div 0 255 div setrgbcolor
3782 22000 lto
st
3853 22000 mto
3876 21999 lto
3909 21997 lto
3920 21996 lto
3941 21993 lto
3960 21989 lto
3978 21985 lto
3994 21979 lto
4010 21972 lto
4024 21964 lto
4038 21955 lto
4052 21944 lto
4060 21937 lto
4074 21924 lto
4087 21910 lto
4100 21894 lto
4113 21876 lto
4125 21857 lto
4138 21836 lto
4150 21814 lto
4162 21791 lto
4174 21766 lto
4185 21740 lto
4197 21712 lto
4200 21704 lto
4212 21673 lto
4223 21640 lto
4235 21605 lto
4247 21569 lto
4259 21529 lto
4271 21488 lto
4283 21445 lto
4296 21399 lto
4308 21352 lto
4320 21302 lto
4333 21249 lto
4340 21218 lto
4352 21164 lto
4364 21108 lto
4377 21049 lto
4390 20987 lto
4403 20923 lto
4416 20855 lto
4430 20784 lto
4444 20709 lto
4458 20631 lto
4473 20549 lto
4480 20511 lto
4496 20421 lto
4512 20326 lto
4529 20226 lto
4547 20120 lto
4566 20009 lto
4585 19890 lto
4606 19762 lto
4620 19675 lto
4644 19526 lto
4670 19359 lto
4701 19165 lto
4739 18923 lto
4760 18794 lto
4787 18622 lto
4812 18468 lto
4836 18326 lto
4858 18194 lto
4878 18070 lto
4898 17953 lto
4900 17942 lto
4920 17826 lto
4940 17713 lto
4960 17604 lto
4979 17498 lto
4998 17395 lto
5016 17296 lto
5035 17200 lto
5040 17175 lto
5058 17082 lto
5077 16990 lto
5096 16899 lto
5114 16809 lto
5133 16721 lto
5153 16633 lto
5172 16546 lto
5180 16512 lto
5200 16425 lto
5220 16340 lto
5240 16256 lto
5261 16175 lto
5281 16096 lto
5301 16018 lto
5320 15947 lto
5340 15876 lto
5359 15807 lto
5378 15741 lto
5397 15678 lto
5415 15618 lto
5434 15560 lto
5452 15505 lto
5460 15481 lto
5477 15431 lto
5495 15381 lto
5513 15332 lto
5532 15284 lto
5551 15237 lto
5570 15190 lto
5590 15144 lto
5600 15121 lto
5621 15075 lto
5643 15029 lto
5665 14984 lto
5688 14938 lto
5712 14893 lto
5736 14848 lto
5740 14841 lto
5767 14794 lto
5792 14751 lto
5817 14711 lto
5841 14674 lto
5864 14640 lto
5880 14617 lto
5902 14588 lto
5925 14559 lto
5948 14532 lto
5972 14506 lto
5997 14480 lto
6020 14457 lto
6048 14432 lto
6076 14409 lto
6103 14388 lto
6130 14369 lto
6157 14352 lto
6160 14351 lto
6185 14337 lto
6211 14324 lto
6238 14313 lto
6267 14303 lto
6297 14293 lto
6300 14292 lto
6336 14283 lto
6373 14275 lto
6411 14269 lto
6440 14266 lto
6479 14264 lto
6516 14263 lto
6554 14264 lto
6580 14267 lto
6616 14271 lto
6653 14278 lto
6690 14286 lto
6720 14294 lto
6755 14306 lto
6793 14319 lto
6834 14336 lto
6860 14346 lto
6922 14373 lto
6981 14401 lto
7000 14411 lto
7055 14439 lto
7107 14468 lto
7140 14487 lto
7185 14515 lto
7235 14547 lto
7280 14577 lto
7361 14632 lto
7420 14674 lto
7491 14726 lto
7555 14775 lto
7560 14779 lto
7617 14824 lto
7680 14875 lto
7700 14892 lto
7773 14954 lto
7840 15011 lto
7980 15132 lto
8120 15252 lto
8260 15372 lto
8400 15492 lto
8532 15607 lto
8540 15614 lto
8664 15723 lto
8680 15737 lto
8820 15861 lto
8960 15984 lto
9100 16105 lto
9240 16225 lto
9380 16343 lto
9519 16459 lto
9520 16460 lto
9650 16566 lto
9660 16574 lto
9794 16681 lto
9800 16686 lto
9928 16787 lto
9940 16796 lto
10080 16904 lto
10220 17010 lto
10360 17115 lto
10490 17210 lto
10500 17217 lto
10623 17305 lto
10640 17317 lto
10752 17395 lto
10780 17414 lto
10899 17495 lto
10920 17508 lto
11039 17586 lto
11060 17600 lto
11188 17682 lto
11200 17689 lto
11336 17774 lto
11340 17777 lto
11480 17862 lto
11620 17946 lto
11760 18028 lto
11900 18107 lto
12040 18185 lto
12180 18261 lto
12320 18335 lto
12460 18407 lto
12600 18478 lto
12740 18546 lto
12880 18613 lto
13020 18678 lto
13160 18741 lto
13300 18803 lto
13440 18863 lto
13580 18922 lto
13720 18979 lto
13860 19035 lto
14000 19090 lto
14140 19143 lto
14280 19195 lto
14420 19245 lto
14560 19294 lto
14700 19343 lto
14840 19389 lto
14980 19435 lto
15120 19480 lto
15260 19524 lto
15400 19566 lto
15540 19608 lto
15680 19648 lto
15820 19688 lto
15960 19726 lto
16100 19764 lto
16240 19801 lto
16380 19837 lto
16520 19872 lto
16660 19906 lto
16800 19940 lto
16940 19972 lto
17080 20004 lto
17220 20036 lto
17360 20066 lto
17500 20096 lto
st
3780 22000 mto
255 255 div 128 255 div 0 255 div setrgbcolor
3781 22000 lto
st
3857 22000 mto
3865 22000 lto
3895 21998 lto
3920 21995 lto
3939 21992 lto
3956 21987 lto
3971 21983 lto
3986 21977 lto
4000 21969 lto
4013 21961 lto
4025 21952 lto
4038 21941 lto
4050 21930 lto
4060 21918 lto
4072 21903 lto
4083 21887 lto
4095 21869 lto
4106 21849 lto
4117 21829 lto
4128 21806 lto
4139 21782 lto
4150 21757 lto
4160 21730 lto
4171 21702 lto
4181 21672 lto
4191 21641 lto
4200 21612 lto
4210 21577 lto
4220 21540 lto
4231 21501 lto
4241 21460 lto
4252 21416 lto
4262 21371 lto
4273 21323 lto
4283 21273 lto
4294 21221 lto
4305 21167 lto
4316 21111 lto
4327 21052 lto
4338 20991 lto
4340 20978 lto
4351 20916 lto
4362 20852 lto
4373 20785 lto
4384 20716 lto
4395 20643 lto
4407 20567 lto
4419 20489 lto
4431 20407 lto
4443 20321 lto
4456 20232 lto
4469 20139 lto
4480 20059 lto
4494 19957 lto
4508 19851 lto
4523 19739 lto
4538 19622 lto
4554 19498 lto
4571 19367 lto
4588 19226 lto
4607 19075 lto
4620 18974 lto
4644 18783 lto
4671 18565 lto
4704 18299 lto
4732 18067 lto
4757 17873 lto
4760 17845 lto
4782 17673 lto
4802 17514 lto
4821 17367 lto
4839 17228 lto
4856 17097 lto
4872 16973 lto
4888 16854 lto
4900 16769 lto
4916 16651 lto
4933 16534 lto
4949 16418 lto
4966 16304 lto
4983 16191 lto
5000 16079 lto
5017 15968 lto
5034 15859 lto
5040 15819 lto
5057 15715 lto
5073 15615 lto
5089 15518 lto
5105 15425 lto
5120 15335 lto
5136 15247 lto
5151 15163 lto
5166 15082 lto
5180 15006 lto
5195 14931 lto
5209 14856 lto
5224 14783 lto
5239 14710 lto
5255 14637 lto
5270 14566 lto
5286 14495 lto
5302 14425 lto
5319 14355 lto
5320 14349 lto
5337 14277 lto
5355 14207 lto
5372 14139 lto
5389 14074 lto
5407 14010 lto
5424 13949 lto
5441 13891 lto
5458 13834 lto
5460 13826 lto
5477 13772 lto
5494 13720 lto
5511 13669 lto
5528 13620 lto
5545 13573 lto
5562 13528 lto
5579 13485 lto
5597 13444 lto
5600 13436 lto
5616 13399 lto
5633 13363 lto
5650 13328 lto
5668 13293 lto
5685 13260 lto
5704 13228 lto
5723 13196 lto
5740 13168 lto
5762 13135 lto
5784 13104 lto
5806 13074 lto
5828 13047 lto
5850 13021 lto
5872 12998 lto
5880 12989 lto
5902 12969 lto
5924 12950 lto
5946 12932 lto
5969 12916 lto
5992 12902 lto
6015 12890 lto
6020 12887 lto
6044 12877 lto
6068 12868 lto
6092 12861 lto
6117 12856 lto
6142 12853 lto
6160 12852 lto
6186 12851 lto
6212 12853 lto
6239 12857 lto
6266 12862 lto
6294 12870 lto
6300 12871 lto
6327 12881 lto
6355 12892 lto
6385 12906 lto
6417 12922 lto
6440 12934 lto
6483 12959 lto
6525 12985 lto
6566 13013 lto
6580 13022 lto
6619 13051 lto
6656 13080 lto
6692 13110 lto
6720 13135 lto
6752 13164 lto
6785 13197 lto
6822 13234 lto
6860 13274 lto
6918 13336 lto
6978 13402 lto
7000 13428 lto
7065 13502 lto
7133 13581 lto
7140 13590 lto
7210 13674 lto
7280 13759 lto
7380 13883 lto
7420 13933 lto
7518 14056 lto
7560 14110 lto
7667 14247 lto
7700 14289 lto
7840 14469 lto
7980 14648 lto
8120 14825 lto
8242 14977 lto
8260 14999 lto
8363 15125 lto
8400 15170 lto
8496 15285 lto
8540 15338 lto
8644 15459 lto
8680 15501 lto
8783 15620 lto
8820 15661 lto
8923 15777 lto
8960 15817 lto
9063 15930 lto
9100 15970 lto
9202 16078 lto
9240 16119 lto
9339 16222 lto
9380 16264 lto
9476 16361 lto
9520 16404 lto
9615 16497 lto
9660 16541 lto
9758 16634 lto
9800 16673 lto
9899 16765 lto
9940 16802 lto
10043 16894 lto
10080 16927 lto
10188 17021 lto
10220 17049 lto
10328 17140 lto
10360 17167 lto
10468 17256 lto
10500 17282 lto
10606 17367 lto
10640 17393 lto
10745 17474 lto
10780 17501 lto
10888 17583 lto
10920 17606 lto
11027 17684 lto
11060 17707 lto
11171 17785 lto
11200 17806 lto
11313 17883 lto
11340 17901 lto
11455 17977 lto
11480 17993 lto
11597 18068 lto
11620 18082 lto
11739 18156 lto
11760 18169 lto
11882 18242 lto
11900 18253 lto
12024 18326 lto
12040 18335 lto
12167 18407 lto
12180 18414 lto
12311 18486 lto
12320 18491 lto
12453 18562 lto
12460 18565 lto
12596 18636 lto
12600 18638 lto
12738 18708 lto
12740 18709 lto
12880 18777 lto
13020 18844 lto
13160 18909 lto
13300 18972 lto
13440 19033 lto
13580 19092 lto
13720 19150 lto
13860 19206 lto
14000 19261 lto
14140 19314 lto
14280 19366 lto
14420 19416 lto
14560 19465 lto
14700 19513 lto
14840 19559 lto
14980 19604 lto
15120 19648 lto
15260 19691 lto
15400 19732 lto
15540 19773 lto
15680 19812 lto
15820 19851 lto
15960 19888 lto
16100 19925 lto
16240 19961 lto
16380 19995 lto
16520 20029 lto
16660 20063 lto
16800 20095 lto
16940 20127 lto
17080 20157 lto
17220 20187 lto
17360 20217 lto
17500 20246 lto
st
3780 22000 mto
0 255 div 0 255 div 0 255 div setrgbcolor
3781 22000 lto
st
3860 22000 mto
3889 21998 lto
3914 21995 lto
3920 21994 lto
3937 21991 lto
3953 21986 lto
3968 21981 lto
3982 21975 lto
3995 21968 lto
4008 21960 lto
4020 21950 lto
4031 21940 lto
4043 21928 lto
4054 21915 lto
4060 21906 lto
4071 21890 lto
4082 21873 lto
4093 21854 lto
4103 21834 lto
4114 21812 lto
4124 21789 lto
4134 21764 lto
4144 21738 lto
4154 21710 lto
4164 21681 lto
4173 21651 lto
4183 21618 lto
4192 21585 lto
4200 21556 lto
4209 21519 lto
4219 21479 lto
4229 21438 lto
4238 21395 lto
4248 21349 lto
4258 21301 lto
4268 21252 lto
4278 21199 lto
4287 21145 lto
4298 21088 lto
4308 21030 lto
4318 20969 lto
4328 20905 lto
4338 20839 lto
4340 20829 lto
4350 20763 lto
4360 20694 lto
4371 20622 lto
4381 20547 lto
4392 20470 lto
4403 20389 lto
4414 20306 lto
4425 20219 lto
4437 20129 lto
4449 20035 lto
4461 19938 lto
4473 19837 lto
4480 19779 lto
4493 19673 lto
4506 19561 lto
4519 19445 lto
4533 19323 lto
4548 19195 lto
4563 19059 lto
4579 18916 lto
4595 18762 lto
4614 18596 lto
4620 18537 lto
4641 18347 lto
4664 18129 lto
4691 17884 lto
4712 17685 lto
4731 17510 lto
4749 17352 lto
4760 17253 lto
4779 17086 lto
4797 16923 lto
4816 16763 lto
4834 16606 lto
4852 16452 lto
4870 16301 lto
4888 16153 lto
4900 16053 lto
4917 15919 lto
4933 15789 lto
4949 15664 lto
4964 15544 lto
4979 15427 lto
4994 15315 lto
5009 15206 lto
5023 15102 lto
5038 15000 lto
5040 14983 lto
5055 14881 lto
5069 14781 lto
5084 14683 lto
5098 14587 lto
5113 14493 lto
5127 14401 lto
5142 14312 lto
5156 14224 lto
5171 14139 lto
5180 14086 lto
5194 14004 lto
5209 13923 lto
5223 13845 lto
5238 13769 lto
5253 13694 lto
5267 13622 lto
5282 13551 lto
5296 13483 lto
5311 13416 lto
5320 13374 lto
5334 13312 lto
5348 13252 lto
5363 13193 lto
5377 13136 lto
5392 13079 lto
5407 13024 lto
5422 12970 lto
5437 12918 lto
5452 12866 lto
5460 12841 lto
5476 12791 lto
5492 12742 lto
5508 12695 lto
5524 12649 lto
5540 12605 lto
5557 12561 lto
5574 12520 lto
5591 12479 lto
5600 12458 lto
5618 12419 lto
5636 12381 lto
5654 12345 lto
5672 12312 lto
5690 12280 lto
5708 12250 lto
5726 12222 lto
5740 12201 lto
5757 12178 lto
5775 12155 lto
5793 12135 lto
5811 12115 lto
5830 12097 lto
5849 12081 lto
5869 12066 lto
5880 12058 lto
5901 12044 lto
5923 12032 lto
5944 12022 lto
5966 12014 lto
5988 12008 lto
6010 12004 lto
6020 12003 lto
6041 12002 lto
6063 12002 lto
6085 12005 lto
6108 12009 lto
6131 12015 lto
6155 12023 lto
6160 12025 lto
6185 12036 lto
6211 12049 lto
6237 12063 lto
6264 12080 lto
6292 12100 lto
6300 12105 lto
6331 12129 lto
6361 12154 lto
6393 12182 lto
6425 12212 lto
6440 12227 lto
6472 12260 lto
6505 12296 lto
6539 12335 lto
6575 12378 lto
6580 12383 lto
6620 12433 lto
6660 12484 lto
6700 12537 lto
6720 12565 lto
6756 12616 lto
6794 12671 lto
6837 12734 lto
6860 12769 lto
6923 12864 lto
6992 12971 lto
7000 12983 lto
7087 13120 lto
7140 13203 lto
7209 13314 lto
7280 13429 lto
7370 13577 lto
7420 13657 lto
7535 13844 lto
7560 13884 lto
7655 14035 lto
7700 14107 lto
7814 14287 lto
7840 14327 lto
7951 14499 lto
7980 14544 lto
8073 14687 lto
8120 14757 lto
8204 14882 lto
8260 14965 lto
8341 15083 lto
8400 15166 lto
8480 15279 lto
8540 15362 lto
8618 15468 lto
8680 15552 lto
8758 15655 lto
8820 15735 lto
8898 15834 lto
8960 15912 lto
9044 16015 lto
9100 16083 lto
9184 16183 lto
9240 16249 lto
9324 16345 lto
9380 16409 lto
9462 16500 lto
9520 16563 lto
9603 16652 lto
9660 16712 lto
9746 16801 lto
9800 16856 lto
9887 16943 lto
9940 16995 lto
10030 17081 lto
10080 17128 lto
10169 17211 lto
10220 17257 lto
10313 17340 lto
10360 17381 lto
10452 17461 lto
10500 17501 lto
10596 17581 lto
10640 17617 lto
10738 17695 lto
10780 17729 lto
10881 17807 lto
10920 17837 lto
11023 17914 lto
11060 17941 lto
11165 18017 lto
11200 18042 lto
11307 18116 lto
11340 18139 lto
11449 18212 lto
11480 18233 lto
11590 18305 lto
11620 18324 lto
11732 18395 lto
11760 18412 lto
11874 18481 lto
11900 18497 lto
12017 18565 lto
12040 18579 lto
12159 18646 lto
12180 18658 lto
12303 18726 lto
12320 18735 lto
12445 18801 lto
12460 18809 lto
12589 18876 lto
12600 18881 lto
12731 18947 lto
12740 18951 lto
12874 19015 lto
12880 19018 lto
13017 19083 lto
13020 19084 lto
13159 19147 lto
13160 19147 lto
13300 19209 lto
13440 19269 lto
13580 19326 lto
13720 19383 lto
13860 19437 lto
14000 19490 lto
14140 19541 lto
14280 19590 lto
14420 19639 lto
14560 19685 lto
14700 19731 lto
14840 19775 lto
14980 19818 lto
15120 19860 lto
15260 19900 lto
15400 19940 lto
15540 19978 lto
15680 20015 lto
15820 20052 lto
15960 20087 lto
16100 20122 lto
16240 20155 lto
16380 20188 lto
16520 20220 lto
16660 20251 lto
16800 20281 lto
16940 20311 lto
17080 20340 lto
17220 20368 lto
17360 20395 lto
17500 20422 lto
st
3780 22000 mto
255 255 div 0 255 div 0 255 div setrgbcolor
3781 22000 lto
st
3860 22000 mto
3887 21998 lto
3912 21995 lto
3920 21994 lto
3937 21990 lto
3953 21986 lto
3957 21984 lto
st
4039 21928 mto
4040 21927 lto
4051 21914 lto
4060 21902 lto
4071 21886 lto
4082 21868 lto
4092 21849 lto
4094 21845 lto
st
4134 21754 mto
4143 21730 lto
4152 21702 lto
4162 21672 lto
4166 21659 lto
st
4193 21563 mto
4200 21538 lto
4200 21537 lto
4209 21499 lto
4217 21466 lto
st
4239 21368 mto
4248 21325 lto
4257 21277 lto
4258 21270 lto
st
4277 21172 mto
4287 21118 lto
4294 21073 lto
st
4310 20975 mto
4316 20939 lto
4326 20876 lto
st
4341 20777 mto
4350 20718 lto
4356 20678 lto
st
4370 20579 mto
4370 20578 lto
4380 20503 lto
4383 20480 lto
st
4396 20381 mto
4401 20345 lto
4409 20282 lto
st
4421 20182 mto
4422 20174 lto
4433 20084 lto
4433 20083 lto
st
4446 19984 mto
4457 19892 lto
4458 19885 lto
st
4469 19785 mto
4480 19692 lto
4481 19686 lto
st
4492 19587 mto
4493 19578 lto
4503 19487 lto
st
4514 19388 mto
4520 19335 lto
4525 19289 lto
st
4537 19189 mto
4548 19090 lto
st
4558 18990 mto
4565 18923 lto
4569 18891 lto
st
4580 18792 mto
4582 18769 lto
4590 18692 lto
st
4601 18593 mto
4612 18493 lto
st
4622 18394 mto
4633 18294 lto
st
4643 18195 mto
4654 18095 lto
st
4664 17996 mto
4667 17968 lto
4674 17897 lto
st
4685 17797 mto
4695 17701 lto
4695 17698 lto
st
4706 17598 mto
4717 17499 lto
st
4727 17399 mto
4738 17300 lto
st
4748 17200 mto
4756 17127 lto
4759 17101 lto
st
4770 17002 mto
4779 16916 lto
4780 16902 lto
st
4791 16803 mto
4797 16748 lto
4802 16703 lto
st
4813 16604 mto
4815 16586 lto
4824 16505 lto
st
4836 16405 mto
4847 16306 lto
st
4858 16207 mto
4867 16133 lto
4870 16107 lto
st
4881 16008 mto
4883 15992 lto
4893 15909 lto
st
4905 15809 mto
4915 15723 lto
4917 15710 lto
st
4929 15611 mto
4930 15602 lto
4941 15511 lto
st
4953 15412 mto
4958 15375 lto
4966 15313 lto
st
4978 15214 mto
4984 15166 lto
4991 15115 lto
st
5004 15015 mto
5010 14972 lto
5018 14916 lto
st
5031 14817 mto
5035 14791 lto
5040 14756 lto
5045 14718 lto
st
5060 14619 mto
5065 14586 lto
5074 14520 lto
st
5089 14422 mto
5090 14418 lto
5103 14336 lto
5105 14323 lto
st
5121 14224 mto
5129 14172 lto
5136 14125 lto
st
5153 14027 mto
5156 14011 lto
5170 13930 lto
5170 13928 lto
st
5188 13830 mto
5195 13788 lto
5205 13731 lto
st
5224 13633 mto
5226 13625 lto
5241 13547 lto
5243 13535 lto
st
5263 13437 mto
5271 13397 lto
5283 13339 lto
st
5304 13241 mto
5316 13188 lto
5320 13170 lto
5326 13144 lto
st
5349 13046 mto
5350 13042 lto
5365 12981 lto
5373 12949 lto
st
5398 12852 mto
5410 12810 lto
5425 12757 lto
5425 12756 lto
st
5454 12660 mto
5455 12657 lto
5460 12639 lto
5474 12595 lto
5484 12565 lto
st
5518 12471 mto
5519 12469 lto
5534 12430 lto
5549 12392 lto
5555 12378 lto
st
5596 12287 mto
5600 12279 lto
5616 12247 lto
5632 12217 lto
5643 12198 lto
st
5697 12114 mto
5699 12111 lto
5717 12088 lto
5734 12066 lto
5740 12059 lto
5759 12038 lto
5760 12037 lto
st
5837 11973 mto
5854 11963 lto
5873 11954 lto
5880 11951 lto
5898 11945 lto
5916 11941 lto
5930 11939 lto
st
6029 11947 mto
6045 11952 lto
6069 11960 lto
6095 11971 lto
6120 11984 lto
6121 11985 lto
st
6205 12039 mto
6213 12045 lto
6240 12067 lto
6268 12092 lto
6281 12104 lto
st
6352 12174 mto
6363 12186 lto
6394 12222 lto
6417 12250 lto
st
6479 12329 mto
6499 12356 lto
6531 12400 lto
6538 12410 lto
st
6594 12492 mto
6618 12529 lto
6648 12576 lto
st
6701 12661 mto
6720 12691 lto
6753 12746 lto
st
6805 12832 mto
6821 12859 lto
6856 12918 lto
st
6906 13004 mto
6921 13030 lto
6956 13091 lto
st
7005 13178 mto
7054 13265 lto
st
7103 13353 mto
7140 13419 lto
7152 13440 lto
st
7201 13527 mto
7249 13615 lto
st
7298 13702 mto
7347 13789 lto
st
7396 13876 mto
7420 13918 lto
7446 13963 lto
st
7495 14050 mto
7544 14137 lto
st
7593 14224 mto
7643 14311 lto
st
7693 14397 mto
7700 14409 lto
7744 14484 lto
st
7795 14570 mto
7840 14647 lto
7845 14656 lto
st
7897 14742 mto
7920 14780 lto
7949 14827 lto
st
8001 14913 mto
8053 14998 lto
st
8106 15083 mto
8120 15105 lto
8160 15167 lto
st
8214 15251 mto
8259 15321 lto
8260 15322 lto
8269 15335 lto
st
8324 15418 mto
8328 15425 lto
8379 15501 lto
st
8436 15584 mto
8471 15635 lto
8493 15666 lto
st
8551 15748 mto
8609 15829 lto
st
8667 15910 mto
8680 15928 lto
8726 15991 lto
st
8786 16071 mto
8820 16115 lto
8847 16150 lto
st
8908 16230 mto
8960 16296 lto
8970 16308 lto
st
9032 16387 mto
9037 16393 lto
9095 16464 lto
st
9159 16541 mto
9179 16566 lto
9223 16618 lto
st
9288 16694 mto
9319 16730 lto
9353 16769 lto
st
9419 16845 mto
9457 16887 lto
9486 16919 lto
st
9554 16992 mto
9600 17042 lto
9622 17065 lto
st
9692 17137 mto
9740 17187 lto
9762 17209 lto
st
9832 17280 mto
9884 17331 lto
9903 17350 lto
st
9975 17420 mto
10024 17466 lto
10048 17488 lto
st
10121 17556 mto
10167 17598 lto
10195 17623 lto
st
10270 17690 mto
10308 17723 lto
10346 17755 lto
st
10422 17820 mto
10449 17843 lto
10499 17884 lto
st
10576 17947 mto
10591 17959 lto
10640 17997 lto
10655 18009 lto
st
10734 18070 mto
10780 18106 lto
10813 18131 lto
st
10894 18190 mto
10920 18210 lto
10975 18249 lto
st
11056 18307 mto
11060 18310 lto
11138 18365 lto
st
11221 18421 mto
11304 18477 lto
st
11388 18531 mto
11448 18570 lto
11472 18585 lto
st
11557 18638 mto
11591 18659 lto
11620 18677 lto
11642 18690 lto
st
11728 18742 mto
11733 18745 lto
11760 18761 lto
11814 18792 lto
st
11900 18842 mto
11988 18891 lto
st
12076 18939 mto
12160 18984 lto
12164 18986 lto
st
12252 19033 mto
12303 19059 lto
12320 19068 lto
12341 19078 lto
st
12431 19123 mto
12445 19130 lto
12460 19138 lto
12520 19167 lto
st
12610 19211 mto
12701 19253 lto
st
12792 19295 mto
12873 19332 lto
12880 19335 lto
12883 19336 lto
st
12974 19376 mto
13015 19394 lto
13020 19396 lto
13066 19416 lto
st
13158 19455 mto
13160 19456 lto
13251 19493 lto
st
13344 19530 mto
13437 19567 lto
st
13530 19603 mto
13580 19622 lto
13624 19638 lto
st
13717 19673 mto
13720 19674 lto
13811 19707 lto
st
13906 19740 mto
14000 19773 lto
14000 19773 lto
st
14095 19805 mto
14140 19820 lto
14190 19836 lto
st
14285 19868 mto
14380 19897 lto
st
14476 19927 mto
14560 19953 lto
14571 19956 lto
st
14667 19985 mto
14700 19995 lto
14763 20013 lto
st
14859 20041 mto
14955 20068 lto
st
15052 20095 mto
15120 20113 lto
15148 20121 lto
st
15245 20146 mto
15260 20150 lto
15342 20171 lto
st
15439 20196 mto
15536 20220 lto
st
15633 20244 mto
15680 20255 lto
15730 20267 lto
st
15828 20290 mto
15925 20312 lto
st
16023 20334 mto
16100 20352 lto
16120 20356 lto
st
16218 20377 mto
16240 20382 lto
16316 20398 lto
st
16414 20419 mto
16511 20439 lto
st
16610 20459 mto
16660 20469 lto
16708 20478 lto
st
16806 20497 mto
16904 20516 lto
st
17002 20535 mto
17080 20549 lto
17101 20553 lto
st
17199 20570 mto
17220 20574 lto
17298 20588 lto
st
17396 20605 mto
17495 20622 lto
st
3780 22000 mto
0 255 div 0 255 div 255 255 div setrgbcolor
3781 22000 lto
st
3860 22000 mto
3888 21998 lto
3914 21995 lto
3920 21994 lto
3937 21991 lto
3953 21986 lto
3957 21985 lto
st
4040 21930 mto
4042 21928 lto
4053 21915 lto
4060 21906 lto
4071 21890 lto
4082 21872 lto
4093 21853 lto
4096 21848 lto
st
4136 21756 mto
4144 21735 lto
4154 21707 lto
4164 21678 lto
4169 21662 lto
st
4197 21566 mto
4200 21554 lto
4210 21516 lto
4219 21477 lto
4221 21469 lto
st
4243 21371 mto
4249 21345 lto
4258 21297 lto
4263 21273 lto
st
4282 21175 mto
4288 21140 lto
4298 21083 lto
4299 21077 lto
st
4317 20978 mto
4319 20963 lto
4329 20899 lto
4332 20879 lto
st
4347 20780 mto
4350 20763 lto
4360 20695 lto
4362 20682 lto
st
4376 20583 mto
4381 20551 lto
4390 20483 lto
st
4403 20384 mto
4413 20313 lto
4417 20285 lto
st
4429 20186 mto
4435 20138 lto
4442 20087 lto
st
4454 19988 mto
4459 19950 lto
4466 19888 lto
st
4478 19789 mto
4480 19774 lto
4490 19690 lto
st
4501 19590 mto
4505 19561 lto
4513 19491 lto
st
4524 19392 mto
4532 19325 lto
4536 19292 lto
st
4547 19193 mto
4558 19094 lto
st
4569 18994 mto
4579 18910 lto
4581 18895 lto
st
4592 18796 mto
4597 18747 lto
4603 18696 lto
st
4613 18597 mto
4617 18563 lto
4620 18534 lto
4624 18497 lto
st
4635 18398 mto
4646 18298 lto
st
4657 18199 mto
4667 18103 lto
4667 18100 lto
st
4679 18000 mto
4690 17901 lto
st
4701 17802 mto
4702 17792 lto
4712 17702 lto
st
4723 17603 mto
4732 17524 lto
4734 17503 lto
st
4745 17404 mto
4757 17305 lto
st
4768 17205 mto
4779 17106 lto
st
4790 17007 mto
4797 16941 lto
4801 16907 lto
st
4813 16808 mto
4814 16798 lto
4824 16708 lto
st
4836 16609 mto
4844 16540 lto
4848 16510 lto
st
4859 16411 mto
4871 16311 lto
st
4883 16212 mto
4884 16203 lto
4896 16113 lto
st
4908 16013 mto
4913 15971 lto
4921 15914 lto
st
4934 15815 mto
4940 15765 lto
4947 15716 lto
st
4960 15617 mto
4967 15562 lto
4973 15518 lto
st
4987 15419 mto
4995 15364 lto
5001 15320 lto
st
5015 15221 mto
5023 15168 lto
5030 15122 lto
st
5045 15023 mto
5055 14959 lto
5060 14924 lto
st
5076 14825 mto
5085 14770 lto
5092 14727 lto
st
5108 14628 mto
5114 14590 lto
5124 14529 lto
st
5142 14431 mto
5144 14419 lto
5158 14337 lto
5159 14332 lto
st
5177 14234 mto
5180 14218 lto
5195 14141 lto
5196 14136 lto
st
5215 14038 mto
5224 13993 lto
5235 13940 lto
st
5255 13842 mto
5268 13784 lto
5276 13744 lto
st
5299 13647 mto
5312 13592 lto
5320 13559 lto
5322 13549 lto
st
5347 13453 mto
5350 13442 lto
5364 13387 lto
5373 13356 lto
st
5400 13260 mto
5409 13229 lto
5425 13180 lto
5430 13164 lto
st
5461 13069 mto
5476 13029 lto
5491 12987 lto
5496 12975 lto
st
5534 12883 mto
5538 12872 lto
5554 12838 lto
5570 12806 lto
5577 12793 lto
st
5626 12706 mto
5630 12700 lto
5645 12678 lto
5661 12657 lto
5677 12638 lto
5687 12626 lto
st
5761 12560 mto
5777 12550 lto
5796 12539 lto
5815 12530 lto
5836 12522 lto
5851 12517 lto
st
5950 12505 mto
5950 12505 lto
5973 12508 lto
5996 12512 lto
6018 12518 lto
6020 12519 lto
6042 12527 lto
6046 12529 lto
st
6133 12579 mto
6133 12579 lto
6156 12598 lto
6160 12601 lto
6182 12621 lto
6204 12642 lto
6207 12645 lto
st
6275 12719 mto
6278 12723 lto
6300 12750 lto
6331 12788 lto
6338 12797 lto
st
6397 12877 mto
6398 12878 lto
6436 12930 lto
6440 12935 lto
6456 12958 lto
st
6514 13040 mto
6541 13079 lto
6570 13123 lto
st
6625 13206 mto
6625 13207 lto
6668 13274 lto
6678 13291 lto
st
6730 13376 mto
6758 13423 lto
6781 13462 lto
st
6831 13549 mto
6843 13570 lto
6860 13600 lto
6880 13636 lto
st
6928 13724 mto
6969 13797 lto
6977 13811 lto
st
7025 13899 mto
7072 13987 lto
st
7120 14075 mto
7140 14111 lto
7168 14162 lto
st
7216 14250 mto
7264 14338 lto
st
7313 14425 mto
7362 14512 lto
st
7410 14600 mto
7420 14618 lto
7459 14687 lto
st
7509 14774 mto
7559 14861 lto
st
7609 14947 mto
7639 14999 lto
7659 15033 lto
st
7710 15120 mto
7761 15205 lto
st
7813 15291 mto
7840 15336 lto
7865 15376 lto
st
7917 15462 mto
7970 15546 lto
st
8023 15631 mto
8051 15675 lto
8077 15715 lto
st
8132 15799 mto
8187 15883 lto
st
8242 15966 mto
8259 15992 lto
8260 15993 lto
8298 16049 lto
st
8355 16131 mto
8399 16195 lto
8400 16196 lto
8412 16213 lto
st
8470 16294 mto
8529 16376 lto
st
8588 16456 mto
8611 16488 lto
8648 16536 lto
st
8709 16616 mto
8753 16673 lto
8770 16695 lto
st
8832 16773 mto
8894 16851 lto
8894 16851 lto
st
8957 16929 mto
8960 16932 lto
9022 17005 lto
st
9086 17082 mto
9100 17098 lto
9152 17157 lto
st
9218 17232 mto
9240 17257 lto
9285 17307 lto
st
9352 17380 mto
9380 17410 lto
9421 17453 lto
st
9490 17525 mto
9520 17556 lto
9560 17596 lto
st
9631 17667 mto
9660 17696 lto
9703 17737 lto
st
9775 17806 mto
9800 17830 lto
9848 17874 lto
st
9922 17942 mto
9940 17958 lto
9997 18008 lto
st
10072 18074 mto
10080 18080 lto
10149 18138 lto
st
10225 18202 mto
10303 18265 lto
st
10381 18328 mto
10451 18381 lto
10461 18389 lto
st
10541 18449 mto
10594 18488 lto
10621 18508 lto
st
10702 18567 mto
10736 18591 lto
10780 18622 lto
10784 18624 lto
st
10866 18681 mto
10878 18689 lto
10920 18717 lto
10949 18736 lto
st
11033 18791 mto
11060 18809 lto
11117 18845 lto
st
11202 18898 mto
11288 18950 lto
st
11374 19001 mto
11449 19045 lto
11460 19051 lto
st
11547 19100 mto
11592 19126 lto
11620 19141 lto
11635 19149 lto
st
11723 19196 mto
11735 19203 lto
11760 19216 lto
11811 19243 lto
st
11900 19289 mto
11900 19289 lto
11989 19333 lto
st
12079 19378 mto
12164 19419 lto
12169 19421 lto
st
12260 19463 mto
12306 19485 lto
12320 19491 lto
12351 19505 lto
st
12442 19545 mto
12450 19549 lto
12460 19554 lto
12534 19586 lto
st
12626 19625 mto
12718 19664 lto
st
12810 19701 mto
12879 19729 lto
12880 19729 lto
12903 19738 lto
st
12996 19775 mto
13020 19784 lto
13090 19810 lto
st
13184 19845 mto
13278 19879 lto
st
13372 19912 mto
13440 19936 lto
13467 19945 lto
st
13561 19977 mto
13580 19983 lto
13656 20008 lto
st
13751 20039 mto
13847 20070 lto
st
13942 20099 mto
14000 20117 lto
14038 20128 lto
st
14134 20156 mto
14140 20158 lto
14230 20184 lto
st
14326 20211 mto
14420 20237 lto
14423 20238 lto
st
14519 20264 mto
14560 20275 lto
14616 20289 lto
st
14713 20314 mto
14809 20339 lto
st
14907 20363 mto
14980 20381 lto
15004 20387 lto
st
15101 20410 mto
15120 20414 lto
15198 20432 lto
st
15296 20455 mto
15393 20477 lto
st
15491 20498 mto
15540 20508 lto
15589 20519 lto
st
15687 20539 mto
15785 20559 lto
st
15883 20579 mto
15960 20594 lto
15981 20598 lto
st
16079 20617 mto
16100 20621 lto
16178 20635 lto
st
16276 20654 mto
16374 20672 lto
st
16473 20690 mto
16520 20698 lto
16571 20707 lto
st
16670 20724 mto
16768 20740 lto
st
16867 20756 mto
16940 20768 lto
16966 20772 lto
st
17064 20788 mto
17080 20790 lto
17163 20803 lto
st
17262 20818 mto
17360 20833 lto
17361 20833 lto
st
17460 20848 mto
17500 20854 lto
st
3780 22000 mto
0 255 div 128 255 div 0 255 div setrgbcolor
3781 22000 lto
st
3857 22000 mto
3864 22000 lto
3894 21998 lto
3920 21995 lto
3939 21991 lto
3955 21987 lto
st
4040 21938 mto
4049 21929 lto
4060 21917 lto
4072 21902 lto
4083 21885 lto
4095 21867 lto
4100 21858 lto
st
4144 21768 mto
4149 21755 lto
4160 21728 lto
4170 21700 lto
4179 21674 lto
st
4208 21579 mto
4210 21571 lto
4220 21534 lto
4231 21495 lto
4234 21482 lto
st
4257 21385 mto
4262 21364 lto
4272 21316 lto
4278 21287 lto
st
4299 21189 mto
4304 21159 lto
4315 21102 lto
4317 21091 lto
st
4335 20993 mto
4337 20982 lto
4340 20964 lto
4351 20903 lto
4352 20894 lto
st
4368 20795 mto
4372 20772 lto
4383 20703 lto
4384 20697 lto
st
4399 20598 mto
4406 20555 lto
4415 20499 lto
st
4429 20400 mto
4430 20393 lto
4442 20308 lto
4443 20301 lto
st
4457 20202 mto
4467 20124 lto
4470 20103 lto
st
4484 20004 mto
4494 19929 lto
4497 19905 lto
st
4510 19806 mto
4523 19706 lto
st
4536 19607 mto
4539 19585 lto
4549 19508 lto
st
4561 19409 mto
4573 19320 lto
4574 19310 lto
st
4586 19210 mto
4591 19172 lto
4598 19111 lto
st
4611 19012 mto
4611 19009 lto
4620 18941 lto
4624 18913 lto
st
4636 18813 mto
4646 18731 lto
4648 18714 lto
st
4660 18615 mto
4673 18516 lto
st
4685 18417 mto
4697 18317 lto
st
4710 18218 mto
4722 18119 lto
st
4735 18020 mto
4747 17921 lto
4747 17920 lto
st
4760 17821 mto
4773 17722 lto
st
4786 17623 mto
4797 17534 lto
4798 17524 lto
st
4812 17425 mto
4815 17401 lto
4825 17325 lto
st
4838 17226 mto
4848 17153 lto
4852 17127 lto
st
4865 17028 mto
4879 16929 lto
st
4893 16830 mto
4894 16820 lto
4900 16781 lto
4907 16731 lto
st
4922 16632 mto
4931 16566 lto
4936 16533 lto
st
4951 16434 mto
4963 16360 lto
4967 16336 lto
st
4982 16237 mto
4994 16162 lto
4998 16138 lto
st
5014 16039 mto
5025 15972 lto
5030 15941 lto
st
5047 15842 mto
5055 15798 lto
5065 15744 lto
st
5082 15645 mto
5085 15631 lto
5100 15551 lto
5101 15547 lto
st
5120 15449 mto
5130 15398 lto
5139 15351 lto
st
5160 15253 mto
5173 15188 lto
5180 15155 lto
5180 15155 lto
st
5202 15057 mto
5208 15031 lto
5222 14971 lto
5225 14960 lto
st
5248 14863 mto
5251 14852 lto
5266 14794 lto
5273 14766 lto
st
5300 14670 mto
5312 14624 lto
5320 14598 lto
5327 14573 lto
st
5356 14478 mto
5370 14432 lto
5387 14382 lto
st
5420 14288 mto
5420 14287 lto
5436 14243 lto
5453 14202 lto
5456 14195 lto
st
5495 14103 mto
5509 14072 lto
5525 14039 lto
5539 14013 lto
st
5590 13927 mto
5591 13925 lto
5600 13912 lto
5616 13891 lto
5632 13871 lto
5648 13852 lto
5651 13848 lto
st
5727 13784 mto
5735 13778 lto
5740 13775 lto
5761 13764 lto
5781 13755 lto
5802 13747 lto
5818 13742 lto
st
5917 13738 mto
5923 13739 lto
5945 13744 lto
5968 13751 lto
5991 13759 lto
6012 13769 lto
st
6098 13819 mto
6123 13837 lto
6151 13860 lto
6160 13867 lto
6177 13881 lto
st
6250 13949 mto
6259 13957 lto
6291 13990 lto
6300 14000 lto
6319 14021 lto
st
6384 14097 mto
6397 14113 lto
6429 14156 lto
6440 14170 lto
6445 14177 lto
st
6503 14258 mto
6505 14260 lto
6540 14311 lto
6560 14340 lto
st
6614 14424 mto
6623 14437 lto
6668 14508 lto
st
6722 14593 mto
6775 14678 lto
st
6827 14762 mto
6860 14815 lto
6880 14847 lto
st
6933 14932 mto
6985 15018 lto
st
7038 15103 mto
7091 15188 lto
st
7143 15273 mto
7196 15358 lto
st
7249 15443 mto
7280 15493 lto
7301 15528 lto
st
7354 15612 mto
7407 15697 lto
st
7460 15782 mto
7513 15867 lto
st
7566 15952 mto
7619 16036 lto
st
7673 16121 mto
7700 16163 lto
7727 16205 lto
st
7782 16288 mto
7837 16372 lto
st
7893 16455 mto
7908 16478 lto
7949 16538 lto
st
8006 16620 mto
8045 16675 lto
8064 16701 lto
st
8123 16782 mto
8182 16863 lto
st
8242 16943 mto
8249 16952 lto
8260 16967 lto
8303 17022 lto
st
8365 17101 mto
8392 17135 lto
8400 17145 lto
8427 17179 lto
st
8490 17256 mto
8538 17314 lto
8540 17316 lto
8554 17333 lto
st
8619 17409 mto
8680 17479 lto
8685 17485 lto
st
8752 17559 mto
8757 17565 lto
8819 17633 lto
st
8886 17707 mto
8899 17721 lto
8954 17780 lto
st
9024 17852 mto
9041 17870 lto
9094 17924 lto
st
9164 17994 mto
9181 18011 lto
9236 18064 lto
st
9308 18133 mto
9322 18146 lto
9380 18201 lto
9381 18202 lto
st
9455 18269 mto
9462 18276 lto
9520 18328 lto
9529 18336 lto
st
9605 18402 mto
9660 18449 lto
9681 18466 lto
st
9758 18530 mto
9800 18565 lto
9836 18593 lto
st
9914 18655 mto
9940 18675 lto
9994 18716 lto
st
10073 18776 mto
10080 18781 lto
10154 18835 lto
st
10236 18893 mto
10313 18946 lto
10318 18950 lto
st
10401 19006 mto
10455 19042 lto
10484 19061 lto
st
10569 19115 mto
10598 19133 lto
10640 19159 lto
10654 19167 lto
st
10739 19220 mto
10741 19221 lto
10780 19244 lto
10825 19270 lto
st
10912 19320 mto
10920 19325 lto
10999 19369 lto
st
11087 19416 mto
11171 19461 lto
11175 19463 lto
st
11264 19510 mto
11314 19535 lto
11340 19548 lto
11353 19555 lto
st
11443 19599 mto
11458 19606 lto
11480 19617 lto
11533 19642 lto
st
11624 19685 mto
11715 19726 lto
st
11806 19767 mto
11887 19802 lto
11898 19807 lto
st
11990 19846 mto
12030 19863 lto
12040 19867 lto
12082 19884 lto
st
12175 19922 mto
12180 19924 lto
12268 19958 lto
st
12361 19994 mto
12455 20029 lto
st
12549 20063 mto
12600 20082 lto
12643 20097 lto
st
12738 20129 mto
12740 20130 lto
12832 20161 lto
st
12927 20193 mto
13020 20223 lto
13022 20224 lto
st
13118 20253 mto
13160 20266 lto
13214 20282 lto
st
13309 20311 mto
13405 20339 lto
st
13502 20366 mto
13580 20388 lto
13598 20393 lto
st
13695 20419 mto
13720 20426 lto
13791 20444 lto
st
13888 20469 mto
13985 20494 lto
st
14082 20518 mto
14140 20532 lto
14179 20541 lto
st
14277 20564 mto
14280 20565 lto
14374 20586 lto
st
14472 20607 mto
14560 20627 lto
14570 20629 lto
st
14667 20650 mto
14700 20657 lto
14765 20671 lto
st
14863 20691 mto
14961 20710 lto
st
15059 20729 mto
15120 20741 lto
15158 20748 lto
st
15256 20766 mto
15260 20767 lto
15354 20785 lto
st
15453 20802 mto
15540 20817 lto
15551 20819 lto
st
15650 20836 mto
15680 20841 lto
15748 20852 lto
st
15847 20868 mto
15946 20885 lto
st
16045 20900 mto
16100 20909 lto
16143 20916 lto
st
16242 20930 mto
16341 20945 lto
st
16440 20960 mto
16520 20971 lto
16539 20974 lto
st
16638 20987 mto
16660 20990 lto
16737 21001 lto
st
16836 21014 mto
16936 21027 lto
st
17035 21040 mto
17080 21046 lto
17134 21053 lto
st
17233 21065 mto
17333 21077 lto
st
17432 21089 mto
17500 21097 lto
st
3780 22000 mto
255 255 div 128 255 div 0 255 div setrgbcolor
3782 22000 lto
st
3853 22000 mto
3875 21999 lto
3907 21997 lto
3920 21996 lto
3941 21993 lto
3950 21991 lto
st
4041 21952 mto
4051 21944 lto
4060 21936 lto
4073 21923 lto
4087 21908 lto
4100 21891 lto
4109 21878 lto
st
4159 21792 mto
4161 21787 lto
4173 21762 lto
4185 21735 lto
4196 21707 lto
4199 21700 lto
st
4232 21606 mto
4235 21598 lto
4247 21561 lto
4259 21521 lto
4262 21511 lto
st
4289 21414 mto
4295 21390 lto
4308 21342 lto
4314 21318 lto
st
4337 21220 mto
4340 21206 lto
4352 21152 lto
4359 21123 lto
st
4379 21025 mto
4390 20972 lto
4400 20927 lto
st
4419 20829 mto
4431 20765 lto
4437 20730 lto
st
4456 20632 mto
4460 20609 lto
4474 20534 lto
st
4491 20435 mto
4496 20410 lto
4508 20337 lto
st
4525 20238 mto
4529 20216 lto
4542 20140 lto
st
4558 20041 mto
4566 19995 lto
4575 19942 lto
st
4591 19844 mto
4608 19745 lto
st
4624 19646 mto
4640 19548 lto
st
4656 19449 mto
4672 19350 lto
st
4689 19252 mto
4705 19153 lto
st
4721 19054 mto
4737 18956 lto
st
4754 18857 mto
4760 18823 lto
4771 18759 lto
st
4788 18660 mto
4803 18573 lto
4805 18561 lto
st
4822 18463 mto
4823 18457 lto
4840 18365 lto
st
4858 18266 mto
4862 18242 lto
4875 18168 lto
st
4894 18069 mto
4899 18045 lto
4900 18038 lto
4913 17971 lto
st
4932 17873 mto
4937 17849 lto
4952 17775 lto
st
4971 17677 mto
4972 17672 lto
4990 17587 lto
4992 17579 lto
st
5013 17481 mto
5025 17425 lto
5034 17384 lto
st
5056 17286 mto
5057 17283 lto
5075 17210 lto
5080 17189 lto
st
5104 17092 mto
5109 17070 lto
5126 17003 lto
5128 16995 lto
st
5154 16898 mto
5160 16876 lto
5177 16816 lto
5180 16806 lto
5181 16802 lto
st
5210 16706 mto
5214 16693 lto
5231 16639 lto
5240 16611 lto
st
5272 16516 mto
5282 16487 lto
5299 16440 lto
5306 16422 lto
st
5343 16329 mto
5354 16302 lto
5372 16263 lto
5384 16238 lto
st
5428 16148 mto
5444 16119 lto
5460 16090 lto
5477 16061 lto
st
5533 15979 mto
5536 15975 lto
5556 15950 lto
5576 15926 lto
5596 15905 lto
5598 15902 lto
st
5674 15838 mto
5683 15831 lto
5705 15818 lto
5726 15806 lto
5740 15800 lto
5762 15791 lto
5762 15791 lto
st
5860 15774 mto
5879 15774 lto
5880 15774 lto
5905 15776 lto
5931 15779 lto
5957 15785 lto
5959 15786 lto
st
6053 15820 mto
6077 15833 lto
6107 15850 lto
6137 15868 lto
6140 15870 lto
st
6220 15929 mto
6224 15932 lto
6258 15960 lto
6293 15991 lto
6296 15994 lto
st
6369 16063 mto
6376 16070 lto
6416 16112 lto
6438 16135 lto
st
6505 16209 mto
6535 16242 lto
6571 16284 lto
st
6637 16360 mto
6639 16362 lto
6700 16437 lto
st
6763 16514 mto
6795 16553 lto
6826 16592 lto
st
6889 16670 mto
6951 16749 lto
st
7013 16827 mto
7075 16906 lto
st
7136 16984 mto
7140 16989 lto
7198 17063 lto
st
7260 17142 mto
7280 17167 lto
7322 17220 lto
st
7384 17298 mto
7408 17328 lto
7420 17343 lto
7447 17376 lto
st
7510 17454 mto
7522 17469 lto
7560 17516 lto
7573 17532 lto
st
7637 17608 mto
7650 17624 lto
7700 17684 lto
7701 17685 lto
st
7766 17761 mto
7783 17781 lto
7832 17837 lto
st
7898 17911 mto
7920 17936 lto
7965 17986 lto
st
8032 18060 mto
8058 18088 lto
8100 18133 lto
st
8169 18205 mto
8197 18234 lto
8239 18276 lto
st
8310 18347 mto
8338 18375 lto
8382 18417 lto
st
8454 18486 mto
8479 18510 lto
8527 18554 lto
st
8601 18621 mto
8621 18639 lto
8676 18688 lto
st
8752 18753 mto
8763 18763 lto
8820 18811 lto
8828 18818 lto
st
8905 18881 mto
8960 18926 lto
8983 18944 lto
st
9062 19006 mto
9100 19035 lto
9142 19066 lto
st
9222 19126 mto
9240 19140 lto
9303 19185 lto
st
9384 19243 mto
9467 19299 lto
st
9550 19355 mto
9615 19397 lto
9634 19409 lto
st
9718 19462 mto
9757 19486 lto
9800 19513 lto
9803 19515 lto
st
9890 19566 mto
9899 19571 lto
9940 19596 lto
9976 19616 lto
st
10063 19665 mto
10080 19675 lto
10151 19713 lto
st
10239 19760 mto
10326 19805 lto
10328 19806 lto
st
10417 19850 mto
10469 19876 lto
10500 19891 lto
10507 19894 lto
st
10598 19937 mto
10612 19944 lto
10640 19957 lto
10689 19979 lto
st
10780 20019 mto
10872 20059 lto
st
10964 20097 mto
11042 20130 lto
11057 20136 lto
st
11149 20173 mto
11186 20187 lto
11200 20192 lto
11243 20208 lto
st
11336 20244 mto
11340 20245 lto
11431 20277 lto
st
11525 20311 mto
11617 20343 lto
11619 20344 lto
st
11714 20375 mto
11760 20390 lto
11809 20406 lto
st
11905 20436 mto
12000 20466 lto
st
12096 20494 mto
12180 20519 lto
12192 20522 lto
st
12288 20550 mto
12320 20559 lto
12384 20577 lto
st
12481 20603 mto
12578 20628 lto
st
12675 20653 mto
12740 20670 lto
12771 20678 lto
st
12869 20701 mto
12880 20704 lto
12966 20724 lto
st
13063 20747 mto
13160 20768 lto
13161 20768 lto
st
13259 20790 mto
13300 20799 lto
13357 20811 lto
st
13454 20831 mto
13552 20851 lto
st
13650 20871 mto
13720 20884 lto
13749 20890 lto
st
13847 20908 mto
13860 20911 lto
13945 20926 lto
st
14044 20944 mto
14140 20961 lto
14142 20961 lto
st
14241 20978 mto
14280 20985 lto
14339 20995 lto
st
14438 21011 mto
14537 21027 lto
st
14636 21042 mto
14700 21052 lto
14734 21057 lto
st
14833 21072 mto
14840 21073 lto
14932 21086 lto
st
15031 21100 mto
15120 21113 lto
15130 21114 lto
st
15229 21128 mto
15260 21132 lto
15329 21141 lto
st
15428 21154 mto
15527 21166 lto
st
15626 21179 mto
15680 21186 lto
15725 21191 lto
st
15825 21203 mto
15924 21215 lto
st
16023 21226 mto
16100 21234 lto
16123 21237 lto
st
16222 21248 mto
16240 21250 lto
16322 21259 lto
st
16421 21269 mto
16520 21279 lto
16521 21279 lto
st
16620 21289 mto
16660 21293 lto
16720 21299 lto
st
16819 21309 mto
16919 21318 lto
st
17018 21327 mto
17080 21333 lto
17118 21336 lto
st
17217 21345 mto
17220 21345 lto
17317 21353 lto
st
17417 21362 mto
17500 21369 lto
st
3780 22000 mto
0 255 div 0 255 div 0 255 div setrgbcolor
3789 22000 lto
st
3859 22000 mto
3904 21999 lto
3920 21998 lto
3949 21995 lto
3950 21995 lto
st
4046 21971 mto
4054 21968 lto
4060 21965 lto
4078 21955 lto
4096 21944 lto
4113 21931 lto
4129 21916 lto
st
4195 21841 mto
4200 21835 lto
4216 21812 lto
4232 21787 lto
4248 21760 lto
4249 21757 lto
st
4294 21668 mto
4296 21665 lto
4313 21629 lto
4330 21591 lto
4336 21577 lto
st
4373 21484 mto
4373 21483 lto
4390 21437 lto
4407 21390 lto
st
4440 21296 mto
4445 21283 lto
4464 21224 lto
4471 21201 lto
st
4502 21106 mto
4523 21038 lto
4531 21010 lto
st
4560 20914 mto
4571 20879 lto
4589 20819 lto
st
4617 20723 mto
4620 20712 lto
4645 20627 lto
st
4673 20531 mto
4701 20435 lto
st
4730 20339 mto
4738 20312 lto
4758 20243 lto
st
4788 20147 mto
4789 20143 lto
4816 20055 lto
4817 20052 lto
st
4847 19957 mto
4866 19898 lto
4878 19861 lto
st
4911 19767 mto
4924 19728 lto
4943 19672 lto
st
4978 19578 mto
4993 19538 lto
5014 19485 lto
st
5052 19393 mto
5063 19366 lto
5085 19314 lto
5091 19301 lto
st
5133 19210 mto
5153 19169 lto
5176 19124 lto
5178 19121 lto
st
5227 19033 mto
5249 18996 lto
5272 18959 lto
5279 18948 lto
st
5336 18866 mto
5344 18856 lto
5367 18826 lto
5392 18797 lto
5399 18789 lto
st
5469 18717 mto
5485 18703 lto
5510 18683 lto
5536 18663 lto
5548 18655 lto
st
5635 18607 mto
5654 18598 lto
5682 18588 lto
5711 18579 lto
5729 18574 lto
st
5828 18562 mto
5831 18562 lto
5863 18562 lto
5880 18562 lto
5913 18565 lto
5928 18567 lto
st
6026 18588 mto
6058 18597 lto
6097 18610 lto
6121 18619 lto
st
6213 18658 mto
6249 18676 lto
6297 18701 lto
6300 18702 lto
6302 18703 lto
st
6389 18753 mto
6405 18762 lto
6440 18784 lto
6474 18805 lto
st
6557 18860 mto
6566 18866 lto
6580 18875 lto
6640 18916 lto
st
6722 18974 mto
6803 19032 lto
st
6884 19091 mto
6964 19151 lto
st
7045 19210 mto
7125 19269 lto
st
7206 19328 mto
7280 19381 lto
7287 19386 lto
st
7369 19445 mto
7408 19473 lto
7420 19481 lto
7451 19502 lto
st
7533 19559 mto
7536 19561 lto
7560 19578 lto
7616 19615 lto
st
7699 19670 mto
7700 19671 lto
7783 19725 lto
st
7867 19778 mto
7945 19827 lto
7952 19831 lto
st
8038 19883 mto
8085 19911 lto
8120 19931 lto
8124 19933 lto
st
8211 19983 mto
8224 19991 lto
8260 20011 lto
8298 20032 lto
st
8386 20080 mto
8400 20087 lto
8475 20126 lto
st
8564 20171 mto
8649 20213 lto
8654 20215 lto
st
8743 20259 mto
8790 20281 lto
8820 20295 lto
8834 20301 lto
st
8925 20342 mto
8933 20346 lto
8960 20358 lto
9017 20382 lto
st
9109 20422 mto
9201 20460 lto
st
9294 20497 mto
9360 20523 lto
9380 20530 lto
9387 20533 lto
st
9481 20568 mto
9503 20576 lto
9520 20582 lto
9575 20602 lto
st
9669 20635 mto
9764 20667 lto
st
9859 20699 mto
9933 20723 lto
9940 20725 lto
9954 20729 lto
st
10050 20759 mto
10076 20767 lto
10080 20768 lto
10146 20787 lto
st
10242 20815 mto
10338 20842 lto
st
10435 20868 mto
10500 20886 lto
10531 20894 lto
st
10628 20919 mto
10640 20922 lto
10725 20943 lto
st
10822 20966 mto
10920 20989 lto
st
11017 21011 mto
11060 21020 lto
11115 21032 lto
st
11213 21053 mto
11311 21073 lto
st
11409 21093 mto
11480 21107 lto
11507 21112 lto
st
11605 21130 mto
11620 21133 lto
11704 21148 lto
st
11802 21166 mto
11900 21183 lto
11901 21183 lto
st
11999 21199 mto
12040 21206 lto
12098 21215 lto
st
12197 21231 mto
12296 21245 lto
st
12395 21260 mto
12460 21270 lto
12493 21275 lto
st
12592 21289 mto
12600 21290 lto
12692 21302 lto
st
12791 21316 mto
12880 21327 lto
12890 21328 lto
st
12989 21341 mto
13020 21345 lto
13088 21353 lto
st
13188 21365 mto
13287 21377 lto
st
13386 21387 mto
13440 21393 lto
13486 21398 lto
st
13585 21410 mto
13685 21419 lto
st
13784 21429 mto
13860 21437 lto
13884 21439 lto
st
13983 21449 mto
14000 21451 lto
14083 21459 lto
st
14182 21468 mto
14280 21477 lto
14282 21477 lto
st
14381 21486 mto
14420 21489 lto
14481 21494 lto
st
14581 21503 mto
14680 21510 lto
st
14780 21518 mto
14840 21523 lto
14880 21526 lto
st
14980 21534 mto
14980 21534 lto
15079 21541 lto
st
15179 21548 mto
15260 21554 lto
15279 21555 lto
st
15379 21562 mto
15400 21564 lto
15478 21569 lto
st
15578 21575 mto
15678 21582 lto
st
15778 21588 mto
15820 21591 lto
15878 21594 lto
st
15977 21600 mto
16077 21606 lto
st
16177 21611 mto
16240 21615 lto
16277 21617 lto
st
16377 21623 mto
16380 21623 lto
16477 21629 lto
st
16576 21634 mto
16660 21638 lto
16676 21639 lto
st
16776 21644 mto
16800 21645 lto
16876 21649 lto
st
16976 21654 mto
17076 21659 lto
st
17176 21663 mto
17220 21665 lto
17276 21668 lto
st
17375 21673 mto
17475 21677 lto
st
255 255 div 0 255 div 0 255 div setrgbcolor
[] 0 60 0 0 10 lsty
13200 11576 mto
14800 11576 lto
st
0 255 div 0 255 div 255 255 div setrgbcolor
[] 0 40 0 0 10 lsty
13200 12252 mto
14800 12252 lto
st
0 255 div 128 255 div 0 255 div setrgbcolor
13200 12928 mto
14800 12928 lto
st
255 255 div 128 255 div 0 255 div setrgbcolor
13200 13604 mto
14800 13604 lto
st
0 255 div 0 255 div 0 255 div setrgbcolor
13200 14280 mto
14800 14280 lto
st
255 255 div 0 255 div 0 255 div setrgbcolor
[100 100 ] 0 40 0 0 10 lsty
13200 14956 mto
14800 14956 lto
st
0 255 div 0 255 div 255 255 div setrgbcolor
13200 15632 mto
14800 15632 lto
st
0 255 div 128 255 div 0 255 div setrgbcolor
13200 16308 mto
14800 16308 lto
st
255 255 div 128 255 div 0 255 div setrgbcolor
13200 16984 mto
14800 16984 lto
st
0 255 div 0 255 div 0 255 div setrgbcolor
13200 17660 mto
14800 17660 lto
st
12200 23400 mto
0 0 (T) ashow
1800 15400 mto
[4.32014e-14 -705.556 -705.556 -4.32014e-14 0 0] /Helvetica-ISOLatin1 F
0 0 (C/N) ashow
172 0 rmto
[3.0241e-14 -493.889 -493.889 -3.0241e-14 0 0] /Helvetica-ISOLatin1 F
0 0 (spin) ashow
-172 0 rmto
15082 11764 mto
[564.444 -0 -0 -564.444 0 0] /Helvetica-ISOLatin1 F
0 0 (x=0.0) ashow
15082 12440 mto
0 0 (x=0.1) ashow
15082 13116 mto
0 0 (x=0.2) ashow
15082 13792 mto
0 0 (x=0.3) ashow
15082 14468 mto
0 0 (x=0.4) ashow
15082 15144 mto
0 0 (x=0.5) ashow
15082 15820 mto
0 0 (x=0.6) ashow
15082 16496 mto
0 0 (x=0.7) ashow
15082 17172 mto
0 0 (x=0.8) ashow
15082 17848 mto
0 0 (x=0.9) ashow
EndPage
PageRestore
showpage
end
%%Trailer
%%DocumentNeededResources: 
% font /Helvetica-ISOLatin1
%%EOF
