%!PS-Adobe-3.0 EPSF-3.0
%%Creator: GRA2PS 2.03.20
%%Title: Ngraph
%%CreationDate: 8-9-2016 17:14
%%Pages: 1
%%DocumentNeededResources: (atend)
%%BoundingBox: 32 170 501 534
%%EndComments
%
% Ngraph.ps 2.03.20
%
%%BeginProlog
%
/NgraphDict 100 dict def
NgraphDict begin
%
% Procedure Definition
%
/PageSave {/Sobject save def} bind def
/PageRestore {Sobject restore} bind def
/@Paper {
  72 2540 div -72 2540 div scale % 1unit = 0.01mm
  ANGLE rotate
  0 bottom translate                    % origin is (0 bottom)
} bind def
/BeginPage {@Paper gsave} bind def
/EndPage {grestore} bind def
/box {
  moveto
  1 index 0 rlineto
  0 exch rlineto
  neg 0 rlineto
  closepath } bind def
/view {
  mark
  currentfont
  currentmiterlimit
  currentlinejoin
  currentlinecap
  currentlinewidth
  currentdash
  currentgray
  currentrgbcolor
  grestore gsave
  counttomark dup 6 add exch roll
  pop
  5 3 roll
  translate
  1 eq { 0 0 box clip newpath } { pop pop } ifelse
  setrgbcolor
  setgray
  setdash
  setlinewidth
  setlinecap
  setlinejoin
  setmiterlimit
  setfont
 } bind def
/viewc {
  mark
  currentfont
  currentmiterlimit
  currentlinejoin
  currentlinecap
  currentlinewidth
  currentdash
  currentrgbcolor
  currentgray
  grestore gsave
  counttomark dup 6 add exch roll
  pop
  5 3 roll
  translate
  1 eq { 0 0 box clip newpath } { pop pop } ifelse
  setgray
  setrgbcolor
  setdash
  setlinewidth
  setlinecap
  setlinejoin
  setmiterlimit
  setfont
 } bind def
/F { findfont exch makefont setfont } bind def
/lsty {
  setmiterlimit
  setlinejoin
  setlinecap
  setlinewidth
  setdash } bind def
/mto /moveto load def
/rmto /rmoveto load def
/lto /lineto load def
/rlto /rlineto load def
/st /stroke load def
/l { moveto lineto stroke } bind def
/e { 
  gsave
  newpath
  translate
  0 index 1 exch div 5 1 roll
  1 index 1 exch div 6 1 roll
  scale
  0 0 1 5 3 roll exch 100 div exch 100 div arc
  scale
  stroke
  grestore } bind def
/fe {
  gsave
  newpath
  translate
  0 index 1 exch div 5 1 roll
  1 index 1 exch div 6 1 roll
  scale
  0 0 moveto 0 0 1 5 3 roll exch 100 div exch 100 div arc closepath
  scale
  fill 
  grestore } bind def
/ae {
  gsave
  newpath
  translate
  0 index 1 exch div 5 1 roll
  1 index 1 exch div 6 1 roll
  scale
  0 0 1 5 3 roll exch 100 div exch 100 div arc closepath
  scale
  fill
  grestore } bind def
/pix {
  newpath 20 0 360 arc closepath fill } bind def
/rec {
  box stroke } bind def
/bar {
  box fill } bind def
/lines {
  1 sub
  3 1 roll
  moveto
  {lineto} repeat } bind def
/poly {
  1 sub
  3 1 roll
  moveto
  {lineto} repeat closepath } bind def
/rpo { lines stroke } bind def
/dpo { poly stroke } bind def
/fpo { poly fill } bind def
/epo { poly eofill } bind def
/ashowB {
  3 copy 3 copy 3 copy
  gsave BOLDS 0 rmoveto ashow grestore
  gsave 0 BOLDS rmoveto ashow grestore
  gsave BOLDS BOLDS rmoveto ashow grestore
  ashow } bind def
end
%
% ISOLatin1Encoding
%
/NGPLatin1Encoding 256 array def
0 1 255 {NGPLatin1Encoding exch /.notdef put} for
NGPLatin1Encoding
dup 8#101 /A put          dup 8#306 /AE put         dup 8#301 /Aacute put
dup 8#302 /Acircumflex put dup 8#304 /Adieresis put dup 8#300 /Agrave put
dup 8#305 /Aring put      dup 8#303 /Atilde put     dup 8#102 /B put
dup 8#103 /C put          dup 8#307 /Ccedilla put   dup 8#104 /D put
dup 8#105 /E put          dup 8#311 /Eacute put     dup 8#312 /Ecircumflex put
dup 8#313 /Edieresis put  dup 8#310 /Egrave put     dup 8#320 /Eth put
dup 8#106 /F put          dup 8#107 /G put          dup 8#110 /H put
dup 8#111 /I put          dup 8#315 /Iacute put     dup 8#316 /Icircumflex put
dup 8#317 /Idieresis put  dup 8#314 /Igrave put     dup 8#112 /J put
dup 8#113 /K put          dup 8#114 /L put          dup 8#115 /M put
dup 8#116 /N put          dup 8#321 /Ntilde put     dup 8#117 /O put
dup 8#323 /Oacute put     dup 8#324 /Ocircumflex put dup 8#326 /Odieresis put
dup 8#322 /Ograve put     dup 8#330 /Oslash put     dup 8#325 /Otilde put
dup 8#120 /P put          dup 8#121 /Q put          dup 8#122 /R put
dup 8#123 /S put          dup 8#124 /T put          dup 8#336 /Thorn put
dup 8#125 /U put          dup 8#332 /Uacute put     dup 8#333 /Ucircumflex put
dup 8#334 /Udieresis put  dup 8#331 /Ugrave put     dup 8#126 /V put
dup 8#127 /W put          dup 8#130 /X put          dup 8#131 /Y put
dup 8#335 /Yacute put     dup 8#132 /Z put          dup 8#141 /a put
dup 8#341 /aacute put     dup 8#342 /acircumflex put dup 8#264 /acute put
dup 8#344 /adieresis put  dup 8#346 /ae put         dup 8#340 /agrave put
dup 8#046 /ampersand put  dup 8#345 /aring put      dup 8#136 /asciicircum put
dup 8#176 /asciitilde put dup 8#052 /asterisk put   dup 8#100 /at put
dup 8#343 /atilde put     dup 8#142 /b put          dup 8#134 /backslash put
dup 8#174 /bar put        dup 8#173 /braceleft put  dup 8#175 /braceright put
dup 8#133 /bracketleft put dup 8#135 /bracketright put dup 8#246 /brokenbar put
dup 8#143 /c put          dup 8#347 /ccedilla put   dup 8#242 /cent put
dup 8#072 /colon put      dup 8#054 /comma put      dup 8#251 /copyright put
dup 8#244 /currency put   dup 8#144 /d put          dup 8#260 /degree put
dup 8#367 /divide put     dup 8#044 /dollar put     dup 8#145 /e put
dup 8#351 /eacute put     dup 8#352 /ecircumflex put dup 8#353 /edieresis put
dup 8#350 /egrave put     dup 8#070 /eight put      dup 8#075 /equal put
dup 8#360 /eth put        dup 8#041 /exclam put     dup 8#241 /exclamdown put
dup 8#146 /f put          dup 8#065 /five put       dup 8#064 /four put
dup 8#147 /g put          dup 8#337 /germandbls put dup 8#076 /greater put
dup 8#253 /guillemotleft put dup 8#273 /guillemotright put dup 8#150 /h put
dup 8#255 /hyphen put     dup 8#151 /i put          dup 8#355 /iacute put
dup 8#356 /icircumflex put dup 8#357 /idieresis put dup 8#354 /igrave put
dup 8#152 /j put          dup 8#153 /k put          dup 8#154 /l put
dup 8#074 /less put       dup 8#254 /logicalnot put dup 8#155 /m put
dup 8#055 /minus put      dup 8#265 /mu put         dup 8#327 /multiply put
dup 8#156 /n put          dup 8#071 /nine put       dup 8#361 /ntilde put
dup 8#043 /numbersign put dup 8#157 /o put          dup 8#363 /oacute put
dup 8#364 /ocircumflex put dup 8#366 /odieresis put dup 8#362 /ograve put
dup 8#061 /one put        dup 8#275 /onehalf put    dup 8#274 /onequarter put
dup 8#271 /onesuperior put dup 8#252 /ordfeminine put dup 8#272 /ordmasculine put
dup 8#370 /oslash put     dup 8#365 /otilde put     dup 8#160 /p put
dup 8#266 /paragraph put  dup 8#050 /parenleft put  dup 8#051 /parenright put
dup 8#045 /percent put    dup 8#056 /period put     dup 8#267 /periodcentered put
dup 8#053 /plus put       dup 8#261 /plusminus put  dup 8#161 /q put
dup 8#077 /question put   dup 8#277 /questiondown put dup 8#042 /quotedbl put
dup 8#140 /quoteleft put  dup 8#047 /quoteright put dup 8#162 /r put
dup 8#256 /registered put dup 8#163 /s put          dup 8#247 /section put
dup 8#073 /semicolon put  dup 8#067 /seven put      dup 8#066 /six put
dup 8#057 /slash put      dup 8#040 /space put      dup 8#243 /sterling put
dup 8#164 /t put          dup 8#376 /thorn put      dup 8#063 /three put
dup 8#276 /threequarters put dup 8#263 /threesuperior put dup 8#062 /two put
dup 8#262 /twosuperior put dup 8#165 /u put         dup 8#372 /uacute put
dup 8#373 /ucircumflex put dup 8#374 /udieresis put dup 8#371 /ugrave put
dup 8#137 /underscore put dup 8#166 /v put          dup 8#167 /w put
dup 8#170 /x put          dup 8#171 /y put          dup 8#375 /yacute put
dup 8#377 /ydieresis put  dup 8#245 /yen put        dup 8#172 /z put
dup 8#060 /zero put       dup 8#250 /dieresis put   dup 8#257 /macron put
dup 8#270 /cedilla put
% for ISOLatin1Encoding
%dup 8#220 /dotlessi put   dup 8#221 /grave put      dup 8#222 /acute put
%dup 8#223 /circumflex put dup 8#224 /tilde put      dup 8#225 /macron put
%dup 8#226 /breve put      dup 8#227 /dotaccent put  dup 8#230 /dieresis put
%dup 8#232 /ring put       dup 8#233 /cedilla put    dup 8#235 /hungarumlaut put
%dup 8#236 /ogonek put     dup 8#237 /caron put
% for Windows
dup 8#200 /colonmonetary put dup 8#202 /comma put   dup 8#203 /florin put
dup 8#204 /quotedblbase put dup 8#205 /ellipsis put dup 8#206 /dagger put
dup 8#207 /daggerdbl put  dup 8#210 /circumflex put dup 8#211 /perthousand put
dup 8#212 /Scaron put    dup 8#213 /guilsinglleft put dup 8#214 /OE put
dup 8#221 /quoteleft put dup 8#222 /quoteright put   dup 8#223 /quotedblleft put
dup 8#224 /quotedblright put dup 8#225 /bullet put dup 8#226 /hyphen put
dup 8#227 /emdash put  dup 8#230 /hungarumlaut put dup 8#231 /trademark put
dup 8#232 /scaron put  dup 8#233 /guilsinglright put dup 8#234 /oe put
dup 8#237 /Ydieresis put
pop
/ReEncode {
  findfont
  dup length dict begin
    {1 index /FID ne {def} {pop pop} ifelse} forall
    /Encoding NGPLatin1Encoding def
    currentdict
  end
  definefont
  pop
} bind def
/Times-Roman-ISOLatin1 /Times-Roman ReEncode
/Times-Bold-ISOLatin1 /Times-Bold ReEncode
/Times-Italic-ISOLatin1 /Times-Italic ReEncode
/Times-BoldItalic-ISOLatin1 /Times-BoldItalic ReEncode
/Helvetica-ISOLatin1 /Helvetica ReEncode
/Helvetica-Bold-ISOLatin1 /Helvetica-Bold ReEncode
/Helvetica-Oblique-ISOLatin1 /Helvetica-Oblique ReEncode
/Helvetica-BoldOblique-ISOLatin1 /Helvetica-BoldOblique ReEncode
/Courier-ISOLatin1 /Courier ReEncode
/Courier-Bold-ISOLatin1 /Courier-Bold ReEncode
/Courier-Oblique-ISOLatin1 /Courier-Oblique ReEncode
/Courier-BoldOblique-ISOLatin1 /Courier-BoldOblique ReEncode
%
%%EndProlog
%%Page: Figure 1
%%BeginPageSetup
/ANGLE 0 def
/bottom -29700 def
NgraphDict begin
PageSave
BeginPage
%%EndPageSetup
0 0 21000 29700 1 viewc
0 255 div 0 255 div 0 255 div setrgbcolor
[] 0 40 2 0 10 lsty
3500 22000 17500 22000 l
[] 0 40 0 0 10 lsty
3500 22000 3500 21700 l
4900 22000 4900 21900 l
6300 22000 6300 21800 l
7700 22000 7700 21900 l
9100 22000 9100 21800 l
10500 22000 10500 21900 l
11900 22000 11900 21800 l
13300 22000 13300 21900 l
14700 22000 14700 21800 l
16100 22000 16100 21900 l
17500 22000 17500 21800 l
3304 22738 mto
%IncludeResource: font /Helvetica-ISOLatin1
[705.556 -0 -0 -705.556 0 0] /Helvetica-ISOLatin1 F
0 0 (0) ashow
8904 22738 mto
0 0 (2) ashow
14504 22738 mto
0 0 (4) ashow
[] 0 40 2 0 10 lsty
3500 22000 3500 11000 l
[] 0 40 0 0 10 lsty
3500 22000 3800 22000 l
3500 20472 3700 20472 l
3500 18944 3700 18944 l
3500 17416 3700 17416 l
3500 15888 3700 15888 l
3500 14361 3700 14361 l
3500 12833 3700 12833 l
3500 11305 3700 11305 l
3008 22244 mto
0 0 (0) ashow
2420 19188 mto
0 0 (0.2) ashow
2420 16132 mto
0 0 (0.4) ashow
2420 13077 mto
0 0 (0.6) ashow
[] 0 40 2 0 10 lsty
3500 11000 17500 11000 l
[] 0 40 0 0 10 lsty
3500 11000 3500 11300 l
4900 11000 4900 11100 l
6300 11000 6300 11200 l
7700 11000 7700 11100 l
9100 11000 9100 11200 l
10500 11000 10500 11100 l
11900 11000 11900 11200 l
13300 11000 13300 11100 l
14700 11000 14700 11200 l
16100 11000 16100 11100 l
17500 11000 17500 11200 l
[] 0 40 2 0 10 lsty
17500 22000 17500 11000 l
[] 0 40 0 0 10 lsty
17500 22000 17200 21999 l
17500 20472 17300 20471 l
17500 18944 17300 18943 l
17500 17416 17300 17415 l
17500 15888 17300 15887 l
17500 14361 17300 14360 l
17500 12833 17300 12832 l
17500 11305 17300 11304 l
[] 0 60 0 0 10 lsty
3780 18856 mto
255 255 div 0 255 div 0 255 div setrgbcolor
3920 18856 lto
4046 18856 lto
4060 18856 lto
4101 18855 lto
4133 18853 lto
4160 18850 lto
4185 18846 lto
4200 18843 lto
4225 18836 lto
4250 18827 lto
4275 18816 lto
4302 18803 lto
4329 18788 lto
4340 18782 lto
4367 18764 lto
4393 18746 lto
4417 18726 lto
4441 18706 lto
4464 18684 lto
4480 18668 lto
4502 18644 lto
4525 18618 lto
4548 18590 lto
4572 18558 lto
4597 18524 lto
4620 18491 lto
4648 18448 lto
4677 18404 lto
4707 18356 lto
4736 18306 lto
4760 18265 lto
4790 18211 lto
4820 18154 lto
4853 18093 lto
4886 18027 lto
4900 18000 lto
4938 17925 lto
4978 17842 lto
5021 17751 lto
5040 17712 lto
5095 17595 lto
5157 17462 lto
5180 17412 lto
5259 17242 lto
5320 17109 lto
5392 16955 lto
5460 16812 lto
5460 16812 lto
5519 16689 lto
5573 16580 lto
5600 16525 lto
5650 16425 lto
5701 16327 lto
5740 16252 lto
5790 16158 lto
5839 16067 lto
5880 15994 lto
5929 15909 lto
5977 15825 lto
6020 15753 lto
6068 15674 lto
6116 15597 lto
6160 15528 lto
6208 15456 lto
6257 15383 lto
6300 15320 lto
6351 15248 lto
6403 15177 lto
6440 15127 lto
6491 15061 lto
6542 14996 lto
6580 14949 lto
6633 14884 lto
6688 14821 lto
6720 14784 lto
6776 14721 lto
6833 14660 lto
6860 14631 lto
6918 14571 lto
6977 14513 lto
7000 14490 lto
7061 14432 lto
7123 14374 lto
7140 14359 lto
7204 14302 lto
7269 14246 lto
7280 14237 lto
7347 14182 lto
7415 14128 lto
7420 14124 lto
7490 14071 lto
7560 14019 lto
7634 13966 lto
7700 13921 lto
7776 13870 lto
7840 13829 lto
7921 13779 lto
7980 13743 lto
8065 13694 lto
8120 13662 lto
8208 13614 lto
8260 13587 lto
8353 13539 lto
8400 13516 lto
8496 13469 lto
8540 13448 lto
8642 13402 lto
8680 13385 lto
8786 13339 lto
8820 13325 lto
8929 13280 lto
8960 13268 lto
9076 13223 lto
9100 13214 lto
9217 13171 lto
9240 13163 lto
9367 13119 lto
9380 13114 lto
9507 13072 lto
9520 13068 lto
9655 13025 lto
9660 13023 lto
9800 12981 lto
9800 12981 lto
9940 12941 lto
10080 12902 lto
10220 12865 lto
10360 12829 lto
10500 12795 lto
10640 12762 lto
10780 12731 lto
10920 12700 lto
11060 12671 lto
11200 12643 lto
11340 12616 lto
11480 12589 lto
11620 12564 lto
11760 12540 lto
11900 12516 lto
12040 12493 lto
12180 12471 lto
12320 12450 lto
12460 12429 lto
12600 12409 lto
12740 12389 lto
12880 12370 lto
13020 12352 lto
13160 12334 lto
13300 12317 lto
13440 12300 lto
13580 12284 lto
13720 12268 lto
13860 12253 lto
14000 12238 lto
14140 12223 lto
14280 12209 lto
14420 12195 lto
14560 12182 lto
14700 12169 lto
14840 12156 lto
14980 12143 lto
15120 12131 lto
15260 12120 lto
15400 12108 lto
15540 12097 lto
15680 12086 lto
15820 12075 lto
15960 12065 lto
16100 12055 lto
16240 12045 lto
16380 12035 lto
16520 12026 lto
16660 12016 lto
16800 12007 lto
16940 11998 lto
17080 11990 lto
17220 11981 lto
17360 11973 lto
17500 11965 lto
st
[] 0 40 0 0 10 lsty
3780 17856 mto
0 255 div 0 255 div 255 255 div setrgbcolor
3920 17856 lto
4015 17855 lto
4060 17854 lto
4105 17851 lto
4144 17847 lto
4179 17842 lto
4200 17838 lto
4232 17830 lto
4263 17821 lto
4294 17810 lto
4323 17798 lto
4340 17789 lto
4369 17774 lto
4398 17757 lto
4427 17737 lto
4457 17716 lto
4480 17697 lto
4508 17673 lto
4537 17647 lto
4566 17618 lto
4596 17587 lto
4620 17560 lto
4650 17526 lto
4680 17488 lto
4712 17448 lto
4745 17404 lto
4760 17383 lto
4795 17335 lto
4831 17282 lto
4869 17225 lto
4900 17178 lto
4943 17110 lto
4989 17037 lto
5038 16956 lto
5040 16953 lto
5098 16856 lto
5164 16745 lto
5180 16718 lto
5264 16576 lto
5320 16481 lto
5411 16328 lto
5460 16246 lto
5531 16129 lto
5596 16023 lto
5600 16018 lto
5662 15920 lto
5721 15829 lto
5740 15799 lto
5797 15713 lto
5855 15628 lto
5880 15592 lto
5939 15509 lto
5996 15429 lto
6020 15396 lto
6076 15321 lto
6133 15247 lto
6160 15213 lto
6216 15142 lto
6274 15072 lto
6300 15041 lto
6359 14971 lto
6419 14903 lto
6440 14880 lto
6501 14813 lto
6562 14748 lto
6580 14729 lto
6642 14666 lto
6704 14605 lto
6720 14589 lto
6783 14529 lto
6848 14469 lto
6860 14458 lto
6928 14398 lto
6996 14339 lto
7000 14336 lto
7070 14278 lto
7140 14221 lto
7213 14165 lto
7280 14114 lto
7355 14059 lto
7420 14014 lto
7499 13960 lto
7560 13919 lto
7643 13866 lto
7700 13830 lto
7785 13779 lto
7840 13747 lto
7930 13696 lto
7980 13668 lto
8074 13618 lto
8120 13594 lto
8217 13544 lto
8260 13523 lto
8362 13475 lto
8400 13457 lto
8506 13409 lto
8540 13393 lto
8649 13346 lto
8680 13333 lto
8794 13287 lto
8820 13276 lto
8937 13231 lto
8960 13222 lto
9083 13176 lto
9100 13170 lto
9226 13126 lto
9240 13121 lto
9374 13076 lto
9380 13074 lto
9514 13030 lto
9520 13029 lto
9660 12985 lto
9800 12944 lto
9940 12904 lto
10080 12866 lto
10220 12830 lto
10360 12795 lto
10500 12761 lto
10640 12729 lto
10780 12698 lto
10920 12668 lto
11060 12639 lto
11200 12611 lto
11340 12584 lto
11480 12558 lto
11620 12533 lto
11760 12508 lto
11900 12485 lto
12040 12462 lto
12180 12440 lto
12320 12419 lto
12460 12398 lto
12600 12379 lto
12740 12359 lto
12880 12341 lto
13020 12322 lto
13160 12305 lto
13300 12288 lto
13440 12271 lto
13580 12255 lto
13720 12239 lto
13860 12224 lto
14000 12209 lto
14140 12195 lto
14280 12181 lto
14420 12167 lto
14560 12154 lto
14700 12141 lto
14840 12128 lto
14980 12116 lto
15120 12104 lto
15260 12093 lto
15400 12081 lto
15540 12070 lto
15680 12060 lto
15820 12049 lto
15960 12039 lto
16100 12029 lto
16240 12019 lto
16380 12010 lto
16520 12001 lto
16660 11992 lto
16800 11983 lto
16940 11974 lto
17080 11966 lto
17220 11958 lto
17360 11950 lto
17500 11942 lto
st
3780 17382 mto
0 255 div 128 255 div 0 255 div setrgbcolor
3920 17382 lto
4026 17381 lto
4060 17380 lto
4110 17377 lto
4152 17373 lto
4189 17368 lto
4200 17366 lto
4235 17360 lto
4268 17351 lto
4300 17341 lto
4331 17330 lto
4340 17326 lto
4371 17312 lto
4402 17297 lto
4433 17279 lto
4464 17259 lto
4480 17247 lto
4510 17225 lto
4541 17200 lto
4573 17173 lto
4605 17144 lto
4620 17130 lto
4653 17097 lto
4687 17061 lto
4722 17023 lto
4758 16981 lto
4760 16978 lto
4796 16934 lto
4834 16887 lto
4874 16835 lto
4900 16801 lto
4945 16741 lto
4992 16674 lto
5040 16607 lto
5102 16518 lto
5171 16416 lto
5180 16403 lto
5263 16280 lto
5320 16196 lto
5431 16033 lto
5460 15990 lto
5540 15875 lto
5600 15790 lto
5673 15688 lto
5740 15596 lto
5807 15507 lto
5872 15421 lto
5880 15411 lto
5944 15329 lto
6008 15250 lto
6020 15235 lto
6084 15159 lto
6147 15084 lto
6160 15069 lto
6222 14998 lto
6286 14928 lto
6300 14913 lto
6365 14843 lto
6431 14775 lto
6440 14765 lto
6506 14699 lto
6573 14633 lto
6580 14627 lto
6648 14562 lto
6717 14499 lto
6720 14496 lto
6790 14435 lto
6860 14374 lto
6932 14314 lto
7000 14259 lto
7075 14200 lto
7140 14151 lto
7218 14093 lto
7280 14049 lto
7361 13992 lto
7420 13952 lto
7504 13897 lto
7560 13862 lto
7647 13808 lto
7700 13776 lto
7791 13723 lto
7840 13695 lto
7934 13643 lto
7980 13618 lto
8079 13566 lto
8120 13545 lto
8221 13495 lto
8260 13476 lto
8365 13427 lto
8400 13411 lto
8509 13362 lto
8540 13349 lto
8653 13300 lto
8680 13289 lto
8797 13242 lto
8820 13233 lto
8942 13186 lto
8960 13179 lto
9083 13134 lto
9100 13128 lto
9231 13081 lto
9240 13078 lto
9371 13035 lto
9380 13031 lto
9520 12987 lto
9659 12944 lto
9660 12944 lto
9800 12902 lto
9940 12863 lto
10080 12825 lto
10220 12788 lto
10360 12753 lto
10500 12720 lto
10640 12688 lto
10780 12656 lto
10920 12626 lto
11060 12598 lto
11200 12570 lto
11340 12543 lto
11480 12517 lto
11620 12492 lto
11760 12468 lto
11900 12445 lto
12040 12422 lto
12180 12400 lto
12320 12379 lto
12460 12359 lto
12600 12339 lto
12740 12320 lto
12880 12301 lto
13020 12283 lto
13160 12266 lto
13300 12249 lto
13440 12233 lto
13580 12217 lto
13720 12201 lto
13860 12187 lto
14000 12172 lto
14140 12158 lto
14280 12144 lto
14420 12131 lto
14560 12118 lto
14700 12105 lto
14840 12093 lto
14980 12081 lto
15120 12069 lto
15260 12058 lto
15400 12047 lto
15540 12036 lto
15680 12026 lto
15820 12016 lto
15960 12006 lto
16100 11996 lto
16240 11987 lto
16380 11978 lto
16520 11969 lto
16660 11960 lto
16800 11951 lto
16940 11943 lto
17080 11935 lto
17220 11927 lto
17360 11919 lto
17500 11912 lto
st
3780 17278 mto
255 255 div 128 255 div 0 255 div setrgbcolor
3920 17278 lto
4029 17277 lto
4060 17276 lto
4111 17274 lto
4154 17270 lto
4193 17265 lto
4200 17264 lto
4236 17257 lto
4270 17249 lto
4302 17239 lto
4334 17228 lto
4340 17226 lto
4372 17212 lto
4403 17197 lto
4435 17179 lto
4467 17160 lto
4480 17151 lto
4511 17129 lto
4542 17105 lto
4574 17079 lto
4607 17050 lto
4620 17038 lto
4653 17006 lto
4688 16971 lto
4723 16934 lto
4759 16893 lto
4760 16892 lto
4797 16849 lto
4836 16802 lto
4877 16751 lto
4900 16722 lto
4946 16662 lto
4995 16596 lto
5040 16535 lto
5096 16456 lto
5160 16366 lto
5180 16337 lto
5272 16206 lto
5320 16137 lto
5450 15951 lto
5460 15937 lto
5547 15814 lto
5600 15741 lto
5677 15636 lto
5740 15552 lto
5810 15461 lto
5877 15373 lto
5880 15370 lto
5947 15286 lto
6014 15204 lto
6020 15197 lto
6086 15118 lto
6153 15041 lto
6160 15033 lto
6226 14958 lto
6292 14886 lto
6300 14877 lto
6367 14806 lto
6434 14736 lto
6440 14730 lto
6507 14663 lto
6575 14597 lto
6580 14592 lto
6650 14526 lto
6720 14462 lto
6792 14397 lto
6860 14339 lto
6933 14277 lto
7000 14223 lto
7076 14163 lto
7140 14114 lto
7218 14055 lto
7280 14011 lto
7362 13953 lto
7420 13914 lto
7504 13858 lto
7560 13822 lto
7647 13767 lto
7700 13735 lto
7791 13681 lto
7840 13653 lto
7934 13600 lto
7980 13575 lto
8077 13524 lto
8120 13502 lto
8221 13451 lto
8260 13432 lto
8364 13382 lto
8400 13365 lto
8509 13316 lto
8540 13302 lto
8652 13254 lto
8680 13242 lto
8797 13194 lto
8820 13185 lto
8938 13139 lto
8960 13130 lto
9085 13084 lto
9100 13078 lto
9225 13034 lto
9240 13029 lto
9374 12983 lto
9380 12981 lto
9513 12938 lto
9520 12936 lto
9660 12893 lto
9800 12851 lto
9940 12812 lto
10080 12774 lto
10220 12737 lto
10360 12702 lto
10500 12668 lto
10640 12636 lto
10780 12605 lto
10920 12575 lto
11060 12546 lto
11200 12519 lto
11340 12492 lto
11480 12466 lto
11620 12441 lto
11760 12418 lto
11900 12395 lto
12040 12372 lto
12180 12351 lto
12320 12330 lto
12460 12310 lto
12600 12291 lto
12740 12272 lto
12880 12254 lto
13020 12236 lto
13160 12219 lto
13300 12203 lto
13440 12187 lto
13580 12171 lto
13720 12156 lto
13860 12142 lto
14000 12128 lto
14140 12114 lto
14280 12101 lto
14420 12088 lto
14560 12075 lto
14700 12063 lto
14840 12051 lto
14980 12040 lto
15120 12029 lto
15260 12018 lto
15400 12007 lto
15540 11997 lto
15680 11987 lto
15820 11977 lto
15960 11968 lto
16100 11958 lto
16240 11949 lto
16380 11941 lto
16520 11932 lto
16660 11924 lto
16800 11916 lto
16940 11908 lto
17080 11900 lto
17220 11892 lto
17360 11885 lto
17500 11878 lto
st
3780 17323 mto
0 255 div 0 255 div 0 255 div setrgbcolor
3920 17323 lto
4028 17322 lto
4060 17321 lto
4111 17318 lto
4153 17315 lto
4192 17310 lto
4200 17308 lto
4235 17302 lto
4269 17293 lto
4301 17284 lto
4333 17272 lto
4340 17270 lto
4371 17256 lto
4403 17240 lto
4434 17223 lto
4465 17203 lto
4480 17193 lto
4510 17171 lto
4541 17147 lto
4573 17121 lto
4605 17092 lto
4620 17078 lto
4653 17045 lto
4686 17010 lto
4721 16973 lto
4757 16932 lto
4760 16928 lto
4797 16884 lto
4835 16837 lto
4875 16786 lto
4900 16753 lto
4943 16696 lto
4988 16632 lto
5039 16561 lto
5040 16560 lto
5102 16470 lto
5172 16369 lto
5180 16357 lto
5264 16234 lto
5320 16150 lto
5457 15949 lto
5460 15944 lto
5548 15816 lto
5600 15742 lto
5675 15637 lto
5740 15547 lto
5809 15453 lto
5876 15365 lto
5880 15359 lto
5946 15274 lto
6011 15191 lto
6020 15180 lto
6085 15100 lto
6151 15022 lto
6160 15011 lto
6225 14935 lto
6290 14861 lto
6300 14850 lto
6366 14778 lto
6432 14707 lto
6440 14698 lto
6507 14629 lto
6574 14562 lto
6580 14556 lto
6648 14489 lto
6717 14424 lto
6720 14421 lto
6790 14357 lto
6860 14294 lto
6932 14232 lto
7000 14175 lto
7075 14114 lto
7140 14063 lto
7217 14003 lto
7280 13957 lto
7359 13900 lto
7420 13857 lto
7502 13801 lto
7560 13763 lto
7645 13708 lto
7700 13674 lto
7788 13621 lto
7840 13590 lto
7932 13537 lto
7980 13511 lto
8075 13459 lto
8120 13436 lto
8218 13385 lto
8260 13364 lto
8363 13315 lto
8400 13297 lto
8504 13249 lto
8540 13233 lto
8650 13185 lto
8680 13172 lto
8792 13126 lto
8820 13114 lto
8937 13068 lto
8960 13059 lto
9079 13015 lto
9100 13007 lto
9225 12962 lto
9240 12957 lto
9370 12913 lto
9380 12910 lto
9511 12867 lto
9520 12864 lto
9659 12821 lto
9660 12821 lto
9800 12780 lto
9940 12740 lto
10080 12702 lto
10220 12666 lto
10360 12632 lto
10500 12598 lto
10640 12567 lto
10780 12536 lto
10920 12507 lto
11060 12478 lto
11200 12451 lto
11340 12425 lto
11480 12400 lto
11620 12376 lto
11760 12353 lto
11900 12330 lto
12040 12309 lto
12180 12288 lto
12320 12268 lto
12460 12249 lto
12600 12230 lto
12740 12212 lto
12880 12195 lto
13020 12178 lto
13160 12161 lto
13300 12146 lto
13440 12130 lto
13580 12116 lto
13720 12101 lto
13860 12087 lto
14000 12074 lto
14140 12061 lto
14280 12048 lto
14420 12036 lto
14560 12024 lto
14700 12013 lto
14840 12002 lto
14980 11991 lto
15120 11980 lto
15260 11970 lto
15400 11960 lto
15540 11950 lto
15680 11941 lto
15820 11932 lto
15960 11923 lto
16100 11914 lto
16240 11906 lto
16380 11898 lto
16520 11890 lto
16660 11882 lto
16800 11874 lto
16940 11867 lto
17080 11860 lto
17220 11853 lto
17360 11846 lto
17500 11839 lto
st
3780 17395 mto
255 255 div 0 255 div 0 255 div setrgbcolor
3880 17395 lto
st
3980 17394 mto
4025 17394 lto
4060 17393 lto
4080 17392 lto
st
4180 17383 mto
4189 17382 lto
4200 17380 lto
4235 17373 lto
4267 17365 lto
4277 17362 lto
st
4370 17325 mto
4370 17325 lto
4401 17310 lto
4431 17292 lto
4456 17275 lto
st
4536 17215 mto
4539 17212 lto
4570 17185 lto
4601 17156 lto
4610 17147 lto
st
4678 17074 mto
4684 17068 lto
4717 17030 lto
4744 16999 lto
st
4806 16920 mto
4834 16883 lto
4865 16840 lto
st
4924 16759 mto
4943 16731 lto
4980 16677 lto
st
5036 16594 mto
5039 16590 lto
5040 16588 lto
5092 16510 lto
st
5146 16426 mto
5158 16407 lto
5180 16374 lto
5200 16342 lto
st
5254 16258 mto
5266 16239 lto
5308 16174 lto
st
5362 16090 mto
5416 16006 lto
st
5470 15922 mto
5525 15838 lto
st
5580 15754 mto
5600 15724 lto
5636 15671 lto
st
5692 15589 mto
5738 15522 lto
5740 15518 lto
5748 15506 lto
st
5806 15425 mto
5864 15343 lto
st
5923 15263 mto
5944 15235 lto
5983 15182 lto
st
6044 15103 mto
6083 15053 lto
6106 15024 lto
st
6168 14946 mto
6222 14880 lto
6232 14869 lto
st
6296 14793 mto
6300 14788 lto
6362 14717 lto
st
6429 14643 mto
6440 14630 lto
6496 14569 lto
st
6565 14496 mto
6569 14492 lto
6580 14481 lto
6635 14425 lto
st
6707 14355 mto
6711 14351 lto
6720 14342 lto
6779 14286 lto
st
6852 14218 mto
6855 14215 lto
6860 14211 lto
6927 14151 lto
st
7002 14086 mto
7072 14028 lto
7079 14022 lto
st
7157 13959 mto
7214 13914 lto
7235 13897 lto
st
7315 13837 mto
7356 13807 lto
7396 13778 lto
st
7478 13721 mto
7500 13706 lto
7560 13665 lto
7561 13665 lto
st
7645 13610 mto
7700 13575 lto
7729 13557 lto
st
7815 13505 mto
7840 13490 lto
7901 13454 lto
st
7988 13406 mto
8072 13359 lto
8075 13357 lto
st
8164 13311 mto
8216 13284 lto
8253 13265 lto
st
8343 13221 mto
8358 13214 lto
8400 13195 lto
8434 13179 lto
st
8525 13138 mto
8540 13131 lto
8616 13097 lto
st
8708 13058 mto
8790 13025 lto
8801 13021 lto
st
8894 12984 mto
8935 12968 lto
8960 12958 lto
8987 12948 lto
st
9081 12913 mto
9100 12906 lto
9175 12880 lto
st
9270 12847 mto
9364 12815 lto
st
9460 12785 mto
9511 12769 lto
9520 12766 lto
9555 12755 lto
st
9651 12726 mto
9655 12725 lto
9660 12724 lto
9747 12699 lto
st
9843 12671 mto
9940 12645 lto
st
10036 12620 mto
10080 12608 lto
10133 12595 lto
st
10230 12571 mto
10327 12548 lto
st
10425 12525 mto
10500 12507 lto
10522 12502 lto
st
10620 12481 mto
10640 12477 lto
10718 12460 lto
st
10816 12440 mto
10914 12420 lto
st
11012 12401 mto
11060 12392 lto
11110 12383 lto
st
11208 12365 mto
11307 12348 lto
st
11406 12331 mto
11480 12318 lto
11504 12314 lto
st
11603 12298 mto
11620 12295 lto
11702 12282 lto
st
11800 12267 mto
11899 12252 lto
st
11998 12237 mto
12040 12231 lto
12097 12223 lto
st
12196 12210 mto
12295 12196 lto
st
12395 12183 mto
12460 12174 lto
12494 12170 lto
st
12593 12158 mto
12600 12157 lto
12692 12146 lto
st
12792 12134 mto
12880 12124 lto
12891 12123 lto
st
12990 12111 mto
13020 12108 lto
13090 12101 lto
st
13189 12090 mto
13289 12079 lto
st
13388 12069 mto
13440 12064 lto
13488 12059 lto
st
13587 12049 mto
13687 12040 lto
st
13786 12031 mto
13860 12024 lto
13886 12022 lto
st
13985 12013 mto
14000 12012 lto
14085 12005 lto
st
14185 11996 mto
14280 11988 lto
14284 11988 lto
st
14384 11980 mto
14420 11977 lto
14484 11972 lto
st
14583 11964 mto
14683 11956 lto
st
14783 11949 mto
14840 11945 lto
14883 11942 lto
st
14982 11935 mto
15082 11928 lto
st
15182 11921 mto
15260 11916 lto
15282 11915 lto
st
15381 11908 mto
15400 11907 lto
15481 11902 lto
st
15581 11895 mto
15680 11889 lto
15681 11889 lto
st
15781 11883 mto
15820 11881 lto
15880 11878 lto
st
15980 11872 mto
16080 11866 lto
st
16180 11860 mto
16240 11857 lto
16280 11855 lto
st
16380 11850 mto
16380 11850 lto
16480 11844 lto
st
16579 11839 mto
16660 11835 lto
16679 11834 lto
st
16779 11829 mto
16800 11828 lto
16879 11825 lto
st
16979 11820 mto
17079 11815 lto
st
17179 11811 mto
17220 11809 lto
17279 11806 lto
st
17379 11802 mto
17478 11798 lto
st
3780 17321 mto
0 255 div 0 255 div 255 255 div setrgbcolor
3880 17321 lto
st
3980 17320 mto
4025 17320 lto
4060 17319 lto
4080 17318 lto
st
4180 17309 mto
4188 17308 lto
4200 17306 lto
4234 17299 lto
4266 17290 lto
4277 17287 lto
st
4370 17250 mto
4370 17250 lto
4399 17234 lto
4429 17216 lto
4455 17198 lto
st
4534 17137 mto
4538 17133 lto
4568 17106 lto
4598 17076 lto
4606 17068 lto
st
4674 16994 mto
4682 16984 lto
4715 16945 lto
4737 16917 lto
st
4798 16838 mto
4832 16792 lto
4857 16757 lto
st
4914 16674 mto
4943 16632 lto
4970 16591 lto
st
5024 16507 mto
5037 16487 lto
5040 16483 lto
5078 16423 lto
st
5131 16338 mto
5155 16300 lto
5180 16260 lto
5184 16254 lto
st
5237 16169 mto
5269 16116 lto
5289 16083 lto
st
5341 15998 mto
5394 15913 lto
st
5447 15828 mto
5460 15807 lto
5500 15744 lto
st
5553 15659 mto
5600 15587 lto
5608 15575 lto
st
5662 15491 mto
5668 15483 lto
5718 15408 lto
st
5774 15325 mto
5803 15282 lto
5831 15243 lto
st
5888 15161 mto
5941 15087 lto
5946 15080 lto
st
6005 14999 mto
6020 14979 lto
6065 14919 lto
st
6127 14840 mto
6141 14822 lto
6160 14798 lto
6189 14762 lto
st
6252 14684 mto
6281 14649 lto
6300 14627 lto
6316 14608 lto
st
6381 14532 mto
6421 14487 lto
6440 14466 lto
6448 14457 lto
st
6516 14384 mto
6565 14332 lto
6580 14316 lto
6585 14311 lto
st
6654 14240 mto
6707 14187 lto
6720 14175 lto
6726 14169 lto
st
6798 14100 mto
6851 14051 lto
6860 14043 lto
6872 14033 lto
st
6946 13966 mto
6995 13924 lto
7000 13920 lto
7022 13901 lto
st
7099 13837 mto
7140 13804 lto
7177 13775 lto
st
7257 13714 mto
7280 13696 lto
7337 13654 lto
st
7418 13596 mto
7420 13595 lto
7497 13542 lto
7501 13540 lto
st
7584 13485 mto
7641 13448 lto
7668 13431 lto
st
7754 13379 mto
7784 13361 lto
7840 13328 lto
st
7927 13278 mto
7927 13278 lto
7980 13249 lto
8015 13231 lto
st
8103 13184 mto
8120 13176 lto
8193 13139 lto
st
8282 13095 mto
8357 13060 lto
8373 13053 lto
st
8464 13012 mto
8501 12996 lto
8540 12979 lto
8556 12972 lto
st
8648 12934 mto
8680 12921 lto
8741 12896 lto
st
8834 12861 mto
8928 12825 lto
st
9022 12791 mto
9076 12772 lto
9100 12764 lto
9116 12758 lto
st
9211 12727 mto
9222 12723 lto
9240 12717 lto
9306 12696 lto
st
9402 12666 mto
9498 12638 lto
st
9594 12610 mto
9656 12592 lto
9660 12591 lto
9690 12583 lto
st
9787 12557 mto
9798 12554 lto
9800 12553 lto
9883 12532 lto
st
9980 12507 mto
10077 12484 lto
st
10175 12461 mto
10220 12450 lto
10272 12438 lto
st
10370 12417 mto
10468 12396 lto
st
10566 12376 mto
10640 12361 lto
10664 12356 lto
st
10762 12337 mto
10780 12334 lto
10860 12319 lto
st
10959 12301 mto
11057 12284 lto
st
11156 12267 mto
11200 12259 lto
11254 12250 lto
st
11353 12234 mto
11452 12218 lto
st
11551 12204 mto
11620 12194 lto
11650 12190 lto
st
11748 12175 mto
11760 12173 lto
11848 12161 lto
st
11947 12148 mto
12040 12136 lto
12046 12135 lto
st
12145 12122 mto
12180 12118 lto
12244 12110 lto
st
12344 12098 mto
12443 12086 lto
st
12542 12075 mto
12600 12069 lto
12642 12064 lto
st
12741 12053 mto
12841 12043 lto
st
12940 12033 mto
13020 12024 lto
13039 12022 lto
st
13139 12013 mto
13160 12011 lto
13239 12004 lto
st
13338 11994 mto
13438 11985 lto
st
13537 11977 mto
13580 11973 lto
13637 11968 lto
st
13737 11960 mto
13836 11951 lto
st
13936 11943 mto
14000 11938 lto
14036 11935 lto
st
14135 11928 mto
14140 11928 lto
14235 11921 lto
st
14335 11913 mto
14420 11907 lto
14435 11906 lto
st
14534 11900 mto
14560 11898 lto
14634 11893 lto
st
14734 11886 mto
14834 11879 lto
st
14933 11873 mto
14980 11870 lto
15033 11867 lto
st
15133 11861 mto
15233 11856 lto
st
15333 11850 mto
15400 11846 lto
15433 11844 lto
st
15532 11838 mto
15540 11838 lto
15632 11833 lto
st
15732 11827 mto
15820 11823 lto
15832 11822 lto
st
15932 11817 mto
15960 11816 lto
16032 11812 lto
st
16132 11807 mto
16232 11802 lto
st
16331 11798 mto
16380 11796 lto
16431 11794 lto
st
16531 11789 mto
16631 11784 lto
st
16731 11780 mto
16800 11777 lto
16831 11776 lto
st
16931 11772 mto
16940 11772 lto
17031 11768 lto
st
17131 11764 mto
17220 11760 lto
17231 11760 lto
st
17331 11756 mto
17360 11755 lto
17430 11752 lto
st
3780 16818 mto
0 255 div 128 255 div 0 255 div setrgbcolor
3880 16818 lto
st
3980 16817 mto
4029 16817 lto
4060 16816 lto
4080 16815 lto
st
4180 16807 mto
4193 16805 lto
4200 16804 lto
4235 16797 lto
4268 16789 lto
4277 16786 lto
st
4371 16752 mto
4401 16737 lto
4431 16720 lto
4458 16702 lto
st
4538 16643 mto
4539 16642 lto
4569 16615 lto
4599 16587 lto
4612 16575 lto
st
4680 16502 mto
4683 16499 lto
4716 16462 lto
4745 16426 lto
st
4808 16348 mto
4832 16317 lto
4868 16269 lto
st
4926 16187 mto
4943 16162 lto
4983 16105 lto
st
5039 16022 mto
5040 16020 lto
5094 15939 lto
st
5149 15855 mto
5164 15832 lto
5180 15807 lto
5203 15771 lto
st
5258 15687 mto
5275 15661 lto
5312 15603 lto
st
5367 15519 mto
5421 15436 lto
st
5476 15352 mto
5531 15269 lto
st
5587 15186 mto
5600 15167 lto
5644 15103 lto
st
5701 15021 mto
5732 14977 lto
5740 14965 lto
5759 14939 lto
st
5817 14859 mto
5865 14794 lto
5877 14778 lto
st
5937 14698 mto
5941 14693 lto
5999 14620 lto
st
6061 14541 mto
6081 14516 lto
6124 14464 lto
st
6189 14387 mto
6221 14350 lto
6254 14312 lto
st
6321 14238 mto
6361 14195 lto
6390 14165 lto
st
6458 14092 mto
6502 14047 lto
6529 14021 lto
st
6600 13951 mto
6644 13909 lto
6673 13882 lto
st
6747 13816 mto
6786 13781 lto
6823 13750 lto
st
6899 13685 mto
6928 13661 lto
6977 13623 lto
st
7056 13561 mto
7071 13550 lto
7136 13501 lto
st
7217 13442 mto
7280 13399 lto
7299 13386 lto
st
7382 13331 mto
7420 13306 lto
7467 13277 lto
st
7552 13225 mto
7560 13220 lto
7638 13174 lto
st
7726 13125 mto
7786 13092 lto
7814 13078 lto
st
7903 13032 mto
7930 13018 lto
7980 12993 lto
7992 12987 lto
st
8082 12945 mto
8120 12927 lto
8173 12903 lto
st
8265 12862 mto
8357 12824 lto
st
8450 12786 mto
8504 12765 lto
8540 12751 lto
8543 12750 lto
st
8637 12715 mto
8650 12710 lto
8680 12699 lto
8731 12681 lto
st
8825 12648 mto
8920 12617 lto
st
9015 12587 mto
9083 12566 lto
9100 12561 lto
9111 12558 lto
st
9207 12530 mto
9226 12524 lto
9240 12520 lto
9303 12502 lto
st
9400 12476 mto
9496 12451 lto
st
9593 12426 mto
9659 12410 lto
9660 12410 lto
9690 12403 lto
st
9788 12380 mto
9800 12377 lto
9885 12358 lto
st
9983 12336 mto
10080 12315 lto
10081 12315 lto
st
10179 12295 mto
10220 12287 lto
10277 12276 lto
st
10375 12257 mto
10473 12240 lto
st
10572 12222 mto
10640 12210 lto
10670 12205 lto
st
10769 12189 mto
10780 12187 lto
10868 12173 lto
st
10967 12158 mto
11060 12144 lto
11066 12143 lto
st
11164 12128 mto
11200 12123 lto
11263 12114 lto
st
11363 12101 mto
11462 12087 lto
st
11561 12075 mto
11620 12068 lto
11660 12063 lto
st
11759 12051 mto
11760 12051 lto
11859 12039 lto
st
11958 12028 mto
12040 12019 lto
12058 12017 lto
st
12157 12006 mto
12180 12004 lto
12256 11996 lto
st
12356 11986 mto
12455 11976 lto
st
12555 11967 mto
12600 11962 lto
12655 11957 lto
st
12754 11949 mto
12854 11939 lto
st
12953 11931 mto
13020 11926 lto
13053 11923 lto
st
13153 11915 mto
13160 11914 lto
13252 11907 lto
st
13352 11899 mto
13440 11893 lto
13452 11892 lto
st
13552 11885 mto
13580 11883 lto
13651 11878 lto
st
13751 11871 mto
13851 11864 lto
st
13951 11857 mto
14000 11854 lto
14050 11851 lto
st
14150 11844 mto
14250 11839 lto
st
14350 11833 mto
14420 11828 lto
14450 11827 lto
st
14550 11822 mto
14560 11821 lto
14649 11816 lto
st
14749 11810 mto
14840 11805 lto
14849 11805 lto
st
14949 11800 mto
14980 11798 lto
15049 11795 lto
st
15149 11790 mto
15249 11785 lto
st
15348 11780 mto
15400 11778 lto
15448 11776 lto
st
15548 11771 mto
15648 11766 lto
st
15748 11762 mto
15820 11759 lto
15848 11758 lto
st
15948 11754 mto
15960 11754 lto
16048 11750 lto
st
16148 11746 mto
16240 11742 lto
16248 11742 lto
st
16348 11738 mto
16380 11737 lto
16448 11735 lto
st
16547 11731 mto
16647 11727 lto
st
16747 11724 mto
16800 11722 lto
16847 11720 lto
st
16947 11717 mto
17047 11714 lto
st
17147 11711 mto
17220 11708 lto
17247 11707 lto
st
17347 11704 mto
17360 11704 lto
17447 11702 lto
st
3780 15857 mto
255 255 div 128 255 div 0 255 div setrgbcolor
3880 15857 lto
st
3980 15857 mto
4043 15856 lto
4060 15855 lto
4080 15854 lto
st
4180 15847 mto
4200 15845 lto
4239 15839 lto
4276 15832 lto
4278 15831 lto
st
4374 15803 mto
4406 15789 lto
4439 15774 lto
4464 15760 lto
st
4549 15706 mto
4576 15686 lto
4609 15660 lto
4620 15651 lto
4627 15645 lto
st
4702 15578 mto
4723 15557 lto
4760 15520 lto
4772 15507 lto
st
4840 15433 mto
4880 15387 lto
4900 15364 lto
4905 15358 lto
st
4969 15280 mto
4996 15247 lto
5032 15203 lto
st
5093 15124 mto
5101 15113 lto
5154 15044 lto
st
5215 14965 mto
5274 14887 lto
5275 14885 lto
st
5336 14806 mto
5397 14727 lto
st
5458 14647 mto
5460 14644 lto
5519 14568 lto
st
5581 14490 mto
5600 14467 lto
5644 14413 lto
st
5708 14335 mto
5739 14298 lto
5740 14296 lto
5772 14259 lto
st
5837 14183 mto
5873 14142 lto
5880 14135 lto
5904 14108 lto
st
5971 14034 mto
6011 13991 lto
6020 13982 lto
6040 13961 lto
st
6109 13890 mto
6151 13848 lto
6160 13838 lto
6180 13819 lto
st
6252 13749 mto
6290 13713 lto
6300 13704 lto
6325 13681 lto
st
6399 13614 mto
6432 13586 lto
6440 13578 lto
6475 13549 lto
st
6552 13485 mto
6575 13466 lto
6580 13462 lto
6630 13422 lto
st
6709 13361 mto
6719 13354 lto
6720 13353 lto
6790 13302 lto
st
6871 13244 mto
6934 13201 lto
6954 13188 lto
st
7038 13134 mto
7076 13109 lto
7123 13081 lto
st
7208 13029 mto
7219 13023 lto
7280 12989 lto
7296 12980 lto
st
7383 12932 mto
7420 12913 lto
7472 12886 lto
st
7561 12841 mto
7649 12800 lto
7652 12799 lto
st
7743 12757 mto
7793 12735 lto
7834 12717 lto
st
7927 12679 mto
7936 12675 lto
7980 12657 lto
8020 12642 lto
st
8113 12606 mto
8120 12604 lto
8207 12572 lto
st
8301 12539 mto
8370 12516 lto
8396 12507 lto
st
8492 12478 mto
8514 12471 lto
8540 12462 lto
8587 12448 lto
st
8683 12420 mto
8780 12394 lto
st
8876 12368 mto
8949 12349 lto
8960 12346 lto
8973 12343 lto
st
9070 12319 mto
9093 12313 lto
9100 12311 lto
9167 12296 lto
st
9265 12273 mto
9363 12252 lto
st
9461 12232 mto
9520 12220 lto
9559 12212 lto
st
9657 12193 mto
9660 12192 lto
9755 12174 lto
st
9853 12157 mto
9940 12142 lto
9952 12140 lto
st
10051 12124 mto
10080 12119 lto
10149 12108 lto
st
10248 12093 mto
10347 12078 lto
st
10446 12064 mto
10500 12056 lto
10545 12050 lto
st
10644 12036 mto
10744 12024 lto
st
10843 12011 mto
10920 12002 lto
10942 11999 lto
st
11041 11988 mto
11060 11986 lto
11141 11977 lto
st
11240 11966 mto
11340 11956 lto
st
11439 11946 mto
11480 11942 lto
11539 11936 lto
st
11638 11926 mto
11738 11917 lto
st
11837 11908 mto
11900 11903 lto
11937 11900 lto
st
12037 11891 mto
12040 11891 lto
12136 11883 lto
st
12236 11876 mto
12320 11869 lto
12336 11868 lto
st
12435 11860 mto
12460 11858 lto
12535 11853 lto
st
12635 11846 mto
12735 11839 lto
st
12834 11832 mto
12880 11829 lto
12934 11826 lto
st
13034 11820 mto
13134 11814 lto
st
13234 11808 mto
13300 11804 lto
13334 11802 lto
st
13433 11796 mto
13440 11796 lto
13533 11791 lto
st
13633 11785 mto
13720 11781 lto
13733 11780 lto
st
13833 11775 mto
13860 11774 lto
13933 11770 lto
st
14033 11766 mto
14132 11761 lto
st
14232 11756 mto
14280 11754 lto
14332 11752 lto
st
14432 11747 mto
14532 11743 lto
st
14632 11739 mto
14700 11737 lto
14732 11736 lto
st
14832 11731 mto
14840 11731 lto
14932 11728 lto
st
15032 11724 mto
15120 11721 lto
15132 11721 lto
st
15232 11717 mto
15260 11716 lto
15332 11713 lto
st
15431 11710 mto
15531 11706 lto
st
15631 11703 mto
15680 11702 lto
15731 11700 lto
st
15831 11697 mto
15931 11694 lto
st
16031 11691 mto
16100 11689 lto
16131 11688 lto
st
16231 11685 mto
16240 11685 lto
16331 11682 lto
st
16431 11680 mto
16520 11677 lto
16531 11677 lto
st
16631 11675 mto
16660 11674 lto
16731 11672 lto
st
16831 11669 mto
16931 11667 lto
st
17031 11664 mto
17080 11663 lto
17131 11662 lto
st
17231 11660 mto
17331 11658 lto
st
17431 11655 mto
17500 11654 lto
st
3780 13976 mto
0 255 div 0 255 div 0 255 div setrgbcolor
3880 13976 lto
st
3980 13976 mto
4060 13975 lto
4080 13975 lto
st
4180 13971 mto
4200 13970 lto
4256 13966 lto
4280 13963 lto
st
4379 13949 mto
4387 13948 lto
4432 13938 lto
4475 13926 lto
4476 13926 lto
st
4571 13895 mto
4611 13878 lto
4620 13874 lto
4663 13855 lto
st
4751 13809 mto
4753 13808 lto
4760 13804 lto
4807 13777 lto
4837 13758 lto
st
4921 13704 mto
4956 13681 lto
5004 13647 lto
st
5085 13589 mto
5112 13569 lto
5165 13529 lto
st
5245 13469 mto
5291 13435 lto
5320 13413 lto
5325 13409 lto
st
5405 13349 mto
5460 13308 lto
5485 13289 lto
st
5566 13230 mto
5571 13226 lto
5600 13205 lto
5647 13172 lto
st
5729 13114 mto
5740 13107 lto
5812 13059 lto
st
5895 13003 mto
5966 12958 lto
5980 12950 lto
st
6065 12898 mto
6105 12874 lto
6151 12847 lto
st
6238 12798 mto
6245 12794 lto
6300 12764 lto
6326 12750 lto
st
6415 12705 mto
6440 12692 lto
6505 12660 lto
st
6596 12618 mto
6670 12584 lto
6687 12577 lto
st
6779 12538 mto
6811 12524 lto
6860 12504 lto
6871 12500 lto
st
6965 12464 mto
7000 12451 lto
7058 12430 lto
st
7153 12397 mto
7245 12366 lto
7248 12365 lto
st
7343 12335 mto
7387 12321 lto
7420 12312 lto
7439 12306 lto
st
7535 12278 mto
7560 12272 lto
7632 12253 lto
st
7728 12227 mto
7823 12204 lto
7825 12203 lto
st
7923 12180 mto
7967 12170 lto
7980 12168 lto
8020 12159 lto
st
8118 12138 mto
8120 12137 lto
8216 12118 lto
st
8314 12099 mto
8400 12083 lto
8413 12081 lto
st
8511 12063 mto
8540 12058 lto
8610 12047 lto
st
8708 12031 mto
8807 12016 lto
st
8906 12002 mto
8960 11994 lto
9005 11988 lto
st
9104 11974 mto
9204 11962 lto
st
9303 11949 mto
9380 11940 lto
9402 11937 lto
st
9501 11926 mto
9520 11924 lto
9601 11915 lto
st
9700 11905 mto
9800 11895 lto
st
9899 11885 mto
9940 11881 lto
9999 11876 lto
st
10099 11867 mto
10198 11859 lto
st
10298 11851 mto
10360 11846 lto
10398 11843 lto
st
10497 11835 mto
10500 11835 lto
10597 11828 lto
st
10697 11821 mto
10780 11815 lto
10796 11814 lto
st
10896 11808 mto
10920 11806 lto
10996 11801 lto
st
11096 11795 mto
11196 11789 lto
st
11296 11784 mto
11340 11781 lto
11395 11778 lto
st
11495 11772 mto
11595 11767 lto
st
11695 11762 mto
11760 11759 lto
11795 11758 lto
st
11895 11753 mto
11900 11753 lto
11995 11748 lto
st
12095 11744 mto
12180 11740 lto
12194 11739 lto
st
12294 11735 mto
12320 11734 lto
12394 11731 lto
st
12494 11728 mto
12594 11724 lto
st
12694 11721 mto
12740 11719 lto
12794 11717 lto
st
12894 11714 mto
12994 11710 lto
st
13094 11707 mto
13160 11705 lto
13194 11704 lto
st
13294 11700 mto
13300 11700 lto
13394 11697 lto
st
13494 11694 mto
13580 11692 lto
13594 11692 lto
st
13694 11689 mto
13720 11688 lto
13794 11686 lto
st
13894 11684 mto
13993 11681 lto
st
14093 11679 mto
14140 11678 lto
14193 11677 lto
st
14293 11675 mto
14393 11672 lto
st
14493 11669 mto
14560 11668 lto
14593 11667 lto
st
14693 11665 mto
14700 11665 lto
14793 11664 lto
st
14893 11662 mto
14980 11660 lto
14993 11660 lto
st
15093 11658 mto
15120 11657 lto
15193 11656 lto
st
15293 11654 mto
15393 11652 lto
st
15493 11651 mto
15540 11650 lto
15593 11649 lto
st
15693 11647 mto
15793 11645 lto
st
15893 11644 mto
15960 11643 lto
15993 11643 lto
st
16093 11641 mto
16100 11641 lto
16193 11640 lto
st
16293 11638 mto
16380 11637 lto
16393 11637 lto
st
16493 11635 mto
16520 11635 lto
16593 11634 lto
st
16693 11633 mto
16793 11631 lto
st
16893 11630 mto
16940 11629 lto
16993 11629 lto
st
17093 11628 mto
17193 11626 lto
st
17293 11625 mto
17360 11625 lto
17393 11625 lto
st
17493 11623 mto
17500 11623 lto
st
255 255 div 0 255 div 0 255 div setrgbcolor
[] 0 60 0 0 10 lsty
13200 14776 mto
14800 14776 lto
st
0 255 div 0 255 div 255 255 div setrgbcolor
[] 0 40 0 0 10 lsty
13200 15452 mto
14800 15452 lto
st
0 255 div 128 255 div 0 255 div setrgbcolor
13200 16128 mto
14800 16128 lto
st
255 255 div 128 255 div 0 255 div setrgbcolor
13200 16804 mto
14800 16804 lto
st
0 255 div 0 255 div 0 255 div setrgbcolor
13200 17480 mto
14800 17480 lto
st
255 255 div 0 255 div 0 255 div setrgbcolor
[100 100 ] 0 40 0 0 10 lsty
13200 18156 mto
14800 18156 lto
st
0 255 div 0 255 div 255 255 div setrgbcolor
13200 18832 mto
14800 18832 lto
st
0 255 div 128 255 div 0 255 div setrgbcolor
13200 19508 mto
14800 19508 lto
st
255 255 div 128 255 div 0 255 div setrgbcolor
13200 20184 mto
14800 20184 lto
st
0 255 div 0 255 div 0 255 div setrgbcolor
13200 20860 mto
14800 20860 lto
st
12200 23400 mto
0 0 (T) ashow
1800 15400 mto
[4.32014e-14 -705.556 -705.556 -4.32014e-14 0 0] /Helvetica-ISOLatin1 F
0 0 (S/N) ashow
172 0 rmto
[3.0241e-14 -493.889 -493.889 -3.0241e-14 0 0] /Helvetica-ISOLatin1 F
0 0 (spin) ashow
-172 0 rmto
15082 14964 mto
[564.444 -0 -0 -564.444 0 0] /Helvetica-ISOLatin1 F
0 0 (x=0.0) ashow
15082 15640 mto
0 0 (x=0.1) ashow
15082 16316 mto
0 0 (x=0.2) ashow
15082 16992 mto
0 0 (x=0.3) ashow
15082 17668 mto
0 0 (x=0.4) ashow
15082 18344 mto
0 0 (x=0.5) ashow
15082 19020 mto
0 0 (x=0.6) ashow
15082 19696 mto
0 0 (x=0.7) ashow
15082 20372 mto
0 0 (x=0.8) ashow
15082 21048 mto
0 0 (x=0.9) ashow
EndPage
PageRestore
showpage
end
%%Trailer
%%DocumentNeededResources: 
% font /Helvetica-ISOLatin1
%%EOF
