%!PS-Adobe-3.0 EPSF-3.0
%%Creator: GRA2PS 2.03.20
%%Title: Ngraph
%%CreationDate: 7-21-2016 2:22
%%Pages: 1
%%DocumentNeededResources: (atend)
%%BoundingBox: 32 175 501 534
%%EndComments
%
% Ngraph.ps 2.03.20
%
%%BeginProlog
%
/NgraphDict 100 dict def
NgraphDict begin
%
% Procedure Definition
%
/PageSave {/Sobject save def} bind def
/PageRestore {Sobject restore} bind def
/@Paper {
  72 2540 div -72 2540 div scale % 1unit = 0.01mm
  ANGLE rotate
  0 bottom translate                    % origin is (0 bottom)
} bind def
/BeginPage {@Paper gsave} bind def
/EndPage {grestore} bind def
/box {
  moveto
  1 index 0 rlineto
  0 exch rlineto
  neg 0 rlineto
  closepath } bind def
/view {
  mark
  currentfont
  currentmiterlimit
  currentlinejoin
  currentlinecap
  currentlinewidth
  currentdash
  currentgray
  currentrgbcolor
  grestore gsave
  counttomark dup 6 add exch roll
  pop
  5 3 roll
  translate
  1 eq { 0 0 box clip newpath } { pop pop } ifelse
  setrgbcolor
  setgray
  setdash
  setlinewidth
  setlinecap
  setlinejoin
  setmiterlimit
  setfont
 } bind def
/viewc {
  mark
  currentfont
  currentmiterlimit
  currentlinejoin
  currentlinecap
  currentlinewidth
  currentdash
  currentrgbcolor
  currentgray
  grestore gsave
  counttomark dup 6 add exch roll
  pop
  5 3 roll
  translate
  1 eq { 0 0 box clip newpath } { pop pop } ifelse
  setgray
  setrgbcolor
  setdash
  setlinewidth
  setlinecap
  setlinejoin
  setmiterlimit
  setfont
 } bind def
/F { findfont exch makefont setfont } bind def
/lsty {
  setmiterlimit
  setlinejoin
  setlinecap
  setlinewidth
  setdash } bind def
/mto /moveto load def
/rmto /rmoveto load def
/lto /lineto load def
/rlto /rlineto load def
/st /stroke load def
/l { moveto lineto stroke } bind def
/e { 
  gsave
  newpath
  translate
  0 index 1 exch div 5 1 roll
  1 index 1 exch div 6 1 roll
  scale
  0 0 1 5 3 roll exch 100 div exch 100 div arc
  scale
  stroke
  grestore } bind def
/fe {
  gsave
  newpath
  translate
  0 index 1 exch div 5 1 roll
  1 index 1 exch div 6 1 roll
  scale
  0 0 moveto 0 0 1 5 3 roll exch 100 div exch 100 div arc closepath
  scale
  fill 
  grestore } bind def
/ae {
  gsave
  newpath
  translate
  0 index 1 exch div 5 1 roll
  1 index 1 exch div 6 1 roll
  scale
  0 0 1 5 3 roll exch 100 div exch 100 div arc closepath
  scale
  fill
  grestore } bind def
/pix {
  newpath 20 0 360 arc closepath fill } bind def
/rec {
  box stroke } bind def
/bar {
  box fill } bind def
/lines {
  1 sub
  3 1 roll
  moveto
  {lineto} repeat } bind def
/poly {
  1 sub
  3 1 roll
  moveto
  {lineto} repeat closepath } bind def
/rpo { lines stroke } bind def
/dpo { poly stroke } bind def
/fpo { poly fill } bind def
/epo { poly eofill } bind def
/ashowB {
  3 copy 3 copy 3 copy
  gsave BOLDS 0 rmoveto ashow grestore
  gsave 0 BOLDS rmoveto ashow grestore
  gsave BOLDS BOLDS rmoveto ashow grestore
  ashow } bind def
end
%
% ISOLatin1Encoding
%
/NGPLatin1Encoding 256 array def
0 1 255 {NGPLatin1Encoding exch /.notdef put} for
NGPLatin1Encoding
dup 8#101 /A put          dup 8#306 /AE put         dup 8#301 /Aacute put
dup 8#302 /Acircumflex put dup 8#304 /Adieresis put dup 8#300 /Agrave put
dup 8#305 /Aring put      dup 8#303 /Atilde put     dup 8#102 /B put
dup 8#103 /C put          dup 8#307 /Ccedilla put   dup 8#104 /D put
dup 8#105 /E put          dup 8#311 /Eacute put     dup 8#312 /Ecircumflex put
dup 8#313 /Edieresis put  dup 8#310 /Egrave put     dup 8#320 /Eth put
dup 8#106 /F put          dup 8#107 /G put          dup 8#110 /H put
dup 8#111 /I put          dup 8#315 /Iacute put     dup 8#316 /Icircumflex put
dup 8#317 /Idieresis put  dup 8#314 /Igrave put     dup 8#112 /J put
dup 8#113 /K put          dup 8#114 /L put          dup 8#115 /M put
dup 8#116 /N put          dup 8#321 /Ntilde put     dup 8#117 /O put
dup 8#323 /Oacute put     dup 8#324 /Ocircumflex put dup 8#326 /Odieresis put
dup 8#322 /Ograve put     dup 8#330 /Oslash put     dup 8#325 /Otilde put
dup 8#120 /P put          dup 8#121 /Q put          dup 8#122 /R put
dup 8#123 /S put          dup 8#124 /T put          dup 8#336 /Thorn put
dup 8#125 /U put          dup 8#332 /Uacute put     dup 8#333 /Ucircumflex put
dup 8#334 /Udieresis put  dup 8#331 /Ugrave put     dup 8#126 /V put
dup 8#127 /W put          dup 8#130 /X put          dup 8#131 /Y put
dup 8#335 /Yacute put     dup 8#132 /Z put          dup 8#141 /a put
dup 8#341 /aacute put     dup 8#342 /acircumflex put dup 8#264 /acute put
dup 8#344 /adieresis put  dup 8#346 /ae put         dup 8#340 /agrave put
dup 8#046 /ampersand put  dup 8#345 /aring put      dup 8#136 /asciicircum put
dup 8#176 /asciitilde put dup 8#052 /asterisk put   dup 8#100 /at put
dup 8#343 /atilde put     dup 8#142 /b put          dup 8#134 /backslash put
dup 8#174 /bar put        dup 8#173 /braceleft put  dup 8#175 /braceright put
dup 8#133 /bracketleft put dup 8#135 /bracketright put dup 8#246 /brokenbar put
dup 8#143 /c put          dup 8#347 /ccedilla put   dup 8#242 /cent put
dup 8#072 /colon put      dup 8#054 /comma put      dup 8#251 /copyright put
dup 8#244 /currency put   dup 8#144 /d put          dup 8#260 /degree put
dup 8#367 /divide put     dup 8#044 /dollar put     dup 8#145 /e put
dup 8#351 /eacute put     dup 8#352 /ecircumflex put dup 8#353 /edieresis put
dup 8#350 /egrave put     dup 8#070 /eight put      dup 8#075 /equal put
dup 8#360 /eth put        dup 8#041 /exclam put     dup 8#241 /exclamdown put
dup 8#146 /f put          dup 8#065 /five put       dup 8#064 /four put
dup 8#147 /g put          dup 8#337 /germandbls put dup 8#076 /greater put
dup 8#253 /guillemotleft put dup 8#273 /guillemotright put dup 8#150 /h put
dup 8#255 /hyphen put     dup 8#151 /i put          dup 8#355 /iacute put
dup 8#356 /icircumflex put dup 8#357 /idieresis put dup 8#354 /igrave put
dup 8#152 /j put          dup 8#153 /k put          dup 8#154 /l put
dup 8#074 /less put       dup 8#254 /logicalnot put dup 8#155 /m put
dup 8#055 /minus put      dup 8#265 /mu put         dup 8#327 /multiply put
dup 8#156 /n put          dup 8#071 /nine put       dup 8#361 /ntilde put
dup 8#043 /numbersign put dup 8#157 /o put          dup 8#363 /oacute put
dup 8#364 /ocircumflex put dup 8#366 /odieresis put dup 8#362 /ograve put
dup 8#061 /one put        dup 8#275 /onehalf put    dup 8#274 /onequarter put
dup 8#271 /onesuperior put dup 8#252 /ordfeminine put dup 8#272 /ordmasculine put
dup 8#370 /oslash put     dup 8#365 /otilde put     dup 8#160 /p put
dup 8#266 /paragraph put  dup 8#050 /parenleft put  dup 8#051 /parenright put
dup 8#045 /percent put    dup 8#056 /period put     dup 8#267 /periodcentered put
dup 8#053 /plus put       dup 8#261 /plusminus put  dup 8#161 /q put
dup 8#077 /question put   dup 8#277 /questiondown put dup 8#042 /quotedbl put
dup 8#140 /quoteleft put  dup 8#047 /quoteright put dup 8#162 /r put
dup 8#256 /registered put dup 8#163 /s put          dup 8#247 /section put
dup 8#073 /semicolon put  dup 8#067 /seven put      dup 8#066 /six put
dup 8#057 /slash put      dup 8#040 /space put      dup 8#243 /sterling put
dup 8#164 /t put          dup 8#376 /thorn put      dup 8#063 /three put
dup 8#276 /threequarters put dup 8#263 /threesuperior put dup 8#062 /two put
dup 8#262 /twosuperior put dup 8#165 /u put         dup 8#372 /uacute put
dup 8#373 /ucircumflex put dup 8#374 /udieresis put dup 8#371 /ugrave put
dup 8#137 /underscore put dup 8#166 /v put          dup 8#167 /w put
dup 8#170 /x put          dup 8#171 /y put          dup 8#375 /yacute put
dup 8#377 /ydieresis put  dup 8#245 /yen put        dup 8#172 /z put
dup 8#060 /zero put       dup 8#250 /dieresis put   dup 8#257 /macron put
dup 8#270 /cedilla put
% for ISOLatin1Encoding
%dup 8#220 /dotlessi put   dup 8#221 /grave put      dup 8#222 /acute put
%dup 8#223 /circumflex put dup 8#224 /tilde put      dup 8#225 /macron put
%dup 8#226 /breve put      dup 8#227 /dotaccent put  dup 8#230 /dieresis put
%dup 8#232 /ring put       dup 8#233 /cedilla put    dup 8#235 /hungarumlaut put
%dup 8#236 /ogonek put     dup 8#237 /caron put
% for Windows
dup 8#200 /colonmonetary put dup 8#202 /comma put   dup 8#203 /florin put
dup 8#204 /quotedblbase put dup 8#205 /ellipsis put dup 8#206 /dagger put
dup 8#207 /daggerdbl put  dup 8#210 /circumflex put dup 8#211 /perthousand put
dup 8#212 /Scaron put    dup 8#213 /guilsinglleft put dup 8#214 /OE put
dup 8#221 /quoteleft put dup 8#222 /quoteright put   dup 8#223 /quotedblleft put
dup 8#224 /quotedblright put dup 8#225 /bullet put dup 8#226 /hyphen put
dup 8#227 /emdash put  dup 8#230 /hungarumlaut put dup 8#231 /trademark put
dup 8#232 /scaron put  dup 8#233 /guilsinglright put dup 8#234 /oe put
dup 8#237 /Ydieresis put
pop
/ReEncode {
  findfont
  dup length dict begin
    {1 index /FID ne {def} {pop pop} ifelse} forall
    /Encoding NGPLatin1Encoding def
    currentdict
  end
  definefont
  pop
} bind def
/Times-Roman-ISOLatin1 /Times-Roman ReEncode
/Times-Bold-ISOLatin1 /Times-Bold ReEncode
/Times-Italic-ISOLatin1 /Times-Italic ReEncode
/Times-BoldItalic-ISOLatin1 /Times-BoldItalic ReEncode
/Helvetica-ISOLatin1 /Helvetica ReEncode
/Helvetica-Bold-ISOLatin1 /Helvetica-Bold ReEncode
/Helvetica-Oblique-ISOLatin1 /Helvetica-Oblique ReEncode
/Helvetica-BoldOblique-ISOLatin1 /Helvetica-BoldOblique ReEncode
/Courier-ISOLatin1 /Courier ReEncode
/Courier-Bold-ISOLatin1 /Courier-Bold ReEncode
/Courier-Oblique-ISOLatin1 /Courier-Oblique ReEncode
/Courier-BoldOblique-ISOLatin1 /Courier-BoldOblique ReEncode
%
%%EndProlog
%%Page: Figure 1
%%BeginPageSetup
/ANGLE 0 def
/bottom -29700 def
NgraphDict begin
PageSave
BeginPage
%%EndPageSetup
0 0 21000 29700 1 viewc
0 255 div 0 255 div 0 255 div setrgbcolor
[] 0 40 2 0 10 lsty
3500 22000 17500 22000 l
[] 0 40 0 0 10 lsty
3769 22000 3769 21700 l
5115 22000 5115 21800 l
6461 22000 6461 21800 l
7807 22000 7807 21800 l
9153 22000 9153 21800 l
10499 22000 10499 21800 l
11846 22000 11846 21800 l
13192 22000 13192 21800 l
14538 22000 14538 21800 l
15884 22000 15884 21800 l
17230 22000 17230 21700 l
3573 22738 mto
%IncludeResource: font /Helvetica-ISOLatin1
[705.556 -0 -0 -705.556 0 0] /Helvetica-ISOLatin1 F
0 0 (0) ashow
10009 22738 mto
0 0 (0.5) ashow
17034 22738 mto
0 0 (1) ashow
[] 0 40 2 0 10 lsty
3500 22000 3500 11000 l
[] 0 40 0 0 10 lsty
3500 22000 3800 22000 l
3500 20472 3700 20472 l
3500 18944 3700 18944 l
3500 17416 3700 17416 l
3500 15888 3700 15888 l
3500 14361 3700 14361 l
3500 12833 3700 12833 l
3500 11305 3700 11305 l
3008 22244 mto
0 0 (0) ashow
2420 19188 mto
0 0 (0.2) ashow
2420 16132 mto
0 0 (0.4) ashow
2420 13077 mto
0 0 (0.6) ashow
[] 0 40 2 0 10 lsty
3500 11000 17500 11000 l
[] 0 40 0 0 10 lsty
3769 11000 3769 11300 l
5115 11000 5115 11200 l
6461 11000 6461 11200 l
7807 11000 7807 11200 l
9153 11000 9153 11200 l
10499 11000 10499 11200 l
11846 11000 11846 11200 l
13192 11000 13192 11200 l
14538 11000 14538 11200 l
15884 11000 15884 11200 l
17230 11000 17230 11300 l
[] 0 40 2 0 10 lsty
17500 22000 17500 11000 l
[] 0 40 0 0 10 lsty
17500 22000 17200 21999 l
17500 20472 17300 20471 l
17500 18944 17300 18943 l
17500 17416 17300 17415 l
17500 15888 17300 15887 l
17500 14361 17300 14360 l
17500 12833 17300 12832 l
17500 11305 17300 11304 l
255 255 div 0 255 div 0 255 div setrgbcolor
-36000 0 150 150 3769 18856 fe
-36000 0 150 150 5115 17856 fe
-36000 0 150 150 6462 17382 fe
-36000 0 150 150 7808 17278 fe
-36000 0 150 150 9154 17323 fe
-36000 0 150 150 10500 17395 fe
-36000 0 150 150 11846 17321 fe
-36000 0 150 150 13192 16818 fe
-36000 0 150 150 14538 15857 fe
-36000 0 150 150 15885 13976 fe
3769 18903 mto
0 255 div 0 255 div 0 255 div setrgbcolor
3842 18835 lto
st
3915 18766 mto
3976 18710 lto
3989 18699 lto
st
4062 18631 mto
4133 18567 lto
4136 18564 lto
st
4212 18498 mto
4270 18447 lto
4287 18433 lto
st
4364 18369 mto
4394 18344 lto
4442 18306 lto
4442 18306 lto
st
4522 18246 mto
4567 18212 lto
4603 18187 lto
st
4685 18130 mto
4696 18122 lto
4762 18078 lto
4768 18074 lto
st
4853 18021 mto
4899 17993 lto
4938 17970 lto
st
5025 17920 mto
5043 17910 lto
5113 17871 lto
st
5201 17825 mto
5285 17784 lto
5291 17781 lto
st
5381 17738 mto
5455 17704 lto
5472 17697 lto
st
5564 17657 mto
5627 17632 lto
5657 17620 lto
st
5751 17585 mto
5788 17572 lto
5845 17552 lto
st
5940 17521 mto
5958 17515 lto
6036 17492 lto
st
6132 17465 mto
6133 17465 lto
6222 17442 lto
6229 17440 lto
st
6326 17417 mto
6406 17400 lto
6424 17396 lto
st
6522 17377 mto
6558 17370 lto
6621 17359 lto
st
6719 17343 mto
6754 17338 lto
6818 17330 lto
st
6918 17318 mto
6958 17313 lto
7017 17307 lto
st
7117 17298 mto
7135 17296 lto
7216 17291 lto
st
7316 17285 mto
7354 17283 lto
7416 17280 lto
st
7516 17277 mto
7586 17275 lto
7616 17275 lto
st
7716 17274 mto
7808 17274 lto
7816 17274 lto
st
7916 17275 mto
7938 17275 lto
8016 17277 lto
st
8116 17281 mto
8215 17284 lto
8216 17284 lto
st
8316 17289 mto
8366 17291 lto
8416 17294 lto
st
8516 17299 mto
8615 17306 lto
st
8715 17312 mto
8815 17319 lto
st
8915 17326 mto
9014 17334 lto
st
9114 17341 mto
9154 17344 lto
9214 17348 lto
st
9314 17356 mto
9413 17363 lto
st
9513 17371 mto
9613 17377 lto
st
9713 17384 mto
9812 17391 lto
st
9912 17396 mto
10001 17401 lto
10012 17401 lto
st
10112 17406 mto
10160 17408 lto
10212 17410 lto
st
10312 17413 mto
10412 17415 lto
st
10512 17417 mto
10612 17417 lto
st
10712 17416 mto
10757 17416 lto
10812 17414 lto
st
10912 17411 mto
10996 17408 lto
11012 17407 lto
st
11111 17401 mto
11173 17397 lto
11211 17394 lto
st
11311 17385 mto
11389 17377 lto
11410 17374 lto
st
11509 17362 mto
11596 17351 lto
11609 17349 lto
st
11707 17333 mto
11795 17318 lto
11806 17316 lto
st
11904 17297 mto
11942 17289 lto
12002 17276 lto
st
12099 17252 mto
12129 17245 lto
12196 17228 lto
st
12292 17201 mto
12311 17196 lto
12388 17173 lto
st
12483 17142 mto
12488 17140 lto
12519 17129 lto
12578 17109 lto
st
12671 17074 mto
12691 17066 lto
12764 17036 lto
st
12856 16998 mto
12859 16997 lto
12941 16960 lto
12948 16957 lto
st
13038 16915 mto
13104 16882 lto
13128 16870 lto
st
13216 16823 mto
13272 16793 lto
13304 16775 lto
st
13390 16725 mto
13428 16703 lto
13476 16673 lto
st
13560 16620 mto
13581 16606 lto
13644 16565 lto
st
13726 16508 mto
13732 16504 lto
13807 16450 lto
13807 16450 lto
st
13887 16390 mto
13939 16351 lto
13967 16329 lto
st
14045 16266 mto
14085 16233 lto
14121 16202 lto
st
14197 16137 mto
14229 16110 lto
14272 16071 lto
st
14346 16004 mto
14371 15981 lto
14419 15935 lto
st
14490 15865 mto
14511 15845 lto
14538 15818 lto
14561 15794 lto
st
14631 15723 mto
14676 15676 lto
14700 15650 lto
st
14768 15577 mto
14811 15529 lto
14835 15503 lto
st
14901 15427 mto
14944 15377 lto
14965 15351 lto
st
15029 15274 mto
15076 15218 lto
15093 15197 lto
st
15155 15119 mto
15205 15055 lto
15212 15047 lto
15217 15040 lto
st
15277 14961 mto
15337 14881 lto
st
15396 14800 mto
15408 14783 lto
15454 14718 lto
st
15512 14636 mto
15539 14597 lto
15568 14554 lto
st
15625 14472 mto
15671 14403 lto
15680 14388 lto
st
15735 14305 mto
15736 14303 lto
15789 14221 lto
st
15843 14136 mto
15868 14097 lto
15885 14070 lto
15896 14052 lto
st
15948 13966 mto
16001 13881 lto
st
16052 13795 mto
16063 13777 lto
16103 13709 lto
st
16152 13622 mto
16176 13581 lto
16202 13535 lto
st
16251 13448 mto
16286 13385 lto
16299 13361 lto
st
16347 13273 mto
16392 13188 lto
16394 13184 lto
st
16440 13096 mto
16444 13089 lto
16486 13007 lto
st
16531 12918 mto
16546 12889 lto
16558 12866 lto
16576 12828 lto
st
16620 12739 mto
16650 12677 lto
16664 12649 lto
st
16708 12559 mto
16749 12472 lto
16751 12469 lto
st
16793 12378 mto
16800 12362 lto
16835 12287 lto
st
16877 12196 mto
16910 12124 lto
16918 12105 lto
st
16960 12015 mto
16969 11995 lto
17001 11923 lto
st
17042 11832 mto
17083 11741 lto
st
17124 11650 mto
17165 11558 lto
st
17206 11467 mto
17231 11410 lto
st
255 255 div 0 255 div 0 255 div setrgbcolor
-36000 0 150 150 6400 12470 fe
0 255 div 0 255 div 0 255 div setrgbcolor
13200 23200 mto
0 0 (x) ashow
1800 15400 mto
[4.32014e-14 -705.556 -705.556 -4.32014e-14 0 0] /Helvetica-ISOLatin1 F
0 0 (S) ashow
172 0 rmto
[3.0241e-14 -493.889 -493.889 -3.0241e-14 0 0] /Helvetica-ISOLatin1 F
0 0 (0) ashow
-172 0 rmto
[4.32014e-14 -705.556 -705.556 -4.32014e-14 0 0] /Helvetica-ISOLatin1 F
0 0 (/N) ashow
172 0 rmto
[3.0241e-14 -493.889 -493.889 -3.0241e-14 0 0] /Helvetica-ISOLatin1 F
0 0 (spin) ashow
-172 0 rmto
6952 12705 mto
[705.556 -0 -0 -705.556 0 0] /Helvetica-ISOLatin1 F
0 0 (pyrochlore) ashow
EndPage
PageRestore
showpage
end
%%Trailer
%%DocumentNeededResources: 
% font /Helvetica-ISOLatin1
%%EOF
