%!PS-Adobe-3.0 EPSF-3.0
%%Creator: GRA2PS 2.03.20
%%Title: Ngraph
%%CreationDate: 8-19-2016 10:2
%%Pages: 1
%%DocumentNeededResources: (atend)
%%BoundingBox: 32 169 501 541
%%EndComments
%
% Ngraph.ps 2.03.20
%
%%BeginProlog
%
/NgraphDict 100 dict def
NgraphDict begin
%
% Procedure Definition
%
/PageSave {/Sobject save def} bind def
/PageRestore {Sobject restore} bind def
/@Paper {
  72 2540 div -72 2540 div scale % 1unit = 0.01mm
  ANGLE rotate
  0 bottom translate                    % origin is (0 bottom)
} bind def
/BeginPage {@Paper gsave} bind def
/EndPage {grestore} bind def
/box {
  moveto
  1 index 0 rlineto
  0 exch rlineto
  neg 0 rlineto
  closepath } bind def
/view {
  mark
  currentfont
  currentmiterlimit
  currentlinejoin
  currentlinecap
  currentlinewidth
  currentdash
  currentgray
  currentrgbcolor
  grestore gsave
  counttomark dup 6 add exch roll
  pop
  5 3 roll
  translate
  1 eq { 0 0 box clip newpath } { pop pop } ifelse
  setrgbcolor
  setgray
  setdash
  setlinewidth
  setlinecap
  setlinejoin
  setmiterlimit
  setfont
 } bind def
/viewc {
  mark
  currentfont
  currentmiterlimit
  currentlinejoin
  currentlinecap
  currentlinewidth
  currentdash
  currentrgbcolor
  currentgray
  grestore gsave
  counttomark dup 6 add exch roll
  pop
  5 3 roll
  translate
  1 eq { 0 0 box clip newpath } { pop pop } ifelse
  setgray
  setrgbcolor
  setdash
  setlinewidth
  setlinecap
  setlinejoin
  setmiterlimit
  setfont
 } bind def
/F { findfont exch makefont setfont } bind def
/lsty {
  setmiterlimit
  setlinejoin
  setlinecap
  setlinewidth
  setdash } bind def
/mto /moveto load def
/rmto /rmoveto load def
/lto /lineto load def
/rlto /rlineto load def
/st /stroke load def
/l { moveto lineto stroke } bind def
/e { 
  gsave
  newpath
  translate
  0 index 1 exch div 5 1 roll
  1 index 1 exch div 6 1 roll
  scale
  0 0 1 5 3 roll exch 100 div exch 100 div arc
  scale
  stroke
  grestore } bind def
/fe {
  gsave
  newpath
  translate
  0 index 1 exch div 5 1 roll
  1 index 1 exch div 6 1 roll
  scale
  0 0 moveto 0 0 1 5 3 roll exch 100 div exch 100 div arc closepath
  scale
  fill 
  grestore } bind def
/ae {
  gsave
  newpath
  translate
  0 index 1 exch div 5 1 roll
  1 index 1 exch div 6 1 roll
  scale
  0 0 1 5 3 roll exch 100 div exch 100 div arc closepath
  scale
  fill
  grestore } bind def
/pix {
  newpath 20 0 360 arc closepath fill } bind def
/rec {
  box stroke } bind def
/bar {
  box fill } bind def
/lines {
  1 sub
  3 1 roll
  moveto
  {lineto} repeat } bind def
/poly {
  1 sub
  3 1 roll
  moveto
  {lineto} repeat closepath } bind def
/rpo { lines stroke } bind def
/dpo { poly stroke } bind def
/fpo { poly fill } bind def
/epo { poly eofill } bind def
/ashowB {
  3 copy 3 copy 3 copy
  gsave BOLDS 0 rmoveto ashow grestore
  gsave 0 BOLDS rmoveto ashow grestore
  gsave BOLDS BOLDS rmoveto ashow grestore
  ashow } bind def
end
%
% ISOLatin1Encoding
%
/NGPLatin1Encoding 256 array def
0 1 255 {NGPLatin1Encoding exch /.notdef put} for
NGPLatin1Encoding
dup 8#101 /A put          dup 8#306 /AE put         dup 8#301 /Aacute put
dup 8#302 /Acircumflex put dup 8#304 /Adieresis put dup 8#300 /Agrave put
dup 8#305 /Aring put      dup 8#303 /Atilde put     dup 8#102 /B put
dup 8#103 /C put          dup 8#307 /Ccedilla put   dup 8#104 /D put
dup 8#105 /E put          dup 8#311 /Eacute put     dup 8#312 /Ecircumflex put
dup 8#313 /Edieresis put  dup 8#310 /Egrave put     dup 8#320 /Eth put
dup 8#106 /F put          dup 8#107 /G put          dup 8#110 /H put
dup 8#111 /I put          dup 8#315 /Iacute put     dup 8#316 /Icircumflex put
dup 8#317 /Idieresis put  dup 8#314 /Igrave put     dup 8#112 /J put
dup 8#113 /K put          dup 8#114 /L put          dup 8#115 /M put
dup 8#116 /N put          dup 8#321 /Ntilde put     dup 8#117 /O put
dup 8#323 /Oacute put     dup 8#324 /Ocircumflex put dup 8#326 /Odieresis put
dup 8#322 /Ograve put     dup 8#330 /Oslash put     dup 8#325 /Otilde put
dup 8#120 /P put          dup 8#121 /Q put          dup 8#122 /R put
dup 8#123 /S put          dup 8#124 /T put          dup 8#336 /Thorn put
dup 8#125 /U put          dup 8#332 /Uacute put     dup 8#333 /Ucircumflex put
dup 8#334 /Udieresis put  dup 8#331 /Ugrave put     dup 8#126 /V put
dup 8#127 /W put          dup 8#130 /X put          dup 8#131 /Y put
dup 8#335 /Yacute put     dup 8#132 /Z put          dup 8#141 /a put
dup 8#341 /aacute put     dup 8#342 /acircumflex put dup 8#264 /acute put
dup 8#344 /adieresis put  dup 8#346 /ae put         dup 8#340 /agrave put
dup 8#046 /ampersand put  dup 8#345 /aring put      dup 8#136 /asciicircum put
dup 8#176 /asciitilde put dup 8#052 /asterisk put   dup 8#100 /at put
dup 8#343 /atilde put     dup 8#142 /b put          dup 8#134 /backslash put
dup 8#174 /bar put        dup 8#173 /braceleft put  dup 8#175 /braceright put
dup 8#133 /bracketleft put dup 8#135 /bracketright put dup 8#246 /brokenbar put
dup 8#143 /c put          dup 8#347 /ccedilla put   dup 8#242 /cent put
dup 8#072 /colon put      dup 8#054 /comma put      dup 8#251 /copyright put
dup 8#244 /currency put   dup 8#144 /d put          dup 8#260 /degree put
dup 8#367 /divide put     dup 8#044 /dollar put     dup 8#145 /e put
dup 8#351 /eacute put     dup 8#352 /ecircumflex put dup 8#353 /edieresis put
dup 8#350 /egrave put     dup 8#070 /eight put      dup 8#075 /equal put
dup 8#360 /eth put        dup 8#041 /exclam put     dup 8#241 /exclamdown put
dup 8#146 /f put          dup 8#065 /five put       dup 8#064 /four put
dup 8#147 /g put          dup 8#337 /germandbls put dup 8#076 /greater put
dup 8#253 /guillemotleft put dup 8#273 /guillemotright put dup 8#150 /h put
dup 8#255 /hyphen put     dup 8#151 /i put          dup 8#355 /iacute put
dup 8#356 /icircumflex put dup 8#357 /idieresis put dup 8#354 /igrave put
dup 8#152 /j put          dup 8#153 /k put          dup 8#154 /l put
dup 8#074 /less put       dup 8#254 /logicalnot put dup 8#155 /m put
dup 8#055 /minus put      dup 8#265 /mu put         dup 8#327 /multiply put
dup 8#156 /n put          dup 8#071 /nine put       dup 8#361 /ntilde put
dup 8#043 /numbersign put dup 8#157 /o put          dup 8#363 /oacute put
dup 8#364 /ocircumflex put dup 8#366 /odieresis put dup 8#362 /ograve put
dup 8#061 /one put        dup 8#275 /onehalf put    dup 8#274 /onequarter put
dup 8#271 /onesuperior put dup 8#252 /ordfeminine put dup 8#272 /ordmasculine put
dup 8#370 /oslash put     dup 8#365 /otilde put     dup 8#160 /p put
dup 8#266 /paragraph put  dup 8#050 /parenleft put  dup 8#051 /parenright put
dup 8#045 /percent put    dup 8#056 /period put     dup 8#267 /periodcentered put
dup 8#053 /plus put       dup 8#261 /plusminus put  dup 8#161 /q put
dup 8#077 /question put   dup 8#277 /questiondown put dup 8#042 /quotedbl put
dup 8#140 /quoteleft put  dup 8#047 /quoteright put dup 8#162 /r put
dup 8#256 /registered put dup 8#163 /s put          dup 8#247 /section put
dup 8#073 /semicolon put  dup 8#067 /seven put      dup 8#066 /six put
dup 8#057 /slash put      dup 8#040 /space put      dup 8#243 /sterling put
dup 8#164 /t put          dup 8#376 /thorn put      dup 8#063 /three put
dup 8#276 /threequarters put dup 8#263 /threesuperior put dup 8#062 /two put
dup 8#262 /twosuperior put dup 8#165 /u put         dup 8#372 /uacute put
dup 8#373 /ucircumflex put dup 8#374 /udieresis put dup 8#371 /ugrave put
dup 8#137 /underscore put dup 8#166 /v put          dup 8#167 /w put
dup 8#170 /x put          dup 8#171 /y put          dup 8#375 /yacute put
dup 8#377 /ydieresis put  dup 8#245 /yen put        dup 8#172 /z put
dup 8#060 /zero put       dup 8#250 /dieresis put   dup 8#257 /macron put
dup 8#270 /cedilla put
% for ISOLatin1Encoding
%dup 8#220 /dotlessi put   dup 8#221 /grave put      dup 8#222 /acute put
%dup 8#223 /circumflex put dup 8#224 /tilde put      dup 8#225 /macron put
%dup 8#226 /breve put      dup 8#227 /dotaccent put  dup 8#230 /dieresis put
%dup 8#232 /ring put       dup 8#233 /cedilla put    dup 8#235 /hungarumlaut put
%dup 8#236 /ogonek put     dup 8#237 /caron put
% for Windows
dup 8#200 /colonmonetary put dup 8#202 /comma put   dup 8#203 /florin put
dup 8#204 /quotedblbase put dup 8#205 /ellipsis put dup 8#206 /dagger put
dup 8#207 /daggerdbl put  dup 8#210 /circumflex put dup 8#211 /perthousand put
dup 8#212 /Scaron put    dup 8#213 /guilsinglleft put dup 8#214 /OE put
dup 8#221 /quoteleft put dup 8#222 /quoteright put   dup 8#223 /quotedblleft put
dup 8#224 /quotedblright put dup 8#225 /bullet put dup 8#226 /hyphen put
dup 8#227 /emdash put  dup 8#230 /hungarumlaut put dup 8#231 /trademark put
dup 8#232 /scaron put  dup 8#233 /guilsinglright put dup 8#234 /oe put
dup 8#237 /Ydieresis put
pop
/ReEncode {
  findfont
  dup length dict begin
    {1 index /FID ne {def} {pop pop} ifelse} forall
    /Encoding NGPLatin1Encoding def
    currentdict
  end
  definefont
  pop
} bind def
/Times-Roman-ISOLatin1 /Times-Roman ReEncode
/Times-Bold-ISOLatin1 /Times-Bold ReEncode
/Times-Italic-ISOLatin1 /Times-Italic ReEncode
/Times-BoldItalic-ISOLatin1 /Times-BoldItalic ReEncode
/Helvetica-ISOLatin1 /Helvetica ReEncode
/Helvetica-Bold-ISOLatin1 /Helvetica-Bold ReEncode
/Helvetica-Oblique-ISOLatin1 /Helvetica-Oblique ReEncode
/Helvetica-BoldOblique-ISOLatin1 /Helvetica-BoldOblique ReEncode
/Courier-ISOLatin1 /Courier ReEncode
/Courier-Bold-ISOLatin1 /Courier-Bold ReEncode
/Courier-Oblique-ISOLatin1 /Courier-Oblique ReEncode
/Courier-BoldOblique-ISOLatin1 /Courier-BoldOblique ReEncode
%
%%EndProlog
%%Page: Figure 1
%%BeginPageSetup
/ANGLE 0 def
/bottom -29700 def
NgraphDict begin
PageSave
BeginPage
%%EndPageSetup
0 0 21000 29700 1 viewc
0 255 div 0 255 div 0 255 div setrgbcolor
[] 0 40 2 0 10 lsty
3500 22000 17500 22000 l
[] 0 40 0 0 10 lsty
3500 22000 3500 21700 l
4900 22000 4900 21900 l
6300 22000 6300 21800 l
7700 22000 7700 21900 l
9100 22000 9100 21800 l
10500 22000 10500 21900 l
11900 22000 11900 21800 l
13300 22000 13300 21900 l
14700 22000 14700 21800 l
16100 22000 16100 21900 l
17500 22000 17500 21800 l
3304 22738 mto
%IncludeResource: font /Helvetica-ISOLatin1
[705.556 -0 -0 -705.556 0 0] /Helvetica-ISOLatin1 F
0 0 (0) ashow
8904 22738 mto
0 0 (2) ashow
14504 22738 mto
0 0 (4) ashow
[] 0 40 2 0 10 lsty
3500 22000 3500 11000 l
[] 0 40 0 0 10 lsty
3500 22000 3800 22000 l
3500 20625 3600 20625 l
3500 19250 3700 19250 l
3500 17874 3600 17874 l
3500 16500 3700 16500 l
3500 15125 3600 15125 l
3500 13749 3700 13749 l
3500 12374 3600 12374 l
3500 11000 3700 11000 l
3008 22244 mto
0 0 (0) ashow
2420 16744 mto
0 0 (0.2) ashow
2420 11244 mto
0 0 (0.4) ashow
[] 0 40 2 0 10 lsty
3500 11000 17500 11000 l
[] 0 40 0 0 10 lsty
3500 11000 3500 11300 l
4900 11000 4900 11100 l
6300 11000 6300 11200 l
7700 11000 7700 11100 l
9100 11000 9100 11200 l
10500 11000 10500 11100 l
11900 11000 11900 11200 l
13300 11000 13300 11100 l
14700 11000 14700 11200 l
16100 11000 16100 11100 l
17500 11000 17500 11200 l
[] 0 40 2 0 10 lsty
17500 22000 17500 11000 l
[] 0 40 0 0 10 lsty
17500 22000 17200 21999 l
17500 20625 17400 20624 l
17500 19250 17300 19249 l
17500 17874 17400 17873 l
17500 16500 17300 16499 l
17500 15125 17400 15124 l
17500 13749 17300 13748 l
17500 12374 17400 12373 l
17500 11000 17300 10999 l
[] 0 60 0 0 10 lsty
3780 22000 mto
255 255 div 0 255 div 0 255 div setrgbcolor
3780 22000 mto
3920 22000 lto
4060 22000 lto
4151 21999 lto
4200 21997 lto
4235 21995 lto
4263 21992 lto
4289 21988 lto
4313 21982 lto
4335 21976 lto
4340 21974 lto
4361 21966 lto
4381 21956 lto
4400 21945 lto
4419 21933 lto
4437 21920 lto
4454 21905 lto
4471 21889 lto
4480 21880 lto
4496 21862 lto
4512 21843 lto
4528 21821 lto
4546 21797 lto
4565 21770 lto
4585 21740 lto
4607 21706 lto
4620 21686 lto
4653 21633 lto
4682 21586 lto
4708 21542 lto
4732 21499 lto
4755 21458 lto
4760 21448 lto
4776 21416 lto
4791 21387 lto
4805 21357 lto
4818 21328 lto
4831 21299 lto
4843 21270 lto
4855 21240 lto
4866 21210 lto
4877 21179 lto
4888 21148 lto
4898 21115 lto
4900 21109 lto
4910 21075 lto
4921 21038 lto
4932 20999 lto
4943 20957 lto
4954 20913 lto
4966 20867 lto
4977 20817 lto
4989 20765 lto
5002 20710 lto
5015 20652 lto
5028 20590 lto
5040 20533 lto
5053 20468 lto
5067 20399 lto
5082 20324 lto
5099 20242 lto
5117 20148 lto
5138 20044 lto
5155 19957 lto
5171 19880 lto
5180 19834 lto
5196 19755 lto
5213 19675 lto
5231 19594 lto
5249 19512 lto
5268 19428 lto
5287 19343 lto
5308 19254 lto
5320 19203 lto
5347 19091 lto
5373 18981 lto
5400 18872 lto
5427 18765 lto
5454 18658 lto
5460 18637 lto
5487 18532 lto
5515 18430 lto
5542 18331 lto
5568 18235 lto
5595 18141 lto
5600 18123 lto
5627 18032 lto
5653 17942 lto
5680 17854 lto
5707 17767 lto
5734 17683 lto
5740 17663 lto
5766 17584 lto
5791 17508 lto
5816 17436 lto
5840 17367 lto
5864 17302 lto
5880 17259 lto
5903 17198 lto
5927 17138 lto
5951 17079 lto
5975 17022 lto
5999 16966 lto
6020 16920 lto
6045 16865 lto
6070 16813 lto
6095 16763 lto
6120 16715 lto
6145 16669 lto
6160 16643 lto
6185 16600 lto
6209 16560 lto
6234 16521 lto
6259 16484 lto
6284 16449 lto
6300 16428 lto
6324 16397 lto
6349 16367 lto
6374 16338 lto
6401 16310 lto
6429 16282 lto
6440 16270 lto
6470 16242 lto
6499 16217 lto
6527 16194 lto
6554 16174 lto
6580 16157 lto
6580 16157 lto
6606 16141 lto
6632 16127 lto
6658 16115 lto
6686 16104 lto
6714 16095 lto
6720 16093 lto
6748 16086 lto
6777 16080 lto
6808 16075 lto
6842 16071 lto
6860 16069 lto
6909 16066 lto
6955 16065 lto
6998 16066 lto
7000 16066 lto
7043 16068 lto
7084 16073 lto
7125 16079 lto
7140 16082 lto
7179 16090 lto
7220 16101 lto
7262 16114 lto
7280 16120 lto
7326 16137 lto
7373 16156 lto
7420 16176 lto
7476 16202 lto
7533 16230 lto
7560 16244 lto
7617 16275 lto
7677 16310 lto
7700 16323 lto
7770 16366 lto
7840 16410 lto
7923 16464 lto
7980 16502 lto
8069 16563 lto
8120 16599 lto
8225 16673 lto
8260 16698 lto
8400 16797 lto
8540 16896 lto
8680 16994 lto
8820 17092 lto
8960 17192 lto
9100 17292 lto
9240 17391 lto
9369 17479 lto
9380 17487 lto
9520 17582 lto
9660 17675 lto
9800 17766 lto
9921 17842 lto
9940 17854 lto
10054 17925 lto
10080 17940 lto
10190 18006 lto
10220 18023 lto
10340 18092 lto
10360 18103 lto
10490 18176 lto
10500 18181 lto
10640 18257 lto
10780 18332 lto
10920 18404 lto
11060 18475 lto
11200 18543 lto
11340 18610 lto
11340 18610 lto
11478 18674 lto
11480 18675 lto
11620 18738 lto
11760 18799 lto
11900 18860 lto
12040 18918 lto
12180 18976 lto
12320 19032 lto
12460 19086 lto
12600 19139 lto
12740 19191 lto
12880 19241 lto
13020 19290 lto
13160 19337 lto
13300 19383 lto
13440 19428 lto
13580 19472 lto
13720 19515 lto
13860 19557 lto
14000 19597 lto
14140 19637 lto
14280 19676 lto
14420 19713 lto
14560 19750 lto
14700 19786 lto
14840 19822 lto
14980 19856 lto
15120 19890 lto
15260 19922 lto
15400 19955 lto
15540 19986 lto
15680 20016 lto
15820 20046 lto
15960 20076 lto
16100 20104 lto
16240 20132 lto
16380 20159 lto
16520 20186 lto
16660 20212 lto
16800 20238 lto
16940 20263 lto
17080 20287 lto
17220 20311 lto
17360 20335 lto
17500 20358 lto
st
[] 0 40 0 0 10 lsty
3780 22000 mto
0 255 div 0 255 div 255 255 div setrgbcolor
3781 22000 lto
st
3872 22000 mto
3883 21999 lto
3907 21997 lto
3920 21994 lto
3940 21990 lto
3958 21985 lto
3976 21978 lto
3992 21970 lto
4008 21962 lto
4023 21951 lto
4038 21940 lto
4052 21927 lto
4060 21919 lto
4075 21903 lto
4089 21885 lto
4104 21865 lto
4119 21843 lto
4134 21819 lto
4149 21793 lto
4165 21765 lto
4180 21734 lto
4196 21702 lto
4200 21693 lto
4216 21657 lto
4232 21620 lto
4248 21581 lto
4263 21540 lto
4279 21497 lto
4295 21453 lto
4310 21407 lto
4325 21359 lto
4340 21312 lto
4355 21262 lto
4370 21209 lto
4385 21154 lto
4401 21097 lto
4416 21037 lto
4432 20975 lto
4448 20910 lto
4464 20843 lto
4480 20774 lto
4496 20703 lto
4513 20629 lto
4529 20551 lto
4546 20470 lto
4564 20386 lto
4582 20298 lto
4600 20206 lto
4619 20109 lto
4620 20105 lto
4641 19997 lto
4662 19886 lto
4683 19772 lto
4704 19655 lto
4726 19535 lto
4748 19412 lto
4760 19342 lto
4781 19224 lto
4800 19108 lto
4819 18994 lto
4838 18882 lto
4856 18771 lto
4874 18661 lto
4891 18552 lto
4900 18493 lto
4916 18391 lto
4932 18283 lto
4949 18169 lto
4967 18049 lto
4986 17921 lto
5005 17783 lto
5027 17634 lto
5040 17542 lto
5065 17368 lto
5094 17161 lto
5123 16960 lto
5147 16794 lto
5168 16647 lto
5180 16565 lto
5198 16443 lto
5215 16330 lto
5231 16225 lto
5246 16126 lto
5260 16032 lto
5274 15944 lto
5288 15860 lto
5301 15780 lto
5314 15704 lto
5320 15669 lto
5333 15594 lto
5346 15521 lto
5359 15448 lto
5373 15376 lto
5387 15304 lto
5401 15234 lto
5415 15164 lto
5429 15095 lto
5444 15026 lto
5459 14958 lto
5460 14952 lto
5475 14883 lto
5490 14818 lto
5505 14755 lto
5520 14696 lto
5534 14639 lto
5548 14584 lto
5562 14533 lto
5576 14484 lto
5590 14437 lto
5600 14402 lto
5613 14361 lto
5626 14321 lto
5640 14281 lto
5653 14242 lto
5667 14204 lto
5682 14167 lto
5697 14131 lto
5712 14095 lto
5727 14060 lto
5740 14032 lto
5757 13996 lto
5774 13963 lto
5791 13932 lto
5807 13903 lto
5823 13877 lto
5839 13853 lto
5854 13831 lto
5869 13811 lto
5880 13799 lto
5894 13783 lto
5909 13769 lto
5924 13756 lto
5939 13745 lto
5955 13734 lto
5972 13725 lto
5989 13717 lto
6006 13709 lto
6020 13705 lto
6043 13699 lto
6066 13695 lto
6090 13692 lto
6113 13692 lto
6137 13694 lto
6160 13697 lto
6183 13703 lto
6207 13710 lto
6231 13720 lto
6256 13731 lto
6280 13744 lto
6300 13756 lto
6326 13774 lto
6353 13793 lto
6379 13815 lto
6406 13839 lto
6433 13865 lto
6440 13872 lto
6465 13897 lto
6491 13926 lto
6519 13958 lto
6549 13994 lto
6580 14032 lto
6644 14112 lto
6708 14193 lto
6720 14209 lto
6780 14288 lto
6838 14366 lto
6860 14396 lto
6910 14465 lto
6966 14545 lto
7000 14594 lto
7104 14743 lto
7140 14795 lto
7276 14989 lto
7280 14995 lto
7370 15122 lto
7420 15191 lto
7513 15318 lto
7560 15383 lto
7644 15495 lto
7700 15569 lto
7772 15662 lto
7840 15749 lto
7916 15844 lto
7980 15922 lto
8063 16022 lto
8120 16090 lto
8204 16188 lto
8260 16252 lto
8345 16347 lto
8400 16408 lto
8481 16496 lto
8540 16559 lto
8619 16641 lto
8680 16704 lto
8760 16783 lto
8820 16843 lto
8905 16924 lto
8960 16976 lto
9048 17057 lto
9100 17104 lto
9192 17186 lto
9240 17228 lto
9333 17307 lto
9380 17347 lto
9474 17425 lto
9520 17462 lto
9614 17536 lto
9660 17572 lto
9754 17644 lto
9800 17678 lto
9901 17753 lto
9940 17781 lto
10042 17853 lto
10080 17879 lto
10190 17955 lto
10220 17975 lto
10329 18047 lto
10360 18067 lto
10472 18138 lto
10500 18156 lto
10615 18227 lto
10640 18242 lto
10753 18310 lto
10780 18325 lto
10899 18394 lto
10920 18406 lto
11037 18471 lto
11060 18483 lto
11183 18549 lto
11200 18558 lto
11322 18622 lto
11340 18631 lto
11469 18695 lto
11480 18701 lto
11610 18764 lto
11620 18769 lto
11754 18832 lto
11760 18835 lto
11900 18898 lto
12040 18960 lto
12180 19020 lto
12320 19079 lto
12460 19135 lto
12600 19190 lto
12740 19244 lto
12880 19296 lto
13020 19347 lto
13160 19396 lto
13300 19444 lto
13440 19490 lto
13580 19535 lto
13720 19579 lto
13860 19622 lto
14000 19663 lto
14140 19704 lto
14280 19743 lto
14420 19782 lto
14560 19819 lto
14700 19856 lto
14840 19891 lto
14980 19926 lto
15120 19960 lto
15260 19993 lto
15400 20025 lto
15540 20056 lto
15680 20087 lto
15820 20117 lto
15960 20147 lto
16100 20175 lto
16240 20203 lto
16380 20231 lto
16520 20258 lto
16660 20284 lto
16800 20309 lto
16940 20335 lto
17080 20359 lto
17220 20383 lto
17360 20407 lto
17500 20429 lto
st
3780 22000 mto
0 255 div 128 255 div 0 255 div setrgbcolor
3782 22000 lto
st
3840 22000 mto
3854 21999 lto
3872 21997 lto
3890 21993 lto
3906 21988 lto
3920 21983 lto
3936 21975 lto
3951 21966 lto
3966 21955 lto
3981 21943 lto
3995 21929 lto
4009 21914 lto
4023 21897 lto
4036 21879 lto
4049 21860 lto
4060 21842 lto
4072 21822 lto
4084 21800 lto
4095 21777 lto
4107 21752 lto
4118 21727 lto
4128 21700 lto
4139 21673 lto
4149 21644 lto
4160 21614 lto
4170 21582 lto
4180 21550 lto
4189 21516 lto
4199 21481 lto
4200 21476 lto
4209 21440 lto
4219 21402 lto
4228 21362 lto
4238 21319 lto
4248 21274 lto
4258 21226 lto
4269 21176 lto
4279 21123 lto
4290 21067 lto
4301 21008 lto
4313 20945 lto
4325 20880 lto
4337 20810 lto
4340 20795 lto
4355 20708 lto
4370 20618 lto
4386 20525 lto
4402 20429 lto
4418 20329 lto
4434 20226 lto
4451 20119 lto
4468 20008 lto
4480 19926 lto
4498 19809 lto
4515 19687 lto
4534 19560 lto
4553 19427 lto
4573 19288 lto
4593 19143 lto
4614 18990 lto
4620 18948 lto
4643 18778 lto
4668 18599 lto
4693 18410 lto
4720 18209 lto
4748 17994 lto
4760 17905 lto
4792 17663 lto
4828 17388 lto
4871 17058 lto
4900 16837 lto
4960 16380 lto
5024 15892 lto
5040 15772 lto
5064 15587 lto
5085 15435 lto
5102 15302 lto
5119 15180 lto
5134 15068 lto
5149 14963 lto
5163 14864 lto
5176 14771 lto
5180 14743 lto
5195 14644 lto
5209 14547 lto
5223 14452 lto
5238 14360 lto
5252 14269 lto
5267 14181 lto
5281 14094 lto
5295 14010 lto
5310 13928 lto
5320 13870 lto
5334 13795 lto
5347 13722 lto
5361 13652 lto
5374 13584 lto
5387 13519 lto
5400 13456 lto
5413 13396 lto
5426 13339 lto
5439 13283 lto
5451 13231 lto
5460 13195 lto
5472 13148 lto
5484 13102 lto
5496 13056 lto
5509 13012 lto
5522 12968 lto
5535 12925 lto
5548 12882 lto
5562 12840 lto
5576 12799 lto
5591 12758 lto
5600 12732 lto
5616 12690 lto
5631 12650 lto
5647 12613 lto
5661 12579 lto
5676 12547 lto
5690 12518 lto
5704 12491 lto
5717 12466 lto
5731 12444 lto
5740 12429 lto
5753 12410 lto
5766 12393 lto
5780 12377 lto
5793 12362 lto
5807 12349 lto
5821 12337 lto
5836 12327 lto
5851 12318 lto
5866 12311 lto
5880 12305 lto
5897 12301 lto
5914 12298 lto
5932 12296 lto
5949 12297 lto
5967 12299 lto
5986 12304 lto
6004 12310 lto
6020 12316 lto
6039 12326 lto
6059 12338 lto
6079 12352 lto
6099 12368 lto
6120 12386 lto
6140 12406 lto
6160 12427 lto
6181 12451 lto
6202 12477 lto
6223 12505 lto
6246 12536 lto
6269 12570 lto
6294 12607 lto
6300 12617 lto
6326 12659 lto
6354 12704 lto
6383 12754 lto
6414 12808 lto
6440 12855 lto
6479 12927 lto
6520 13003 lto
6563 13087 lto
6580 13120 lto
6628 13213 lto
6681 13320 lto
6720 13397 lto
6812 13583 lto
6860 13680 lto
6913 13789 lto
6983 13934 lto
7000 13968 lto
7061 14093 lto
7114 14198 lto
7140 14250 lto
7187 14341 lto
7236 14435 lto
7280 14517 lto
7341 14630 lto
7402 14742 lto
7420 14774 lto
7480 14880 lto
7537 14980 lto
7560 15020 lto
7614 15112 lto
7670 15205 lto
7700 15254 lto
7758 15347 lto
7818 15442 lto
7840 15477 lto
7905 15578 lto
7968 15673 lto
7980 15691 lto
8041 15780 lto
8100 15866 lto
8120 15894 lto
8178 15976 lto
8237 16056 lto
8260 16087 lto
8320 16166 lto
8382 16246 lto
8400 16269 lto
8467 16353 lto
8535 16436 lto
8540 16443 lto
8610 16526 lto
8680 16608 lto
8749 16687 lto
8820 16766 lto
8892 16843 lto
8960 16916 lto
9036 16995 lto
9100 17059 lto
9178 17137 lto
9240 17197 lto
9321 17273 lto
9380 17328 lto
9463 17403 lto
9520 17454 lto
9607 17530 lto
9660 17575 lto
9751 17651 lto
9800 17691 lto
9891 17763 lto
9940 17802 lto
10031 17871 lto
10080 17908 lto
10172 17976 lto
10220 18010 lto
10315 18077 lto
10360 18108 lto
10461 18176 lto
10500 18202 lto
10603 18269 lto
10640 18293 lto
10750 18361 lto
10780 18380 lto
10892 18448 lto
10920 18464 lto
11034 18530 lto
11060 18545 lto
11177 18611 lto
11200 18624 lto
11318 18688 lto
11340 18699 lto
11464 18764 lto
11480 18773 lto
11605 18836 lto
11620 18843 lto
11745 18904 lto
11760 18911 lto
11893 18974 lto
11900 18977 lto
12035 19039 lto
12040 19041 lto
12174 19100 lto
12180 19103 lto
12320 19163 lto
12460 19221 lto
12600 19277 lto
12740 19331 lto
12880 19384 lto
13020 19435 lto
13160 19485 lto
13300 19533 lto
13440 19580 lto
13580 19626 lto
13720 19670 lto
13860 19713 lto
14000 19755 lto
14140 19796 lto
14280 19836 lto
14420 19874 lto
14560 19912 lto
14700 19948 lto
14840 19984 lto
14980 20018 lto
15120 20052 lto
15260 20085 lto
15400 20117 lto
15540 20148 lto
15680 20178 lto
15820 20208 lto
15960 20237 lto
16100 20265 lto
16240 20293 lto
16380 20320 lto
16520 20346 lto
16660 20372 lto
16800 20397 lto
16940 20422 lto
17080 20446 lto
17220 20469 lto
17360 20492 lto
17500 20514 lto
st
3780 22000 mto
255 255 div 128 255 div 0 255 div setrgbcolor
3814 22000 lto
3839 21998 lto
3862 21996 lto
3882 21993 lto
3901 21988 lto
3918 21983 lto
3920 21982 lto
3935 21976 lto
3949 21969 lto
3962 21960 lto
3975 21951 lto
3987 21941 lto
3999 21929 lto
4010 21916 lto
4021 21903 lto
4032 21887 lto
4043 21871 lto
4053 21853 lto
4060 21841 lto
4070 21820 lto
4081 21798 lto
4091 21775 lto
4101 21749 lto
4110 21723 lto
4120 21695 lto
4130 21665 lto
4139 21634 lto
4149 21602 lto
4158 21568 lto
4167 21532 lto
4176 21495 lto
4185 21457 lto
4194 21417 lto
4200 21390 lto
4208 21351 lto
4217 21309 lto
4225 21264 lto
4234 21218 lto
4243 21168 lto
4252 21116 lto
4262 21062 lto
4271 21004 lto
4281 20944 lto
4292 20880 lto
4302 20812 lto
4313 20741 lto
4325 20665 lto
4337 20584 lto
4340 20562 lto
4356 20456 lto
4371 20353 lto
4385 20253 lto
4399 20154 lto
4412 20056 lto
4425 19959 lto
4438 19863 lto
4451 19768 lto
4463 19673 lto
4475 19578 lto
4480 19538 lto
4491 19450 lto
4502 19358 lto
4514 19261 lto
4526 19159 lto
4538 19052 lto
4551 18937 lto
4565 18815 lto
4580 18683 lto
4597 18539 lto
4615 18376 lto
4620 18331 lto
4661 17968 lto
4711 17521 lto
4760 17091 lto
4786 16860 lto
4812 16628 lto
4834 16435 lto
4854 16265 lto
4871 16109 lto
4888 15965 lto
4900 15865 lto
4916 15729 lto
4932 15598 lto
4947 15473 lto
4962 15353 lto
4976 15237 lto
4991 15126 lto
5004 15018 lto
5018 14915 lto
5031 14815 lto
5040 14752 lto
5053 14656 lto
5067 14561 lto
5080 14466 lto
5094 14372 lto
5108 14279 lto
5122 14186 lto
5136 14094 lto
5151 14002 lto
5165 13911 lto
5180 13822 lto
5195 13734 lto
5209 13650 lto
5223 13570 lto
5237 13493 lto
5250 13419 lto
5264 13348 lto
5277 13280 lto
5290 13215 lto
5302 13153 lto
5315 13093 lto
5320 13069 lto
5333 13011 lto
5345 12955 lto
5358 12900 lto
5371 12847 lto
5384 12796 lto
5397 12746 lto
5410 12698 lto
5423 12652 lto
5436 12607 lto
5450 12564 lto
5460 12532 lto
5473 12493 lto
5487 12455 lto
5500 12418 lto
5514 12383 lto
5528 12349 lto
5542 12317 lto
5556 12287 lto
5570 12258 lto
5584 12230 lto
5599 12205 lto
5600 12202 lto
5615 12178 lto
5629 12156 lto
5644 12135 lto
5660 12115 lto
5675 12097 lto
5691 12081 lto
5707 12066 lto
5723 12052 lto
5739 12040 lto
5740 12040 lto
5758 12029 lto
5775 12020 lto
5793 12013 lto
5811 12008 lto
5828 12005 lto
5845 12004 lto
5863 12005 lto
5880 12008 lto
5880 12008 lto
5896 12012 lto
5913 12019 lto
5930 12027 lto
5948 12037 lto
5965 12049 lto
5984 12064 lto
6002 12080 lto
6020 12097 lto
6040 12117 lto
6060 12140 lto
6081 12166 lto
6103 12194 lto
6126 12224 lto
6150 12258 lto
6160 12273 lto
6188 12315 lto
6216 12359 lto
6243 12404 lto
6270 12450 lto
6297 12498 lto
6300 12504 lto
6324 12548 lto
6349 12597 lto
6376 12651 lto
6406 12710 lto
6438 12777 lto
6440 12781 lto
6486 12877 lto
6541 12993 lto
6580 13075 lto
6648 13217 lto
6720 13369 lto
6786 13509 lto
6860 13668 lto
6928 13815 lto
6989 13944 lto
7000 13968 lto
7052 14077 lto
7106 14187 lto
7140 14257 lto
7198 14373 lto
7258 14492 lto
7280 14536 lto
7343 14659 lto
7402 14770 lto
7420 14804 lto
7475 14907 lto
7529 15005 lto
7560 15061 lto
7612 15153 lto
7665 15244 lto
7700 15304 lto
7754 15395 lto
7809 15484 lto
7840 15535 lto
7896 15623 lto
7953 15712 lto
7980 15753 lto
8040 15843 lto
8102 15934 lto
8120 15960 lto
8186 16056 lto
8253 16149 lto
8260 16159 lto
8325 16249 lto
8390 16335 lto
8400 16348 lto
8464 16431 lto
8527 16512 lto
8540 16528 lto
8602 16605 lto
8666 16682 lto
8680 16699 lto
8744 16774 lto
8811 16850 lto
8820 16860 lto
8891 16939 lto
8960 17014 lto
9036 17095 lto
9100 17161 lto
9180 17243 lto
9240 17302 lto
9320 17380 lto
9380 17437 lto
9461 17512 lto
9520 17566 lto
9601 17638 lto
9660 17689 lto
9744 17761 lto
9800 17807 lto
9887 17877 lto
9940 17919 lto
10030 17989 lto
10080 18027 lto
10174 18098 lto
10220 18131 lto
10317 18201 lto
10360 18231 lto
10460 18299 lto
10500 18326 lto
10604 18395 lto
10640 18418 lto
10745 18485 lto
10780 18507 lto
10888 18573 lto
10920 18592 lto
11030 18657 lto
11060 18674 lto
11172 18738 lto
11200 18753 lto
11315 18816 lto
11340 18829 lto
11457 18891 lto
11480 18902 lto
11601 18964 lto
11620 18973 lto
11745 19034 lto
11760 19041 lto
11891 19103 lto
11900 19107 lto
12029 19166 lto
12040 19171 lto
12179 19232 lto
12180 19233 lto
12317 19291 lto
12320 19292 lto
12460 19350 lto
12600 19406 lto
12740 19460 lto
12880 19512 lto
13020 19563 lto
13160 19612 lto
13300 19660 lto
13440 19706 lto
13580 19751 lto
13720 19795 lto
13860 19837 lto
14000 19878 lto
14140 19918 lto
14280 19957 lto
14420 19995 lto
14560 20032 lto
14700 20067 lto
14840 20102 lto
14980 20136 lto
15120 20169 lto
15260 20201 lto
15400 20232 lto
15540 20262 lto
15680 20292 lto
15820 20321 lto
15960 20349 lto
16100 20376 lto
16240 20403 lto
16380 20429 lto
16520 20455 lto
16660 20479 lto
16800 20504 lto
16940 20527 lto
17080 20550 lto
17220 20573 lto
17360 20595 lto
17500 20616 lto
st
3780 22000 mto
0 255 div 0 255 div 0 255 div setrgbcolor
3781 22000 lto
st
3858 22000 mto
3879 21999 lto
3903 21996 lto
3920 21993 lto
3936 21989 lto
3950 21984 lto
3963 21979 lto
3976 21973 lto
3988 21965 lto
3999 21957 lto
4010 21947 lto
4021 21936 lto
4031 21924 lto
4041 21911 lto
4051 21897 lto
4060 21883 lto
4070 21865 lto
4080 21845 lto
4090 21824 lto
4099 21802 lto
4109 21777 lto
4119 21752 lto
4128 21724 lto
4137 21695 lto
4147 21665 lto
4156 21632 lto
4165 21599 lto
4174 21564 lto
4183 21527 lto
4192 21489 lto
4200 21451 lto
4209 21409 lto
4218 21365 lto
4227 21319 lto
4236 21270 lto
4245 21220 lto
4254 21167 lto
4263 21113 lto
4272 21056 lto
4281 20997 lto
4291 20935 lto
4300 20872 lto
4310 20806 lto
4319 20737 lto
4329 20667 lto
4338 20594 lto
4340 20580 lto
4349 20512 lto
4358 20441 lto
4367 20366 lto
4376 20288 lto
4386 20207 lto
4396 20121 lto
4406 20031 lto
4417 19936 lto
4429 19836 lto
4440 19730 lto
4453 19616 lto
4466 19492 lto
4480 19369 lto
4515 19046 lto
4556 18673 lto
4608 18194 lto
4620 18080 lto
4649 17818 lto
4672 17603 lto
4693 17413 lto
4712 17240 lto
4730 17080 lto
4747 16930 lto
4760 16815 lto
4777 16665 lto
4795 16518 lto
4812 16374 lto
4828 16234 lto
4845 16096 lto
4862 15962 lto
4878 15831 lto
4894 15703 lto
4900 15659 lto
4916 15538 lto
4931 15421 lto
4946 15308 lto
4961 15199 lto
4976 15092 lto
4990 14989 lto
5005 14890 lto
5019 14793 lto
5033 14699 lto
5040 14651 lto
5054 14561 lto
5068 14473 lto
5081 14388 lto
5095 14306 lto
5108 14226 lto
5122 14149 lto
5135 14074 lto
5148 14001 lto
5161 13931 lto
5174 13863 lto
5180 13833 lto
5193 13771 lto
5205 13709 lto
5218 13648 lto
5231 13588 lto
5244 13529 lto
5258 13471 lto
5271 13414 lto
5285 13358 lto
5299 13302 lto
5314 13247 lto
5320 13224 lto
5335 13168 lto
5351 13113 lto
5366 13062 lto
5381 13012 lto
5396 12965 lto
5411 12921 lto
5426 12878 lto
5440 12838 lto
5455 12800 lto
5460 12786 lto
5474 12752 lto
5488 12718 lto
5503 12687 lto
5518 12656 lto
5532 12628 lto
5547 12600 lto
5563 12574 lto
5578 12550 lto
5594 12527 lto
5600 12518 lto
5617 12497 lto
5633 12477 lto
5650 12459 lto
5667 12444 lto
5683 12430 lto
5700 12418 lto
5716 12408 lto
5733 12401 lto
5740 12398 lto
5755 12393 lto
5771 12390 lto
5787 12389 lto
5804 12389 lto
5821 12391 lto
5838 12394 lto
5857 12400 lto
5876 12406 lto
5880 12408 lto
5903 12419 lto
5927 12431 lto
5950 12445 lto
5973 12462 lto
5996 12480 lto
6019 12500 lto
6020 12501 lto
6042 12522 lto
6064 12545 lto
6087 12571 lto
6111 12599 lto
6135 12630 lto
6160 12663 lto
6160 12664 lto
6186 12700 lto
6213 12740 lto
6241 12782 lto
6269 12828 lto
6299 12877 lto
6300 12879 lto
6330 12930 lto
6361 12986 lto
6395 13048 lto
6433 13117 lto
6440 13130 lto
6498 13239 lto
6556 13351 lto
6580 13396 lto
6633 13499 lto
6693 13618 lto
6720 13672 lto
6826 13884 lto
6860 13952 lto
6989 14208 lto
7000 14230 lto
7087 14401 lto
7140 14503 lto
7213 14644 lto
7280 14770 lto
7342 14887 lto
7401 14995 lto
7420 15028 lto
7477 15131 lto
7535 15232 lto
7560 15275 lto
7617 15373 lto
7676 15471 lto
7700 15511 lto
7763 15614 lto
7827 15715 lto
7840 15736 lto
7903 15835 lto
7966 15930 lto
7980 15952 lto
8042 16044 lto
8103 16134 lto
8120 16158 lto
8181 16244 lto
8243 16330 lto
8260 16353 lto
8324 16439 lto
8389 16525 lto
8400 16540 lto
8468 16627 lto
8537 16714 lto
8540 16718 lto
8610 16803 lto
8679 16887 lto
8680 16887 lto
8750 16969 lto
8820 17049 lto
8890 17128 lto
8960 17203 lto
9033 17281 lto
9100 17350 lto
9175 17426 lto
9240 17490 lto
9318 17566 lto
9380 17624 lto
9462 17700 lto
9520 17753 lto
9604 17827 lto
9660 17875 lto
9747 17949 lto
9800 17993 lto
9888 18064 lto
9940 18106 lto
10030 18176 lto
10080 18213 lto
10171 18281 lto
10220 18317 lto
10313 18383 lto
10360 18415 lto
10456 18481 lto
10500 18510 lto
10600 18575 lto
10640 18601 lto
10743 18666 lto
10780 18688 lto
10887 18753 lto
10920 18772 lto
11031 18836 lto
11060 18853 lto
11175 18917 lto
11200 18931 lto
11316 18993 lto
11340 19006 lto
11460 19068 lto
11480 19078 lto
11602 19139 lto
11620 19148 lto
11746 19209 lto
11760 19215 lto
11888 19275 lto
11900 19280 lto
12030 19338 lto
12040 19343 lto
12174 19400 lto
12180 19403 lto
12317 19460 lto
12320 19462 lto
12460 19518 lto
12600 19573 lto
12740 19625 lto
12880 19676 lto
13020 19726 lto
13160 19774 lto
13300 19820 lto
13440 19865 lto
13580 19909 lto
13720 19951 lto
13860 19992 lto
14000 20031 lto
14140 20070 lto
14280 20107 lto
14420 20144 lto
14560 20179 lto
14700 20213 lto
14840 20247 lto
14980 20279 lto
15120 20311 lto
15260 20341 lto
15400 20371 lto
15540 20400 lto
15680 20428 lto
15820 20456 lto
15960 20483 lto
16100 20509 lto
16240 20534 lto
16380 20559 lto
16520 20583 lto
16660 20607 lto
16800 20630 lto
16940 20652 lto
17080 20674 lto
17220 20695 lto
17360 20716 lto
17500 20736 lto
st
3780 22000 mto
255 255 div 0 255 div 0 255 div setrgbcolor
3781 22000 lto
st
3859 22000 mto
3883 21998 lto
3907 21995 lto
3920 21993 lto
3936 21990 lto
3951 21985 lto
3956 21983 lto
st
4036 21926 mto
4047 21913 lto
4057 21898 lto
4060 21893 lto
4070 21876 lto
4081 21858 lto
4089 21841 lto
st
4128 21749 mto
4131 21742 lto
4140 21714 lto
4150 21685 lto
4159 21654 lto
4159 21654 lto
st
4186 21557 mto
4187 21552 lto
4196 21515 lto
4200 21498 lto
4209 21460 lto
st
4230 21362 mto
4237 21328 lto
4246 21280 lto
4249 21264 lto
st
4267 21166 mto
4274 21122 lto
4284 21067 lto
st
4299 20969 mto
4303 20944 lto
4313 20880 lto
4315 20870 lto
st
4329 20771 mto
4333 20744 lto
4340 20699 lto
4344 20672 lto
st
4357 20573 mto
4360 20554 lto
4370 20477 lto
4370 20474 lto
st
4384 20375 mto
4392 20314 lto
4397 20275 lto
st
4409 20176 mto
4414 20138 lto
4421 20077 lto
st
4433 19978 mto
4437 19947 lto
4445 19878 lto
st
4457 19779 mto
4461 19740 lto
4468 19680 lto
st
4479 19580 mto
4480 19575 lto
4491 19481 lto
st
4502 19382 mto
4507 19336 lto
4513 19282 lto
st
4524 19183 mto
4534 19083 lto
st
4545 18984 mto
4553 18917 lto
4556 18885 lto
st
4567 18785 mto
4570 18753 lto
4578 18686 lto
st
4589 18586 mto
4591 18567 lto
4600 18487 lto
st
4610 18387 mto
4615 18345 lto
4620 18294 lto
4621 18288 lto
st
4631 18189 mto
4642 18089 lto
st
4653 17990 mto
4664 17890 lto
st
4675 17791 mto
4684 17705 lto
4686 17692 lto
st
4697 17592 mto
4703 17536 lto
4708 17493 lto
st
4719 17393 mto
4721 17378 lto
4730 17294 lto
st
4742 17195 mto
4754 17095 lto
st
4765 16996 mto
4776 16905 lto
4777 16897 lto
st
4789 16797 mto
4791 16777 lto
4800 16698 lto
st
4812 16599 mto
4819 16539 lto
4824 16500 lto
st
4836 16400 mto
4847 16319 lto
4849 16301 lto
st
4862 16202 mto
4873 16116 lto
4875 16103 lto
st
4888 16004 mto
4898 15926 lto
4900 15912 lto
4901 15905 lto
st
4915 15806 mto
4926 15729 lto
4929 15707 lto
st
4943 15607 mto
4951 15550 lto
4958 15509 lto
st
4973 15410 mto
4978 15375 lto
4988 15311 lto
st
5004 15212 mto
5005 15205 lto
5018 15122 lto
5019 15113 lto
st
5036 15015 mto
5040 14992 lto
5053 14916 lto
st
5071 14818 mto
5083 14748 lto
5088 14719 lto
st
5107 14621 mto
5112 14594 lto
5126 14523 lto
st
5146 14425 mto
5156 14377 lto
5167 14327 lto
st
5188 14229 mto
5195 14200 lto
5209 14137 lto
5210 14132 lto
st
5234 14035 mto
5239 14015 lto
5253 13957 lto
5258 13938 lto
st
5284 13841 mto
5298 13793 lto
5312 13745 lto
st
5341 13650 mto
5350 13622 lto
5365 13577 lto
5373 13555 lto
st
5409 13461 mto
5411 13455 lto
5426 13418 lto
5441 13383 lto
5447 13369 lto
st
5492 13280 mto
5504 13260 lto
5519 13235 lto
5534 13212 lto
5546 13196 lto
st
5611 13120 mto
5617 13114 lto
5635 13099 lto
5652 13085 lto
5670 13074 lto
5688 13064 lto
5692 13062 lto
st
5789 13043 mto
5797 13043 lto
5817 13045 lto
5837 13049 lto
5858 13055 lto
5879 13063 lto
5880 13063 lto
5886 13066 lto
st
5973 13115 mto
5976 13117 lto
6000 13135 lto
6020 13152 lto
6046 13174 lto
6050 13178 lto
st
6119 13250 mto
6123 13255 lto
6149 13287 lto
6160 13300 lto
6181 13328 lto
st
6240 13409 mto
6266 13446 lto
6296 13492 lto
st
6350 13577 mto
6380 13624 lto
6403 13661 lto
st
6455 13747 mto
6502 13825 lto
6506 13832 lto
st
6557 13919 mto
6561 13925 lto
6580 13958 lto
6607 14005 lto
st
6656 14092 mto
6695 14160 lto
6706 14179 lto
st
6754 14267 mto
6777 14309 lto
6802 14354 lto
st
6850 14442 mto
6860 14461 lto
6898 14530 lto
st
6945 14618 mto
6960 14645 lto
6993 14706 lto
st
7041 14794 mto
7081 14867 lto
7089 14881 lto
st
7138 14969 mto
7140 14972 lto
7187 15056 lto
st
7237 15143 mto
7280 15218 lto
7287 15229 lto
st
7337 15315 mto
7351 15339 lto
7388 15402 lto
st
7439 15487 mto
7489 15569 lto
7491 15573 lto
st
7543 15658 mto
7556 15679 lto
7560 15686 lto
7596 15743 lto
st
7650 15828 mto
7694 15897 lto
7700 15907 lto
7703 15912 lto
st
7758 15996 mto
7767 16010 lto
7813 16079 lto
st
7869 16162 mto
7907 16219 lto
7925 16245 lto
st
7982 16327 mto
8040 16408 lto
st
8099 16490 mto
8114 16511 lto
8120 16519 lto
8158 16570 lto
st
8218 16650 mto
8254 16698 lto
8260 16706 lto
8278 16730 lto
st
8340 16809 mto
8398 16881 lto
8400 16884 lto
8402 16887 lto
st
8465 16965 mto
8470 16971 lto
8529 17042 lto
st
8594 17118 mto
8612 17139 lto
8659 17193 lto
st
8725 17268 mto
8753 17300 lto
8792 17343 lto
st
8860 17416 mto
8893 17452 lto
8928 17489 lto
st
8998 17561 mto
9035 17598 lto
9068 17632 lto
st
9139 17702 mto
9177 17739 lto
9211 17772 lto
st
9284 17840 mto
9318 17872 lto
9358 17908 lto
st
9433 17974 mto
9462 18000 lto
9508 18040 lto
st
9584 18105 mto
9604 18122 lto
9660 18169 lto
9660 18169 lto
st
9738 18232 mto
9747 18239 lto
9800 18281 lto
9817 18294 lto
st
9896 18355 mto
9940 18389 lto
9976 18416 lto
st
10056 18475 mto
10080 18492 lto
10137 18533 lto
st
10219 18591 mto
10220 18591 lto
10302 18647 lto
st
10385 18702 mto
10459 18751 lto
10469 18757 lto
st
10553 18811 mto
10603 18842 lto
10638 18863 lto
st
10724 18915 mto
10745 18928 lto
10780 18948 lto
10810 18965 lto
st
10897 19016 mto
10920 19029 lto
10984 19064 lto
st
11072 19112 mto
11160 19160 lto
st
11249 19206 mto
11320 19242 lto
11338 19251 lto
st
11427 19296 mto
11460 19312 lto
11480 19322 lto
11517 19340 lto
st
11607 19382 mto
11620 19388 lto
11698 19424 lto
st
11790 19465 mto
11881 19505 lto
st
11973 19545 mto
12032 19570 lto
12040 19574 lto
12065 19584 lto
st
12157 19622 mto
12175 19629 lto
12180 19631 lto
12250 19659 lto
st
12343 19696 mto
12437 19731 lto
st
12530 19766 mto
12600 19792 lto
12624 19801 lto
st
12718 19834 mto
12740 19842 lto
12813 19867 lto
st
12908 19899 mto
13003 19930 lto
st
13098 19961 mto
13160 19981 lto
13193 19991 lto
st
13289 20021 mto
13300 20025 lto
13384 20050 lto
st
13480 20079 mto
13576 20107 lto
st
13672 20134 mto
13720 20148 lto
13769 20161 lto
st
13865 20187 mto
13962 20213 lto
st
14059 20238 mto
14140 20259 lto
14155 20263 lto
st
14252 20287 mto
14280 20294 lto
14350 20311 lto
st
14447 20334 mto
14544 20357 lto
st
14642 20380 mto
14700 20393 lto
14739 20402 lto
st
14837 20423 mto
14840 20424 lto
14935 20444 lto
st
15032 20465 mto
15120 20484 lto
15130 20486 lto
st
15228 20506 mto
15260 20512 lto
15326 20525 lto
st
15424 20545 mto
15523 20564 lto
st
15621 20582 mto
15680 20593 lto
15719 20600 lto
st
15818 20618 mto
15820 20618 lto
15916 20635 lto
st
16015 20652 mto
16100 20667 lto
16113 20669 lto
st
16212 20686 mto
16240 20691 lto
16310 20703 lto
st
16409 20719 mto
16508 20734 lto
st
16607 20750 mto
16660 20758 lto
16705 20765 lto
st
16804 20780 mto
16903 20794 lto
st
17002 20809 mto
17080 20820 lto
17101 20823 lto
st
17200 20836 mto
17220 20839 lto
17299 20850 lto
st
17399 20863 mto
17498 20877 lto
st
3780 22000 mto
0 255 div 0 255 div 255 255 div setrgbcolor
3781 22000 lto
st
3860 22000 mto
3861 22000 lto
3890 21998 lto
3915 21995 lto
3920 21994 lto
3938 21991 lto
3954 21987 lto
3958 21985 lto
st
4041 21931 mto
4044 21928 lto
4055 21915 lto
4060 21908 lto
4071 21892 lto
4082 21875 lto
4093 21856 lto
4097 21849 lto
st
4138 21758 mto
4146 21740 lto
4156 21712 lto
4166 21682 lto
4172 21664 lto
st
4200 21568 mto
4200 21567 lto
4210 21530 lto
4219 21491 lto
4224 21471 lto
st
4246 21374 mto
4249 21362 lto
4259 21315 lto
4267 21276 lto
st
4286 21178 mto
4290 21159 lto
4300 21102 lto
4304 21079 lto
st
4321 20981 mto
4332 20919 lto
4338 20882 lto
st
4353 20783 mto
4361 20736 lto
4368 20684 lto
st
4383 20586 mto
4393 20515 lto
4397 20487 lto
st
4411 20388 mto
4416 20352 lto
4425 20288 lto
st
4438 20189 mto
4440 20175 lto
4452 20090 lto
st
4465 19991 mto
4466 19981 lto
4477 19892 lto
st
4490 19793 mto
4494 19757 lto
4502 19693 lto
st
4514 19594 mto
4524 19514 lto
4526 19495 lto
st
4539 19396 mto
4541 19382 lto
4551 19296 lto
st
4563 19197 mto
4575 19098 lto
st
4586 18999 mto
4596 18917 lto
4598 18899 lto
st
4610 18800 mto
4619 18726 lto
4620 18720 lto
4622 18701 lto
st
4634 18601 mto
4646 18502 lto
st
4658 18403 mto
4670 18304 lto
st
4682 18204 mto
4690 18135 lto
4694 18105 lto
st
4706 18006 mto
4708 17986 lto
4718 17906 lto
st
4730 17807 mto
4741 17722 lto
4743 17708 lto
st
4755 17609 mto
4756 17602 lto
4760 17568 lto
4767 17510 lto
st
4780 17410 mto
4792 17321 lto
4793 17311 lto
st
4807 17212 mto
4808 17201 lto
4819 17113 lto
st
4833 17014 mto
4839 16971 lto
4847 16915 lto
st
4860 16816 mto
4869 16753 lto
4874 16717 lto
st
4888 16618 mto
4899 16545 lto
4900 16541 lto
4903 16519 lto
st
4918 16420 mto
4929 16347 lto
4933 16321 lto
st
4949 16222 mto
4958 16166 lto
4965 16124 lto
st
4981 16025 mto
4986 15995 lto
4997 15926 lto
st
5014 15828 mto
5026 15760 lto
5032 15729 lto
st
5050 15631 mto
5053 15615 lto
5067 15545 lto
5069 15533 lto
st
5089 15435 mto
5094 15410 lto
5107 15344 lto
5109 15337 lto
st
5130 15239 mto
5135 15215 lto
5150 15153 lto
5153 15142 lto
st
5175 15044 mto
5178 15031 lto
5180 15025 lto
5195 14963 lto
5199 14947 lto
st
5225 14850 mto
5226 14845 lto
5242 14789 lto
5252 14754 lto
st
5280 14658 mto
5288 14633 lto
5304 14585 lto
5311 14563 lto
st
5344 14469 mto
5351 14450 lto
5366 14410 lto
5380 14376 lto
st
5421 14284 mto
5429 14268 lto
5444 14237 lto
5460 14208 lto
5467 14196 lto
st
5522 14113 mto
5538 14092 lto
5555 14073 lto
5571 14055 lto
5589 14038 lto
st
5670 13981 mto
5678 13977 lto
5698 13969 lto
5718 13962 lto
5738 13957 lto
5740 13957 lto
5760 13954 lto
5766 13954 lto
st
5864 13967 mto
5868 13968 lto
5880 13972 lto
5903 13982 lto
5926 13993 lto
5951 14007 lto
5955 14009 lto
st
6036 14068 mto
6047 14077 lto
6075 14102 lto
6104 14129 lto
6110 14135 lto
st
6179 14207 mto
6193 14223 lto
6227 14262 lto
6244 14283 lto
st
6306 14362 mto
6334 14399 lto
6366 14442 lto
st
6423 14524 mto
6440 14549 lto
6479 14606 lto
st
6534 14690 mto
6535 14691 lto
6580 14761 lto
6588 14774 lto
st
6642 14858 mto
6643 14860 lto
6695 14943 lto
st
6748 15028 mto
6797 15106 lto
6801 15113 lto
st
6854 15198 mto
6860 15208 lto
6906 15283 lto
st
6958 15368 mto
7000 15436 lto
7011 15453 lto
st
7064 15538 mto
7106 15606 lto
7117 15623 lto
st
7170 15708 mto
7223 15792 lto
st
7277 15877 mto
7280 15881 lto
7332 15960 lto
st
7386 16044 mto
7420 16095 lto
7442 16127 lto
st
7497 16211 mto
7501 16217 lto
7553 16294 lto
st
7609 16376 mto
7635 16414 lto
7666 16458 lto
st
7724 16540 mto
7770 16606 lto
7781 16622 lto
st
7840 16703 mto
7900 16783 lto
st
7961 16862 mto
7977 16884 lto
7980 16888 lto
8022 16942 lto
st
8083 17020 mto
8119 17065 lto
8120 17067 lto
8145 17099 lto
st
8209 17176 mto
8260 17238 lto
8273 17253 lto
st
8338 17329 mto
8400 17401 lto
8403 17405 lto
st
8469 17480 mto
8474 17485 lto
8537 17553 lto
st
8605 17627 mto
8615 17638 lto
8673 17700 lto
st
8743 17771 mto
8756 17785 lto
8813 17842 lto
st
8884 17913 mto
8898 17926 lto
8956 17982 lto
st
9029 18051 mto
9040 18061 lto
9100 18116 lto
9103 18118 lto
st
9177 18185 mto
9181 18189 lto
9240 18241 lto
9252 18251 lto
st
9328 18316 mto
9380 18360 lto
9405 18380 lto
st
9482 18444 mto
9520 18474 lto
9561 18506 lto
st
9640 18567 mto
9660 18583 lto
9719 18627 lto
st
9800 18687 mto
9800 18687 lto
9881 18745 lto
st
9963 18802 mto
10035 18852 lto
10045 18859 lto
st
10129 18914 mto
10177 18945 lto
10213 18968 lto
st
10297 19022 mto
10320 19036 lto
10360 19060 lto
10383 19074 lto
st
10469 19125 mto
10500 19144 lto
10555 19176 lto
st
10642 19225 mto
10729 19274 lto
st
10817 19321 mto
10892 19361 lto
10906 19368 lto
st
10995 19414 mto
11034 19434 lto
11060 19446 lto
11084 19458 lto
st
11174 19502 mto
11177 19504 lto
11200 19514 lto
11265 19544 lto
st
11355 19587 mto
11446 19628 lto
st
11538 19668 mto
11607 19698 lto
11620 19704 lto
11630 19708 lto
st
11722 19746 mto
11750 19758 lto
11760 19762 lto
11815 19784 lto
st
11907 19821 mto
12001 19857 lto
st
12094 19892 mto
12180 19924 lto
12188 19927 lto
st
12282 19961 mto
12320 19974 lto
12377 19994 lto
st
12471 20027 mto
12566 20059 lto
st
12661 20090 mto
12740 20115 lto
12756 20120 lto
st
12852 20149 mto
12880 20158 lto
12947 20178 lto
st
13043 20207 mto
13139 20235 lto
st
13235 20263 mto
13300 20281 lto
13332 20290 lto
st
13428 20316 mto
13440 20319 lto
13525 20341 lto
st
13622 20366 mto
13719 20391 lto
st
13816 20415 mto
13860 20426 lto
13913 20438 lto
st
14010 20461 mto
14108 20484 lto
st
14205 20506 mto
14280 20523 lto
14303 20528 lto
st
14401 20549 mto
14420 20553 lto
14498 20570 lto
st
14596 20590 mto
14694 20610 lto
st
14792 20629 mto
14840 20639 lto
14890 20649 lto
st
14989 20668 mto
15087 20686 lto
st
15185 20704 mto
15260 20717 lto
15284 20721 lto
st
15382 20739 mto
15400 20742 lto
15481 20756 lto
st
15579 20772 mto
15678 20789 lto
st
15777 20805 mto
15820 20812 lto
15875 20821 lto
st
15974 20836 mto
16073 20851 lto
st
16172 20866 mto
16240 20876 lto
16271 20880 lto
st
16370 20895 mto
16380 20896 lto
16469 20909 lto
st
16568 20923 mto
16660 20935 lto
16667 20936 lto
st
16766 20949 mto
16800 20954 lto
16865 20962 lto
st
16965 20975 mto
17064 20988 lto
st
17163 21000 mto
17220 21007 lto
17262 21012 lto
st
17362 21024 mto
17461 21036 lto
st
3780 22000 mto
0 255 div 128 255 div 0 255 div setrgbcolor
3781 22000 lto
st
3855 22000 mto
3870 22000 lto
3901 21998 lto
3920 21995 lto
3940 21992 lto
3953 21989 lto
st
4042 21945 mto
4044 21943 lto
4056 21931 lto
4060 21927 lto
4073 21913 lto
4085 21898 lto
4097 21881 lto
4105 21868 lto
st
4152 21780 mto
4155 21774 lto
4166 21748 lto
4177 21721 lto
4187 21692 lto
4189 21687 lto
st
4221 21592 mto
4222 21588 lto
4232 21551 lto
4243 21512 lto
4247 21496 lto
st
4273 21399 mto
4277 21382 lto
4288 21334 lto
4296 21302 lto
st
4317 21204 mto
4323 21177 lto
4334 21120 lto
4337 21106 lto
st
4356 21008 mto
4363 20974 lto
4375 20910 lto
4375 20910 lto
st
4393 20811 mto
4399 20775 lto
4409 20713 lto
st
4426 20614 mto
4437 20546 lto
4442 20516 lto
st
4458 20417 mto
4465 20374 lto
4474 20318 lto
st
4489 20219 mto
4496 20176 lto
4505 20120 lto
st
4520 20022 mto
4530 19952 lto
4535 19923 lto
st
4550 19824 mto
4564 19725 lto
st
4579 19626 mto
4588 19561 lto
4593 19527 lto
st
4607 19428 mto
4610 19410 lto
4620 19340 lto
4622 19329 lto
st
4636 19230 mto
4642 19187 lto
4650 19131 lto
st
4664 19032 mto
4668 19007 lto
4679 18933 lto
st
4693 18834 mto
4707 18735 lto
st
4722 18636 mto
4731 18570 lto
4736 18537 lto
st
4751 18438 mto
4760 18377 lto
4766 18339 lto
st
4780 18241 mto
4794 18151 lto
4795 18142 lto
st
4811 18043 mto
4828 17944 lto
st
4844 17846 mto
4844 17843 lto
4859 17747 lto
4859 17747 lto
st
4876 17648 mto
4890 17566 lto
4893 17550 lto
st
4910 17451 mto
4915 17425 lto
4928 17353 lto
st
4947 17255 mto
4962 17174 lto
4965 17156 lto
st
4985 17058 mto
4994 17014 lto
5005 16960 lto
st
5026 16862 mto
5026 16861 lto
5040 16795 lto
5047 16765 lto
st
5069 16667 mto
5073 16650 lto
5089 16579 lto
5091 16570 lto
st
5115 16473 mto
5122 16444 lto
5139 16379 lto
5140 16376 lto
st
5165 16279 mto
5172 16255 lto
5180 16225 lto
5192 16183 lto
st
5220 16087 mto
5230 16054 lto
5247 16000 lto
5250 15991 lto
st
5282 15896 mto
5299 15850 lto
5316 15804 lto
5316 15803 lto
st
5353 15710 mto
5355 15706 lto
5372 15665 lto
5389 15626 lto
5393 15618 lto
st
5438 15529 mto
5442 15521 lto
5459 15490 lto
5460 15489 lto
5477 15460 lto
5489 15443 lto
st
5549 15363 mto
5549 15362 lto
5567 15342 lto
5585 15323 lto
5600 15309 lto
5618 15294 lto
5620 15293 lto
st
5707 15244 mto
5713 15242 lto
5734 15236 lto
5740 15234 lto
5763 15230 lto
5787 15227 lto
5805 15226 lto
st
5904 15236 mto
5907 15237 lto
5934 15245 lto
5960 15254 lto
5987 15266 lto
5997 15271 lto
st
6082 15324 mto
6096 15334 lto
6123 15356 lto
6151 15380 lto
6159 15387 lto
st
6231 15457 mto
6255 15482 lto
6292 15521 lto
6300 15530 lto
st
6366 15604 mto
6404 15647 lto
6432 15680 lto
st
6496 15756 mto
6551 15825 lto
6559 15834 lto
st
6620 15913 mto
6631 15927 lto
6681 15992 lto
st
6740 16073 mto
6785 16134 lto
6799 16154 lto
st
6859 16234 mto
6860 16236 lto
6918 16315 lto
st
6977 16396 mto
7000 16428 lto
7036 16477 lto
st
7095 16557 mto
7122 16594 lto
7140 16618 lto
7155 16637 lto
st
7214 16717 mto
7250 16765 lto
7274 16798 lto
st
7335 16877 mto
7382 16939 lto
7396 16957 lto
st
7457 17036 mto
7514 17109 lto
7518 17115 lto
st
7580 17193 mto
7643 17271 lto
st
7706 17349 mto
7769 17426 lto
st
7834 17502 mto
7840 17510 lto
7899 17578 lto
st
7964 17654 mto
7980 17672 lto
8031 17729 lto
st
8098 17803 mto
8120 17827 lto
8165 17877 lto
st
8234 17949 mto
8260 17976 lto
8304 18021 lto
st
8374 18092 mto
8400 18119 lto
8445 18163 lto
st
8516 18233 mto
8540 18255 lto
8589 18301 lto
st
8663 18369 mto
8680 18385 lto
8737 18436 lto
st
8812 18502 mto
8820 18509 lto
8888 18567 lto
st
8964 18632 mto
9041 18695 lto
st
9120 18757 mto
9185 18808 lto
9199 18818 lto
st
9279 18878 mto
9329 18916 lto
9360 18938 lto
st
9441 18995 mto
9470 19016 lto
9520 19051 lto
9523 19053 lto
st
9606 19109 mto
9614 19114 lto
9660 19145 lto
9689 19164 lto
st
9774 19218 mto
9800 19234 lto
9858 19271 lto
st
9944 19322 mto
10030 19373 lto
st
10117 19423 mto
10185 19461 lto
10204 19472 lto
st
10292 19520 mto
10327 19539 lto
10360 19556 lto
10380 19567 lto
st
10469 19613 mto
10470 19613 lto
10500 19628 lto
10559 19657 lto
st
10648 19701 mto
10739 19744 lto
st
10830 19786 mto
10899 19818 lto
10920 19827 lto
10921 19827 lto
st
11012 19867 mto
11043 19880 lto
11060 19888 lto
11104 19906 lto
st
11197 19945 mto
11200 19946 lto
11289 19982 lto
st
11382 20018 mto
11472 20053 lto
11476 20054 lto
st
11569 20090 mto
11616 20107 lto
11620 20108 lto
11663 20124 lto
st
11758 20157 mto
11759 20158 lto
11760 20158 lto
11852 20190 lto
st
11947 20221 mto
12040 20252 lto
12042 20253 lto
st
12137 20283 mto
12180 20296 lto
12233 20312 lto
st
12328 20342 mto
12424 20370 lto
st
12520 20398 mto
12600 20420 lto
12617 20425 lto
st
12713 20451 mto
12740 20459 lto
12810 20477 lto
st
12906 20503 mto
13003 20527 lto
st
13100 20551 mto
13160 20566 lto
13198 20575 lto
st
13295 20598 mto
13300 20599 lto
13392 20620 lto
st
13490 20642 mto
13580 20662 lto
13588 20664 lto
st
13685 20685 mto
13720 20692 lto
13783 20706 lto
st
13881 20726 mto
13979 20746 lto
st
14077 20765 mto
14140 20777 lto
14175 20784 lto
st
14274 20802 mto
14280 20803 lto
14372 20820 lto
st
14471 20838 mto
14560 20853 lto
14569 20855 lto
st
14668 20871 mto
14700 20877 lto
14766 20888 lto
st
14865 20905 mto
14964 20920 lto
st
15062 20936 mto
15120 20945 lto
15161 20951 lto
st
15260 20966 mto
15359 20981 lto
st
15458 20995 mto
15540 21007 lto
15557 21009 lto
st
15656 21023 mto
15680 21026 lto
15755 21036 lto
st
15854 21049 mto
15953 21062 lto
st
16053 21075 mto
16100 21081 lto
16152 21087 lto
st
16251 21099 mto
16350 21111 lto
st
16450 21123 mto
16520 21131 lto
16549 21134 lto
st
16648 21146 mto
16660 21147 lto
16748 21157 lto
st
16847 21168 mto
16940 21178 lto
16947 21179 lto
st
17046 21189 mto
17080 21192 lto
17146 21199 lto
st
17245 21209 mto
17345 21219 lto
st
17444 21228 mto
17500 21234 lto
st
3780 22000 mto
255 255 div 128 255 div 0 255 div setrgbcolor
3782 22000 lto
st
3853 22000 mto
3882 21999 lto
3916 21997 lto
3920 21997 lto
3943 21994 lto
3951 21992 lto
st
4043 21957 mto
4045 21956 lto
4059 21946 lto
4060 21945 lto
4074 21933 lto
4089 21919 lto
4103 21904 lto
4115 21888 lto
st
4169 21804 mto
4169 21804 lto
4181 21780 lto
4194 21754 lto
4200 21741 lto
4212 21714 lto
st
4248 21621 mto
4251 21613 lto
4263 21576 lto
4276 21537 lto
4280 21526 lto
st
4309 21430 mto
4316 21406 lto
4329 21357 lto
4336 21334 lto
st
4361 21237 mto
4366 21215 lto
4380 21160 lto
4385 21140 lto
st
4407 21043 mto
4408 21040 lto
4423 20975 lto
4430 20945 lto
st
4450 20847 mto
4453 20835 lto
4469 20759 lto
4471 20749 lto
st
4491 20651 mto
4497 20622 lto
4511 20553 lto
st
4531 20455 mto
4534 20438 lto
4550 20357 lto
st
4569 20259 mto
4575 20225 lto
4588 20161 lto
st
4606 20063 mto
4620 19991 lto
4625 19964 lto
st
4644 19866 mto
4654 19814 lto
4663 19768 lto
st
4681 19670 mto
4688 19635 lto
4700 19571 lto
st
4719 19473 mto
4738 19375 lto
st
4757 19277 mto
4760 19264 lto
4777 19179 lto
st
4796 19081 mto
4803 19048 lto
4817 18983 lto
st
4837 18885 mto
4843 18855 lto
4858 18787 lto
st
4879 18689 mto
4881 18680 lto
4899 18599 lto
4900 18597 lto
4901 18592 lto
st
4924 18495 mto
4938 18433 lto
4947 18397 lto
st
4970 18300 mto
4975 18278 lto
4994 18204 lto
4994 18203 lto
st
5020 18106 mto
5032 18061 lto
5040 18032 lto
5046 18010 lto
st
5073 17914 mto
5077 17900 lto
5096 17838 lto
5102 17818 lto
st
5132 17722 mto
5133 17719 lto
5151 17663 lto
5163 17627 lto
st
5196 17533 mto
5198 17528 lto
5216 17480 lto
5232 17440 lto
st
5270 17347 mto
5271 17345 lto
5290 17303 lto
5308 17264 lto
5312 17256 lto
st
5357 17167 mto
5375 17137 lto
5394 17106 lto
5409 17082 lto
st
5466 17000 mto
5481 16981 lto
5503 16956 lto
5524 16932 lto
5532 16924 lto
st
5606 16857 mto
5624 16844 lto
5648 16828 lto
5672 16814 lto
5691 16805 lto
st
5785 16773 mto
5789 16772 lto
5814 16769 lto
5839 16768 lto
5865 16768 lto
5880 16769 lto
5885 16770 lto
st
5982 16791 mto
5989 16793 lto
6018 16805 lto
6020 16805 lto
6050 16819 lto
6074 16830 lto
st
6160 16881 mto
6160 16881 lto
6196 16905 lto
6233 16932 lto
6242 16939 lto
st
6320 17001 mto
6343 17021 lto
6389 17061 lto
6395 17067 lto
st
6469 17135 mto
6495 17159 lto
6541 17204 lto
st
6612 17274 mto
6649 17311 lto
6682 17345 lto
st
6751 17417 mto
6809 17477 lto
6821 17489 lto
st
6889 17562 mto
6958 17635 lto
st
7026 17708 mto
7094 17781 lto
st
7163 17854 mto
7232 17927 lto
st
7301 17999 mto
7370 18071 lto
st
7440 18143 mto
7510 18214 lto
st
7580 18285 mto
7651 18356 lto
st
7723 18425 mto
7794 18493 lto
7795 18494 lto
st
7868 18563 mto
7931 18621 lto
7942 18631 lto
st
8016 18698 mto
8068 18745 lto
8090 18764 lto
st
8166 18829 mto
8207 18864 lto
8242 18894 lto
st
8320 18958 mto
8346 18979 lto
8397 19021 lto
st
8476 19083 mto
8486 19091 lto
8540 19131 lto
8556 19143 lto
st
8636 19202 mto
8680 19235 lto
8717 19261 lto
st
8799 19318 mto
8820 19333 lto
8882 19374 lto
st
8965 19429 mto
9049 19484 lto
st
9134 19537 mto
9195 19574 lto
9220 19588 lto
st
9306 19638 mto
9338 19657 lto
9380 19681 lto
9393 19688 lto
st
9481 19736 mto
9482 19737 lto
9520 19758 lto
9569 19784 lto
st
9657 19830 mto
9660 19832 lto
9746 19876 lto
st
9836 19919 mto
9912 19956 lto
9926 19963 lto
st
10017 20005 mto
10056 20023 lto
10080 20034 lto
10108 20046 lto
st
10200 20087 mto
10220 20095 lto
10292 20126 lto
st
10384 20164 mto
10477 20202 lto
st
10570 20238 mto
10629 20261 lto
10640 20265 lto
10663 20274 lto
st
10757 20309 mto
10771 20314 lto
10780 20317 lto
10851 20342 lto
st
10945 20376 mto
11040 20408 lto
st
11135 20440 mto
11200 20461 lto
11230 20470 lto
st
11325 20500 mto
11340 20505 lto
11421 20529 lto
st
11517 20558 mto
11613 20586 lto
st
11709 20613 mto
11760 20627 lto
11806 20639 lto
st
11902 20665 mto
11999 20689 lto
st
12096 20714 mto
12180 20735 lto
12193 20738 lto
st
12290 20761 mto
12320 20768 lto
12388 20784 lto
st
12485 20806 mto
12583 20827 lto
st
12681 20848 mto
12740 20860 lto
12779 20868 lto
st
12877 20888 mto
12880 20889 lto
12975 20907 lto
st
13073 20926 mto
13160 20943 lto
13171 20945 lto
st
13270 20963 mto
13300 20968 lto
13368 20980 lto
st
13467 20998 mto
13565 21014 lto
st
13664 21031 mto
13720 21040 lto
13763 21047 lto
st
13861 21062 mto
13960 21077 lto
st
14059 21092 mto
14140 21104 lto
14158 21107 lto
st
14257 21121 mto
14280 21124 lto
14356 21134 lto
st
14455 21148 mto
14554 21161 lto
st
14654 21174 mto
14700 21180 lto
14753 21186 lto
st
14852 21198 mto
14951 21211 lto
st
15051 21223 mto
15120 21231 lto
15150 21234 lto
st
15249 21246 mto
15260 21247 lto
15349 21257 lto
st
15448 21267 mto
15540 21277 lto
15548 21278 lto
st
15647 21288 mto
15680 21292 lto
15746 21299 lto
st
15846 21309 mto
15945 21319 lto
st
16045 21328 mto
16100 21333 lto
16145 21337 lto
st
16244 21346 mto
16344 21355 lto
st
16443 21364 mto
16520 21371 lto
16543 21373 lto
st
16643 21382 mto
16660 21383 lto
16742 21389 lto
st
16842 21397 mto
16940 21405 lto
16942 21405 lto
st
17041 21413 mto
17080 21416 lto
17141 21421 lto
st
17241 21428 mto
17341 21436 lto
st
17440 21443 mto
17500 21447 lto
st
3780 22000 mto
0 255 div 0 255 div 0 255 div setrgbcolor
3862 22000 lto
3880 22000 lto
st
3980 21992 mto
4000 21988 lto
4021 21983 lto
4042 21977 lto
4060 21969 lto
4075 21962 lto
st
4155 21904 mto
4169 21890 lto
4186 21871 lto
4200 21854 lto
4217 21832 lto
4220 21828 lto
st
4274 21744 mto
4285 21724 lto
4303 21692 lto
4321 21657 lto
4322 21656 lto
st
4364 21565 mto
4376 21538 lto
4394 21495 lto
4403 21473 lto
st
4440 21380 mto
4454 21345 lto
4476 21287 lto
4476 21287 lto
st
4510 21193 mto
4528 21143 lto
4544 21099 lto
st
4576 21004 mto
4584 20982 lto
4609 20910 lto
st
4641 20815 mto
4669 20734 lto
4674 20720 lto
st
4707 20626 mto
4713 20608 lto
4739 20532 lto
st
4773 20437 mto
4792 20385 lto
4807 20343 lto
st
4842 20250 mto
4850 20227 lto
4877 20156 lto
4877 20156 lto
st
4914 20063 mto
4926 20034 lto
4952 19972 lto
4953 19971 lto
st
4993 19879 mto
5003 19856 lto
5027 19803 lto
5034 19788 lto
st
5078 19698 mto
5089 19676 lto
5114 19630 lto
5125 19610 lto
st
5175 19523 mto
5180 19514 lto
5204 19476 lto
5229 19439 lto
st
5287 19358 mto
5303 19338 lto
5320 19317 lto
5345 19288 lto
5351 19281 lto
st
5422 19211 mto
5448 19189 lto
5460 19179 lto
5487 19159 lto
5501 19149 lto
st
5587 19099 mto
5600 19092 lto
5600 19092 lto
5630 19079 lto
5660 19068 lto
5680 19062 lto
st
5777 19040 mto
5807 19037 lto
5842 19035 lto
5877 19035 lto
5877 19035 lto
st
5977 19044 mto
5993 19046 lto
6020 19051 lto
6061 19060 lto
6075 19064 lto
st
6170 19092 mto
6206 19105 lto
6254 19123 lto
6264 19127 lto
st
6355 19168 mto
6408 19194 lto
6440 19210 lto
6445 19213 lto
st
6532 19261 mto
6569 19281 lto
6580 19287 lto
6619 19310 lto
st
6705 19361 mto
6720 19370 lto
6790 19414 lto
st
6875 19467 mto
6960 19520 lto
st
7045 19573 mto
7129 19626 lto
st
7214 19679 mto
7280 19720 lto
7299 19732 lto
st
7385 19783 mto
7419 19804 lto
7420 19805 lto
7470 19835 lto
st
7556 19886 mto
7560 19888 lto
7643 19936 lto
st
7730 19985 mto
7815 20032 lto
7818 20033 lto
st
7906 20081 mto
7954 20106 lto
7980 20120 lto
7994 20127 lto
st
8083 20173 mto
8094 20178 lto
8120 20191 lto
8173 20217 lto
st
8263 20261 mto
8353 20303 lto
st
8444 20345 mto
8516 20377 lto
8536 20385 lto
st
8628 20425 mto
8657 20437 lto
8680 20447 lto
8720 20463 lto
st
8813 20501 mto
8820 20504 lto
8906 20537 lto
st
8999 20573 mto
9084 20604 lto
9093 20607 lto
st
9187 20641 mto
9227 20655 lto
9240 20659 lto
9282 20673 lto
st
9377 20705 mto
9380 20706 lto
9472 20736 lto
st
9567 20766 mto
9657 20793 lto
9660 20794 lto
9663 20795 lto
st
9759 20823 mto
9800 20835 lto
9800 20835 lto
9855 20850 lto
st
9951 20877 mto
10048 20903 lto
st
10145 20928 mto
10220 20947 lto
10242 20952 lto
st
10339 20976 mto
10360 20981 lto
10436 20999 lto
st
10534 21021 mto
10631 21043 lto
st
10729 21064 mto
10780 21074 lto
10827 21084 lto
st
10925 21104 mto
11023 21123 lto
st
11122 21141 mto
11200 21156 lto
11220 21160 lto
st
11318 21177 mto
11340 21181 lto
11417 21194 lto
st
11516 21211 mto
11614 21227 lto
st
11713 21243 mto
11760 21250 lto
11812 21258 lto
st
11911 21273 mto
12010 21287 lto
st
12109 21300 mto
12180 21310 lto
12208 21314 lto
st
12307 21327 mto
12320 21329 lto
12406 21340 lto
st
12505 21353 mto
12600 21364 lto
12605 21365 lto
st
12704 21377 mto
12740 21381 lto
12803 21388 lto
st
12903 21399 mto
13002 21410 lto
st
13102 21421 mto
13160 21427 lto
13201 21431 lto
st
13300 21441 mto
13400 21451 lto
st
13500 21461 mto
13580 21468 lto
13599 21470 lto
st
13699 21479 mto
13720 21481 lto
13798 21488 lto
st
13898 21496 mto
13998 21505 lto
st
14097 21513 mto
14140 21517 lto
14197 21521 lto
st
14297 21529 mto
14396 21537 lto
st
14496 21544 mto
14560 21549 lto
14596 21552 lto
st
14695 21559 mto
14700 21559 lto
14795 21566 lto
st
14895 21573 mto
14980 21578 lto
14995 21579 lto
st
15095 21585 mto
15120 21587 lto
15194 21592 lto
st
15294 21598 mto
15394 21605 lto
st
15494 21610 mto
15540 21613 lto
15594 21616 lto
st
15693 21622 mto
15793 21627 lto
st
15893 21633 mto
15960 21637 lto
15993 21639 lto
st
16093 21644 mto
16100 21644 lto
16193 21649 lto
st
16293 21654 mto
16380 21658 lto
16392 21659 lto
st
16492 21664 mto
16520 21665 lto
16592 21668 lto
st
16692 21673 mto
16792 21678 lto
st
16892 21682 mto
16940 21684 lto
16992 21686 lto
st
17092 21690 mto
17192 21694 lto
st
17292 21698 mto
17360 21701 lto
17392 21702 lto
st
17491 21707 mto
17500 21707 lto
st
255 255 div 0 255 div 0 255 div setrgbcolor
[] 0 60 0 0 10 lsty
13200 11576 mto
14800 11576 lto
st
0 255 div 0 255 div 255 255 div setrgbcolor
[] 0 40 0 0 10 lsty
13200 12252 mto
14800 12252 lto
st
0 255 div 128 255 div 0 255 div setrgbcolor
13200 12928 mto
14800 12928 lto
st
255 255 div 128 255 div 0 255 div setrgbcolor
13200 13604 mto
14800 13604 lto
st
0 255 div 0 255 div 0 255 div setrgbcolor
13200 14280 mto
14800 14280 lto
st
255 255 div 0 255 div 0 255 div setrgbcolor
[100 100 ] 0 40 0 0 10 lsty
13200 14956 mto
14800 14956 lto
st
0 255 div 0 255 div 255 255 div setrgbcolor
13200 15632 mto
14800 15632 lto
st
0 255 div 128 255 div 0 255 div setrgbcolor
13200 16308 mto
14800 16308 lto
st
255 255 div 128 255 div 0 255 div setrgbcolor
13200 16984 mto
14800 16984 lto
st
0 255 div 0 255 div 0 255 div setrgbcolor
13200 17660 mto
14800 17660 lto
st
12200 23400 mto
0 0 (T) ashow
1800 15400 mto
[4.32014e-14 -705.556 -705.556 -4.32014e-14 0 0] /Helvetica-ISOLatin1 F
0 0 (C/N) ashow
172 0 rmto
[3.0241e-14 -493.889 -493.889 -3.0241e-14 0 0] /Helvetica-ISOLatin1 F
0 0 (spin) ashow
-172 0 rmto
15082 11764 mto
[564.444 -0 -0 -564.444 0 0] /Helvetica-ISOLatin1 F
0 0 (x=0.0) ashow
15082 12440 mto
0 0 (x=0.1) ashow
15082 13116 mto
0 0 (x=0.2) ashow
15082 13792 mto
0 0 (x=0.3) ashow
15082 14468 mto
0 0 (x=0.4) ashow
15082 15144 mto
0 0 (x=0.5) ashow
15082 15820 mto
0 0 (x=0.6) ashow
15082 16496 mto
0 0 (x=0.7) ashow
15082 17172 mto
0 0 (x=0.8) ashow
15082 17848 mto
0 0 (x=0.9) ashow
EndPage
PageRestore
showpage
end
%%Trailer
%%DocumentNeededResources: 
% font /Helvetica-ISOLatin1
%%EOF
