%!PS-Adobe-3.0 EPSF-3.0
%%Creator: GRA2PS 2.03.20
%%Title: Ngraph
%%CreationDate: 8-19-2016 10:2
%%Pages: 1
%%DocumentNeededResources: (atend)
%%BoundingBox: 32 170 501 534
%%EndComments
%
% Ngraph.ps 2.03.20
%
%%BeginProlog
%
/NgraphDict 100 dict def
NgraphDict begin
%
% Procedure Definition
%
/PageSave {/Sobject save def} bind def
/PageRestore {Sobject restore} bind def
/@Paper {
  72 2540 div -72 2540 div scale % 1unit = 0.01mm
  ANGLE rotate
  0 bottom translate                    % origin is (0 bottom)
} bind def
/BeginPage {@Paper gsave} bind def
/EndPage {grestore} bind def
/box {
  moveto
  1 index 0 rlineto
  0 exch rlineto
  neg 0 rlineto
  closepath } bind def
/view {
  mark
  currentfont
  currentmiterlimit
  currentlinejoin
  currentlinecap
  currentlinewidth
  currentdash
  currentgray
  currentrgbcolor
  grestore gsave
  counttomark dup 6 add exch roll
  pop
  5 3 roll
  translate
  1 eq { 0 0 box clip newpath } { pop pop } ifelse
  setrgbcolor
  setgray
  setdash
  setlinewidth
  setlinecap
  setlinejoin
  setmiterlimit
  setfont
 } bind def
/viewc {
  mark
  currentfont
  currentmiterlimit
  currentlinejoin
  currentlinecap
  currentlinewidth
  currentdash
  currentrgbcolor
  currentgray
  grestore gsave
  counttomark dup 6 add exch roll
  pop
  5 3 roll
  translate
  1 eq { 0 0 box clip newpath } { pop pop } ifelse
  setgray
  setrgbcolor
  setdash
  setlinewidth
  setlinecap
  setlinejoin
  setmiterlimit
  setfont
 } bind def
/F { findfont exch makefont setfont } bind def
/lsty {
  setmiterlimit
  setlinejoin
  setlinecap
  setlinewidth
  setdash } bind def
/mto /moveto load def
/rmto /rmoveto load def
/lto /lineto load def
/rlto /rlineto load def
/st /stroke load def
/l { moveto lineto stroke } bind def
/e { 
  gsave
  newpath
  translate
  0 index 1 exch div 5 1 roll
  1 index 1 exch div 6 1 roll
  scale
  0 0 1 5 3 roll exch 100 div exch 100 div arc
  scale
  stroke
  grestore } bind def
/fe {
  gsave
  newpath
  translate
  0 index 1 exch div 5 1 roll
  1 index 1 exch div 6 1 roll
  scale
  0 0 moveto 0 0 1 5 3 roll exch 100 div exch 100 div arc closepath
  scale
  fill 
  grestore } bind def
/ae {
  gsave
  newpath
  translate
  0 index 1 exch div 5 1 roll
  1 index 1 exch div 6 1 roll
  scale
  0 0 1 5 3 roll exch 100 div exch 100 div arc closepath
  scale
  fill
  grestore } bind def
/pix {
  newpath 20 0 360 arc closepath fill } bind def
/rec {
  box stroke } bind def
/bar {
  box fill } bind def
/lines {
  1 sub
  3 1 roll
  moveto
  {lineto} repeat } bind def
/poly {
  1 sub
  3 1 roll
  moveto
  {lineto} repeat closepath } bind def
/rpo { lines stroke } bind def
/dpo { poly stroke } bind def
/fpo { poly fill } bind def
/epo { poly eofill } bind def
/ashowB {
  3 copy 3 copy 3 copy
  gsave BOLDS 0 rmoveto ashow grestore
  gsave 0 BOLDS rmoveto ashow grestore
  gsave BOLDS BOLDS rmoveto ashow grestore
  ashow } bind def
end
%
% ISOLatin1Encoding
%
/NGPLatin1Encoding 256 array def
0 1 255 {NGPLatin1Encoding exch /.notdef put} for
NGPLatin1Encoding
dup 8#101 /A put          dup 8#306 /AE put         dup 8#301 /Aacute put
dup 8#302 /Acircumflex put dup 8#304 /Adieresis put dup 8#300 /Agrave put
dup 8#305 /Aring put      dup 8#303 /Atilde put     dup 8#102 /B put
dup 8#103 /C put          dup 8#307 /Ccedilla put   dup 8#104 /D put
dup 8#105 /E put          dup 8#311 /Eacute put     dup 8#312 /Ecircumflex put
dup 8#313 /Edieresis put  dup 8#310 /Egrave put     dup 8#320 /Eth put
dup 8#106 /F put          dup 8#107 /G put          dup 8#110 /H put
dup 8#111 /I put          dup 8#315 /Iacute put     dup 8#316 /Icircumflex put
dup 8#317 /Idieresis put  dup 8#314 /Igrave put     dup 8#112 /J put
dup 8#113 /K put          dup 8#114 /L put          dup 8#115 /M put
dup 8#116 /N put          dup 8#321 /Ntilde put     dup 8#117 /O put
dup 8#323 /Oacute put     dup 8#324 /Ocircumflex put dup 8#326 /Odieresis put
dup 8#322 /Ograve put     dup 8#330 /Oslash put     dup 8#325 /Otilde put
dup 8#120 /P put          dup 8#121 /Q put          dup 8#122 /R put
dup 8#123 /S put          dup 8#124 /T put          dup 8#336 /Thorn put
dup 8#125 /U put          dup 8#332 /Uacute put     dup 8#333 /Ucircumflex put
dup 8#334 /Udieresis put  dup 8#331 /Ugrave put     dup 8#126 /V put
dup 8#127 /W put          dup 8#130 /X put          dup 8#131 /Y put
dup 8#335 /Yacute put     dup 8#132 /Z put          dup 8#141 /a put
dup 8#341 /aacute put     dup 8#342 /acircumflex put dup 8#264 /acute put
dup 8#344 /adieresis put  dup 8#346 /ae put         dup 8#340 /agrave put
dup 8#046 /ampersand put  dup 8#345 /aring put      dup 8#136 /asciicircum put
dup 8#176 /asciitilde put dup 8#052 /asterisk put   dup 8#100 /at put
dup 8#343 /atilde put     dup 8#142 /b put          dup 8#134 /backslash put
dup 8#174 /bar put        dup 8#173 /braceleft put  dup 8#175 /braceright put
dup 8#133 /bracketleft put dup 8#135 /bracketright put dup 8#246 /brokenbar put
dup 8#143 /c put          dup 8#347 /ccedilla put   dup 8#242 /cent put
dup 8#072 /colon put      dup 8#054 /comma put      dup 8#251 /copyright put
dup 8#244 /currency put   dup 8#144 /d put          dup 8#260 /degree put
dup 8#367 /divide put     dup 8#044 /dollar put     dup 8#145 /e put
dup 8#351 /eacute put     dup 8#352 /ecircumflex put dup 8#353 /edieresis put
dup 8#350 /egrave put     dup 8#070 /eight put      dup 8#075 /equal put
dup 8#360 /eth put        dup 8#041 /exclam put     dup 8#241 /exclamdown put
dup 8#146 /f put          dup 8#065 /five put       dup 8#064 /four put
dup 8#147 /g put          dup 8#337 /germandbls put dup 8#076 /greater put
dup 8#253 /guillemotleft put dup 8#273 /guillemotright put dup 8#150 /h put
dup 8#255 /hyphen put     dup 8#151 /i put          dup 8#355 /iacute put
dup 8#356 /icircumflex put dup 8#357 /idieresis put dup 8#354 /igrave put
dup 8#152 /j put          dup 8#153 /k put          dup 8#154 /l put
dup 8#074 /less put       dup 8#254 /logicalnot put dup 8#155 /m put
dup 8#055 /minus put      dup 8#265 /mu put         dup 8#327 /multiply put
dup 8#156 /n put          dup 8#071 /nine put       dup 8#361 /ntilde put
dup 8#043 /numbersign put dup 8#157 /o put          dup 8#363 /oacute put
dup 8#364 /ocircumflex put dup 8#366 /odieresis put dup 8#362 /ograve put
dup 8#061 /one put        dup 8#275 /onehalf put    dup 8#274 /onequarter put
dup 8#271 /onesuperior put dup 8#252 /ordfeminine put dup 8#272 /ordmasculine put
dup 8#370 /oslash put     dup 8#365 /otilde put     dup 8#160 /p put
dup 8#266 /paragraph put  dup 8#050 /parenleft put  dup 8#051 /parenright put
dup 8#045 /percent put    dup 8#056 /period put     dup 8#267 /periodcentered put
dup 8#053 /plus put       dup 8#261 /plusminus put  dup 8#161 /q put
dup 8#077 /question put   dup 8#277 /questiondown put dup 8#042 /quotedbl put
dup 8#140 /quoteleft put  dup 8#047 /quoteright put dup 8#162 /r put
dup 8#256 /registered put dup 8#163 /s put          dup 8#247 /section put
dup 8#073 /semicolon put  dup 8#067 /seven put      dup 8#066 /six put
dup 8#057 /slash put      dup 8#040 /space put      dup 8#243 /sterling put
dup 8#164 /t put          dup 8#376 /thorn put      dup 8#063 /three put
dup 8#276 /threequarters put dup 8#263 /threesuperior put dup 8#062 /two put
dup 8#262 /twosuperior put dup 8#165 /u put         dup 8#372 /uacute put
dup 8#373 /ucircumflex put dup 8#374 /udieresis put dup 8#371 /ugrave put
dup 8#137 /underscore put dup 8#166 /v put          dup 8#167 /w put
dup 8#170 /x put          dup 8#171 /y put          dup 8#375 /yacute put
dup 8#377 /ydieresis put  dup 8#245 /yen put        dup 8#172 /z put
dup 8#060 /zero put       dup 8#250 /dieresis put   dup 8#257 /macron put
dup 8#270 /cedilla put
% for ISOLatin1Encoding
%dup 8#220 /dotlessi put   dup 8#221 /grave put      dup 8#222 /acute put
%dup 8#223 /circumflex put dup 8#224 /tilde put      dup 8#225 /macron put
%dup 8#226 /breve put      dup 8#227 /dotaccent put  dup 8#230 /dieresis put
%dup 8#232 /ring put       dup 8#233 /cedilla put    dup 8#235 /hungarumlaut put
%dup 8#236 /ogonek put     dup 8#237 /caron put
% for Windows
dup 8#200 /colonmonetary put dup 8#202 /comma put   dup 8#203 /florin put
dup 8#204 /quotedblbase put dup 8#205 /ellipsis put dup 8#206 /dagger put
dup 8#207 /daggerdbl put  dup 8#210 /circumflex put dup 8#211 /perthousand put
dup 8#212 /Scaron put    dup 8#213 /guilsinglleft put dup 8#214 /OE put
dup 8#221 /quoteleft put dup 8#222 /quoteright put   dup 8#223 /quotedblleft put
dup 8#224 /quotedblright put dup 8#225 /bullet put dup 8#226 /hyphen put
dup 8#227 /emdash put  dup 8#230 /hungarumlaut put dup 8#231 /trademark put
dup 8#232 /scaron put  dup 8#233 /guilsinglright put dup 8#234 /oe put
dup 8#237 /Ydieresis put
pop
/ReEncode {
  findfont
  dup length dict begin
    {1 index /FID ne {def} {pop pop} ifelse} forall
    /Encoding NGPLatin1Encoding def
    currentdict
  end
  definefont
  pop
} bind def
/Times-Roman-ISOLatin1 /Times-Roman ReEncode
/Times-Bold-ISOLatin1 /Times-Bold ReEncode
/Times-Italic-ISOLatin1 /Times-Italic ReEncode
/Times-BoldItalic-ISOLatin1 /Times-BoldItalic ReEncode
/Helvetica-ISOLatin1 /Helvetica ReEncode
/Helvetica-Bold-ISOLatin1 /Helvetica-Bold ReEncode
/Helvetica-Oblique-ISOLatin1 /Helvetica-Oblique ReEncode
/Helvetica-BoldOblique-ISOLatin1 /Helvetica-BoldOblique ReEncode
/Courier-ISOLatin1 /Courier ReEncode
/Courier-Bold-ISOLatin1 /Courier-Bold ReEncode
/Courier-Oblique-ISOLatin1 /Courier-Oblique ReEncode
/Courier-BoldOblique-ISOLatin1 /Courier-BoldOblique ReEncode
%
%%EndProlog
%%Page: Figure 1
%%BeginPageSetup
/ANGLE 0 def
/bottom -29700 def
NgraphDict begin
PageSave
BeginPage
%%EndPageSetup
0 0 21000 29700 1 viewc
0 255 div 0 255 div 0 255 div setrgbcolor
[] 0 40 2 0 10 lsty
3500 22000 17500 22000 l
[] 0 40 0 0 10 lsty
3500 22000 3500 21700 l
4900 22000 4900 21900 l
6300 22000 6300 21800 l
7700 22000 7700 21900 l
9100 22000 9100 21800 l
10500 22000 10500 21900 l
11900 22000 11900 21800 l
13300 22000 13300 21900 l
14700 22000 14700 21800 l
16100 22000 16100 21900 l
17500 22000 17500 21800 l
3304 22738 mto
%IncludeResource: font /Helvetica-ISOLatin1
[705.556 -0 -0 -705.556 0 0] /Helvetica-ISOLatin1 F
0 0 (0) ashow
8904 22738 mto
0 0 (2) ashow
14504 22738 mto
0 0 (4) ashow
[] 0 40 2 0 10 lsty
3500 22000 3500 11000 l
[] 0 40 0 0 10 lsty
3500 22000 3800 22000 l
3500 20472 3700 20472 l
3500 18944 3700 18944 l
3500 17416 3700 17416 l
3500 15888 3700 15888 l
3500 14361 3700 14361 l
3500 12833 3700 12833 l
3500 11305 3700 11305 l
3008 22244 mto
0 0 (0) ashow
2420 19188 mto
0 0 (0.2) ashow
2420 16132 mto
0 0 (0.4) ashow
2420 13077 mto
0 0 (0.6) ashow
[] 0 40 2 0 10 lsty
3500 11000 17500 11000 l
[] 0 40 0 0 10 lsty
3500 11000 3500 11300 l
4900 11000 4900 11100 l
6300 11000 6300 11200 l
7700 11000 7700 11100 l
9100 11000 9100 11200 l
10500 11000 10500 11100 l
11900 11000 11900 11200 l
13300 11000 13300 11100 l
14700 11000 14700 11200 l
16100 11000 16100 11100 l
17500 11000 17500 11200 l
[] 0 40 2 0 10 lsty
17500 22000 17500 11000 l
[] 0 40 0 0 10 lsty
17500 22000 17200 21999 l
17500 20472 17300 20471 l
17500 18944 17300 18943 l
17500 17416 17300 17415 l
17500 15888 17300 15887 l
17500 14361 17300 14360 l
17500 12833 17300 12832 l
17500 11305 17300 11304 l
[] 0 60 0 0 10 lsty
3780 17062 mto
255 255 div 0 255 div 0 255 div setrgbcolor
3920 17062 lto
4060 17062 lto
4200 17062 lto
4340 17061 lto
4430 17059 lto
4480 17057 lto
4541 17053 lto
4597 17047 lto
4620 17044 lto
4673 17036 lto
4727 17026 lto
4760 17019 lto
4812 17006 lto
4860 16993 lto
4900 16980 lto
4941 16965 lto
4980 16949 lto
5017 16933 lto
5040 16921 lto
5075 16902 lto
5112 16881 lto
5149 16857 lto
5180 16836 lto
5218 16808 lto
5259 16777 lto
5301 16743 lto
5320 16727 lto
5368 16686 lto
5417 16641 lto
5460 16601 lto
5514 16549 lto
5571 16492 lto
5600 16463 lto
5665 16396 lto
5734 16323 lto
5740 16317 lto
5817 16233 lto
5880 16164 lto
5980 16053 lto
6020 16009 lto
6160 15853 lto
6300 15697 lto
6415 15572 lto
6440 15544 lto
6541 15436 lto
6580 15395 lto
6671 15300 lto
6720 15250 lto
6806 15164 lto
6860 15111 lto
6945 15028 lto
7000 14976 lto
7085 14897 lto
7140 14847 lto
7225 14772 lto
7280 14724 lto
7364 14652 lto
7420 14606 lto
7505 14537 lto
7560 14493 lto
7646 14426 lto
7700 14386 lto
7788 14321 lto
7840 14283 lto
7929 14220 lto
7980 14185 lto
8071 14124 lto
8120 14092 lto
8214 14033 lto
8260 14004 lto
8356 13946 lto
8400 13919 lto
8500 13862 lto
8540 13839 lto
8641 13783 lto
8680 13762 lto
8785 13706 lto
8820 13689 lto
8928 13634 lto
8960 13619 lto
9070 13566 lto
9100 13552 lto
9213 13500 lto
9240 13488 lto
9356 13437 lto
9380 13427 lto
9501 13377 lto
9520 13369 lto
9642 13320 lto
9660 13313 lto
9789 13264 lto
9800 13260 lto
9928 13213 lto
9940 13209 lto
10076 13161 lto
10080 13160 lto
10218 13113 lto
10220 13113 lto
10360 13068 lto
10500 13024 lto
10640 12983 lto
10780 12943 lto
10920 12905 lto
11060 12868 lto
11200 12832 lto
11340 12798 lto
11480 12765 lto
11620 12733 lto
11760 12703 lto
11900 12673 lto
12040 12644 lto
12180 12617 lto
12320 12590 lto
12460 12565 lto
12600 12540 lto
12740 12516 lto
12880 12493 lto
13020 12470 lto
13160 12448 lto
13300 12427 lto
13440 12407 lto
13580 12387 lto
13720 12368 lto
13860 12349 lto
14000 12331 lto
14140 12314 lto
14280 12297 lto
14420 12280 lto
14560 12264 lto
14700 12249 lto
14840 12234 lto
14980 12219 lto
15120 12205 lto
15260 12191 lto
15400 12177 lto
15540 12164 lto
15680 12151 lto
15820 12139 lto
15960 12127 lto
16100 12115 lto
16240 12103 lto
16380 12092 lto
16520 12081 lto
16660 12070 lto
16800 12060 lto
16940 12050 lto
17080 12040 lto
17220 12030 lto
17360 12021 lto
17500 12012 lto
st
[] 0 40 0 0 10 lsty
3780 19231 mto
0 255 div 0 255 div 255 255 div setrgbcolor
3920 19231 lto
4003 19230 lto
4056 19228 lto
4060 19228 lto
4106 19224 lto
4147 19219 lto
4186 19213 lto
4200 19210 lto
4237 19202 lto
4272 19191 lto
4307 19179 lto
4340 19166 lto
4374 19151 lto
4407 19134 lto
4441 19115 lto
4474 19094 lto
4480 19090 lto
4513 19066 lto
4546 19041 lto
4580 19014 lto
4613 18984 lto
4620 18978 lto
4653 18946 lto
4687 18912 lto
4721 18876 lto
4755 18838 lto
4760 18832 lto
4795 18790 lto
4830 18747 lto
4866 18701 lto
4900 18654 lto
4936 18604 lto
4971 18552 lto
5007 18497 lto
5040 18446 lto
5075 18389 lto
5110 18330 lto
5147 18266 lto
5180 18208 lto
5218 18139 lto
5259 18064 lto
5302 17983 lto
5320 17948 lto
5367 17856 lto
5419 17753 lto
5460 17673 lto
5534 17524 lto
5600 17392 lto
5705 17182 lto
5740 17114 lto
5810 16977 lto
5872 16856 lto
5880 16841 lto
5939 16730 lto
5995 16626 lto
6020 16580 lto
6074 16481 lto
6129 16385 lto
6160 16331 lto
6214 16239 lto
6267 16149 lto
6300 16095 lto
6353 16009 lto
6406 15926 lto
6440 15873 lto
6493 15793 lto
6546 15715 lto
6580 15666 lto
6633 15590 lto
6687 15516 lto
6720 15471 lto
6776 15398 lto
6832 15325 lto
6860 15289 lto
6917 15219 lto
6975 15149 lto
7000 15119 lto
7059 15051 lto
7118 14984 lto
7140 14960 lto
7201 14894 lto
7264 14828 lto
7280 14812 lto
7343 14747 lto
7408 14684 lto
7420 14672 lto
7487 14609 lto
7555 14546 lto
7560 14541 lto
7629 14480 lto
7699 14419 lto
7700 14419 lto
7772 14358 lto
7840 14303 lto
7915 14244 lto
7980 14195 lto
8058 14137 lto
8120 14092 lto
8202 14035 lto
8260 13996 lto
8344 13940 lto
8400 13905 lto
8488 13850 lto
8540 13818 lto
8631 13765 lto
8680 13737 lto
8775 13684 lto
8820 13659 lto
8918 13608 lto
8960 13586 lto
9062 13535 lto
9100 13516 lto
9206 13466 lto
9240 13450 lto
9349 13401 lto
9380 13387 lto
9492 13339 lto
9520 13327 lto
9639 13278 lto
9660 13270 lto
9778 13224 lto
9800 13215 lto
9927 13168 lto
9940 13163 lto
10067 13118 lto
10080 13114 lto
10213 13068 lto
10220 13066 lto
10357 13022 lto
10360 13021 lto
10500 12977 lto
10640 12935 lto
10780 12895 lto
10920 12857 lto
11060 12820 lto
11200 12785 lto
11340 12751 lto
11480 12718 lto
11620 12686 lto
11760 12656 lto
11900 12627 lto
12040 12599 lto
12180 12571 lto
12320 12545 lto
12460 12520 lto
12600 12496 lto
12740 12472 lto
12880 12449 lto
13020 12427 lto
13160 12406 lto
13300 12385 lto
13440 12365 lto
13580 12346 lto
13720 12328 lto
13860 12309 lto
14000 12292 lto
14140 12275 lto
14280 12258 lto
14420 12242 lto
14560 12227 lto
14700 12212 lto
14840 12197 lto
14980 12183 lto
15120 12169 lto
15260 12156 lto
15400 12143 lto
15540 12130 lto
15680 12117 lto
15820 12105 lto
15960 12094 lto
16100 12082 lto
16240 12071 lto
16380 12060 lto
16520 12050 lto
16660 12040 lto
16800 12030 lto
16940 12020 lto
17080 12010 lto
17220 12001 lto
17360 11992 lto
17500 11983 lto
st
3780 20336 mto
0 255 div 128 255 div 0 255 div setrgbcolor
3911 20336 lto
3920 20336 lto
3977 20334 lto
4024 20331 lto
4060 20327 lto
4095 20322 lto
4128 20315 lto
4157 20308 lto
4186 20299 lto
4200 20294 lto
4227 20283 lto
4255 20269 lto
4281 20255 lto
4307 20238 lto
4333 20220 lto
4340 20215 lto
4366 20195 lto
4392 20172 lto
4418 20147 lto
4444 20121 lto
4470 20092 lto
4480 20081 lto
4507 20049 lto
4533 20015 lto
4561 19979 lto
4589 19940 lto
4617 19899 lto
4620 19894 lto
4650 19849 lto
4680 19801 lto
4710 19751 lto
4740 19699 lto
4760 19664 lto
4790 19609 lto
4821 19550 lto
4853 19488 lto
4886 19423 lto
4900 19395 lto
4936 19321 lto
4972 19244 lto
5009 19164 lto
5040 19096 lto
5076 19014 lto
5114 18927 lto
5154 18833 lto
5180 18771 lto
5224 18664 lto
5273 18546 lto
5320 18430 lto
5382 18275 lto
5460 18082 lto
5550 17857 lto
5600 17736 lto
5662 17586 lto
5718 17449 lto
5740 17398 lto
5792 17276 lto
5841 17162 lto
5880 17074 lto
5927 16969 lto
5974 16866 lto
6020 16767 lto
6020 16766 lto
6066 16670 lto
6111 16576 lto
6156 16485 lto
6160 16477 lto
6205 16388 lto
6250 16302 lto
6295 16216 lto
6300 16207 lto
6345 16125 lto
6390 16043 lto
6436 15963 lto
6440 15956 lto
6486 15878 lto
6532 15801 lto
6579 15725 lto
6580 15724 lto
6627 15649 lto
6675 15575 lto
6720 15508 lto
6769 15436 lto
6819 15365 lto
6860 15308 lto
6911 15239 lto
6963 15170 lto
7000 15123 lto
7053 15056 lto
7107 14991 lto
7140 14951 lto
7196 14886 lto
7253 14821 lto
7280 14792 lto
7339 14728 lto
7398 14666 lto
7420 14643 lto
7482 14581 lto
7544 14520 lto
7560 14505 lto
7624 14444 lto
7690 14385 lto
7700 14376 lto
7768 14316 lto
7836 14258 lto
7840 14255 lto
7910 14197 lto
7980 14142 lto
8054 14085 lto
8120 14036 lto
8197 13980 lto
8260 13936 lto
8340 13882 lto
8400 13843 lto
8484 13789 lto
8540 13754 lto
8627 13702 lto
8680 13671 lto
8772 13619 lto
8820 13593 lto
8915 13542 lto
8960 13518 lto
9058 13469 lto
9100 13448 lto
9203 13398 lto
9240 13381 lto
9345 13333 lto
9380 13318 lto
9492 13269 lto
9520 13258 lto
9632 13211 lto
9660 13200 lto
9779 13154 lto
9800 13146 lto
9922 13101 lto
9940 13094 lto
10067 13049 lto
10080 13045 lto
10209 13001 lto
10220 12997 lto
10355 12954 lto
10360 12952 lto
10500 12909 lto
10640 12868 lto
10780 12829 lto
10920 12791 lto
11060 12755 lto
11200 12720 lto
11340 12686 lto
11480 12654 lto
11620 12624 lto
11760 12594 lto
11900 12566 lto
12040 12538 lto
12180 12512 lto
12320 12486 lto
12460 12462 lto
12600 12438 lto
12740 12415 lto
12880 12393 lto
13020 12372 lto
13160 12351 lto
13300 12332 lto
13440 12312 lto
13580 12294 lto
13720 12276 lto
13860 12258 lto
14000 12242 lto
14140 12225 lto
14280 12209 lto
14420 12194 lto
14560 12179 lto
14700 12165 lto
14840 12151 lto
14980 12137 lto
15120 12124 lto
15260 12111 lto
15400 12099 lto
15540 12086 lto
15680 12075 lto
15820 12063 lto
15960 12052 lto
16100 12041 lto
16240 12031 lto
16380 12021 lto
16520 12011 lto
16660 12001 lto
16800 11991 lto
16940 11982 lto
17080 11973 lto
17220 11964 lto
17360 11956 lto
17500 11947 lto
st
3780 20642 mto
255 255 div 128 255 div 0 255 div setrgbcolor
3920 20642 lto
3977 20640 lto
4022 20637 lto
4060 20633 lto
4092 20629 lto
4122 20623 lto
4148 20616 lto
4174 20608 lto
4198 20598 lto
4200 20597 lto
4225 20585 lto
4249 20572 lto
4273 20556 lto
4297 20539 lto
4321 20520 lto
4340 20504 lto
4364 20481 lto
4387 20457 lto
4411 20430 lto
4436 20401 lto
4460 20371 lto
4480 20344 lto
4504 20309 lto
4529 20272 lto
4554 20233 lto
4579 20192 lto
4605 20148 lto
4620 20121 lto
4646 20074 lto
4672 20024 lto
4698 19972 lto
4726 19916 lto
4754 19857 lto
4760 19844 lto
4789 19780 lto
4819 19714 lto
4849 19643 lto
4881 19569 lto
4900 19523 lto
4932 19445 lto
4966 19361 lto
5001 19270 lto
5039 19172 lto
5040 19170 lto
5083 19058 lto
5129 18935 lto
5180 18798 lto
5239 18639 lto
5313 18438 lto
5320 18419 lto
5414 18164 lto
5460 18040 lto
5518 17886 lto
5571 17747 lto
5600 17671 lto
5649 17546 lto
5696 17427 lto
5740 17317 lto
5786 17206 lto
5830 17098 lto
5875 16994 lto
5880 16982 lto
5924 16881 lto
5967 16783 lto
6010 16689 lto
6020 16666 lto
6062 16574 lto
6105 16484 lto
6148 16396 lto
6160 16371 lto
6203 16285 lto
6247 16200 lto
6290 16116 lto
6300 16098 lto
6344 16017 lto
6387 15937 lto
6432 15859 lto
6440 15844 lto
6484 15768 lto
6529 15692 lto
6575 15618 lto
6580 15610 lto
6626 15536 lto
6674 15463 lto
6720 15393 lto
6769 15322 lto
6818 15252 lto
6860 15193 lto
6910 15125 lto
6962 15057 lto
7000 15008 lto
7053 14942 lto
7106 14876 lto
7140 14836 lto
7195 14772 lto
7252 14708 lto
7280 14677 lto
7338 14614 lto
7397 14552 lto
7420 14529 lto
7481 14468 lto
7543 14408 lto
7560 14391 lto
7624 14332 lto
7689 14273 lto
7700 14263 lto
7767 14205 lto
7835 14148 lto
7840 14143 lto
7910 14086 lto
7980 14031 lto
8053 13976 lto
8120 13927 lto
8197 13872 lto
8260 13828 lto
8340 13775 lto
8400 13736 lto
8483 13683 lto
8540 13649 lto
8627 13597 lto
8680 13567 lto
8771 13516 lto
8820 13490 lto
8914 13440 lto
8960 13417 lto
9059 13368 lto
9100 13348 lto
9202 13300 lto
9240 13282 lto
9346 13235 lto
9380 13221 lto
9490 13174 lto
9520 13162 lto
9635 13116 lto
9660 13106 lto
9777 13061 lto
9800 13053 lto
9922 13009 lto
9940 13003 lto
10067 12959 lto
10080 12955 lto
10209 12912 lto
10220 12909 lto
10356 12866 lto
10360 12865 lto
10500 12823 lto
10640 12784 lto
10780 12746 lto
10920 12709 lto
11060 12674 lto
11200 12641 lto
11340 12609 lto
11480 12578 lto
11620 12548 lto
11760 12520 lto
11900 12493 lto
12040 12467 lto
12180 12441 lto
12320 12417 lto
12460 12394 lto
12600 12371 lto
12740 12349 lto
12880 12328 lto
13020 12308 lto
13160 12289 lto
13300 12270 lto
13440 12252 lto
13580 12234 lto
13720 12217 lto
13860 12200 lto
14000 12185 lto
14140 12169 lto
14280 12154 lto
14420 12140 lto
14560 12126 lto
14700 12112 lto
14840 12099 lto
14980 12086 lto
15120 12074 lto
15260 12062 lto
15400 12050 lto
15540 12039 lto
15680 12028 lto
15820 12017 lto
15960 12006 lto
16100 11996 lto
16240 11986 lto
16380 11977 lto
16520 11967 lto
16660 11958 lto
16800 11950 lto
16940 11941 lto
17080 11933 lto
17220 11924 lto
17360 11916 lto
17500 11909 lto
st
3780 20382 mto
0 255 div 0 255 div 0 255 div setrgbcolor
3920 20381 lto
3990 20381 lto
4037 20379 lto
4060 20377 lto
4094 20373 lto
4124 20369 lto
4151 20363 lto
4177 20356 lto
4200 20348 lto
4224 20338 lto
4247 20326 lto
4270 20313 lto
4292 20299 lto
4314 20283 lto
4335 20265 lto
4340 20261 lto
4361 20241 lto
4383 20219 lto
4404 20195 lto
4426 20169 lto
4448 20140 lto
4470 20110 lto
4480 20096 lto
4502 20063 lto
4524 20028 lto
4547 19990 lto
4571 19950 lto
4594 19906 lto
4619 19860 lto
4620 19858 lto
4645 19809 lto
4671 19756 lto
4698 19700 lto
4725 19641 lto
4753 19579 lto
4760 19564 lto
4789 19496 lto
4820 19424 lto
4852 19348 lto
4885 19266 lto
4900 19228 lto
4937 19136 lto
4975 19037 lto
5017 18929 lto
5040 18868 lto
5088 18741 lto
5142 18595 lto
5180 18494 lto
5284 18213 lto
5320 18118 lto
5388 17936 lto
5448 17780 lto
5460 17748 lto
5514 17609 lto
5565 17479 lto
5600 17390 lto
5648 17272 lto
5694 17159 lto
5739 17050 lto
5740 17048 lto
5785 16943 lto
5829 16841 lto
5873 16741 lto
5880 16725 lto
5924 16628 lto
5968 16533 lto
6012 16440 lto
6020 16423 lto
6064 16332 lto
6108 16243 lto
6152 16156 lto
6160 16140 lto
6204 16055 lto
6248 15972 lto
6293 15890 lto
6300 15878 lto
6345 15798 lto
6390 15719 lto
6435 15642 lto
6440 15634 lto
6486 15558 lto
6533 15483 lto
6580 15408 lto
6580 15408 lto
6628 15335 lto
6676 15263 lto
6720 15200 lto
6770 15129 lto
6820 15060 lto
6860 15006 lto
6912 14938 lto
6965 14871 lto
7000 14827 lto
7054 14762 lto
7109 14697 lto
7140 14661 lto
7197 14597 lto
7254 14535 lto
7280 14507 lto
7339 14445 lto
7399 14384 lto
7420 14364 lto
7482 14304 lto
7545 14244 lto
7560 14230 lto
7625 14172 lto
7691 14114 lto
7700 14106 lto
7768 14049 lto
7837 13992 lto
7840 13990 lto
7911 13934 lto
7980 13882 lto
8054 13827 lto
8120 13780 lto
8197 13727 lto
8260 13685 lto
8341 13633 lto
8400 13596 lto
8484 13545 lto
8540 13512 lto
8629 13461 lto
8680 13433 lto
8771 13384 lto
8820 13358 lto
8916 13310 lto
8960 13288 lto
9059 13241 lto
9100 13222 lto
9204 13175 lto
9240 13159 lto
9346 13114 lto
9380 13100 lto
9492 13055 lto
9520 13044 lto
9634 13000 lto
9660 12990 lto
9781 12946 lto
9800 12940 lto
9922 12898 lto
9940 12891 lto
10069 12849 lto
10080 12846 lto
10211 12805 lto
10220 12802 lto
10358 12761 lto
10360 12760 lto
10499 12721 lto
10500 12721 lto
10640 12683 lto
10780 12647 lto
10920 12612 lto
11060 12579 lto
11200 12548 lto
11340 12517 lto
11480 12488 lto
11620 12461 lto
11760 12434 lto
11900 12408 lto
12040 12384 lto
12180 12360 lto
12320 12337 lto
12460 12315 lto
12600 12294 lto
12740 12274 lto
12880 12254 lto
13020 12235 lto
13160 12217 lto
13300 12200 lto
13440 12183 lto
13580 12166 lto
13720 12150 lto
13860 12135 lto
14000 12120 lto
14140 12106 lto
14280 12092 lto
14420 12079 lto
14560 12066 lto
14700 12053 lto
14840 12041 lto
14980 12029 lto
15120 12018 lto
15260 12007 lto
15400 11996 lto
15540 11985 lto
15680 11975 lto
15820 11965 lto
15960 11956 lto
16100 11947 lto
16240 11937 lto
16380 11929 lto
16520 11920 lto
16660 11912 lto
16800 11904 lto
16940 11896 lto
17080 11888 lto
17220 11881 lto
17360 11873 lto
17500 11866 lto
st
3780 19774 mto
255 255 div 0 255 div 0 255 div setrgbcolor
3880 19774 lto
st
3980 19773 mto
3995 19773 lto
4044 19771 lto
4060 19770 lto
4080 19768 lto
st
4178 19751 mto
4183 19750 lto
4200 19745 lto
4225 19735 lto
4250 19724 lto
4271 19714 lto
st
4353 19657 mto
4363 19648 lto
4385 19627 lto
4408 19604 lto
4424 19587 lto
st
4487 19509 mto
4502 19487 lto
4525 19454 lto
4543 19426 lto
st
4595 19341 mto
4595 19340 lto
4620 19297 lto
4620 19296 lto
4644 19254 lto
st
4689 19165 mto
4696 19152 lto
4722 19097 lto
4733 19075 lto
st
4775 18984 mto
4789 18953 lto
4816 18893 lto
st
4855 18801 mto
4883 18735 lto
4894 18709 lto
st
4933 18616 mto
4937 18606 lto
4970 18524 lto
st
5008 18431 mto
5021 18398 lto
5040 18351 lto
5045 18338 lto
st
5081 18245 mto
5096 18208 lto
5118 18152 lto
st
5155 18059 mto
5164 18036 lto
5180 17996 lto
5192 17966 lto
st
5228 17873 mto
5265 17780 lto
st
5301 17687 mto
5320 17641 lto
5339 17594 lto
st
5376 17501 mto
5385 17478 lto
5413 17408 lto
st
5451 17316 mto
5460 17293 lto
5489 17223 lto
st
5527 17131 mto
5563 17046 lto
5566 17039 lto
st
5605 16947 mto
5645 16855 lto
st
5685 16763 mto
5695 16740 lto
5725 16672 lto
st
5767 16581 mto
5786 16538 lto
5809 16490 lto
st
5851 16400 mto
5877 16344 lto
5880 16338 lto
5894 16309 lto
st
5938 16219 mto
5971 16153 lto
5983 16130 lto
st
6028 16041 mto
6066 15968 lto
6074 15952 lto
st
6121 15864 mto
6157 15798 lto
6160 15793 lto
6169 15776 lto
st
6218 15689 mto
6252 15630 lto
6268 15602 lto
st
6319 15516 mto
6346 15471 lto
6371 15431 lto
st
6424 15346 mto
6440 15321 lto
6478 15262 lto
st
6533 15179 mto
6537 15173 lto
6580 15111 lto
6590 15096 lto
st
6648 15015 mto
6681 14969 lto
6707 14934 lto
st
6767 14854 mto
6772 14847 lto
6824 14779 lto
6828 14775 lto
st
6891 14697 mto
6914 14669 lto
6955 14620 lto
st
7020 14544 mto
7056 14503 lto
7086 14469 lto
st
7154 14396 mto
7199 14349 lto
7223 14324 lto
st
7294 14253 mto
7341 14207 lto
7366 14183 lto
st
7439 14115 mto
7484 14074 lto
7513 14048 lto
st
7589 13983 mto
7627 13950 lto
7666 13919 lto
st
7744 13856 mto
7770 13835 lto
7823 13795 lto
st
7903 13735 mto
7913 13728 lto
7980 13680 lto
7984 13677 lto
st
8067 13621 mto
8120 13585 lto
8150 13565 lto
st
8234 13512 mto
8260 13496 lto
8320 13459 lto
st
8406 13409 mto
8487 13362 lto
8493 13359 lto
st
8581 13311 mto
8630 13285 lto
8669 13265 lto
st
8758 13220 mto
8774 13212 lto
8820 13190 lto
8848 13177 lto
st
8939 13134 mto
8960 13124 lto
9030 13093 lto
st
9122 13053 mto
9206 13018 lto
9214 13015 lto
st
9307 12978 mto
9349 12961 lto
9380 12949 lto
9400 12941 lto
st
9494 12906 mto
9495 12906 lto
9520 12896 lto
9588 12872 lto
st
9682 12839 mto
9777 12808 lto
st
9872 12777 mto
9928 12759 lto
9940 12755 lto
9968 12747 lto
st
10063 12718 mto
10070 12716 lto
10080 12713 lto
10159 12690 lto
st
10255 12662 mto
10352 12636 lto
st
10449 12611 mto
10500 12597 lto
10546 12586 lto
st
10643 12562 mto
10740 12539 lto
st
10837 12516 mto
10920 12497 lto
10935 12494 lto
st
11033 12473 mto
11060 12467 lto
11130 12452 lto
st
11228 12432 mto
11326 12413 lto
st
11425 12394 mto
11480 12384 lto
11523 12376 lto
st
11621 12358 mto
11720 12341 lto
st
11818 12324 mto
11900 12310 lto
11917 12307 lto
st
12016 12292 mto
12040 12288 lto
12115 12276 lto
st
12213 12261 mto
12312 12246 lto
st
12411 12232 mto
12460 12225 lto
12510 12218 lto
st
12610 12205 mto
12709 12192 lto
st
12808 12179 mto
12880 12170 lto
12907 12167 lto
st
13006 12155 mto
13020 12153 lto
13106 12143 lto
st
13205 12131 mto
13300 12120 lto
13304 12120 lto
st
13404 12109 mto
13440 12105 lto
13503 12098 lto
st
13603 12088 mto
13702 12078 lto
st
13802 12068 mto
13860 12062 lto
13901 12058 lto
st
14001 12049 mto
14100 12040 lto
st
14200 12030 mto
14280 12023 lto
14299 12021 lto
st
14399 12013 mto
14420 12011 lto
14499 12005 lto
st
14598 11997 mto
14698 11988 lto
st
14798 11980 mto
14840 11977 lto
14897 11973 lto
st
14997 11966 mto
15097 11959 lto
st
15197 11952 mto
15260 11947 lto
15296 11944 lto
st
15396 11937 mto
15400 11937 lto
15496 11931 lto
st
15596 11924 mto
15680 11918 lto
15696 11917 lto
st
15795 11911 mto
15820 11910 lto
15895 11905 lto
st
15995 11899 mto
16095 11893 lto
st
16195 11888 mto
16240 11885 lto
16294 11882 lto
st
16394 11876 mto
16494 11870 lto
st
16594 11865 mto
16660 11862 lto
16694 11860 lto
st
16794 11855 mto
16800 11855 lto
16894 11850 lto
st
16994 11845 mto
17080 11841 lto
17093 11840 lto
st
17193 11835 mto
17220 11834 lto
17293 11831 lto
st
17393 11826 mto
17493 11821 lto
st
3780 18873 mto
0 255 div 0 255 div 255 255 div setrgbcolor
3880 18873 lto
st
3980 18872 mto
4003 18872 lto
4056 18870 lto
4060 18870 lto
4080 18869 lto
st
4179 18854 mto
4193 18851 lto
4200 18849 lto
4227 18841 lto
4254 18831 lto
4273 18822 lto
st
4359 18771 mto
4364 18767 lto
4388 18748 lto
4413 18726 lto
4434 18705 lto
st
4501 18631 mto
4504 18628 lto
4527 18598 lto
4552 18565 lto
4561 18551 lto
st
4617 18468 mto
4620 18463 lto
4645 18422 lto
4669 18383 lto
st
4718 18295 mto
4726 18280 lto
4754 18227 lto
4760 18216 lto
4765 18207 lto
st
4810 18118 mto
4821 18096 lto
4853 18029 lto
4853 18028 lto
st
4896 17938 mto
4900 17930 lto
4938 17847 lto
4938 17847 lto
st
4980 17756 mto
5021 17665 lto
st
5061 17573 mto
5095 17496 lto
5101 17482 lto
st
5141 17390 mto
5160 17346 lto
5180 17301 lto
5181 17298 lto
st
5221 17207 mto
5261 17115 lto
st
5301 17023 mto
5302 17022 lto
5320 16981 lto
5342 16932 lto
st
5383 16841 mto
5388 16829 lto
5423 16749 lto
st
5465 16658 mto
5506 16567 lto
st
5549 16477 mto
5567 16438 lto
5591 16386 lto
st
5634 16296 mto
5650 16263 lto
5678 16206 lto
st
5722 16116 mto
5740 16081 lto
5767 16027 lto
st
5813 15938 mto
5837 15893 lto
5860 15850 lto
st
5907 15762 mto
5928 15723 lto
5955 15674 lto
st
6004 15587 mto
6020 15558 lto
6054 15500 lto
st
6105 15414 mto
6116 15395 lto
6156 15328 lto
st
6209 15243 mto
6258 15167 lto
6263 15159 lto
st
6318 15076 mto
6350 15028 lto
6374 14993 lto
st
6431 14911 mto
6440 14898 lto
6490 14830 lto
st
6549 14749 mto
6580 14709 lto
6610 14670 lto
st
6673 14592 mto
6686 14575 lto
6720 14533 lto
6736 14514 lto
st
6801 14438 mto
6830 14404 lto
6860 14371 lto
6867 14363 lto
st
6934 14290 mto
6975 14246 lto
7000 14220 lto
7003 14217 lto
st
7073 14145 mto
7120 14099 lto
7140 14079 lto
7144 14075 lto
st
7217 14006 mto
7265 13962 lto
7280 13949 lto
7291 13939 lto
st
7366 13874 mto
7410 13836 lto
7420 13828 lto
7443 13809 lto
st
7521 13746 mto
7557 13718 lto
7560 13715 lto
7599 13685 lto
st
7679 13625 mto
7700 13610 lto
7761 13567 lto
st
7843 13510 mto
7917 13461 lto
7926 13455 lto
st
8011 13401 mto
8061 13370 lto
8096 13349 lto
st
8183 13299 mto
8203 13287 lto
8260 13255 lto
8270 13250 lto
st
8358 13202 mto
8400 13179 lto
8446 13156 lto
st
8536 13111 mto
8540 13109 lto
8626 13068 lto
st
8717 13026 mto
8780 12998 lto
8808 12985 lto
st
8900 12946 mto
8922 12937 lto
8960 12921 lto
8993 12908 lto
st
9086 12871 mto
9100 12866 lto
9179 12836 lto
st
9273 12802 mto
9355 12773 lto
9367 12769 lto
st
9462 12737 mto
9500 12724 lto
9520 12718 lto
9557 12706 lto
st
9653 12676 mto
9660 12673 lto
9748 12647 lto
st
9844 12619 mto
9931 12594 lto
9940 12592 lto
9941 12592 lto
st
10037 12566 mto
10080 12554 lto
10080 12554 lto
10134 12540 lto
st
10231 12515 mto
10328 12492 lto
st
10425 12469 mto
10500 12452 lto
10523 12447 lto
st
10620 12425 mto
10640 12421 lto
10718 12404 lto
st
10816 12384 mto
10914 12364 lto
st
11012 12345 mto
11060 12336 lto
11111 12327 lto
st
11209 12309 mto
11308 12292 lto
st
11406 12275 mto
11480 12263 lto
11505 12259 lto
st
11604 12244 mto
11620 12241 lto
11702 12228 lto
st
11801 12213 mto
11900 12199 lto
11900 12199 lto
st
11999 12185 mto
12040 12179 lto
12098 12171 lto
st
12197 12158 mto
12297 12145 lto
st
12396 12132 mto
12460 12124 lto
12495 12120 lto
st
12594 12109 mto
12600 12108 lto
12694 12097 lto
st
12793 12085 mto
12880 12076 lto
12892 12075 lto
st
12992 12064 mto
13020 12061 lto
13091 12054 lto
st
13191 12044 mto
13290 12034 lto
st
13390 12024 mto
13440 12019 lto
13489 12014 lto
st
13589 12005 mto
13689 11997 lto
st
13788 11988 mto
13860 11982 lto
13888 11980 lto
st
13988 11972 mto
14000 11971 lto
14087 11964 lto
st
14187 11956 mto
14280 11949 lto
14287 11948 lto
st
14386 11941 mto
14420 11938 lto
14486 11933 lto
st
14586 11926 mto
14686 11919 lto
st
14785 11913 mto
14840 11909 lto
14885 11906 lto
st
14985 11900 mto
15085 11893 lto
st
15185 11887 mto
15260 11882 lto
15284 11881 lto
st
15384 11875 mto
15400 11874 lto
15484 11869 lto
st
15584 11863 mto
15680 11858 lto
15684 11858 lto
st
15784 11852 mto
15820 11850 lto
15883 11847 lto
st
15983 11842 mto
16083 11837 lto
st
16183 11832 mto
16240 11829 lto
16283 11827 lto
st
16383 11822 mto
16483 11818 lto
st
16583 11813 mto
16660 11809 lto
16682 11808 lto
st
16782 11804 mto
16800 11803 lto
16882 11799 lto
st
16982 11795 mto
17080 11791 lto
17082 11791 lto
st
17182 11787 mto
17220 11786 lto
17282 11783 lto
st
17382 11779 mto
17482 11776 lto
st
3780 17621 mto
0 255 div 128 255 div 0 255 div setrgbcolor
3880 17621 lto
st
3980 17620 mto
4018 17620 lto
4060 17619 lto
4080 17618 lto
st
4179 17607 mto
4180 17607 lto
4200 17603 lto
4231 17596 lto
4261 17587 lto
4276 17582 lto
st
4367 17540 mto
4367 17540 lto
4394 17523 lto
4421 17505 lto
4447 17484 lto
4448 17483 lto
st
4522 17415 mto
4532 17405 lto
4559 17377 lto
4586 17345 lto
4589 17341 lto
st
4652 17263 mto
4676 17229 lto
4705 17188 lto
4709 17182 lto
st
4764 17098 mto
4792 17055 lto
4817 17013 lto
st
4868 16927 mto
4896 16879 lto
4900 16872 lto
4918 16840 lto
st
4967 16753 mto
4985 16720 lto
5015 16665 lto
st
5062 16577 mto
5098 16510 lto
5109 16489 lto
st
5156 16401 mto
5167 16381 lto
5180 16356 lto
5203 16313 lto
st
5250 16224 mto
5293 16144 lto
5297 16136 lto
st
5344 16048 mto
5391 15959 lto
st
5439 15871 mto
5460 15832 lto
5487 15784 lto
st
5535 15696 mto
5583 15611 lto
5584 15609 lto
st
5634 15522 mto
5656 15483 lto
5684 15436 lto
st
5735 15350 mto
5740 15341 lto
5787 15264 lto
st
5840 15179 mto
5848 15166 lto
5880 15114 lto
5892 15094 lto
st
5947 15010 mto
5987 14950 lto
6002 14927 lto
st
6059 14845 mto
6073 14824 lto
6116 14763 lto
st
6175 14682 mto
6213 14630 lto
6234 14602 lto
st
6295 14522 mto
6300 14516 lto
6354 14448 lto
6357 14444 lto
st
6421 14367 mto
6440 14344 lto
6485 14290 lto
st
6552 14215 mto
6553 14214 lto
6580 14184 lto
6619 14142 lto
st
6687 14068 mto
6696 14059 lto
6720 14035 lto
6758 13997 lto
st
6829 13927 mto
6840 13916 lto
6860 13897 lto
6901 13858 lto
st
6975 13791 mto
6985 13782 lto
7000 13769 lto
7050 13725 lto
st
7127 13661 mto
7130 13658 lto
7140 13650 lto
7205 13598 lto
st
7284 13536 mto
7350 13487 lto
7364 13477 lto
st
7446 13419 mto
7493 13386 lto
7528 13362 lto
st
7612 13308 mto
7637 13292 lto
7696 13254 lto
st
7782 13202 mto
7840 13169 lto
7869 13153 lto
st
7956 13105 mto
7980 13092 lto
8045 13058 lto
st
8134 13012 mto
8211 12975 lto
8224 12969 lto
st
8315 12927 mto
8354 12909 lto
8400 12888 lto
8406 12886 lto
st
8498 12847 mto
8499 12846 lto
8540 12829 lto
8590 12809 lto
st
8683 12772 mto
8777 12737 lto
st
8871 12703 mto
8931 12681 lto
8960 12671 lto
8965 12669 lto
st
9060 12638 mto
9075 12633 lto
9100 12625 lto
9155 12608 lto
st
9251 12578 mto
9347 12550 lto
st
9443 12522 mto
9512 12503 lto
9520 12501 lto
9539 12496 lto
st
9636 12470 mto
9652 12466 lto
9660 12464 lto
9733 12446 lto
st
9830 12422 mto
9927 12399 lto
st
10025 12377 mto
10080 12364 lto
10122 12355 lto
st
10220 12334 mto
10318 12314 lto
st
10416 12295 mto
10500 12279 lto
10515 12276 lto
st
10613 12259 mto
10640 12254 lto
10712 12241 lto
st
10810 12224 mto
10909 12208 lto
st
11007 12192 mto
11060 12184 lto
11106 12177 lto
st
11205 12162 mto
11304 12148 lto
st
11403 12134 mto
11480 12123 lto
11502 12120 lto
st
11601 12107 mto
11620 12105 lto
11701 12095 lto
st
11800 12082 mto
11899 12070 lto
st
11998 12059 mto
12040 12054 lto
12098 12048 lto
st
12197 12037 mto
12297 12026 lto
st
12396 12016 mto
12460 12009 lto
12496 12006 lto
st
12595 11996 mto
12600 11996 lto
12695 11987 lto
st
12794 11978 mto
12880 11970 lto
12894 11969 lto
st
12994 11960 mto
13020 11958 lto
13093 11952 lto
st
13193 11943 mto
13293 11936 lto
st
13392 11928 mto
13440 11924 lto
13492 11920 lto
st
13592 11912 mto
13691 11905 lto
st
13791 11898 mto
13860 11894 lto
13891 11892 lto
st
13991 11885 mto
14000 11884 lto
14090 11878 lto
st
14190 11872 mto
14280 11866 lto
14290 11865 lto
st
14390 11860 mto
14420 11858 lto
14490 11854 lto
st
14590 11848 mto
14689 11843 lto
st
14789 11837 mto
14840 11834 lto
14889 11832 lto
st
14989 11827 mto
15089 11822 lto
st
15189 11817 mto
15260 11813 lto
15289 11812 lto
st
15388 11807 mto
15400 11806 lto
15488 11802 lto
st
15588 11798 mto
15680 11793 lto
15688 11793 lto
st
15788 11788 mto
15820 11787 lto
15888 11785 lto
st
15988 11781 mto
16088 11777 lto
st
16188 11772 mto
16240 11770 lto
16288 11768 lto
st
16388 11765 mto
16488 11761 lto
st
16587 11758 mto
16660 11755 lto
16687 11754 lto
st
16787 11750 mto
16800 11750 lto
16887 11747 lto
st
16987 11743 mto
17080 11740 lto
17087 11740 lto
st
17187 11737 mto
17220 11736 lto
17287 11734 lto
st
17387 11730 mto
17487 11727 lto
st
3780 16145 mto
255 255 div 128 255 div 0 255 div setrgbcolor
3880 16145 lto
st
3980 16145 mto
4040 16144 lto
4060 16143 lto
4080 16142 lto
st
4180 16135 mto
4200 16133 lto
4238 16127 lto
4273 16120 lto
4278 16119 lto
st
4373 16088 mto
4403 16075 lto
4434 16059 lto
4463 16043 lto
st
4545 15987 mto
4571 15966 lto
4602 15940 lto
4620 15924 lto
4622 15923 lto
st
4693 15853 mto
4716 15828 lto
4750 15791 lto
4760 15780 lto
4761 15779 lto
st
4825 15703 mto
4833 15693 lto
4872 15644 lto
4887 15624 lto
st
4947 15544 mto
4992 15485 lto
5007 15464 lto
st
5065 15383 mto
5101 15333 lto
5123 15301 lto
st
5181 15219 mto
5238 15137 lto
st
5295 15055 mto
5320 15020 lto
5353 14974 lto
st
5411 14892 mto
5417 14883 lto
5460 14822 lto
5468 14810 lto
st
5527 14730 mto
5535 14719 lto
5586 14649 lto
st
5646 14569 mto
5667 14541 lto
5707 14489 lto
st
5769 14411 mto
5804 14367 lto
5831 14333 lto
st
5895 14255 mto
5942 14199 lto
5959 14179 lto
st
6025 14104 mto
6081 14041 lto
6092 14029 lto
st
6160 13956 mto
6160 13956 lto
6221 13892 lto
6229 13884 lto
st
6300 13813 mto
6300 13813 lto
6362 13752 lto
6371 13743 lto
st
6444 13675 mto
6504 13622 lto
6519 13609 lto
st
6595 13543 mto
6646 13501 lto
6672 13480 lto
st
6750 13417 mto
6788 13388 lto
6830 13357 lto
st
6911 13298 mto
6930 13284 lto
6993 13241 lto
st
7076 13185 mto
7140 13144 lto
7160 13132 lto
st
7246 13079 mto
7280 13059 lto
7332 13029 lto
st
7419 12980 mto
7420 12979 lto
7503 12935 lto
7507 12933 lto
st
7596 12888 mto
7646 12863 lto
7686 12844 lto
st
7777 12801 mto
7790 12795 lto
7840 12773 lto
7868 12761 lto
st
7960 12722 mto
7980 12714 lto
8053 12685 lto
st
8146 12648 mto
8222 12620 lto
8240 12613 lto
st
8334 12580 mto
8367 12569 lto
8400 12558 lto
8429 12549 lto
st
8524 12517 mto
8540 12512 lto
8620 12488 lto
st
8716 12460 mto
8800 12435 lto
8812 12432 lto
st
8908 12406 mto
8946 12396 lto
8960 12392 lto
9005 12381 lto
st
9102 12357 mto
9199 12333 lto
st
9297 12311 mto
9380 12292 lto
9394 12289 lto
st
9492 12269 mto
9520 12263 lto
9590 12249 lto
st
9688 12230 mto
9787 12211 lto
st
9885 12194 mto
9940 12184 lto
9984 12177 lto
st
10082 12160 mto
10181 12143 lto
st
10280 12128 mto
10360 12116 lto
10379 12113 lto
st
10478 12099 mto
10500 12096 lto
10577 12086 lto
st
10676 12072 mto
10775 12059 lto
st
10874 12047 mto
10920 12041 lto
10973 12035 lto
st
11073 12023 mto
11172 12011 lto
st
11271 12000 mto
11340 11993 lto
11371 11990 lto
st
11470 11980 mto
11480 11979 lto
11570 11970 lto
st
11669 11960 mto
11760 11952 lto
11769 11951 lto
st
11869 11943 mto
11900 11940 lto
11968 11934 lto
st
12068 11926 mto
12168 11917 lto
st
12267 11909 mto
12320 11905 lto
12367 11902 lto
st
12467 11894 mto
12566 11887 lto
st
12666 11880 mto
12740 11875 lto
12766 11873 lto
st
12866 11866 mto
12880 11865 lto
12965 11860 lto
st
13065 11853 mto
13160 11848 lto
13165 11848 lto
st
13265 11842 mto
13300 11840 lto
13365 11836 lto
st
13465 11831 mto
13564 11825 lto
st
13664 11820 mto
13720 11817 lto
13764 11814 lto
st
13864 11809 mto
13964 11805 lto
st
14064 11800 mto
14140 11796 lto
14164 11795 lto
st
14264 11791 mto
14280 11790 lto
14363 11786 lto
st
14463 11781 mto
14560 11778 lto
14563 11778 lto
st
14663 11774 mto
14700 11772 lto
14763 11769 lto
st
14863 11765 mto
14963 11762 lto
st
15063 11758 mto
15120 11756 lto
15163 11754 lto
st
15263 11751 mto
15363 11747 lto
st
15463 11744 mto
15540 11741 lto
15563 11740 lto
st
15663 11737 mto
15680 11737 lto
15762 11734 lto
st
15862 11731 mto
15960 11728 lto
15962 11728 lto
st
16062 11725 mto
16100 11724 lto
16162 11722 lto
st
16262 11719 mto
16362 11717 lto
st
16462 11714 mto
16520 11712 lto
16562 11711 lto
st
16662 11708 mto
16762 11706 lto
st
16862 11703 mto
16940 11701 lto
16962 11701 lto
st
17062 11698 mto
17080 11698 lto
17162 11696 lto
st
17262 11694 mto
17360 11692 lto
17362 11692 lto
st
17462 11690 mto
17500 11689 lto
st
3780 14065 mto
0 255 div 0 255 div 0 255 div setrgbcolor
3880 14065 lto
st
3980 14065 mto
4060 14064 lto
4080 14064 lto
st
4180 14061 mto
4200 14060 lto
4257 14056 lto
4280 14053 lto
st
4379 14039 mto
4387 14038 lto
4433 14028 lto
4476 14016 lto
st
4571 13986 mto
4613 13969 lto
4620 13966 lto
4663 13947 lto
st
4752 13902 mto
4754 13901 lto
4760 13898 lto
4807 13871 lto
4839 13852 lto
st
4923 13798 mto
4955 13777 lto
5006 13742 lto
st
5087 13683 mto
5108 13668 lto
5167 13624 lto
st
5247 13564 mto
5279 13539 lto
5320 13509 lto
5327 13504 lto
st
5406 13443 mto
5460 13402 lto
5486 13383 lto
st
5567 13323 mto
5576 13316 lto
5600 13299 lto
5648 13265 lto
st
5729 13207 mto
5740 13199 lto
5811 13149 lto
st
5894 13094 mto
5966 13047 lto
5978 13039 lto
st
6063 12987 mto
6105 12961 lto
6149 12935 lto
st
6236 12885 mto
6245 12880 lto
6300 12849 lto
6323 12837 lto
st
6411 12790 mto
6440 12775 lto
6500 12744 lto
st
6590 12701 mto
6668 12665 lto
6681 12659 lto
st
6773 12619 mto
6812 12602 lto
6860 12583 lto
6865 12581 lto
st
6958 12543 mto
7000 12527 lto
7052 12508 lto
st
7146 12474 mto
7240 12442 lto
st
7335 12411 mto
7386 12395 lto
7420 12385 lto
7431 12382 lto
st
7527 12353 mto
7531 12352 lto
7560 12344 lto
7623 12326 lto
st
7720 12301 mto
7817 12276 lto
st
7914 12253 mto
7966 12241 lto
7980 12238 lto
8012 12231 lto
st
8109 12209 mto
8110 12209 lto
8120 12207 lto
8207 12189 lto
st
8305 12169 mto
8400 12151 lto
8403 12150 lto
st
8502 12133 mto
8540 12126 lto
8600 12116 lto
st
8699 12100 mto
8798 12084 lto
st
8897 12070 mto
8960 12060 lto
8996 12055 lto
st
9095 12041 mto
9100 12040 lto
9194 12028 lto
st
9293 12016 mto
9380 12005 lto
9392 12004 lto
st
9492 11992 mto
9520 11989 lto
9591 11981 lto
st
9690 11970 mto
9790 11960 lto
st
9889 11950 mto
9940 11945 lto
9989 11940 lto
st
10088 11931 mto
10188 11923 lto
st
10288 11915 mto
10360 11909 lto
10387 11907 lto
st
10487 11899 mto
10500 11898 lto
10587 11891 lto
st
10687 11884 mto
10780 11877 lto
10786 11877 lto
st
10886 11870 mto
10920 11868 lto
10986 11864 lto
st
11086 11857 mto
11185 11851 lto
st
11285 11845 mto
11340 11842 lto
11385 11840 lto
st
11485 11835 mto
11585 11829 lto
st
11685 11824 mto
11760 11820 lto
11785 11819 lto
st
11885 11814 mto
11900 11813 lto
11984 11809 lto
st
12084 11805 mto
12180 11801 lto
12184 11801 lto
st
12284 11797 mto
12320 11795 lto
12384 11792 lto
st
12484 11788 mto
12584 11785 lto
st
12684 11781 mto
12740 11779 lto
12784 11777 lto
st
12884 11774 mto
12984 11770 lto
st
13084 11767 mto
13160 11764 lto
13184 11763 lto
st
13283 11760 mto
13300 11760 lto
13383 11758 lto
st
13483 11755 mto
13580 11752 lto
13583 11752 lto
st
13683 11749 mto
13720 11748 lto
13783 11746 lto
st
13883 11743 mto
13983 11740 lto
st
14083 11738 mto
14140 11737 lto
14183 11736 lto
st
14283 11733 mto
14383 11731 lto
st
14483 11729 mto
14560 11727 lto
14583 11727 lto
st
14683 11724 mto
14700 11724 lto
14783 11722 lto
st
14883 11720 mto
14980 11718 lto
14983 11718 lto
st
15083 11716 mto
15120 11715 lto
15183 11714 lto
st
15283 11713 mto
15383 11710 lto
st
15483 11709 mto
15540 11708 lto
15583 11707 lto
st
15683 11705 mto
15783 11704 lto
st
15883 11702 mto
15960 11701 lto
15983 11701 lto
st
16083 11699 mto
16100 11699 lto
16183 11698 lto
st
16283 11696 mto
16380 11695 lto
16383 11695 lto
st
16483 11694 mto
16520 11693 lto
16583 11692 lto
st
16683 11691 mto
16783 11689 lto
st
16883 11688 mto
16940 11687 lto
16983 11686 lto
st
17083 11685 mto
17183 11684 lto
st
17283 11683 mto
17360 11682 lto
17383 11682 lto
st
17483 11680 mto
17500 11680 lto
st
255 255 div 0 255 div 0 255 div setrgbcolor
[] 0 60 0 0 10 lsty
13200 14776 mto
14800 14776 lto
st
0 255 div 0 255 div 255 255 div setrgbcolor
[] 0 40 0 0 10 lsty
13200 15452 mto
14800 15452 lto
st
0 255 div 128 255 div 0 255 div setrgbcolor
13200 16128 mto
14800 16128 lto
st
255 255 div 128 255 div 0 255 div setrgbcolor
13200 16804 mto
14800 16804 lto
st
0 255 div 0 255 div 0 255 div setrgbcolor
13200 17480 mto
14800 17480 lto
st
255 255 div 0 255 div 0 255 div setrgbcolor
[100 100 ] 0 40 0 0 10 lsty
13200 18156 mto
14800 18156 lto
st
0 255 div 0 255 div 255 255 div setrgbcolor
13200 18832 mto
14800 18832 lto
st
0 255 div 128 255 div 0 255 div setrgbcolor
13200 19508 mto
14800 19508 lto
st
255 255 div 128 255 div 0 255 div setrgbcolor
13200 20184 mto
14800 20184 lto
st
0 255 div 0 255 div 0 255 div setrgbcolor
13200 20860 mto
14800 20860 lto
st
12200 23400 mto
0 0 (T) ashow
1800 15400 mto
[4.32014e-14 -705.556 -705.556 -4.32014e-14 0 0] /Helvetica-ISOLatin1 F
0 0 (S/N) ashow
172 0 rmto
[3.0241e-14 -493.889 -493.889 -3.0241e-14 0 0] /Helvetica-ISOLatin1 F
0 0 (spin) ashow
-172 0 rmto
15082 14964 mto
[564.444 -0 -0 -564.444 0 0] /Helvetica-ISOLatin1 F
0 0 (x=0.0) ashow
15082 15640 mto
0 0 (x=0.1) ashow
15082 16316 mto
0 0 (x=0.2) ashow
15082 16992 mto
0 0 (x=0.3) ashow
15082 17668 mto
0 0 (x=0.4) ashow
15082 18344 mto
0 0 (x=0.5) ashow
15082 19020 mto
0 0 (x=0.6) ashow
15082 19696 mto
0 0 (x=0.7) ashow
15082 20372 mto
0 0 (x=0.8) ashow
15082 21048 mto
0 0 (x=0.9) ashow
EndPage
PageRestore
showpage
end
%%Trailer
%%DocumentNeededResources: 
% font /Helvetica-ISOLatin1
%%EOF
