%!PS-Adobe-3.0 EPSF-3.0
%%Creator: GRA2PS 2.03.20
%%Title: Ngraph
%%CreationDate: 10-5-2016 2:23
%%Pages: 1
%%DocumentNeededResources: (atend)
%%BoundingBox: 20 172 525 541
%%EndComments
%
% Ngraph.ps 2.03.20
%
%%BeginProlog
%
/NgraphDict 100 dict def
NgraphDict begin
%
% Procedure Definition
%
/PageSave {/Sobject save def} bind def
/PageRestore {Sobject restore} bind def
/@Paper {
  72 2540 div -72 2540 div scale % 1unit = 0.01mm
  ANGLE rotate
  0 bottom translate                    % origin is (0 bottom)
} bind def
/BeginPage {@Paper gsave} bind def
/EndPage {grestore} bind def
/box {
  moveto
  1 index 0 rlineto
  0 exch rlineto
  neg 0 rlineto
  closepath } bind def
/view {
  mark
  currentfont
  currentmiterlimit
  currentlinejoin
  currentlinecap
  currentlinewidth
  currentdash
  currentgray
  currentrgbcolor
  grestore gsave
  counttomark dup 6 add exch roll
  pop
  5 3 roll
  translate
  1 eq { 0 0 box clip newpath } { pop pop } ifelse
  setrgbcolor
  setgray
  setdash
  setlinewidth
  setlinecap
  setlinejoin
  setmiterlimit
  setfont
 } bind def
/viewc {
  mark
  currentfont
  currentmiterlimit
  currentlinejoin
  currentlinecap
  currentlinewidth
  currentdash
  currentrgbcolor
  currentgray
  grestore gsave
  counttomark dup 6 add exch roll
  pop
  5 3 roll
  translate
  1 eq { 0 0 box clip newpath } { pop pop } ifelse
  setgray
  setrgbcolor
  setdash
  setlinewidth
  setlinecap
  setlinejoin
  setmiterlimit
  setfont
 } bind def
/F { findfont exch makefont setfont } bind def
/lsty {
  setmiterlimit
  setlinejoin
  setlinecap
  setlinewidth
  setdash } bind def
/mto /moveto load def
/rmto /rmoveto load def
/lto /lineto load def
/rlto /rlineto load def
/st /stroke load def
/l { moveto lineto stroke } bind def
/e { 
  gsave
  newpath
  translate
  0 index 1 exch div 5 1 roll
  1 index 1 exch div 6 1 roll
  scale
  0 0 1 5 3 roll exch 100 div exch 100 div arc
  scale
  stroke
  grestore } bind def
/fe {
  gsave
  newpath
  translate
  0 index 1 exch div 5 1 roll
  1 index 1 exch div 6 1 roll
  scale
  0 0 moveto 0 0 1 5 3 roll exch 100 div exch 100 div arc closepath
  scale
  fill 
  grestore } bind def
/ae {
  gsave
  newpath
  translate
  0 index 1 exch div 5 1 roll
  1 index 1 exch div 6 1 roll
  scale
  0 0 1 5 3 roll exch 100 div exch 100 div arc closepath
  scale
  fill
  grestore } bind def
/pix {
  newpath 20 0 360 arc closepath fill } bind def
/rec {
  box stroke } bind def
/bar {
  box fill } bind def
/lines {
  1 sub
  3 1 roll
  moveto
  {lineto} repeat } bind def
/poly {
  1 sub
  3 1 roll
  moveto
  {lineto} repeat closepath } bind def
/rpo { lines stroke } bind def
/dpo { poly stroke } bind def
/fpo { poly fill } bind def
/epo { poly eofill } bind def
/ashowB {
  3 copy 3 copy 3 copy
  gsave BOLDS 0 rmoveto ashow grestore
  gsave 0 BOLDS rmoveto ashow grestore
  gsave BOLDS BOLDS rmoveto ashow grestore
  ashow } bind def
end
%
% ISOLatin1Encoding
%
/NGPLatin1Encoding 256 array def
0 1 255 {NGPLatin1Encoding exch /.notdef put} for
NGPLatin1Encoding
dup 8#101 /A put          dup 8#306 /AE put         dup 8#301 /Aacute put
dup 8#302 /Acircumflex put dup 8#304 /Adieresis put dup 8#300 /Agrave put
dup 8#305 /Aring put      dup 8#303 /Atilde put     dup 8#102 /B put
dup 8#103 /C put          dup 8#307 /Ccedilla put   dup 8#104 /D put
dup 8#105 /E put          dup 8#311 /Eacute put     dup 8#312 /Ecircumflex put
dup 8#313 /Edieresis put  dup 8#310 /Egrave put     dup 8#320 /Eth put
dup 8#106 /F put          dup 8#107 /G put          dup 8#110 /H put
dup 8#111 /I put          dup 8#315 /Iacute put     dup 8#316 /Icircumflex put
dup 8#317 /Idieresis put  dup 8#314 /Igrave put     dup 8#112 /J put
dup 8#113 /K put          dup 8#114 /L put          dup 8#115 /M put
dup 8#116 /N put          dup 8#321 /Ntilde put     dup 8#117 /O put
dup 8#323 /Oacute put     dup 8#324 /Ocircumflex put dup 8#326 /Odieresis put
dup 8#322 /Ograve put     dup 8#330 /Oslash put     dup 8#325 /Otilde put
dup 8#120 /P put          dup 8#121 /Q put          dup 8#122 /R put
dup 8#123 /S put          dup 8#124 /T put          dup 8#336 /Thorn put
dup 8#125 /U put          dup 8#332 /Uacute put     dup 8#333 /Ucircumflex put
dup 8#334 /Udieresis put  dup 8#331 /Ugrave put     dup 8#126 /V put
dup 8#127 /W put          dup 8#130 /X put          dup 8#131 /Y put
dup 8#335 /Yacute put     dup 8#132 /Z put          dup 8#141 /a put
dup 8#341 /aacute put     dup 8#342 /acircumflex put dup 8#264 /acute put
dup 8#344 /adieresis put  dup 8#346 /ae put         dup 8#340 /agrave put
dup 8#046 /ampersand put  dup 8#345 /aring put      dup 8#136 /asciicircum put
dup 8#176 /asciitilde put dup 8#052 /asterisk put   dup 8#100 /at put
dup 8#343 /atilde put     dup 8#142 /b put          dup 8#134 /backslash put
dup 8#174 /bar put        dup 8#173 /braceleft put  dup 8#175 /braceright put
dup 8#133 /bracketleft put dup 8#135 /bracketright put dup 8#246 /brokenbar put
dup 8#143 /c put          dup 8#347 /ccedilla put   dup 8#242 /cent put
dup 8#072 /colon put      dup 8#054 /comma put      dup 8#251 /copyright put
dup 8#244 /currency put   dup 8#144 /d put          dup 8#260 /degree put
dup 8#367 /divide put     dup 8#044 /dollar put     dup 8#145 /e put
dup 8#351 /eacute put     dup 8#352 /ecircumflex put dup 8#353 /edieresis put
dup 8#350 /egrave put     dup 8#070 /eight put      dup 8#075 /equal put
dup 8#360 /eth put        dup 8#041 /exclam put     dup 8#241 /exclamdown put
dup 8#146 /f put          dup 8#065 /five put       dup 8#064 /four put
dup 8#147 /g put          dup 8#337 /germandbls put dup 8#076 /greater put
dup 8#253 /guillemotleft put dup 8#273 /guillemotright put dup 8#150 /h put
dup 8#255 /hyphen put     dup 8#151 /i put          dup 8#355 /iacute put
dup 8#356 /icircumflex put dup 8#357 /idieresis put dup 8#354 /igrave put
dup 8#152 /j put          dup 8#153 /k put          dup 8#154 /l put
dup 8#074 /less put       dup 8#254 /logicalnot put dup 8#155 /m put
dup 8#055 /minus put      dup 8#265 /mu put         dup 8#327 /multiply put
dup 8#156 /n put          dup 8#071 /nine put       dup 8#361 /ntilde put
dup 8#043 /numbersign put dup 8#157 /o put          dup 8#363 /oacute put
dup 8#364 /ocircumflex put dup 8#366 /odieresis put dup 8#362 /ograve put
dup 8#061 /one put        dup 8#275 /onehalf put    dup 8#274 /onequarter put
dup 8#271 /onesuperior put dup 8#252 /ordfeminine put dup 8#272 /ordmasculine put
dup 8#370 /oslash put     dup 8#365 /otilde put     dup 8#160 /p put
dup 8#266 /paragraph put  dup 8#050 /parenleft put  dup 8#051 /parenright put
dup 8#045 /percent put    dup 8#056 /period put     dup 8#267 /periodcentered put
dup 8#053 /plus put       dup 8#261 /plusminus put  dup 8#161 /q put
dup 8#077 /question put   dup 8#277 /questiondown put dup 8#042 /quotedbl put
dup 8#140 /quoteleft put  dup 8#047 /quoteright put dup 8#162 /r put
dup 8#256 /registered put dup 8#163 /s put          dup 8#247 /section put
dup 8#073 /semicolon put  dup 8#067 /seven put      dup 8#066 /six put
dup 8#057 /slash put      dup 8#040 /space put      dup 8#243 /sterling put
dup 8#164 /t put          dup 8#376 /thorn put      dup 8#063 /three put
dup 8#276 /threequarters put dup 8#263 /threesuperior put dup 8#062 /two put
dup 8#262 /twosuperior put dup 8#165 /u put         dup 8#372 /uacute put
dup 8#373 /ucircumflex put dup 8#374 /udieresis put dup 8#371 /ugrave put
dup 8#137 /underscore put dup 8#166 /v put          dup 8#167 /w put
dup 8#170 /x put          dup 8#171 /y put          dup 8#375 /yacute put
dup 8#377 /ydieresis put  dup 8#245 /yen put        dup 8#172 /z put
dup 8#060 /zero put       dup 8#250 /dieresis put   dup 8#257 /macron put
dup 8#270 /cedilla put
% for ISOLatin1Encoding
%dup 8#220 /dotlessi put   dup 8#221 /grave put      dup 8#222 /acute put
%dup 8#223 /circumflex put dup 8#224 /tilde put      dup 8#225 /macron put
%dup 8#226 /breve put      dup 8#227 /dotaccent put  dup 8#230 /dieresis put
%dup 8#232 /ring put       dup 8#233 /cedilla put    dup 8#235 /hungarumlaut put
%dup 8#236 /ogonek put     dup 8#237 /caron put
% for Windows
dup 8#200 /colonmonetary put dup 8#202 /comma put   dup 8#203 /florin put
dup 8#204 /quotedblbase put dup 8#205 /ellipsis put dup 8#206 /dagger put
dup 8#207 /daggerdbl put  dup 8#210 /circumflex put dup 8#211 /perthousand put
dup 8#212 /Scaron put    dup 8#213 /guilsinglleft put dup 8#214 /OE put
dup 8#221 /quoteleft put dup 8#222 /quoteright put   dup 8#223 /quotedblleft put
dup 8#224 /quotedblright put dup 8#225 /bullet put dup 8#226 /hyphen put
dup 8#227 /emdash put  dup 8#230 /hungarumlaut put dup 8#231 /trademark put
dup 8#232 /scaron put  dup 8#233 /guilsinglright put dup 8#234 /oe put
dup 8#237 /Ydieresis put
pop
/ReEncode {
  findfont
  dup length dict begin
    {1 index /FID ne {def} {pop pop} ifelse} forall
    /Encoding NGPLatin1Encoding def
    currentdict
  end
  definefont
  pop
} bind def
/Times-Roman-ISOLatin1 /Times-Roman ReEncode
/Times-Bold-ISOLatin1 /Times-Bold ReEncode
/Times-Italic-ISOLatin1 /Times-Italic ReEncode
/Times-BoldItalic-ISOLatin1 /Times-BoldItalic ReEncode
/Helvetica-ISOLatin1 /Helvetica ReEncode
/Helvetica-Bold-ISOLatin1 /Helvetica-Bold ReEncode
/Helvetica-Oblique-ISOLatin1 /Helvetica-Oblique ReEncode
/Helvetica-BoldOblique-ISOLatin1 /Helvetica-BoldOblique ReEncode
/Courier-ISOLatin1 /Courier ReEncode
/Courier-Bold-ISOLatin1 /Courier-Bold ReEncode
/Courier-Oblique-ISOLatin1 /Courier-Oblique ReEncode
/Courier-BoldOblique-ISOLatin1 /Courier-BoldOblique ReEncode
%
%%EndProlog
%%Page: Figure 1
%%BeginPageSetup
/ANGLE 0 def
/bottom -29700 def
NgraphDict begin
PageSave
BeginPage
%%EndPageSetup
0 0 21000 29700 1 viewc
0 255 div 0 255 div 0 255 div setrgbcolor
[] 0 40 2 0 10 lsty
3500 22000 17500 22000 l
[] 0 40 0 0 10 lsty
3500 22000 3500 21700 l
5250 22000 5250 21900 l
7000 22000 7000 21800 l
8750 22000 8750 21900 l
10500 22000 10500 21800 l
12250 22000 12250 21900 l
14000 22000 14000 21800 l
15750 22000 15750 21900 l
17500 22000 17500 21800 l
3304 22738 mto
%IncludeResource: font /Helvetica-ISOLatin1
[705.556 -0 -0 -705.556 0 0] /Helvetica-ISOLatin1 F
0 0 (0) ashow
9618 22738 mto
0 0 (0.001) ashow
16618 22738 mto
0 0 (0.002) ashow
[] 0 40 2 0 10 lsty
3500 22000 3500 11000 l
[] 0 40 0 0 10 lsty
3500 22000 3700 22000 l
3500 20900 3600 20900 l
3500 19799 3600 19799 l
3500 18700 3600 18700 l
3500 17599 3600 17599 l
3500 16500 3700 16500 l
3500 15400 3600 15400 l
3500 14299 3600 14299 l
3500 13200 3600 13200 l
3500 12099 3600 12099 l
3500 11000 3700 11000 l
1636 22244 mto
0 0 (0.322) ashow
1636 16744 mto
0 0 (0.323) ashow
1636 11244 mto
0 0 (0.324) ashow
[] 0 40 2 0 10 lsty
3500 11000 17500 11000 l
[] 0 40 0 0 10 lsty
3500 11000 3500 11300 l
5250 11000 5250 11100 l
7000 11000 7000 11200 l
8750 11000 8750 11100 l
10500 11000 10500 11200 l
12250 11000 12250 11100 l
14000 11000 14000 11200 l
15750 11000 15750 11100 l
17500 11000 17500 11200 l
[] 0 40 2 0 10 lsty
17500 22000 17500 11000 l
[] 0 40 0 0 10 lsty
17500 22000 17300 21999 l
17500 20900 17400 20899 l
17500 19799 17400 19798 l
17500 18700 17400 18699 l
17500 17599 17400 17598 l
17500 16500 17300 16499 l
17500 15400 17400 15399 l
17500 14299 17400 14298 l
17500 13200 17400 13199 l
17500 12099 17400 12098 l
17500 11000 17300 10999 l
255 255 div 0 255 div 0 255 div setrgbcolor
-36000 0 100 100 15653 13387 fe
-36000 0 100 100 10336 17023 fe
-36000 0 100 100 6538 15279 fe
-36000 0 100 100 5209 16198 fe
15653 13178 15653 13596 l
15503 13178 15803 13178 l
15503 13596 15803 13596 l
10336 16885 10336 17160 l
10186 16885 10486 16885 l
10186 17160 10486 17160 l
6538 15197 6538 15361 l
6388 15197 6688 15197 l
6388 15361 6688 15361 l
5209 16126 5209 16269 l
5059 16126 5359 16126 l
5059 16269 5359 16269 l
0 255 div 0 255 div 0 255 div setrgbcolor
3500 16137 mto
3600 16137 lto
st
3700 16137 mto
3800 16137 lto
st
3900 16137 mto
4000 16137 lto
st
4100 16137 mto
4200 16137 lto
st
4300 16137 mto
4400 16137 lto
st
4500 16137 mto
4600 16137 lto
st
4700 16137 mto
4800 16137 lto
st
4900 16137 mto
5000 16137 lto
st
5100 16137 mto
5200 16137 lto
st
5300 16137 mto
5400 16137 lto
st
5500 16137 mto
5600 16137 lto
st
5700 16137 mto
5800 16137 lto
st
5900 16137 mto
6000 16137 lto
st
6100 16137 mto
6200 16137 lto
st
6300 16137 mto
6400 16137 lto
st
6500 16137 mto
6600 16137 lto
st
6700 16137 mto
6800 16137 lto
st
6900 16137 mto
7000 16137 lto
st
7100 16137 mto
7200 16137 lto
st
7300 16137 mto
7400 16137 lto
st
7500 16137 mto
7600 16137 lto
st
7700 16137 mto
7800 16137 lto
st
7900 16137 mto
8000 16137 lto
st
8100 16137 mto
8200 16137 lto
st
8300 16137 mto
8400 16137 lto
st
8500 16137 mto
8600 16137 lto
st
8700 16137 mto
8800 16137 lto
st
8900 16137 mto
9000 16137 lto
st
9100 16137 mto
9200 16137 lto
st
9300 16137 mto
9400 16137 lto
st
9500 16137 mto
9600 16137 lto
st
9700 16137 mto
9800 16137 lto
st
9900 16137 mto
10000 16137 lto
st
10100 16137 mto
10200 16137 lto
st
10300 16137 mto
10400 16137 lto
st
10500 16137 mto
10600 16137 lto
st
10700 16137 mto
10800 16137 lto
st
10900 16137 mto
11000 16137 lto
st
11100 16137 mto
11200 16137 lto
st
11300 16137 mto
11400 16137 lto
st
11500 16137 mto
11600 16137 lto
st
11700 16137 mto
11800 16137 lto
st
11900 16137 mto
12000 16137 lto
st
12100 16137 mto
12200 16137 lto
st
12300 16137 mto
12400 16137 lto
st
12500 16137 mto
12600 16137 lto
st
12700 16137 mto
12800 16137 lto
st
12900 16137 mto
13000 16137 lto
st
13100 16137 mto
13200 16137 lto
st
13300 16137 mto
13400 16137 lto
st
13500 16137 mto
13600 16137 lto
st
13700 16137 mto
13800 16137 lto
st
13900 16137 mto
14000 16137 lto
st
14100 16137 mto
14200 16137 lto
st
14300 16137 mto
14400 16137 lto
st
14500 16137 mto
14600 16137 lto
st
14700 16137 mto
14800 16137 lto
st
14900 16137 mto
15000 16137 lto
st
15100 16137 mto
15200 16137 lto
st
15300 16137 mto
15400 16137 lto
st
15500 16137 mto
15600 16137 lto
st
15700 16137 mto
15800 16137 lto
st
15900 16137 mto
16000 16137 lto
st
16100 16137 mto
16200 16137 lto
st
16300 16137 mto
16400 16137 lto
st
16500 16137 mto
16600 16137 lto
st
16700 16137 mto
16800 16137 lto
st
16900 16137 mto
17000 16137 lto
st
17100 16137 mto
17200 16137 lto
st
17300 16137 mto
17400 16137 lto
st
255 255 div 0 255 div 0 255 div setrgbcolor
[] 0 80 0 0 10 lsty
2000 16100 mto
3031 16100 lto
st
[] 0 1 0 0 10 lsty
3021 16340 3600 16100 3021 15860 3021 16340 4 epo
0 255 div 0 255 div 0 255 div setrgbcolor
13200 23200 mto
0 0 (1/N) ashow
0 172 rmto
[493.889 -0 -0 -493.889 0 0] /Helvetica-ISOLatin1 F
0 0 (spin) ashow
0 -172 rmto
1400 15400 mto
[4.32014e-14 -705.556 -705.556 -4.32014e-14 0 0] /Helvetica-ISOLatin1 F
0 0 (S) ashow
172 0 rmto
[3.0241e-14 -493.889 -493.889 -3.0241e-14 0 0] /Helvetica-ISOLatin1 F
0 0 (0) ashow
-172 0 rmto
[4.32014e-14 -705.556 -705.556 -4.32014e-14 0 0] /Helvetica-ISOLatin1 F
0 0 (/N) ashow
172 0 rmto
[3.0241e-14 -493.889 -493.889 -3.0241e-14 0 0] /Helvetica-ISOLatin1 F
0 0 (spin) ashow
-172 0 rmto
EndPage
PageRestore
showpage
end
%%Trailer
%%DocumentNeededResources: 
% font /Helvetica-ISOLatin1
%%EOF
