%!PS-Adobe-3.0 EPSF-3.0
%%Creator: cairo 1.14.2 (http://cairographics.org)
%%CreationDate: Thu May 21 12:36:32 2015
%%Pages: 1
%%DocumentData: Clean7Bit
%%LanguageLevel: 2
%%BoundingBox: 0 0 250 142
%%EndComments
%%BeginProlog
save
50 dict begin
/q { gsave } bind def
/Q { grestore } bind def
/cm { 6 array astore concat } bind def
/w { setlinewidth } bind def
/J { setlinecap } bind def
/j { setlinejoin } bind def
/M { setmiterlimit } bind def
/d { setdash } bind def
/m { moveto } bind def
/l { lineto } bind def
/c { curveto } bind def
/h { closepath } bind def
/re { exch dup neg 3 1 roll 5 3 roll moveto 0 rlineto
      0 exch rlineto 0 rlineto closepath } bind def
/S { stroke } bind def
/f { fill } bind def
/f* { eofill } bind def
/n { newpath } bind def
/W { clip } bind def
/W* { eoclip } bind def
/BT { } bind def
/ET { } bind def
/pdfmark where { pop globaldict /?pdfmark /exec load put }
    { globaldict begin /?pdfmark /pop load def /pdfmark
    /cleartomark load def end } ifelse
/BDC { mark 3 1 roll /BDC pdfmark } bind def
/EMC { mark /EMC pdfmark } bind def
/cairo_store_point { /cairo_point_y exch def /cairo_point_x exch def } def
/Tj { show currentpoint cairo_store_point } bind def
/TJ {
  {
    dup
    type /stringtype eq
    { show } { -0.001 mul 0 cairo_font_matrix dtransform rmoveto } ifelse
  } forall
  currentpoint cairo_store_point
} bind def
/cairo_selectfont { cairo_font_matrix aload pop pop pop 0 0 6 array astore
    cairo_font exch selectfont cairo_point_x cairo_point_y moveto } bind def
/Tf { pop /cairo_font exch def /cairo_font_matrix where
      { pop cairo_selectfont } if } bind def
/Td { matrix translate cairo_font_matrix matrix concatmatrix dup
      /cairo_font_matrix exch def dup 4 get exch 5 get cairo_store_point
      /cairo_font where { pop cairo_selectfont } if } bind def
/Tm { 2 copy 8 2 roll 6 array astore /cairo_font_matrix exch def
      cairo_store_point /cairo_font where { pop cairo_selectfont } if } bind def
/g { setgray } bind def
/rg { setrgbcolor } bind def
/d1 { setcachedevice } bind def
%%EndProlog
%%BeginSetup
%%EndSetup
%%Page: 1 1
%%BeginPageSetup
%%PageBoundingBox: 0 0 250 142
%%EndPageSetup
q 0 0 250 142 rectclip q
Q q
5.719 121.543 226 -114 re W n
q
5 122 227 -115 re W n
  q
0.368627 0.505882 0.709804 rg
1.152 w
2 J
0 j
[] 0.0 d
3.25 M q 1 0 0 1 0 142 cm
29.039 -133.09 m 42.074 -133.09 l 42.129 -133.086 l 44.086 -133.086 l 44.32
 -133.082 l 45.266 -133.082 l 45.324 -133.078 l 45.797 -133.078 l 45.855
 -133.074 l 46.328 -133.074 l 46.445 -133.07 l 46.738 -133.07 l 46.797 -133.066
 l 46.918 -133.066 l 47.152 -133.062 l 47.371 -133.062 l 47.594 -133.059
 l 47.703 -133.059 l 47.812 -133.055 l 48.031 -133.051 l 48.145 -133.051
 l 48.254 -133.047 l 48.473 -133.043 l 48.914 -133.035 l 48.969 -133.035
 l 49.023 -133.031 l 49.133 -133.031 l 49.355 -133.023 l 49.41 -133.023 
l 49.465 -133.02 l 49.574 -133.02 l 49.793 -133.012 l 49.852 -133.012 l 
49.906 -133.008 l 50.016 -133.004 l 50.234 -133 l 50.676 -132.98 l 50.734
 -132.98 l 50.793 -132.977 l 50.914 -132.973 l 51.152 -132.961 l 51.215 
-132.957 l 51.273 -132.957 l 51.391 -132.949 l 51.629 -132.938 l 51.691 
-132.934 l 51.75 -132.93 l 51.867 -132.926 l 52.105 -132.91 l 52.586 -132.879
 l 52.703 -132.871 l 52.824 -132.863 l 53.539 -132.805 l 53.598 -132.801
 l 53.66 -132.793 l 53.777 -132.781 l 54.016 -132.762 l 54.492 -132.711 
l 54.551 -132.703 l 54.609 -132.699 l 54.727 -132.684 l 54.961 -132.656 
l 55.43 -132.598 l 55.547 -132.582 l 55.664 -132.562 l 55.898 -132.531 l
 56.367 -132.457 l 56.426 -132.449 l 56.484 -132.438 l 56.836 -132.379 l
 57.305 -132.293 l 58.242 -132.098 l 58.352 -132.074 l 58.461 -132.047 l
 58.68 -131.996 l 59.117 -131.891 l 59.988 -131.652 l 60.043 -131.637 l 
60.102 -131.621 l 60.211 -131.59 l 60.426 -131.523 l 60.863 -131.387 l 61.738
 -131.094 l 61.855 -131.055 l 61.977 -131.012 l 62.211 -130.926 l 62.688
 -130.75 l 63.633 -130.375 l 65.531 -129.555 l 69.07 -127.895 l 69.121 -127.871
 l 69.18 -127.848 l 69.285 -127.793 l 69.504 -127.695 l 69.938 -127.496 
l 70.805 -127.109 l 70.914 -127.062 l 71.02 -127.016 l 71.238 -126.922 l
 71.672 -126.742 l 72.539 -126.398 l 72.656 -126.352 l 72.773 -126.309 l
 73.012 -126.223 l 73.48 -126.055 l 73.715 -125.977 l 73.953 -125.898 l 
74.422 -125.754 l 74.48 -125.734 l 74.539 -125.719 l 74.656 -125.684 l 74.891
 -125.617 l 75.363 -125.492 l 75.422 -125.48 l 75.48 -125.465 l 75.832 -125.383
 l 76.305 -125.281 l 76.414 -125.258 l 76.523 -125.238 l 76.742 -125.195
 l 76.852 -125.18 l 76.961 -125.16 l 77.184 -125.125 l 77.73 -125.047 l 
78.059 -125.012 l 78.113 -125.008 l 78.168 -125 l 78.281 -124.992 l 78.336
 -124.984 l 78.938 -124.941 l 78.992 -124.941 l 79.102 -124.934 l 79.156
 -124.934 l 79.215 -124.93 l 79.27 -124.93 l 79.324 -124.926 l 79.379 -124.926
 l 79.434 -124.922 l 79.543 -124.922 l 79.598 -124.918 l 80.293 -124.918
 l 80.352 -124.922 l 80.41 -124.922 l 80.473 -124.926 l 80.531 -124.926 
l 80.59 -124.93 l 80.648 -124.93 l 80.77 -124.934 l 80.887 -124.941 l 81.008
 -124.945 l 81.066 -124.953 l 81.125 -124.953 l 81.246 -124.961 l 81.363
 -124.969 l 81.484 -124.98 l 81.723 -125 l 81.781 -125.004 l 81.84 -125.012
 l 81.961 -125.023 l 82.195 -125.047 l 82.258 -125.055 l 82.434 -125.078
 l 82.672 -125.105 l 82.73 -125.113 l 82.793 -125.121 l 82.91 -125.141 l
 83.148 -125.176 l 83.625 -125.254 l 83.684 -125.266 l 83.742 -125.273 l
 83.859 -125.293 l 84.094 -125.34 l 84.559 -125.43 l 85.492 -125.641 l 85.609
 -125.664 l 85.727 -125.695 l 86.43 -125.871 l 87.363 -126.125 l 87.582 
-126.188 l 87.797 -126.246 l 88.234 -126.375 l 89.105 -126.637 l 90.848 
-127.184 l 94.629 -128.375 l 98.16 -129.398 l 98.277 -129.43 l 98.398 -129.461
 l 99.113 -129.648 l 100.07 -129.891 l 100.133 -129.906 l 100.191 -129.918
 l 100.312 -129.949 l 100.551 -130.008 l 101.027 -130.117 l 101.984 -130.336
 l 102.102 -130.359 l 102.219 -130.387 l 102.453 -130.434 l 102.922 -130.535
 l 103.859 -130.723 l 103.922 -130.734 l 103.977 -130.742 l 104.098 -130.766
 l 104.328 -130.812 l 104.801 -130.898 l 105.738 -131.062 l 105.793 -131.07
 l 105.848 -131.082 l 105.957 -131.098 l 106.176 -131.137 l 106.613 -131.207
 l 107.488 -131.34 l 107.926 -131.402 l 108.363 -131.461 l 109.242 -131.574
 l 109.477 -131.605 l 109.715 -131.633 l 110.191 -131.684 l 110.309 -131.699
 l 110.43 -131.711 l 110.664 -131.734 l 111.141 -131.781 l 111.199 -131.785
 l 111.258 -131.793 l 111.379 -131.805 l 111.613 -131.824 l 111.676 -131.828
 l 111.734 -131.832 l 111.852 -131.844 l 112.09 -131.859 l 112.207 -131.867
 l 112.324 -131.879 l 112.562 -131.895 l 112.621 -131.898 l 112.684 -131.902
 l 112.801 -131.906 l 113.039 -131.922 l 113.094 -131.922 l 113.148 -131.926
 l 113.262 -131.934 l 113.316 -131.934 l 113.371 -131.938 l 113.48 -131.941
 l 113.535 -131.945 l 113.594 -131.945 l 113.703 -131.949 l 113.758 -131.953
 l 113.812 -131.953 l 113.926 -131.957 l 113.98 -131.957 l 114.035 -131.961
 l 114.148 -131.961 l 114.203 -131.965 l 114.426 -131.965 l 114.48 -131.969
 l 114.922 -131.969 l 114.977 -131.965 l 115.199 -131.965 l 115.254 -131.961
 l 115.363 -131.961 l 115.422 -131.957 l 115.531 -131.957 l 115.586 -131.953
 l 115.699 -131.949 l 115.754 -131.945 l 115.809 -131.945 l 115.918 -131.938
 l 115.977 -131.934 l 116.031 -131.934 l 116.195 -131.922 l 116.254 -131.918
 l 116.363 -131.91 l 116.586 -131.895 l 116.641 -131.887 l 116.691 -131.883
 l 116.801 -131.871 l 116.855 -131.867 l 116.91 -131.859 l 117.02 -131.848
 l 117.074 -131.844 l 117.129 -131.836 l 117.234 -131.824 l 117.672 -131.762
 l 117.887 -131.727 l 117.941 -131.719 l 117.996 -131.707 l 118.105 -131.688
 l 118.379 -131.633 l 118.43 -131.621 l 118.539 -131.598 l 118.758 -131.547
 l 118.812 -131.531 l 118.863 -131.52 l 118.973 -131.492 l 119.191 -131.434
 l 119.246 -131.414 l 119.41 -131.367 l 119.625 -131.297 l 120.059 -131.145
 l 120.117 -131.125 l 120.18 -131.102 l 120.297 -131.055 l 120.531 -130.957
 l 120.648 -130.902 l 120.766 -130.852 l 121.004 -130.738 l 121.062 -130.711
 l 121.238 -130.617 l 121.473 -130.488 l 121.945 -130.211 l 122.004 -130.172
 l 122.062 -130.137 l 122.184 -130.059 l 122.418 -129.898 l 122.891 -129.547
 l 123.008 -129.453 l 123.125 -129.355 l 123.359 -129.156 l 123.832 -128.727
 l 124.051 -128.508 l 124.27 -128.281 l 124.711 -127.801 l 124.766 -127.738
 l 124.82 -127.672 l 124.93 -127.543 l 125.152 -127.277 l 125.59 -126.707
 l 125.699 -126.559 l 125.812 -126.406 l 126.031 -126.094 l 126.473 -125.43
 l 127.352 -123.957 l 127.41 -123.852 l 127.469 -123.742 l 127.59 -123.523
 l 127.828 -123.07 l 128.305 -122.125 l 129.258 -120.031 l 129.316 -119.895
 l 129.379 -119.754 l 129.496 -119.469 l 129.734 -118.887 l 130.211 -117.672
 l 131.164 -115.039 l 131.223 -114.871 l 131.281 -114.699 l 131.398 -114.352
 l 131.633 -113.648 l 132.102 -112.191 l 133.035 -109.082 l 134.91 -102.121
 l 134.965 -101.906 l 135.02 -101.688 l 135.129 -101.254 l 135.348 -100.371
 l 135.781 -98.578 l 136.656 -94.863 l 138.402 -87.066 l 142.188 -69.762
 l 142.242 -69.52 l 142.301 -69.277 l 142.41 -68.797 l 142.633 -67.84 l 
143.074 -65.969 l 143.957 -62.383 l 144.066 -61.953 l 144.18 -61.527 l 144.398
 -60.688 l 144.84 -59.066 l 145.727 -56.074 l 145.777 -55.902 l 145.832 
-55.73 l 145.941 -55.395 l 146.156 -54.738 l 146.59 -53.5 l 146.699 -53.203
 l 146.809 -52.914 l 147.023 -52.359 l 147.457 -51.32 l 147.512 -51.199 
l 147.566 -51.082 l 147.676 -50.844 l 147.891 -50.395 l 147.945 -50.285 
l 148 -50.18 l 148.105 -49.973 l 148.324 -49.578 l 148.379 -49.48 l 148.434
 -49.391 l 148.539 -49.211 l 148.758 -48.871 l 148.867 -48.715 l 148.973
 -48.562 l 149.191 -48.285 l 149.309 -48.145 l 149.426 -48.016 l 149.484
 -47.953 l 149.543 -47.895 l 149.66 -47.781 l 149.719 -47.727 l 149.777 
-47.676 l 149.953 -47.535 l 150.012 -47.492 l 150.133 -47.414 l 150.191 
-47.379 l 150.246 -47.344 l 150.309 -47.312 l 150.484 -47.23 l 150.543 -47.211
 l 150.602 -47.188 l 150.66 -47.168 l 150.719 -47.152 l 150.895 -47.117 
l 151.012 -47.102 l 151.07 -47.102 l 151.129 -47.098 l 151.188 -47.098 l
 151.305 -47.105 l 151.363 -47.113 l 151.426 -47.125 l 151.48 -47.137 l 
151.539 -47.148 l 151.602 -47.164 l 151.777 -47.223 l 151.836 -47.246 l 
151.895 -47.273 l 152.012 -47.332 l 152.07 -47.363 l 152.129 -47.398 l 152.246
 -47.473 l 152.305 -47.512 l 152.363 -47.555 l 152.48 -47.645 l 152.539 
-47.691 l 152.598 -47.742 l 152.715 -47.848 l 152.949 -48.086 l 153.008 
-48.145 l 153.062 -48.203 l 153.172 -48.332 l 153.391 -48.605 l 153.445 
-48.676 l 153.5 -48.75 l 153.609 -48.902 l 153.828 -49.227 l 153.938 -49.398
 l 154.047 -49.578 l 154.266 -49.945 l 154.707 -50.762 l 154.762 -50.867
 l 154.816 -50.977 l 154.926 -51.199 l 155.145 -51.66 l 155.582 -52.641 
l 156.461 -54.824 l 156.52 -54.98 l 156.578 -55.141 l 156.699 -55.465 l 
156.938 -56.117 l 157.41 -57.48 l 158.363 -60.383 l 160.266 -66.688 l 163.816
 -79.094 l 167.301 -90.578 l 167.359 -90.758 l 167.418 -90.941 l 167.535
 -91.305 l 167.77 -92.023 l 168.242 -93.438 l 169.188 -96.168 l 171.074 
-101.227 l 171.133 -101.367 l 171.188 -101.504 l 171.297 -101.781 l 171.516
 -102.328 l 171.957 -103.398 l 172.84 -105.453 l 172.949 -105.703 l 173.059
 -105.949 l 173.277 -106.434 l 173.719 -107.391 l 174.602 -109.211 l 174.66
 -109.332 l 174.723 -109.449 l 174.84 -109.684 l 175.078 -110.152 l 175.555
 -111.059 l 176.57 -112.887 l 176.633 -112.988 l 176.75 -113.195 l 176.988
 -113.598 l 177.469 -114.387 l 178.422 -115.875 l 178.48 -115.965 l 178.891
 -116.566 l 179.359 -117.23 l 180.297 -118.492 l 180.766 -119.086 l 181.234
 -119.656 l 182.172 -120.734 l 182.227 -120.797 l 182.281 -120.855 l 182.391
 -120.977 l 182.609 -121.211 l 183.047 -121.668 l 183.922 -122.535 l 183.977
 -122.586 l 184.031 -122.641 l 184.359 -122.945 l 184.797 -123.34 l 185.672
 -124.086 l 185.789 -124.18 l 185.906 -124.277 l 186.145 -124.465 l 186.621
 -124.832 l 187.566 -125.52 l 187.629 -125.559 l 187.688 -125.602 l 187.805
 -125.68 l 188.043 -125.84 l 188.516 -126.148 l 189.465 -126.73 l 189.574
 -126.793 l 189.688 -126.859 l 189.906 -126.984 l 190.352 -127.23 l 191.234
 -127.691 l 191.289 -127.719 l 191.348 -127.746 l 191.457 -127.801 l 191.68
 -127.91 l 192.121 -128.117 l 193.008 -128.512 l 193.062 -128.535 l 193.113
 -128.559 l 193.223 -128.602 l 193.441 -128.691 l 193.875 -128.867 l 194.742
 -129.195 l 194.961 -129.273 l 195.176 -129.352 l 195.609 -129.5 l 196.48
 -129.777 l 196.598 -129.816 l 196.949 -129.922 l 197.422 -130.059 l 198.363
 -130.316 l 198.48 -130.348 l 198.598 -130.375 l 198.836 -130.438 l 199.305
 -130.551 l 200.246 -130.766 l 200.465 -130.812 l 200.688 -130.859 l 201.125
 -130.949 l 202.004 -131.121 l 202.059 -131.133 l 202.113 -131.141 l 202.223
 -131.16 l 202.441 -131.203 l 202.883 -131.277 l 203.762 -131.422 l 203.824
 -131.43 l 203.883 -131.441 l 204.008 -131.461 l 204.254 -131.496 l 204.742
 -131.57 l 205.723 -131.703 l 205.848 -131.719 l 205.969 -131.734 l 206.215
 -131.766 l 206.703 -131.828 l 206.828 -131.844 l 206.949 -131.855 l 207.195
 -131.883 l 207.258 -131.891 l 207.316 -131.898 l 207.441 -131.91 l 207.504
 -131.918 l 207.562 -131.926 l 207.625 -131.934 l 207.688 -131.938 l S Q
0.882353 0.611765 0.141176 rg
[ 4.608 4.608] 0 d
q 1 0 0 1 0 142 cm
29.039 -132.906 m 29.477 -132.875 l 29.918 -132.844 l 30.137 -132.828 l
 30.793 -132.77 l 30.848 -132.762 l 30.902 -132.758 l 31.23 -132.723 l 31.668
 -132.672 l 31.727 -132.668 l 31.891 -132.645 l 32.109 -132.617 l 32.547
 -132.559 l 32.664 -132.543 l 32.785 -132.523 l 33.023 -132.484 l 33.496
 -132.406 l 33.559 -132.398 l 33.734 -132.363 l 33.973 -132.32 l 34.445 
-132.227 l 34.508 -132.215 l 34.566 -132.203 l 34.684 -132.176 l 34.922 
-132.125 l 35.398 -132.016 l 36.348 -131.77 l 36.402 -131.754 l 36.461 -131.738
 l 36.57 -131.707 l 36.793 -131.641 l 37.234 -131.508 l 38.121 -131.215 
l 38.18 -131.191 l 38.344 -131.133 l 38.566 -131.055 l 39.012 -130.887 l
 39.898 -130.527 l 39.953 -130.508 l 40.008 -130.484 l 40.113 -130.438 l
 40.332 -130.344 l 40.77 -130.148 l 41.637 -129.738 l 43.379 -128.848 l 
43.496 -128.785 l 43.613 -128.719 l 43.852 -128.59 l 44.32 -128.328 l 45.266
 -127.785 l 47.152 -126.652 l 50.676 -124.477 l 54.492 -122.203 l 58.242
 -120.215 l 58.352 -120.16 l 58.461 -120.109 l 59.117 -119.793 l 59.988 
-119.395 l 61.738 -118.645 l 61.855 -118.598 l 61.977 -118.547 l 62.211 
-118.453 l 62.688 -118.266 l 63.633 -117.91 l 65.531 -117.25 l 65.586 -117.23
 l 65.641 -117.215 l 65.75 -117.18 l 65.973 -117.105 l 66.414 -116.969 l
 67.301 -116.699 l 69.07 -116.203 l 69.121 -116.188 l 69.18 -116.176 l 69.285
 -116.145 l 69.504 -116.09 l 69.938 -115.977 l 70.805 -115.766 l 72.539 
-115.367 l 72.598 -115.355 l 72.656 -115.34 l 72.773 -115.316 l 73.012 -115.266
 l 73.48 -115.164 l 74.422 -114.977 l 76.305 -114.617 l 79.816 -114.016 
l 83.625 -113.422 l 87.363 -112.855 l 90.848 -112.312 l 94.629 -111.66 l
 98.16 -110.965 l 98.219 -110.953 l 98.277 -110.938 l 98.398 -110.914 l 
98.637 -110.859 l 99.113 -110.758 l 100.07 -110.539 l 101.984 -110.07 l 
102.922 -109.82 l 103.859 -109.559 l 105.738 -108.992 l 105.793 -108.977
 l 105.848 -108.957 l 106.176 -108.852 l 106.613 -108.707 l 107.488 -108.406
 l 107.707 -108.328 l 107.926 -108.246 l 108.363 -108.086 l 109.242 -107.75
 l 109.477 -107.656 l 109.715 -107.562 l 110.191 -107.363 l 111.141 -106.957
 l 111.258 -106.902 l 111.379 -106.848 l 111.613 -106.742 l 112.09 -106.52
 l 113.039 -106.055 l 113.148 -106 l 113.262 -105.941 l 113.48 -105.828 
l 113.926 -105.594 l 114.812 -105.105 l 115.031 -104.98 l 115.254 -104.852
 l 115.699 -104.586 l 116.586 -104.031 l 116.641 -103.996 l 116.691 -103.965
 l 116.801 -103.895 l 117.02 -103.75 l 117.453 -103.457 l 118.32 -102.844
 l 118.379 -102.805 l 118.43 -102.766 l 118.539 -102.684 l 118.758 -102.523
 l 119.191 -102.191 l 120.059 -101.496 l 120.117 -101.445 l 120.18 -101.398
 l 120.297 -101.297 l 120.531 -101.098 l 121.004 -100.688 l 121.945 -99.824
 l 122.004 -99.77 l 122.062 -99.711 l 122.184 -99.598 l 122.418 -99.367 
l 122.891 -98.895 l 123.832 -97.898 l 123.887 -97.84 l 123.941 -97.777 l
 124.051 -97.656 l 124.27 -97.41 l 124.711 -96.902 l 125.59 -95.836 l 125.645
 -95.766 l 125.699 -95.699 l 125.812 -95.559 l 126.031 -95.277 l 126.473
 -94.695 l 127.352 -93.477 l 127.469 -93.305 l 127.59 -93.133 l 127.828 
-92.781 l 128.305 -92.059 l 129.258 -90.535 l 129.316 -90.438 l 129.379 
-90.336 l 129.496 -90.137 l 129.734 -89.73 l 130.211 -88.898 l 131.164 -87.141
 l 131.398 -86.688 l 131.633 -86.23 l 132.102 -85.293 l 133.035 -83.316 
l 134.91 -78.98 l 134.965 -78.848 l 135.02 -78.711 l 135.129 -78.441 l 135.348
 -77.895 l 135.781 -76.781 l 136.656 -74.473 l 138.402 -69.559 l 142.188
 -58.113 l 142.242 -57.945 l 142.301 -57.777 l 142.41 -57.445 l 142.633 
-56.785 l 143.074 -55.473 l 143.957 -52.934 l 144.012 -52.777 l 144.066 
-52.625 l 144.18 -52.32 l 144.398 -51.719 l 144.84 -50.543 l 145.727 -48.359
 l 145.777 -48.234 l 145.941 -47.859 l 146.156 -47.379 l 146.59 -46.469 
l 146.645 -46.359 l 146.809 -46.043 l 147.023 -45.637 l 147.457 -44.883 
l 147.512 -44.793 l 147.566 -44.707 l 147.676 -44.539 l 147.891 -44.219 
l 147.945 -44.141 l 148 -44.066 l 148.105 -43.918 l 148.324 -43.645 l 148.434
 -43.52 l 148.539 -43.395 l 148.594 -43.34 l 148.648 -43.281 l 148.758 -43.172
 l 148.867 -43.07 l 148.973 -42.973 l 149.191 -42.801 l 149.25 -42.758 l
 149.309 -42.719 l 149.426 -42.645 l 149.484 -42.609 l 149.543 -42.578 l
 149.66 -42.52 l 149.719 -42.492 l 149.836 -42.445 l 149.895 -42.426 l 150.07
 -42.379 l 150.133 -42.367 l 150.191 -42.359 l 150.246 -42.352 l 150.309
 -42.344 l 150.367 -42.344 l 150.426 -42.34 l 150.484 -42.344 l 150.543 
-42.344 l 150.602 -42.352 l 150.66 -42.355 l 150.836 -42.391 l 150.895 -42.406
 l 151.012 -42.445 l 151.188 -42.516 l 151.246 -42.543 l 151.305 -42.578
 l 151.363 -42.609 l 151.426 -42.645 l 151.539 -42.719 l 151.602 -42.762
 l 151.66 -42.805 l 151.836 -42.945 l 152.012 -43.109 l 152.129 -43.227 
l 152.246 -43.355 l 152.48 -43.633 l 152.539 -43.707 l 152.598 -43.785 l
 152.715 -43.945 l 153.008 -44.375 l 153.062 -44.461 l 153.172 -44.641 l
 153.391 -45.02 l 153.828 -45.859 l 153.938 -46.086 l 154.047 -46.316 l 
154.266 -46.805 l 154.707 -47.848 l 154.816 -48.121 l 154.926 -48.402 l 
155.145 -48.984 l 155.582 -50.211 l 156.461 -52.906 l 156.52 -53.102 l 156.578
 -53.293 l 156.699 -53.688 l 156.938 -54.488 l 157.41 -56.141 l 158.363 
-59.621 l 160.266 -67.062 l 163.816 -81.191 l 163.871 -81.398 l 163.926 
-81.609 l 164.254 -82.852 l 164.688 -84.484 l 165.559 -87.656 l 167.301 
-93.609 l 167.418 -93.992 l 167.535 -94.371 l 167.77 -95.121 l 168.242 -96.594
 l 169.188 -99.402 l 169.246 -99.57 l 169.305 -99.742 l 169.422 -100.078
 l 169.66 -100.742 l 170.133 -102.035 l 171.074 -104.492 l 171.133 -104.633
 l 171.297 -105.043 l 171.516 -105.586 l 171.957 -106.637 l 172.84 -108.637
 l 172.949 -108.879 l 173.059 -109.113 l 173.277 -109.586 l 173.719 -110.5
 l 174.602 -112.234 l 174.66 -112.348 l 174.723 -112.457 l 174.84 -112.68
 l 175.078 -113.121 l 175.555 -113.973 l 176.512 -115.574 l 176.57 -115.668
 l 176.633 -115.766 l 176.75 -115.957 l 176.988 -116.328 l 177.469 -117.051
 l 178.422 -118.406 l 178.48 -118.484 l 178.539 -118.566 l 178.656 -118.723
 l 178.891 -119.031 l 179.359 -119.633 l 180.297 -120.758 l 180.531 -121.023
 l 180.766 -121.285 l 181.234 -121.789 l 182.172 -122.742 l 182.227 -122.793
 l 182.281 -122.848 l 182.391 -122.953 l 182.609 -123.156 l 183.047 -123.555
 l 183.922 -124.309 l 183.977 -124.355 l 184.031 -124.398 l 184.141 -124.488
 l 184.797 -125.004 l 185.672 -125.641 l 185.789 -125.727 l 185.906 -125.809
 l 186.145 -125.969 l 186.621 -126.281 l 187.566 -126.863 l 187.629 -126.898
 l 187.688 -126.934 l 187.805 -127 l 188.043 -127.137 l 188.516 -127.398
 l 189.465 -127.887 l 189.574 -127.941 l 189.688 -127.992 l 189.906 -128.102
 l 190.352 -128.305 l 191.234 -128.691 l 191.289 -128.715 l 191.348 -128.734
 l 191.457 -128.781 l 191.68 -128.871 l 192.121 -129.043 l 193.008 -129.371
 l 193.062 -129.391 l 193.113 -129.406 l 193.223 -129.445 l 193.441 -129.52
 l 193.875 -129.664 l 194.742 -129.934 l 194.797 -129.953 l 194.961 -130
 l 195.176 -130.062 l 195.609 -130.184 l 196.48 -130.414 l 196.598 -130.445
 l 196.715 -130.473 l 196.949 -130.531 l 197.422 -130.645 l 198.363 -130.855
 l 198.598 -130.902 l 198.836 -130.953 l 199.305 -131.043 l 200.246 -131.219
 l 200.301 -131.23 l 200.355 -131.238 l 200.465 -131.258 l 200.688 -131.297
 l 201.125 -131.371 l 202.004 -131.508 l 202.223 -131.539 l 202.441 -131.574
 l 202.883 -131.637 l 203.762 -131.754 l 203.824 -131.762 l 203.883 -131.77
 l 204.008 -131.781 l 204.254 -131.812 l 204.742 -131.871 l 205.723 -131.98
 l 205.785 -131.988 l 205.848 -131.992 l 205.969 -132.008 l 206.215 -132.031
 l 206.703 -132.078 l 206.766 -132.086 l 206.828 -132.09 l 206.949 -132.102
 l 207.195 -132.125 l 207.258 -132.133 l 207.316 -132.137 l 207.441 -132.148
 l 207.504 -132.152 l 207.562 -132.156 l 207.625 -132.164 l 207.688 -132.168
 l S Q
  Q
Q
0 g
0.072 w
0 J
0 j
[] 0.0 d
3.25 M q 1 0 0 1 0 142 cm
29.039 -133.09 m 29.039 -130.855 l S Q
Q q
21.699 8.602 15.102 -8.602 re W n
q
21 9 16 -9 re W n
  q
0 g
22.586 4.312 m 22.586 5.043 22.664 5.629 22.812 6.078 c 22.965 6.527 23.188
 6.871 23.484 7.109 c 23.781 7.348 24.156 7.469 24.602 7.469 c 24.938 7.469
 25.227 7.402 25.477 7.266 c 25.727 7.129 25.938 6.938 26.102 6.688 c 26.27
 6.438 26.398 6.133 26.492 5.773 c 26.586 5.414 26.633 4.926 26.633 4.312
 c 26.633 3.582 26.559 2.996 26.406 2.547 c 26.258 2.098 26.031 1.754 25.734
 1.508 c 25.438 1.262 25.062 1.141 24.602 1.141 c 24.008 1.141 23.539 1.355
 23.195 1.781 c 22.789 2.301 22.586 3.145 22.586 4.312 c h
23.367 4.312 m 23.367 3.293 23.488 2.613 23.727 2.273 c 23.969 1.934 24.258
 1.766 24.602 1.766 c 24.957 1.766 25.254 1.934 25.492 2.273 c 25.734 2.613
 25.852 3.293 25.852 4.312 c 25.852 5.332 25.734 6.012 25.492 6.344 c 25.254
 6.676 24.957 6.844 24.602 6.844 c 24.25 6.844 23.969 6.691 23.758 6.391
 c 23.5 6.016 23.367 5.324 23.367 4.312 c f*
26.617 2.109 0.875 -0.859 re f*
27.992 4.312 m 27.992 5.043 28.07 5.629 28.219 6.078 c 28.371 6.527 28.594
 6.871 28.891 7.109 c 29.188 7.348 29.562 7.469 30.008 7.469 c 30.344 7.469
 30.633 7.402 30.883 7.266 c 31.133 7.129 31.344 6.938 31.508 6.688 c 31.676
 6.438 31.805 6.133 31.898 5.773 c 31.992 5.414 32.039 4.926 32.039 4.312
 c 32.039 3.582 31.965 2.996 31.812 2.547 c 31.664 2.098 31.438 1.754 31.141
 1.508 c 30.844 1.262 30.469 1.141 30.008 1.141 c 29.414 1.141 28.945 1.355
 28.602 1.781 c 28.195 2.301 27.992 3.145 27.992 4.312 c h
28.773 4.312 m 28.773 3.293 28.895 2.613 29.133 2.273 c 29.375 1.934 29.664
 1.766 30.008 1.766 c 30.363 1.766 30.66 1.934 30.898 2.273 c 31.141 2.613
 31.258 3.293 31.258 4.312 c 31.258 5.332 31.141 6.012 30.898 6.344 c 30.66
 6.676 30.363 6.844 30.008 6.844 c 29.656 6.844 29.375 6.691 29.164 6.391
 c 28.906 6.016 28.773 5.324 28.773 4.312 c f*
34.461 1.25 m 33.711 1.25 l 33.711 6.094 l 33.523 5.926 33.281 5.754 32.984
 5.578 c 32.688 5.402 32.418 5.27 32.18 5.188 c 32.18 5.922 l 32.609 6.121
 32.98 6.359 33.297 6.641 c 33.613 6.922 33.844 7.199 33.977 7.469 c 34.461
 7.469 l 34.461 1.25 l f*
  Q
Q
Q q
0 g
0.072 w
0 J
0 j
[] 0.0 d
3.25 M q 1 0 0 1 0 142 cm
77.336 -133.09 m 77.336 -130.855 l S Q
Q q
69.699 8.602 15.102 -8.602 re W n
q
69 9 16 -9 re W n
  q
0 g
70.883 4.312 m 70.883 5.043 70.961 5.629 71.109 6.078 c 71.262 6.527 71.484
 6.871 71.781 7.109 c 72.078 7.348 72.453 7.469 72.898 7.469 c 73.23 7.469
 73.523 7.402 73.773 7.266 c 74.023 7.129 74.23 6.938 74.398 6.688 c 74.566
 6.438 74.695 6.133 74.789 5.773 c 74.883 5.414 74.93 4.926 74.93 4.312 
c 74.93 3.582 74.855 2.996 74.703 2.547 c 74.555 2.098 74.328 1.754 74.031
 1.508 c 73.734 1.262 73.355 1.141 72.898 1.141 c 72.305 1.141 71.836 1.355
 71.492 1.781 c 71.086 2.301 70.883 3.145 70.883 4.312 c h
71.664 4.312 m 71.664 3.293 71.785 2.613 72.023 2.273 c 72.266 1.934 72.555
 1.766 72.898 1.766 c 73.254 1.766 73.551 1.934 73.789 2.273 c 74.027 2.613
 74.148 3.293 74.148 4.312 c 74.148 5.332 74.027 6.012 73.789 6.344 c 73.551
 6.676 73.254 6.844 72.898 6.844 c 72.543 6.844 72.266 6.691 72.055 6.391
 c 71.793 6.016 71.664 5.324 71.664 4.312 c f*
74.914 2.109 0.875 -0.859 re f*
79.148 1.25 m 78.398 1.25 l 78.398 6.094 l 78.211 5.926 77.969 5.754 77.672
 5.578 c 77.375 5.402 77.105 5.27 76.867 5.188 c 76.867 5.922 l 77.293 6.121
 77.668 6.359 77.984 6.641 c 78.301 6.922 78.527 7.199 78.664 7.469 c 79.148
 7.469 l 79.148 1.25 l f*
79.898 4.312 m 79.898 5.043 79.973 5.629 80.125 6.078 c 80.277 6.527 80.5
 6.871 80.797 7.109 c 81.094 7.348 81.465 7.469 81.914 7.469 c 82.246 7.469
 82.539 7.402 82.789 7.266 c 83.039 7.129 83.246 6.938 83.414 6.688 c 83.582
 6.438 83.711 6.133 83.805 5.773 c 83.898 5.414 83.945 4.926 83.945 4.312
 c 83.945 3.582 83.871 2.996 83.719 2.547 c 83.566 2.098 83.344 1.754 83.047
 1.508 c 82.75 1.262 82.371 1.141 81.914 1.141 c 81.32 1.141 80.852 1.355
 80.508 1.781 c 80.102 2.301 79.898 3.145 79.898 4.312 c h
80.68 4.312 m 80.68 3.293 80.797 2.613 81.039 2.273 c 81.277 1.934 81.57
 1.766 81.914 1.766 c 82.27 1.766 82.566 1.934 82.805 2.273 c 83.043 2.613
 83.164 3.293 83.164 4.312 c 83.164 5.332 83.043 6.012 82.805 6.344 c 82.566
 6.676 82.27 6.844 81.914 6.844 c 81.559 6.844 81.277 6.691 81.07 6.391 
c 80.809 6.016 80.68 5.324 80.68 4.312 c f*
  Q
Q
Q q
0 g
0.072 w
0 J
0 j
[] 0.0 d
3.25 M q 1 0 0 1 0 142 cm
125.633 -133.09 m 125.633 -130.855 l S Q
Q q
122.699 8.602 6.102 -8.602 re W n
q
122 9 7 -9 re W n
  q
0 g
126.547 1.25 m 125.797 1.25 l 125.797 6.094 l 125.609 5.926 125.367 5.754
 125.07 5.578 c 124.773 5.402 124.504 5.27 124.266 5.188 c 124.266 5.922
 l 124.691 6.121 125.062 6.359 125.383 6.641 c 125.699 6.922 125.926 7.199
 126.062 7.469 c 126.547 7.469 l 126.547 1.25 l f*
  Q
Q
Q q
0 g
0.072 w
0 J
0 j
[] 0.0 d
3.25 M q 1 0 0 1 0 142 cm
173.93 -133.09 m 173.93 -130.855 l S Q
Q q
168.699 8.602 10.102 -8.602 re W n
q
168 9 11 -9 re W n
  q
0 g
173.039 1.25 m 172.289 1.25 l 172.289 6.094 l 172.102 5.926 171.859 5.754
 171.562 5.578 c 171.266 5.402 170.996 5.27 170.758 5.188 c 170.758 5.922
 l 171.184 6.121 171.555 6.359 171.875 6.641 c 172.191 6.922 172.418 7.199
 172.555 7.469 c 173.039 7.469 l 173.039 1.25 l f*
173.785 4.312 m 173.785 5.043 173.863 5.629 174.016 6.078 c 174.164 6.527
 174.391 6.871 174.688 7.109 c 174.984 7.348 175.355 7.469 175.805 7.469
 c 176.137 7.469 176.43 7.402 176.68 7.266 c 176.93 7.129 177.137 6.938 
177.305 6.688 c 177.469 6.438 177.602 6.133 177.695 5.773 c 177.785 5.414
 177.836 4.926 177.836 4.312 c 177.836 3.582 177.758 2.996 177.609 2.547
 c 177.457 2.098 177.234 1.754 176.938 1.508 c 176.641 1.262 176.262 1.141
 175.805 1.141 c 175.211 1.141 174.738 1.355 174.398 1.781 c 173.988 2.301
 173.785 3.145 173.785 4.312 c h
174.57 4.312 m 174.57 3.293 174.688 2.613 174.93 2.273 c 175.168 1.934 
175.461 1.766 175.805 1.766 c 176.156 1.766 176.453 1.934 176.695 2.273 
c 176.934 2.613 177.055 3.293 177.055 4.312 c 177.055 5.332 176.934 6.012
 176.695 6.344 c 176.453 6.676 176.156 6.844 175.805 6.844 c 175.449 6.844
 175.168 6.691 174.961 6.391 c 174.699 6.016 174.57 5.324 174.57 4.312 c
 f*
  Q
Q
Q q
0 g
0.072 w
0 J
0 j
[] 0.0 d
3.25 M q 1 0 0 1 0 142 cm
222.223 -133.09 m 222.223 -130.855 l S Q
Q q
215.699 8.602 13.102 -8.602 re W n
q
215 9 14 -9 re W n
  q
0 g
219.527 1.25 m 218.777 1.25 l 218.777 6.094 l 218.59 5.926 218.348 5.754
 218.051 5.578 c 217.754 5.402 217.488 5.27 217.246 5.188 c 217.246 5.922
 l 217.676 6.121 218.047 6.359 218.363 6.641 c 218.684 6.922 218.91 7.199
 219.043 7.469 c 219.527 7.469 l 219.527 1.25 l f*
220.277 4.312 m 220.277 5.043 220.355 5.629 220.504 6.078 c 220.656 6.527
 220.879 6.871 221.176 7.109 c 221.473 7.348 221.848 7.469 222.293 7.469
 c 222.629 7.469 222.918 7.402 223.168 7.266 c 223.418 7.129 223.629 6.938
 223.793 6.688 c 223.961 6.438 224.09 6.133 224.184 5.773 c 224.277 5.414
 224.324 4.926 224.324 4.312 c 224.324 3.582 224.25 2.996 224.098 2.547 
c 223.949 2.098 223.723 1.754 223.426 1.508 c 223.129 1.262 222.754 1.141
 222.293 1.141 c 221.699 1.141 221.23 1.355 220.887 1.781 c 220.48 2.301
 220.277 3.145 220.277 4.312 c h
221.059 4.312 m 221.059 3.293 221.18 2.613 221.418 2.273 c 221.66 1.934
 221.949 1.766 222.293 1.766 c 222.648 1.766 222.945 1.934 223.184 2.273
 c 223.426 2.613 223.543 3.293 223.543 4.312 c 223.543 5.332 223.426 6.012
 223.184 6.344 c 222.945 6.676 222.648 6.844 222.293 6.844 c 221.941 6.844
 221.66 6.691 221.449 6.391 c 221.191 6.016 221.059 5.324 221.059 4.312 
c f*
223.887 4.312 m 223.887 5.043 223.965 5.629 224.113 6.078 c 224.266 6.527
 224.488 6.871 224.785 7.109 c 225.082 7.348 225.453 7.469 225.902 7.469
 c 226.234 7.469 226.527 7.402 226.777 7.266 c 227.027 7.129 227.234 6.938
 227.402 6.688 c 227.57 6.438 227.699 6.133 227.793 5.773 c 227.887 5.414
 227.934 4.926 227.934 4.312 c 227.934 3.582 227.859 2.996 227.707 2.547
 c 227.559 2.098 227.332 1.754 227.035 1.508 c 226.738 1.262 226.359 1.141
 225.902 1.141 c 225.309 1.141 224.84 1.355 224.496 1.781 c 224.09 2.301
 223.887 3.145 223.887 4.312 c h
224.668 4.312 m 224.668 3.293 224.789 2.613 225.027 2.273 c 225.27 1.934
 225.559 1.766 225.902 1.766 c 226.258 1.766 226.555 1.934 226.793 2.273
 c 227.031 2.613 227.152 3.293 227.152 4.312 c 227.152 5.332 227.031 6.012
 226.793 6.344 c 226.555 6.676 226.258 6.844 225.902 6.844 c 225.551 6.844
 225.27 6.691 225.059 6.391 c 224.801 6.016 224.668 5.324 224.668 4.312 
c f*
  Q
Q
Q q
0 g
0.072 w
0 J
0 j
[] 0.0 d
3.25 M q 1 0 0 1 0 142 cm
9.82 -133.09 m 9.82 -131.973 l S Q
q 1 0 0 1 0 142 cm
14.504 -133.09 m 14.504 -131.973 l S Q
q 1 0 0 1 0 142 cm
18.328 -133.09 m 18.328 -131.973 l S Q
q 1 0 0 1 0 142 cm
21.559 -133.09 m 21.559 -131.973 l S Q
q 1 0 0 1 0 142 cm
24.359 -133.09 m 24.359 -131.973 l S Q
q 1 0 0 1 0 142 cm
26.832 -133.09 m 26.832 -131.973 l S Q
q 1 0 0 1 0 142 cm
43.578 -133.09 m 43.578 -131.973 l S Q
q 1 0 0 1 0 142 cm
52.082 -133.09 m 52.082 -131.973 l S Q
q 1 0 0 1 0 142 cm
58.117 -133.09 m 58.117 -131.973 l S Q
q 1 0 0 1 0 142 cm
62.797 -133.09 m 62.797 -131.973 l S Q
q 1 0 0 1 0 142 cm
66.621 -133.09 m 66.621 -131.973 l S Q
q 1 0 0 1 0 142 cm
69.855 -133.09 m 69.855 -131.973 l S Q
q 1 0 0 1 0 142 cm
72.656 -133.09 m 72.656 -131.973 l S Q
q 1 0 0 1 0 142 cm
75.125 -133.09 m 75.125 -131.973 l S Q
q 1 0 0 1 0 142 cm
91.875 -133.09 m 91.875 -131.973 l S Q
q 1 0 0 1 0 142 cm
100.379 -133.09 m 100.379 -131.973 l S Q
q 1 0 0 1 0 142 cm
106.414 -133.09 m 106.414 -131.973 l S Q
q 1 0 0 1 0 142 cm
111.094 -133.09 m 111.094 -131.973 l S Q
q 1 0 0 1 0 142 cm
114.918 -133.09 m 114.918 -131.973 l S Q
q 1 0 0 1 0 142 cm
118.152 -133.09 m 118.152 -131.973 l S Q
q 1 0 0 1 0 142 cm
120.953 -133.09 m 120.953 -131.973 l S Q
q 1 0 0 1 0 142 cm
123.422 -133.09 m 123.422 -131.973 l S Q
q 1 0 0 1 0 142 cm
140.172 -133.09 m 140.172 -131.973 l S Q
q 1 0 0 1 0 142 cm
148.676 -133.09 m 148.676 -131.973 l S Q
q 1 0 0 1 0 142 cm
154.711 -133.09 m 154.711 -131.973 l S Q
q 1 0 0 1 0 142 cm
159.391 -133.09 m 159.391 -131.973 l S Q
q 1 0 0 1 0 142 cm
163.215 -133.09 m 163.215 -131.973 l S Q
q 1 0 0 1 0 142 cm
166.445 -133.09 m 166.445 -131.973 l S Q
q 1 0 0 1 0 142 cm
169.246 -133.09 m 169.246 -131.973 l S Q
q 1 0 0 1 0 142 cm
171.719 -133.09 m 171.719 -131.973 l S Q
q 1 0 0 1 0 142 cm
188.469 -133.09 m 188.469 -131.973 l S Q
q 1 0 0 1 0 142 cm
196.973 -133.09 m 196.973 -131.973 l S Q
q 1 0 0 1 0 142 cm
203.004 -133.09 m 203.004 -131.973 l S Q
q 1 0 0 1 0 142 cm
207.688 -133.09 m 207.688 -131.973 l S Q
q 1 0 0 1 0 142 cm
211.512 -133.09 m 211.512 -131.973 l S Q
q 1 0 0 1 0 142 cm
214.742 -133.09 m 214.742 -131.973 l S Q
q 1 0 0 1 0 142 cm
217.543 -133.09 m 217.543 -131.973 l S Q
q 1 0 0 1 0 142 cm
220.016 -133.09 m 220.016 -131.973 l S Q
0.36 w
q 1 0 0 1 0 142 cm
6.707 -133.09 m 230.016 -133.09 l S Q
Q q
234.699 14.602 15.301 -11.102 re W n
q
234 15 16 -12 re W n
  q
0 g
237.527 7.59 m 237.527 13.059 l 235.48 13.059 l 235.48 13.793 l 240.387
 13.793 l 240.387 13.059 l 238.34 13.059 l 238.34 7.59 l 237.527 7.59 l f*
243.617 5.777 m 243.09 5.777 l 242.859 6.059 242.652 6.359 242.465 6.684
 c 242.277 7.008 242.117 7.34 241.988 7.684 c 241.855 8.027 241.754 8.379
 241.684 8.738 c 241.609 9.098 241.574 9.461 241.574 9.824 c 241.574 10.199
 241.609 10.566 241.684 10.926 c 241.754 11.285 241.859 11.637 241.996 11.98
 c 242.129 12.324 242.289 12.656 242.473 12.973 c 242.652 13.289 242.859
 13.594 243.09 13.887 c 243.617 13.887 l 243.422 13.562 243.246 13.242 243.09
 12.926 c 242.934 12.609 242.801 12.285 242.691 11.957 c 242.578 11.629 
242.5 11.289 242.449 10.941 c 242.395 10.594 242.367 10.227 242.367 9.84
 c 242.367 9.477 242.398 9.117 242.453 8.762 c 242.512 8.406 242.598 8.059
 242.703 7.715 c 242.816 7.371 242.949 7.039 243.105 6.715 c 243.262 6.391
 243.434 6.082 243.617 5.777 c f*
243.793 7.59 m 243.793 13.793 l 244.543 13.793 l 244.543 10.246 l 246.355
 12.074 l 247.34 12.074 l 245.621 10.418 l 247.512 7.59 l 246.574 7.59 l
 245.09 9.887 l 244.543 9.371 l 244.543 7.59 l 243.793 7.59 l f*
248.824 9.824 m 248.824 9.461 248.785 9.098 248.715 8.738 c 248.641 8.379
 248.539 8.027 248.41 7.684 c 248.277 7.34 248.121 7.008 247.934 6.691 c
 247.746 6.375 247.543 6.07 247.324 5.777 c 246.777 5.777 l 246.973 6.102
 247.152 6.422 247.309 6.738 c 247.465 7.055 247.598 7.379 247.707 7.707
 c 247.816 8.035 247.898 8.375 247.957 8.723 c 248.012 9.07 248.043 9.438
 248.043 9.824 c 248.043 10.18 248.012 10.535 247.949 10.895 c 247.887 11.254
 247.801 11.602 247.691 11.941 c 247.582 12.281 247.449 12.613 247.293 12.941
 c 247.137 13.27 246.965 13.586 246.777 13.887 c 247.324 13.887 l 247.555
 13.605 247.758 13.305 247.941 12.98 c 248.121 12.656 248.277 12.324 248.41
 11.98 c 248.539 11.637 248.641 11.285 248.715 10.926 c 248.785 10.566 248.824
 10.199 248.824 9.824 c f*
  Q
Q
Q q
0 g
0.36 w
0 J
0 j
[] 0.0 d
3.25 M q 1 0 0 1 0 142 cm
11.176 -133.09 m 13.551 -133.09 l S Q
q 1 0 0 1 0 142 cm
11.176 -127.508 m 12.602 -127.508 l S Q
q 1 0 0 1 0 142 cm
11.176 -121.926 m 12.602 -121.926 l S Q
q 1 0 0 1 0 142 cm
11.176 -116.344 m 12.602 -116.344 l S Q
q 1 0 0 1 0 142 cm
11.176 -110.762 m 12.602 -110.762 l S Q
q 1 0 0 1 0 142 cm
11.176 -105.176 m 13.551 -105.176 l S Q
Q q
0 41.602 10.801 -10.102 re W n
q
0 42 11 -11 re W n
  q
0 g
-0.141 37.762 m -0.141 38.488 -0.066 39.078 0.086 39.527 c 0.238 39.973
 0.461 40.316 0.758 40.559 c 1.055 40.797 1.426 40.918 1.875 40.918 c 2.207
 40.918 2.5 40.848 2.75 40.715 c 3 40.578 3.207 40.387 3.375 40.137 c 3.543
 39.887 3.672 39.582 3.766 39.223 c 3.859 38.863 3.906 38.375 3.906 37.762
 c 3.906 37.031 3.832 36.441 3.68 35.996 c 3.527 35.547 3.305 35.203 3.008
 34.957 c 2.711 34.711 2.332 34.59 1.875 34.59 c 1.281 34.59 0.812 34.801
 0.469 35.23 c 0.062 35.75 -0.141 36.594 -0.141 37.762 c h
0.641 37.762 m 0.641 36.738 0.762 36.059 1 35.723 c 1.238 35.383 1.531 
35.215 1.875 35.215 c 2.23 35.215 2.527 35.383 2.766 35.723 c 3.004 36.059
 3.125 36.738 3.125 37.762 c 3.125 38.781 3.004 39.457 2.766 39.793 c 2.527
 40.125 2.23 40.293 1.875 40.293 c 1.52 40.293 1.238 40.141 1.031 39.84 
c 0.77 39.465 0.641 38.77 0.641 37.762 c f*
3.891 35.559 0.875 -0.859 re f*
8.125 34.699 m 7.375 34.699 l 7.375 39.543 l 7.188 39.375 6.945 39.203 
6.648 39.027 c 6.352 38.848 6.082 38.719 5.844 38.637 c 5.844 39.371 l 6.27
 39.566 6.645 39.809 6.961 40.09 c 7.277 40.371 7.504 40.645 7.641 40.918
 c 8.125 40.918 l 8.125 34.699 l f*
  Q
Q
Q q
0 g
0.36 w
0 J
0 j
[] 0.0 d
3.25 M q 1 0 0 1 0 142 cm
11.176 -99.594 m 12.602 -99.594 l S Q
q 1 0 0 1 0 142 cm
11.176 -94.012 m 12.602 -94.012 l S Q
q 1 0 0 1 0 142 cm
11.176 -88.43 m 12.602 -88.43 l S Q
q 1 0 0 1 0 142 cm
11.176 -82.848 m 12.602 -82.848 l S Q
q 1 0 0 1 0 142 cm
11.176 -77.266 m 13.551 -77.266 l S Q
Q q
0 69.602 10.801 -10.102 re W n
q
0 70 11 -11 re W n
  q
0 g
-0.141 65.672 m -0.141 66.402 -0.066 66.992 0.086 67.438 c 0.238 67.887
 0.461 68.23 0.758 68.469 c 1.055 68.711 1.426 68.832 1.875 68.832 c 2.207
 68.832 2.5 68.762 2.75 68.629 c 3 68.492 3.207 68.297 3.375 68.047 c 3.543
 67.797 3.672 67.492 3.766 67.133 c 3.859 66.773 3.906 66.289 3.906 65.672
 c 3.906 64.945 3.832 64.355 3.68 63.906 c 3.527 63.461 3.305 63.113 3.008
 62.867 c 2.711 62.625 2.332 62.504 1.875 62.504 c 1.281 62.504 0.812 62.715
 0.469 63.141 c 0.062 63.664 -0.141 64.508 -0.141 65.672 c h
0.641 65.672 m 0.641 64.652 0.762 63.973 1 63.633 c 1.238 63.297 1.531 
63.129 1.875 63.129 c 2.23 63.129 2.527 63.297 2.766 63.633 c 3.004 63.973
 3.125 64.652 3.125 65.672 c 3.125 66.695 3.004 67.371 2.766 67.707 c 2.527
 68.039 2.23 68.207 1.875 68.207 c 1.52 68.207 1.238 68.055 1.031 67.754
 c 0.77 67.379 0.641 66.684 0.641 65.672 c f*
3.891 63.469 0.875 -0.859 re f*
9.266 63.344 m 9.266 62.609 l 5.172 62.609 l 5.16 62.797 5.188 62.977 5.25
 63.141 c 5.355 63.422 5.523 63.699 5.758 63.969 c 5.992 64.242 6.324 64.555
 6.75 64.906 c 7.426 65.461 7.883 65.898 8.117 66.219 c 8.352 66.543 8.469
 66.844 8.469 67.129 c 8.469 67.43 8.363 67.684 8.148 67.891 c 7.934 68.102
 7.656 68.207 7.312 68.207 c 6.938 68.207 6.641 68.094 6.422 67.879 c 6.203
 67.656 6.094 67.352 6.094 66.957 c 5.312 67.031 l 5.363 67.617 5.566 68.062
 5.914 68.367 c 6.262 68.676 6.734 68.832 7.328 68.832 c 7.922 68.832 8.391
 68.664 8.734 68.34 c 9.078 68.008 9.25 67.602 9.25 67.109 c 9.25 66.859
 9.199 66.617 9.102 66.379 c 9 66.137 8.836 65.883 8.602 65.617 c 8.367 
65.352 7.973 64.992 7.422 64.531 c 6.961 64.148 6.672 63.887 6.547 63.754
 c 6.422 63.617 6.312 63.48 6.219 63.344 c 9.266 63.344 l f*
  Q
Q
Q q
0 g
0.36 w
0 J
0 j
[] 0.0 d
3.25 M q 1 0 0 1 0 142 cm
11.176 -71.68 m 12.602 -71.68 l S Q
q 1 0 0 1 0 142 cm
11.176 -66.098 m 12.602 -66.098 l S Q
q 1 0 0 1 0 142 cm
11.176 -60.516 m 12.602 -60.516 l S Q
q 1 0 0 1 0 142 cm
11.176 -54.934 m 12.602 -54.934 l S Q
q 1 0 0 1 0 142 cm
11.176 -49.352 m 13.551 -49.352 l S Q
Q q
0 97.602 10.801 -10.102 re W n
q
0 98 11 -11 re W n
  q
0 g
-0.141 93.586 m -0.141 94.316 -0.066 94.906 0.086 95.352 c 0.238 95.801
 0.461 96.145 0.758 96.383 c 1.055 96.625 1.426 96.742 1.875 96.742 c 2.207
 96.742 2.5 96.676 2.75 96.539 c 3 96.406 3.207 96.215 3.375 95.965 c 3.543
 95.715 3.672 95.406 3.766 95.047 c 3.859 94.688 3.906 94.203 3.906 93.586
 c 3.906 92.859 3.832 92.27 3.68 91.82 c 3.527 91.375 3.305 91.027 3.008
 90.781 c 2.711 90.539 2.332 90.414 1.875 90.414 c 1.281 90.414 0.812 90.629
 0.469 91.055 c 0.062 91.578 -0.141 92.422 -0.141 93.586 c h
0.641 93.586 m 0.641 92.566 0.762 91.887 1 91.547 c 1.238 91.211 1.531 
91.039 1.875 91.039 c 2.23 91.039 2.527 91.211 2.766 91.547 c 3.004 91.887
 3.125 92.566 3.125 93.586 c 3.125 94.609 3.004 95.285 2.766 95.617 c 2.527
 95.953 2.23 96.117 1.875 96.117 c 1.52 96.117 1.238 95.969 1.031 95.664
 c 0.77 95.289 0.641 94.598 0.641 93.586 c f*
3.891 91.383 0.875 -0.859 re f*
5.266 92.164 m 6.031 92.258 l 6.113 91.832 6.262 91.523 6.477 91.332 c 
6.691 91.137 6.949 91.039 7.25 91.039 c 7.605 91.039 7.902 91.164 8.148 
91.414 c 8.395 91.664 8.516 91.973 8.516 92.336 c 8.516 92.691 8.402 92.98
 8.172 93.207 c 7.941 93.43 7.656 93.539 7.312 93.539 c 7.168 93.539 6.984
 93.516 6.766 93.465 c 6.859 94.117 l 6.984 94.117 l 7.309 94.117 7.598 
94.203 7.852 94.367 c 8.105 94.535 8.234 94.797 8.234 95.148 c 8.234 95.43
 8.141 95.664 7.953 95.844 c 7.766 96.027 7.527 96.117 7.234 96.117 c 6.934
 96.117 6.684 96.023 6.484 95.836 c 6.285 95.648 6.16 95.375 6.109 95.008
 c 5.344 95.133 l 5.438 95.645 5.648 96.039 5.977 96.32 c 6.305 96.602 6.711
 96.742 7.203 96.742 c 7.547 96.742 7.863 96.672 8.148 96.523 c 8.434 96.379
 8.652 96.18 8.797 95.93 c 8.941 95.68 9.016 95.414 9.016 95.133 c 9.016
 94.863 8.945 94.617 8.805 94.398 c 8.664 94.18 8.453 94.008 8.172 93.883
 c 8.535 93.801 8.82 93.629 9.023 93.359 c 9.227 93.094 9.328 92.758 9.328
 92.352 c 9.328 91.812 9.129 91.352 8.734 90.977 c 8.336 90.602 7.836 90.414
 7.234 90.414 c 6.691 90.414 6.242 90.578 5.883 90.898 c 5.523 91.223 5.316
 91.645 5.266 92.164 c f*
  Q
Q
Q q
0 g
0.36 w
0 J
0 j
[] 0.0 d
3.25 M q 1 0 0 1 0 142 cm
11.176 -43.77 m 12.602 -43.77 l S Q
q 1 0 0 1 0 142 cm
11.176 -38.184 m 12.602 -38.184 l S Q
q 1 0 0 1 0 142 cm
11.176 -32.602 m 12.602 -32.602 l S Q
q 1 0 0 1 0 142 cm
11.176 -27.02 m 12.602 -27.02 l S Q
q 1 0 0 1 0 142 cm
11.176 -21.438 m 13.551 -21.438 l S Q
Q q
0 125.602 10.801 -10.102 re W n
q
0 126 11 -11 re W n
  q
0 g
-0.141 121.5 m -0.141 122.23 -0.066 122.816 0.086 123.266 c 0.238 123.715
 0.461 124.059 0.758 124.297 c 1.055 124.535 1.426 124.656 1.875 124.656
 c 2.207 124.656 2.5 124.59 2.75 124.453 c 3 124.316 3.207 124.125 3.375
 123.875 c 3.543 123.625 3.672 123.32 3.766 122.961 c 3.859 122.602 3.906
 122.113 3.906 121.5 c 3.906 120.77 3.832 120.184 3.68 119.734 c 3.527 119.285
 3.305 118.941 3.008 118.695 c 2.711 118.449 2.332 118.328 1.875 118.328
 c 1.281 118.328 0.812 118.543 0.469 118.969 c 0.062 119.488 -0.141 120.336
 -0.141 121.5 c h
0.641 121.5 m 0.641 120.48 0.762 119.801 1 119.461 c 1.238 119.121 1.531
 118.953 1.875 118.953 c 2.23 118.953 2.527 119.121 2.766 119.461 c 3.004
 119.801 3.125 120.48 3.125 121.5 c 3.125 122.52 3.004 123.199 2.766 123.531
 c 2.527 123.863 2.23 124.031 1.875 124.031 c 1.52 124.031 1.238 123.883
 1.031 123.578 c 0.77 123.203 0.641 122.512 0.641 121.5 c f*
3.891 119.297 0.875 -0.859 re f*
7.703 118.438 m 7.703 119.922 l 5.016 119.922 l 5.016 120.625 l 7.844 124.641
 l 8.469 124.641 l 8.469 120.625 l 9.297 120.625 l 9.297 119.922 l 8.469
 119.922 l 8.469 118.438 l h
7.703 120.625 m 7.703 123.406 l 5.766 120.625 l 7.703 120.625 l f*
  Q
Q
Q q
0 g
0.36 w
0 J
0 j
[] 0.0 d
3.25 M q 1 0 0 1 0 142 cm
11.176 -133.09 m 11.176 -21.438 l S Q
Q q
7.719 133.543 7 -10 re W n
q
7 134 8 -11 re W n
  q
0 g
13.426 128.305 m 14.238 128.102 l 14.07 127.426 13.766 126.91 13.316 126.555
 c 12.867 126.199 12.32 126.023 11.676 126.023 c 11.008 126.023 10.469 126.16
 10.051 126.43 c 9.633 126.699 9.316 127.094 9.098 127.609 c 8.879 128.125
 8.77 128.68 8.77 129.273 c 8.77 129.918 8.891 130.48 9.137 130.961 c 9.383
 131.441 9.73 131.805 10.184 132.055 c 10.637 132.305 11.141 132.43 11.691
 132.43 c 12.305 132.43 12.824 132.273 13.246 131.961 c 13.668 131.648 13.961
 131.207 14.129 130.633 c 13.332 130.445 l 13.188 130.895 12.977 131.219
 12.699 131.422 c 12.422 131.625 12.082 131.727 11.676 131.727 c 11.195 
131.727 10.797 131.613 10.48 131.391 c 10.164 131.168 9.938 130.863 9.809
 130.477 c 9.68 130.09 9.613 129.695 9.613 129.289 c 9.613 128.758 9.688
 128.293 9.84 127.898 c 9.992 127.504 10.227 127.211 10.551 127.016 c 10.875
 126.824 11.227 126.727 11.613 126.727 c 12.07 126.727 12.461 126.859 12.777
 127.125 c 13.094 127.391 13.312 127.785 13.426 128.305 c f*
  Q
Q
Q q
71.699 142 94.102 -11.5 re W n
q
71 142 95 -12 re W n
  q
0 g
73.066 135.133 m 73.066 142.555 l 74.051 142.555 l 74.051 139.508 l 77.91
 139.508 l 77.91 142.555 l 78.895 142.555 l 78.895 135.133 l 77.91 135.133
 l 77.91 138.633 l 74.051 138.633 l 74.051 135.133 l 73.066 135.133 l f*
82.223 136.867 m 83.176 136.742 l 83.031 136.199 82.754 135.777 82.348 
135.469 c 81.941 135.16 81.426 135.008 80.801 135.008 c 80.02 135.008 79.398
 135.25 78.934 135.734 c 78.469 136.219 78.238 136.898 78.238 137.773 c 
78.238 138.68 78.473 139.383 78.941 139.883 c 79.41 140.383 80.016 140.633
 80.754 140.633 c 81.473 140.633 82.062 140.387 82.52 139.898 c 82.977 139.41
 83.207 138.723 83.207 137.836 c 83.207 137.785 83.203 137.699 83.191 137.586
 c 79.191 137.586 l 79.223 137.004 79.391 136.551 79.691 136.234 c 79.992
 135.918 80.367 135.758 80.816 135.758 c 81.148 135.758 81.434 135.848 81.668
 136.023 c 81.902 136.199 82.086 136.48 82.223 136.867 c h
79.238 138.336 m 82.238 138.336 l 82.195 138.793 82.082 139.133 81.895 
139.352 c 81.602 139.707 81.227 139.883 80.77 139.883 c 80.352 139.883 80
 139.742 79.715 139.461 c 79.43 139.18 79.27 138.805 79.238 138.336 c f*
86.379 135.789 m 86.043 135.508 85.723 135.309 85.41 135.188 c 85.098 135.066
 84.766 135.008 84.41 135.008 c 83.816 135.008 83.359 135.152 83.043 135.445
 c 82.727 135.738 82.566 136.105 82.566 136.555 c 82.566 136.816 82.625 
137.055 82.746 137.273 c 82.863 137.492 83.023 137.668 83.215 137.797 c 
83.406 137.926 83.629 138.027 83.879 138.102 c 84.055 138.145 84.328 138.184
 84.691 138.227 c 85.418 138.32 85.961 138.43 86.316 138.555 c 86.316 138.789
 l 86.316 139.152 86.227 139.414 86.051 139.57 c 85.82 139.777 85.477 139.883
 85.02 139.883 c 84.594 139.883 84.277 139.809 84.074 139.656 c 83.871 139.504
 83.719 139.238 83.613 138.852 c 82.723 138.977 l 82.805 139.363 82.938 
139.672 83.121 139.906 c 83.305 140.141 83.57 140.32 83.926 140.445 c 84.281
 140.57 84.688 140.633 85.145 140.633 c 85.602 140.633 85.977 140.578 86.27
 140.469 c 86.562 140.359 86.773 140.223 86.902 140.062 c 87.031 139.902
 87.129 139.695 87.191 139.445 c 87.223 139.289 87.238 139.008 87.238 138.602
 c 87.238 137.383 l 87.238 136.539 87.258 136.004 87.293 135.781 c 87.328
 135.559 87.406 135.34 87.52 135.133 c 86.566 135.133 l 86.473 135.32 86.41
 135.539 86.379 135.789 c h
86.316 137.836 m 85.984 137.699 85.484 137.586 84.816 137.492 c 84.441 
137.441 84.176 137.379 84.02 137.312 c 83.863 137.246 83.742 137.145 83.66
 137.016 c 83.578 136.887 83.535 136.738 83.535 136.57 c 83.535 136.332 
83.629 136.129 83.816 135.969 c 84.004 135.809 84.273 135.727 84.629 135.727
 c 84.973 135.727 85.281 135.801 85.559 135.953 c 85.836 136.105 86.035 
136.316 86.16 136.586 c 86.266 136.793 86.316 137.098 86.316 137.492 c 86.316
 137.836 l f*
89.191 135.945 m 89.332 135.148 l 89.07 135.086 88.844 135.055 88.645 135.055
 c 88.312 135.055 88.055 135.109 87.871 135.219 c 87.688 135.328 87.559 
135.465 87.48 135.633 c 87.402 135.801 87.363 136.16 87.363 136.711 c 87.363
 139.805 l 86.707 139.805 l 86.707 140.508 l 87.363 140.508 l 87.363 141.852
 l 88.285 142.398 l 88.285 140.508 l 89.191 140.508 l 89.191 139.805 l 88.285
 139.805 l 88.285 136.664 l 88.285 136.402 88.301 136.234 88.332 136.156
 c 88.363 136.078 88.414 136.02 88.488 135.977 c 88.562 135.934 88.664 135.914
 88.801 135.914 c 88.895 135.914 89.023 135.926 89.191 135.945 c f*
95.02 137.102 m 95.926 136.992 l 95.82 136.367 95.57 135.879 95.168 135.531
 c 94.766 135.184 94.273 135.008 93.691 135.008 c 92.953 135.008 92.359 
135.25 91.91 135.734 c 91.461 136.219 91.238 136.91 91.238 137.805 c 91.238
 138.387 91.336 138.895 91.527 139.328 c 91.719 139.762 92.012 140.086 92.402
 140.305 c 92.793 140.523 93.223 140.633 93.691 140.633 c 94.273 140.633
 94.75 140.484 95.121 140.188 c 95.492 139.891 95.727 139.473 95.832 138.93
 c 94.957 138.789 l 94.863 139.152 94.711 139.426 94.496 139.609 c 94.281
 139.793 94.023 139.883 93.723 139.883 c 93.266 139.883 92.891 139.719 92.605
 139.391 c 92.32 139.062 92.176 138.539 92.176 137.82 c 92.176 137.102 92.312
 136.578 92.59 136.25 c 92.867 135.922 93.227 135.758 93.676 135.758 c 94.031
 135.758 94.328 135.867 94.566 136.086 c 94.805 136.305 94.957 136.645 95.02
 137.102 c f*
98.91 135.789 m 98.578 135.508 98.254 135.309 97.941 135.188 c 97.629 135.066
 97.297 135.008 96.941 135.008 c 96.348 135.008 95.891 135.152 95.574 135.445
 c 95.258 135.738 95.098 136.105 95.098 136.555 c 95.098 136.816 95.156 
137.055 95.277 137.273 c 95.398 137.492 95.555 137.668 95.746 137.797 c 
95.938 137.926 96.16 138.027 96.41 138.102 c 96.59 138.145 96.859 138.184
 97.223 138.227 c 97.953 138.32 98.492 138.43 98.848 138.555 c 98.848 138.789
 l 98.848 139.152 98.758 139.414 98.582 139.57 c 98.352 139.777 98.008 139.883
 97.551 139.883 c 97.125 139.883 96.809 139.809 96.605 139.656 c 96.402 
139.504 96.25 139.238 96.145 138.852 c 95.254 138.977 l 95.34 139.363 95.469
 139.672 95.652 139.906 c 95.836 140.141 96.102 140.32 96.457 140.445 c 
96.812 140.57 97.219 140.633 97.676 140.633 c 98.133 140.633 98.508 140.578
 98.801 140.469 c 99.094 140.359 99.305 140.223 99.434 140.062 c 99.562 
139.902 99.66 139.695 99.723 139.445 c 99.754 139.289 99.77 139.008 99.77
 138.602 c 99.77 137.383 l 99.77 136.539 99.789 136.004 99.824 135.781 c
 99.859 135.559 99.938 135.34 100.051 135.133 c 99.098 135.133 l 99.004 
135.32 98.941 135.539 98.91 135.789 c h
98.848 137.836 m 98.516 137.699 98.016 137.586 97.348 137.492 c 96.973 
137.441 96.707 137.379 96.551 137.312 c 96.395 137.246 96.273 137.145 96.191
 137.016 c 96.109 136.887 96.066 136.738 96.066 136.57 c 96.066 136.332 
96.16 136.129 96.348 135.969 c 96.535 135.809 96.805 135.727 97.16 135.727
 c 97.504 135.727 97.812 135.801 98.09 135.953 c 98.367 136.105 98.566 136.316
 98.691 136.586 c 98.797 136.793 98.848 137.098 98.848 137.492 c 98.848 
137.836 l f*
99.738 133.07 m 99.738 140.508 l 100.566 140.508 l 100.566 139.82 l 100.766
 140.09 100.984 140.293 101.23 140.43 c 101.477 140.566 101.773 140.633 
102.129 140.633 c 102.586 140.633 102.992 140.516 103.34 140.281 c 103.688
 140.047 103.953 139.715 104.137 139.281 c 104.32 138.848 104.41 138.379
 104.41 137.867 c 104.41 137.316 104.312 136.816 104.113 136.375 c 103.914
 135.934 103.629 135.594 103.246 135.359 c 102.867 135.125 102.473 135.008
 102.066 135.008 c 101.754 135.008 101.477 135.074 101.238 135.203 c 101
 135.336 100.801 135.496 100.645 135.695 c 100.645 133.07 l h
100.566 137.789 m 100.566 137.102 100.703 136.59 100.98 136.258 c 101.258
 135.926 101.598 135.758 102.004 135.758 c 102.41 135.758 102.758 135.93
 103.043 136.273 c 103.328 136.617 103.473 137.148 103.473 137.867 c 103.473
 138.555 103.332 139.066 103.051 139.406 c 102.77 139.746 102.43 139.914
 102.035 139.914 c 101.648 139.914 101.309 139.734 101.012 139.375 c 100.715
 139.016 100.566 138.488 100.566 137.789 c f*
107.566 135.789 m 107.234 135.508 106.91 135.309 106.598 135.188 c 106.285
 135.066 105.953 135.008 105.598 135.008 c 105.004 135.008 104.547 135.152
 104.23 135.445 c 103.914 135.738 103.754 136.105 103.754 136.555 c 103.754
 136.816 103.812 137.055 103.934 137.273 c 104.055 137.492 104.211 137.668
 104.402 137.797 c 104.594 137.926 104.816 138.027 105.066 138.102 c 105.242
 138.145 105.516 138.184 105.879 138.227 c 106.609 138.32 107.148 138.43
 107.504 138.555 c 107.504 138.789 l 107.504 139.152 107.414 139.414 107.238
 139.57 c 107.008 139.777 106.664 139.883 106.207 139.883 c 105.781 139.883
 105.465 139.809 105.262 139.656 c 105.059 139.504 104.906 139.238 104.801
 138.852 c 103.91 138.977 l 103.992 139.363 104.125 139.672 104.309 139.906
 c 104.492 140.141 104.758 140.32 105.113 140.445 c 105.469 140.57 105.875
 140.633 106.332 140.633 c 106.789 140.633 107.164 140.578 107.457 140.469
 c 107.75 140.359 107.961 140.223 108.09 140.062 c 108.219 139.902 108.316
 139.695 108.379 139.445 c 108.41 139.289 108.426 139.008 108.426 138.602
 c 108.426 137.383 l 108.426 136.539 108.445 136.004 108.48 135.781 c 108.516
 135.559 108.594 135.34 108.707 135.133 c 107.754 135.133 l 107.66 135.32
 107.598 135.539 107.566 135.789 c h
107.504 137.836 m 107.172 137.699 106.672 137.586 106.004 137.492 c 105.629
 137.441 105.363 137.379 105.207 137.312 c 105.051 137.246 104.93 137.145
 104.848 137.016 c 104.766 136.887 104.723 136.738 104.723 136.57 c 104.723
 136.332 104.816 136.129 105.004 135.969 c 105.191 135.809 105.461 135.727
 105.816 135.727 c 106.16 135.727 106.469 135.801 106.746 135.953 c 107.023
 136.105 107.223 136.316 107.348 136.586 c 107.453 136.793 107.504 137.098
 107.504 137.492 c 107.504 137.836 l f*
111.895 137.102 m 112.801 136.992 l 112.695 136.367 112.445 135.879 112.043
 135.531 c 111.641 135.184 111.148 135.008 110.566 135.008 c 109.828 135.008
 109.234 135.25 108.785 135.734 c 108.336 136.219 108.113 136.91 108.113
 137.805 c 108.113 138.387 108.211 138.895 108.402 139.328 c 108.594 139.762
 108.887 140.086 109.277 140.305 c 109.668 140.523 110.098 140.633 110.566
 140.633 c 111.148 140.633 111.625 140.484 111.996 140.188 c 112.367 139.891
 112.602 139.473 112.707 138.93 c 111.832 138.789 l 111.738 139.152 111.586
 139.426 111.371 139.609 c 111.156 139.793 110.898 139.883 110.598 139.883
 c 110.141 139.883 109.766 139.719 109.48 139.391 c 109.195 139.062 109.051
 138.539 109.051 137.82 c 109.051 137.102 109.188 136.578 109.465 136.25
 c 109.742 135.922 110.102 135.758 110.551 135.758 c 110.906 135.758 111.203
 135.867 111.441 136.086 c 111.68 136.305 111.832 136.645 111.895 137.102
 c f*
112.285 141.508 m 112.285 142.555 l 113.191 142.555 l 113.191 141.508 l
 h
112.285 135.133 m 112.285 140.508 l 113.191 140.508 l 113.191 135.133 l
 112.285 135.133 l f*
116.004 135.945 m 116.145 135.148 l 115.883 135.086 115.656 135.055 115.457
 135.055 c 115.125 135.055 114.867 135.109 114.684 135.219 c 114.5 135.328
 114.371 135.465 114.293 135.633 c 114.215 135.801 114.176 136.16 114.176
 136.711 c 114.176 139.805 l 113.52 139.805 l 113.52 140.508 l 114.176 140.508
 l 114.176 141.852 l 115.098 142.398 l 115.098 140.508 l 116.004 140.508
 l 116.004 139.805 l 115.098 139.805 l 115.098 136.664 l 115.098 136.402
 115.113 136.234 115.145 136.156 c 115.176 136.078 115.227 136.02 115.301
 135.977 c 115.375 135.934 115.477 135.914 115.613 135.914 c 115.707 135.914
 115.836 135.926 116.004 135.945 c f*
116.129 133.055 m 116.035 133.914 l 116.234 133.863 116.406 133.836 116.551
 133.836 c 116.758 133.836 116.922 133.871 117.043 133.938 c 117.16 134.004
 117.258 134.102 117.332 134.227 c 117.395 134.309 117.488 134.535 117.613
 134.898 c 117.633 134.949 117.66 135.023 117.691 135.117 c 115.66 140.508
 l 116.645 140.508 l 117.754 137.398 l 117.898 137.004 118.031 136.586 118.145
 136.148 c 118.246 136.566 118.371 136.977 118.52 137.383 c 119.676 140.508
 l 120.582 140.508 l 118.535 135.039 l 118.316 134.445 118.145 134.039 118.02
 133.82 c 117.863 133.52 117.68 133.297 117.473 133.156 c 117.266 133.016
 117.016 132.945 116.723 132.945 c 116.547 132.945 116.348 132.98 116.129
 133.055 c f*
120.301 135.133 m 120.301 136.164 l 121.332 136.164 l 121.332 135.133 l
 121.332 134.746 121.266 134.438 121.137 134.203 c 121.008 133.969 120.789
 133.789 120.488 133.664 c 120.238 134.055 l 120.438 134.137 120.578 134.262
 120.668 134.422 c 120.758 134.586 120.805 134.82 120.816 135.133 c 120.301
 135.133 l f*
127.551 135.133 m 126.645 135.133 l 126.645 140.945 l 126.426 140.738 126.141
 140.527 125.785 140.32 c 125.43 140.113 125.109 139.957 124.816 139.852
 c 124.816 140.727 l 125.324 140.965 125.773 141.254 126.16 141.594 c 126.547
 141.934 126.816 142.262 126.973 142.586 c 127.551 142.586 l 127.551 135.133
 l f*
128.457 137.086 m 129.41 137.164 l 129.484 136.695 129.648 136.344 129.902
 136.109 c 130.156 135.875 130.469 135.758 130.832 135.758 c 131.27 135.758
 131.641 135.922 131.949 136.25 c 132.258 136.578 132.41 137.02 132.41 137.57
 c 132.41 138.09 132.266 138.504 131.973 138.805 c 131.68 139.105 131.297
 139.258 130.816 139.258 c 130.523 139.258 130.262 139.191 130.027 139.055
 c 129.793 138.918 129.609 138.746 129.473 138.539 c 128.613 138.648 l 129.332
 142.461 l 133.02 142.461 l 133.02 141.586 l 130.066 141.586 l 129.66 139.586
 l 130.109 139.898 130.574 140.055 131.066 140.055 c 131.711 140.055 132.258
 139.832 132.707 139.383 c 133.152 138.934 133.379 138.355 133.379 137.648
 c 133.379 136.98 133.18 136.402 132.785 135.914 c 132.305 135.309 131.652
 135.008 130.832 135.008 c 130.152 135.008 129.602 135.199 129.176 135.578
 c 128.746 135.961 128.508 136.461 128.457 137.086 c f*
135.191 133.07 m 135.191 140.508 l 136.02 140.508 l 136.02 139.82 l 136.219
 140.09 136.438 140.293 136.684 140.43 c 136.93 140.566 137.227 140.633 
137.582 140.633 c 138.039 140.633 138.445 140.516 138.793 140.281 c 139.141
 140.047 139.406 139.715 139.59 139.281 c 139.773 138.848 139.863 138.379
 139.863 137.867 c 139.863 137.316 139.766 136.816 139.566 136.375 c 139.367
 135.934 139.078 135.594 138.699 135.359 c 138.32 135.125 137.926 135.008
 137.52 135.008 c 137.207 135.008 136.93 135.074 136.691 135.203 c 136.453
 135.336 136.254 135.496 136.098 135.695 c 136.098 133.07 l h
136.02 137.789 m 136.02 137.102 136.156 136.59 136.434 136.258 c 136.711
 135.926 137.051 135.758 137.457 135.758 c 137.863 135.758 138.211 135.93
 138.496 136.273 c 138.781 136.617 138.926 137.148 138.926 137.867 c 138.926
 138.555 138.785 139.066 138.504 139.406 c 138.223 139.746 137.883 139.914
 137.488 139.914 c 137.102 139.914 136.762 139.734 136.465 139.375 c 136.168
 139.016 136.02 138.488 136.02 137.789 c f*
143.02 135.789 m 142.688 135.508 142.363 135.309 142.051 135.188 c 141.738
 135.066 141.406 135.008 141.051 135.008 c 140.457 135.008 140 135.152 139.684
 135.445 c 139.367 135.738 139.207 136.105 139.207 136.555 c 139.207 136.816
 139.266 137.055 139.387 137.273 c 139.508 137.492 139.664 137.668 139.855
 137.797 c 140.047 137.926 140.27 138.027 140.52 138.102 c 140.695 138.145
 140.969 138.184 141.332 138.227 c 142.062 138.32 142.602 138.43 142.957
 138.555 c 142.957 138.789 l 142.957 139.152 142.867 139.414 142.691 139.57
 c 142.461 139.777 142.117 139.883 141.66 139.883 c 141.234 139.883 140.918
 139.809 140.715 139.656 c 140.512 139.504 140.359 139.238 140.254 138.852
 c 139.363 138.977 l 139.445 139.363 139.578 139.672 139.762 139.906 c 139.945
 140.141 140.211 140.32 140.566 140.445 c 140.922 140.57 141.328 140.633
 141.785 140.633 c 142.242 140.633 142.617 140.578 142.91 140.469 c 143.203
 140.359 143.414 140.223 143.543 140.062 c 143.672 139.902 143.77 139.695
 143.832 139.445 c 143.863 139.289 143.879 139.008 143.879 138.602 c 143.879
 137.383 l 143.879 136.539 143.898 136.004 143.934 135.781 c 143.969 135.559
 144.047 135.34 144.16 135.133 c 143.207 135.133 l 143.113 135.32 143.051
 135.539 143.02 135.789 c h
142.957 137.836 m 142.625 137.699 142.125 137.586 141.457 137.492 c 141.082
 137.441 140.816 137.379 140.66 137.312 c 140.504 137.246 140.383 137.145
 140.301 137.016 c 140.219 136.887 140.176 136.738 140.176 136.57 c 140.176
 136.332 140.27 136.129 140.457 135.969 c 140.645 135.809 140.914 135.727
 141.27 135.727 c 141.613 135.727 141.922 135.801 142.199 135.953 c 142.477
 136.105 142.676 136.316 142.801 136.586 c 142.906 136.793 142.957 137.098
 142.957 137.492 c 142.957 137.836 l f*
143.832 135.133 m 143.832 140.508 l 144.66 140.508 l 144.66 139.695 l 144.867
 140.082 145.062 140.336 145.238 140.453 c 145.414 140.574 145.609 140.633
 145.816 140.633 c 146.129 140.633 146.441 140.535 146.754 140.336 c 146.441
 139.492 l 146.223 139.629 146 139.695 145.77 139.695 c 145.57 139.695 145.395
 139.637 145.238 139.516 c 145.082 139.395 144.969 139.227 144.895 139.008
 c 144.789 138.684 144.738 138.332 144.738 137.945 c 144.738 135.133 l 143.832
 135.133 l f*
148.426 135.945 m 148.566 135.148 l 148.305 135.086 148.078 135.055 147.879
 135.055 c 147.547 135.055 147.289 135.109 147.105 135.219 c 146.922 135.328
 146.793 135.465 146.715 135.633 c 146.637 135.801 146.598 136.16 146.598
 136.711 c 146.598 139.805 l 145.941 139.805 l 145.941 140.508 l 146.598
 140.508 l 146.598 141.852 l 147.52 142.398 l 147.52 140.508 l 148.426 140.508
 l 148.426 139.805 l 147.52 139.805 l 147.52 136.664 l 147.52 136.402 147.535
 136.234 147.566 136.156 c 147.598 136.078 147.648 136.02 147.723 135.977
 c 147.797 135.934 147.898 135.914 148.035 135.914 c 148.129 135.914 148.258
 135.926 148.426 135.945 c f*
148.598 141.508 m 148.598 142.555 l 149.504 142.555 l 149.504 141.508 l
 h
148.598 135.133 m 148.598 140.508 l 149.504 140.508 l 149.504 135.133 l
 148.598 135.133 l f*
153.832 137.102 m 154.738 136.992 l 154.633 136.367 154.383 135.879 153.98
 135.531 c 153.578 135.184 153.086 135.008 152.504 135.008 c 151.766 135.008
 151.172 135.25 150.723 135.734 c 150.273 136.219 150.051 136.91 150.051
 137.805 c 150.051 138.387 150.148 138.895 150.34 139.328 c 150.531 139.762
 150.824 140.086 151.215 140.305 c 151.605 140.523 152.035 140.633 152.504
 140.633 c 153.086 140.633 153.562 140.484 153.934 140.188 c 154.305 139.891
 154.539 139.473 154.645 138.93 c 153.77 138.789 l 153.676 139.152 153.523
 139.426 153.309 139.609 c 153.094 139.793 152.836 139.883 152.535 139.883
 c 152.074 139.883 151.703 139.719 151.418 139.391 c 151.133 139.062 150.988
 138.539 150.988 137.82 c 150.988 137.102 151.125 136.578 151.402 136.25
 c 151.68 135.922 152.039 135.758 152.488 135.758 c 152.844 135.758 153.141
 135.867 153.379 136.086 c 153.617 136.305 153.77 136.645 153.832 137.102
 c f*
154.191 142.555 0.922 -7.422 re f*
159.629 136.867 m 160.582 136.742 l 160.438 136.199 160.16 135.777 159.754
 135.469 c 159.348 135.16 158.832 135.008 158.207 135.008 c 157.426 135.008
 156.805 135.25 156.34 135.734 c 155.875 136.219 155.645 136.898 155.645
 137.773 c 155.645 138.68 155.879 139.383 156.348 139.883 c 156.816 140.383
 157.422 140.633 158.16 140.633 c 158.879 140.633 159.469 140.387 159.926
 139.898 c 160.383 139.41 160.613 138.723 160.613 137.836 c 160.613 137.785
 160.609 137.699 160.598 137.586 c 156.598 137.586 l 156.629 137.004 156.797
 136.551 157.098 136.234 c 157.398 135.918 157.773 135.758 158.223 135.758
 c 158.555 135.758 158.84 135.848 159.074 136.023 c 159.309 136.199 159.492
 136.48 159.629 136.867 c h
156.645 138.336 m 159.645 138.336 l 159.602 138.793 159.488 139.133 159.301
 139.352 c 159.008 139.707 158.633 139.883 158.176 139.883 c 157.758 139.883
 157.406 139.742 157.121 139.461 c 156.836 139.18 156.676 138.805 156.645
 138.336 c f*
159.91 136.742 m 160.816 136.883 l 160.867 136.52 161.008 136.238 161.238
 136.047 c 161.469 135.855 161.789 135.758 162.207 135.758 c 162.633 135.758
 162.945 135.844 163.145 136.016 c 163.344 136.188 163.441 136.387 163.441
 136.617 c 163.441 136.824 163.352 136.988 163.176 137.102 c 163.051 137.184
 162.742 137.289 162.254 137.414 c 161.574 137.582 161.109 137.727 160.855
 137.852 c 160.602 137.977 160.402 138.148 160.27 138.367 c 160.133 138.586
 160.066 138.824 160.066 139.086 c 160.066 139.324 160.121 139.547 160.23
 139.75 c 160.34 139.953 160.488 140.121 160.676 140.258 c 160.82 140.363
 161.016 140.449 161.262 140.523 c 161.508 140.598 161.77 140.633 162.051
 140.633 c 162.469 140.633 162.836 140.574 163.16 140.453 c 163.48 140.336
 163.719 140.168 163.871 139.961 c 164.02 139.754 164.121 139.473 164.176
 139.117 c 163.285 139.008 l 163.242 139.277 163.125 139.492 162.934 139.648
 c 162.738 139.805 162.469 139.883 162.113 139.883 c 161.695 139.883 161.398
 139.816 161.223 139.68 c 161.047 139.543 160.957 139.383 160.957 139.195
 c 160.957 139.07 160.992 138.961 161.066 138.867 c 161.141 138.773 161.254
 138.695 161.41 138.633 c 161.504 138.59 161.773 138.512 162.223 138.398
 c 162.867 138.223 163.316 138.078 163.574 137.969 c 163.828 137.859 164.027
 137.699 164.168 137.492 c 164.309 137.285 164.379 137.023 164.379 136.711
 c 164.379 136.41 164.289 136.121 164.113 135.852 c 163.938 135.582 163.68
 135.371 163.348 135.227 c 163.016 135.082 162.641 135.008 162.223 135.008
 c 161.523 135.008 160.988 135.152 160.621 135.445 c 160.25 135.738 160.016
 136.168 159.91 136.742 c f*
  Q
Q
Q Q
showpage
%%Trailer
end restore
%%EOF
