%!PS-Adobe-3.0 EPSF-3.0
%%Creator: cairo 1.14.2 (http://cairographics.org)
%%CreationDate: Thu May 21 12:40:07 2015
%%Pages: 1
%%DocumentData: Clean7Bit
%%LanguageLevel: 2
%%BoundingBox: 0 0 252 143
%%EndComments
%%BeginProlog
save
50 dict begin
/q { gsave } bind def
/Q { grestore } bind def
/cm { 6 array astore concat } bind def
/w { setlinewidth } bind def
/J { setlinecap } bind def
/j { setlinejoin } bind def
/M { setmiterlimit } bind def
/d { setdash } bind def
/m { moveto } bind def
/l { lineto } bind def
/c { curveto } bind def
/h { closepath } bind def
/re { exch dup neg 3 1 roll 5 3 roll moveto 0 rlineto
      0 exch rlineto 0 rlineto closepath } bind def
/S { stroke } bind def
/f { fill } bind def
/f* { eofill } bind def
/n { newpath } bind def
/W { clip } bind def
/W* { eoclip } bind def
/BT { } bind def
/ET { } bind def
/pdfmark where { pop globaldict /?pdfmark /exec load put }
    { globaldict begin /?pdfmark /pop load def /pdfmark
    /cleartomark load def end } ifelse
/BDC { mark 3 1 roll /BDC pdfmark } bind def
/EMC { mark /EMC pdfmark } bind def
/cairo_store_point { /cairo_point_y exch def /cairo_point_x exch def } def
/Tj { show currentpoint cairo_store_point } bind def
/TJ {
  {
    dup
    type /stringtype eq
    { show } { -0.001 mul 0 cairo_font_matrix dtransform rmoveto } ifelse
  } forall
  currentpoint cairo_store_point
} bind def
/cairo_selectfont { cairo_font_matrix aload pop pop pop 0 0 6 array astore
    cairo_font exch selectfont cairo_point_x cairo_point_y moveto } bind def
/Tf { pop /cairo_font exch def /cairo_font_matrix where
      { pop cairo_selectfont } if } bind def
/Td { matrix translate cairo_font_matrix matrix concatmatrix dup
      /cairo_font_matrix exch def dup 4 get exch 5 get cairo_store_point
      /cairo_font where { pop cairo_selectfont } if } bind def
/Tm { 2 copy 8 2 roll 6 array astore /cairo_font_matrix exch def
      cairo_store_point /cairo_font where { pop cairo_selectfont } if } bind def
/g { setgray } bind def
/rg { setrgbcolor } bind def
/d1 { setcachedevice } bind def
%%EndProlog
%%BeginSetup
%%EndSetup
%%Page: 1 1
%%BeginPageSetup
%%PageBoundingBox: 0 0 252 143
%%EndPageSetup
q 0 0 252 143 rectclip q
Q q
5.719 122.645 228 -115 re W n
q
5 123 229 -116 re W n
  q
0.368627 0.505882 0.709804 rg
1.152 w
2 J
0 j
[] 0.0 d
3.25 M q 1 0 0 1 0 143 cm
29.215 -134.074 m 29.328 -134.074 l 29.438 -134.07 l 29.77 -134.07 l 29.879
 -134.066 l 30.156 -134.066 l 30.211 -134.062 l 30.324 -134.062 l 30.543
 -134.059 l 30.988 -134.055 l 31.098 -134.055 l 31.207 -134.051 l 31.43 
-134.047 l 31.484 -134.047 l 31.539 -134.043 l 31.652 -134.043 l 31.871 
-134.039 l 31.93 -134.039 l 31.984 -134.035 l 32.094 -134.035 l 32.316 -134.027
 l 32.758 -134.02 l 32.816 -134.016 l 32.879 -134.016 l 32.996 -134.012 
l 33.238 -134.004 l 33.297 -134 l 33.359 -134 l 33.477 -133.996 l 33.719
 -133.988 l 33.777 -133.984 l 33.836 -133.984 l 33.957 -133.98 l 34.195 
-133.969 l 34.676 -133.949 l 34.738 -133.945 l 34.797 -133.941 l 34.918 
-133.938 l 35.156 -133.922 l 35.219 -133.918 l 35.277 -133.918 l 35.398 
-133.91 l 35.637 -133.895 l 35.695 -133.891 l 35.758 -133.887 l 35.879 -133.883
 l 36.117 -133.863 l 36.598 -133.832 l 36.652 -133.824 l 36.711 -133.82 
l 36.82 -133.812 l 37.043 -133.793 l 37.492 -133.754 l 37.547 -133.75 l 
37.605 -133.742 l 37.719 -133.73 l 37.941 -133.707 l 38.391 -133.66 l 38.445
 -133.652 l 38.5 -133.648 l 38.613 -133.633 l 38.836 -133.605 l 39.285 -133.551
 l 40.18 -133.418 l 40.289 -133.402 l 40.402 -133.383 l 40.621 -133.348 
l 41.059 -133.27 l 41.938 -133.102 l 41.992 -133.086 l 42.047 -133.078 l
 42.156 -133.055 l 42.379 -133.008 l 42.816 -132.906 l 43.695 -132.695 l
 43.754 -132.68 l 43.816 -132.664 l 43.934 -132.633 l 44.172 -132.57 l 44.648
 -132.438 l 45.602 -132.156 l 47.508 -131.531 l 47.617 -131.492 l 47.73 
-131.457 l 47.953 -131.375 l 48.398 -131.219 l 49.285 -130.891 l 51.066 
-130.223 l 51.125 -130.203 l 51.188 -130.18 l 51.309 -130.133 l 51.547 -130.043
 l 52.031 -129.863 l 52.992 -129.508 l 53.055 -129.484 l 53.113 -129.465
 l 53.234 -129.418 l 53.477 -129.332 l 53.957 -129.164 l 54.922 -128.836
 l 55.156 -128.758 l 55.395 -128.68 l 55.867 -128.531 l 56.812 -128.254 
l 56.871 -128.234 l 56.934 -128.219 l 57.051 -128.188 l 57.285 -128.121 
l 57.762 -127.996 l 58.707 -127.77 l 58.762 -127.758 l 58.816 -127.742 l
 58.926 -127.719 l 59.148 -127.672 l 59.59 -127.578 l 59.645 -127.566 l 
59.699 -127.559 l 59.809 -127.535 l 60.031 -127.492 l 60.473 -127.41 l 60.582
 -127.395 l 60.691 -127.375 l 60.914 -127.34 l 61.355 -127.27 l 61.465 -127.254
 l 61.574 -127.234 l 61.797 -127.207 l 62.238 -127.145 l 62.297 -127.137
 l 62.355 -127.133 l 62.477 -127.117 l 62.715 -127.09 l 63.195 -127.035 
l 63.254 -127.031 l 63.312 -127.023 l 63.434 -127.012 l 63.672 -126.988 
l 64.152 -126.945 l 64.211 -126.941 l 64.273 -126.938 l 64.391 -126.93 l
 64.629 -126.91 l 64.691 -126.906 l 64.75 -126.902 l 64.871 -126.895 l 65.109
 -126.879 l 65.168 -126.871 l 65.23 -126.867 l 65.348 -126.863 l 65.59 -126.848
 l 66.066 -126.824 l 66.121 -126.82 l 66.18 -126.816 l 66.289 -126.812 l
 66.512 -126.805 l 66.57 -126.801 l 66.625 -126.797 l 66.734 -126.793 l 
66.961 -126.785 l 67.016 -126.785 l 67.07 -126.781 l 67.184 -126.777 l 67.406
 -126.773 l 67.465 -126.77 l 67.52 -126.77 l 67.629 -126.766 l 67.852 -126.762
 l 67.91 -126.758 l 67.965 -126.758 l 68.078 -126.754 l 68.188 -126.754 
l 68.301 -126.75 l 68.41 -126.75 l 68.523 -126.746 l 68.746 -126.742 l 68.859
 -126.742 l 68.969 -126.738 l 69.305 -126.738 l 69.359 -126.734 l 69.969
 -126.734 l 70.023 -126.73 l 70.898 -126.73 l 70.957 -126.734 l 71.613 -126.734
 l 71.664 -126.738 l 72.051 -126.738 l 72.27 -126.742 l 72.379 -126.742 
l 72.488 -126.746 l 72.707 -126.746 l 73.145 -126.754 l 73.203 -126.754 
l 73.266 -126.758 l 73.383 -126.758 l 73.621 -126.762 l 74.094 -126.77 l
 75.047 -126.789 l 75.164 -126.789 l 75.281 -126.793 l 75.996 -126.805 l
 76.055 -126.809 l 76.234 -126.809 l 76.473 -126.812 l 76.531 -126.816 l
 76.711 -126.816 l 76.945 -126.82 l 77.059 -126.82 l 77.168 -126.824 l 77.277
 -126.824 l 77.391 -126.828 l 77.777 -126.828 l 77.836 -126.832 l 78.719
 -126.832 l 78.777 -126.828 l 79.055 -126.828 l 79.164 -126.824 l 79.273
 -126.824 l 79.332 -126.82 l 79.496 -126.82 l 79.605 -126.816 l 79.664 -126.816
 l 79.719 -126.812 l 79.828 -126.812 l 79.883 -126.809 l 79.941 -126.809
 l 80.051 -126.805 l 80.105 -126.801 l 80.16 -126.801 l 80.273 -126.793 
l 80.492 -126.785 l 80.555 -126.781 l 80.613 -126.777 l 80.734 -126.773 
l 80.793 -126.77 l 80.855 -126.766 l 80.977 -126.758 l 81.094 -126.75 l 
81.215 -126.742 l 81.457 -126.723 l 81.516 -126.719 l 81.578 -126.715 l 
81.695 -126.703 l 81.938 -126.68 l 82.055 -126.664 l 82.176 -126.652 l 82.418
 -126.625 l 82.535 -126.609 l 82.656 -126.594 l 82.898 -126.559 l 82.957
 -126.547 l 83.02 -126.539 l 83.137 -126.52 l 83.379 -126.477 l 83.496 -126.453
 l 83.859 -126.383 l 84.34 -126.27 l 84.457 -126.238 l 84.574 -126.211 l
 84.812 -126.145 l 84.871 -126.125 l 84.93 -126.109 l 85.047 -126.074 l 
85.281 -126 l 85.344 -125.98 l 85.402 -125.961 l 85.52 -125.918 l 85.754
 -125.836 l 86.227 -125.648 l 86.285 -125.625 l 86.344 -125.598 l 86.465
 -125.547 l 86.699 -125.441 l 87.172 -125.207 l 87.406 -125.082 l 87.645
 -124.953 l 88.113 -124.668 l 88.168 -124.633 l 88.227 -124.598 l 88.336
 -124.527 l 88.555 -124.379 l 88.996 -124.066 l 89.051 -124.027 l 89.105
 -123.984 l 89.215 -123.902 l 89.434 -123.73 l 89.875 -123.367 l 90.094 
-123.18 l 90.316 -122.98 l 90.754 -122.57 l 91.637 -121.668 l 91.695 -121.605
 l 91.754 -121.539 l 91.875 -121.41 l 92.113 -121.145 l 92.59 -120.59 l 
93.543 -119.406 l 95.453 -116.816 l 95.508 -116.734 l 95.566 -116.656 l 
95.676 -116.5 l 95.898 -116.184 l 96.344 -115.547 l 97.234 -114.281 l 97.293
 -114.203 l 97.348 -114.125 l 97.461 -113.969 l 97.68 -113.656 l 98.129 
-113.043 l 99.02 -111.867 l 99.078 -111.789 l 99.141 -111.715 l 99.258 -111.562
 l 99.5 -111.266 l 99.984 -110.699 l 100.043 -110.629 l 100.105 -110.562
 l 100.227 -110.43 l 100.465 -110.168 l 100.949 -109.68 l 101.008 -109.621
 l 101.07 -109.562 l 101.434 -109.234 l 101.551 -109.133 l 101.672 -109.031
 l 101.914 -108.844 l 101.977 -108.797 l 102.035 -108.754 l 102.156 -108.664
 l 102.398 -108.5 l 102.457 -108.461 l 102.52 -108.422 l 102.641 -108.352
 l 102.879 -108.215 l 102.996 -108.152 l 103.117 -108.098 l 103.234 -108.043
 l 103.355 -107.992 l 103.473 -107.945 l 103.59 -107.902 l 103.648 -107.883
 l 103.711 -107.859 l 103.828 -107.824 l 103.945 -107.793 l 104.008 -107.777
 l 104.066 -107.766 l 104.125 -107.75 l 104.242 -107.727 l 104.301 -107.719
 l 104.359 -107.707 l 104.422 -107.699 l 104.539 -107.684 l 104.598 -107.68
 l 104.656 -107.672 l 104.715 -107.668 l 104.777 -107.668 l 104.836 -107.664
 l 105.07 -107.664 l 105.133 -107.668 l 105.309 -107.68 l 105.426 -107.695
 l 105.488 -107.703 l 105.605 -107.719 l 105.781 -107.754 l 105.844 -107.77
 l 105.961 -107.797 l 106.02 -107.812 l 106.078 -107.832 l 106.199 -107.867
 l 106.316 -107.906 l 106.434 -107.949 l 106.672 -108.043 l 106.727 -108.066
 l 106.781 -108.094 l 106.895 -108.145 l 107.113 -108.258 l 107.168 -108.285
 l 107.223 -108.316 l 107.336 -108.379 l 107.555 -108.516 l 107.609 -108.547
 l 107.664 -108.586 l 107.777 -108.656 l 107.996 -108.812 l 108.441 -109.148
 l 108.496 -109.191 l 108.66 -109.332 l 108.883 -109.52 l 109.324 -109.926
 l 110.211 -110.82 l 110.328 -110.953 l 110.449 -111.082 l 110.688 -111.348
 l 111.168 -111.895 l 112.125 -113.047 l 114.043 -115.445 l 114.102 -115.516
 l 114.156 -115.586 l 114.27 -115.727 l 114.492 -116.004 l 114.938 -116.555
 l 115.836 -117.633 l 115.891 -117.695 l 115.945 -117.762 l 116.059 -117.895
 l 116.281 -118.148 l 116.73 -118.652 l 117.625 -119.602 l 117.844 -119.82
 l 118.062 -120.035 l 118.504 -120.441 l 118.613 -120.543 l 118.723 -120.641
 l 118.941 -120.828 l 119.379 -121.188 l 119.488 -121.273 l 119.598 -121.355
 l 119.82 -121.516 l 120.258 -121.816 l 120.367 -121.887 l 120.695 -122.086
 l 121.137 -122.316 l 121.195 -122.348 l 121.371 -122.43 l 121.609 -122.535
 l 121.672 -122.559 l 121.73 -122.582 l 121.848 -122.625 l 122.086 -122.707
 l 122.148 -122.723 l 122.207 -122.742 l 122.324 -122.773 l 122.387 -122.789
 l 122.445 -122.805 l 122.562 -122.832 l 122.621 -122.844 l 122.684 -122.855
 l 122.859 -122.891 l 122.922 -122.898 l 123.039 -122.914 l 123.098 -122.918
 l 123.156 -122.926 l 123.219 -122.93 l 123.395 -122.941 l 123.457 -122.941
 l 123.516 -122.945 l 123.633 -122.945 l 123.695 -122.941 l 123.754 -122.941
 l 123.871 -122.934 l 123.934 -122.93 l 123.992 -122.926 l 124.109 -122.91
 l 124.172 -122.906 l 124.23 -122.895 l 124.348 -122.879 l 124.469 -122.855
 l 124.527 -122.84 l 124.586 -122.828 l 124.703 -122.797 l 124.766 -122.781
 l 124.824 -122.766 l 124.941 -122.727 l 125 -122.711 l 125.055 -122.691
 l 125.164 -122.648 l 125.223 -122.629 l 125.441 -122.535 l 125.5 -122.512
 l 125.609 -122.457 l 125.832 -122.344 l 125.887 -122.312 l 125.941 -122.277
 l 126.055 -122.215 l 126.277 -122.07 l 126.332 -122.035 l 126.496 -121.918
 l 126.719 -121.75 l 126.777 -121.707 l 126.832 -121.66 l 126.941 -121.57
 l 127.164 -121.375 l 127.219 -121.324 l 127.277 -121.273 l 127.387 -121.168
 l 127.609 -120.945 l 127.719 -120.828 l 127.832 -120.711 l 128.055 -120.461
 l 128.496 -119.918 l 128.559 -119.84 l 128.617 -119.762 l 128.738 -119.598
 l 128.98 -119.266 l 129.461 -118.543 l 129.52 -118.453 l 129.578 -118.355
 l 129.699 -118.16 l 129.941 -117.758 l 130.422 -116.902 l 130.484 -116.789
 l 130.543 -116.676 l 130.664 -116.445 l 130.906 -115.977 l 131.387 -114.984
 l 132.348 -112.793 l 132.406 -112.652 l 132.469 -112.508 l 132.586 -112.219
 l 132.82 -111.621 l 133.293 -110.391 l 134.238 -107.738 l 136.129 -101.777
 l 136.184 -101.594 l 136.242 -101.406 l 136.352 -101.031 l 136.57 -100.273
 l 137.012 -98.734 l 137.895 -95.559 l 139.656 -88.918 l 139.719 -88.691
 l 139.895 -88 l 140.137 -87.082 l 140.613 -85.234 l 141.57 -81.555 l 143.48
 -74.418 l 143.539 -74.219 l 143.594 -74.016 l 143.703 -73.617 l 143.93 
-72.832 l 144.375 -71.285 l 145.266 -68.344 l 145.324 -68.168 l 145.379 
-67.992 l 145.492 -67.645 l 145.715 -66.961 l 146.16 -65.637 l 147.055 -63.203
 l 147.105 -63.062 l 147.27 -62.652 l 147.488 -62.121 l 147.93 -61.117 l
 147.98 -60.996 l 148.145 -60.645 l 148.363 -60.195 l 148.805 -59.359 l 
148.855 -59.262 l 148.91 -59.164 l 149.02 -58.973 l 149.238 -58.609 l 149.297
 -58.523 l 149.352 -58.438 l 149.461 -58.27 l 149.68 -57.949 l 149.73 -57.875
 l 149.785 -57.797 l 149.898 -57.652 l 150.113 -57.383 l 150.172 -57.316
 l 150.227 -57.254 l 150.336 -57.133 l 150.555 -56.906 l 150.613 -56.852
 l 150.672 -56.793 l 150.789 -56.688 l 150.848 -56.637 l 150.91 -56.59 l
 151.027 -56.496 l 151.145 -56.41 l 151.266 -56.336 l 151.324 -56.297 l 
151.383 -56.262 l 151.504 -56.199 l 151.562 -56.168 l 151.68 -56.113 l 151.738
 -56.09 l 151.801 -56.066 l 151.918 -56.027 l 152.035 -55.996 l 152.098 
-55.98 l 152.156 -55.969 l 152.215 -55.961 l 152.273 -55.949 l 152.332 -55.941
 l 152.391 -55.938 l 152.453 -55.934 l 152.512 -55.93 l 152.57 -55.93 l 
152.688 -55.938 l 152.75 -55.941 l 152.809 -55.945 l 152.867 -55.957 l 152.926
 -55.965 l 152.984 -55.977 l 153.047 -55.988 l 153.164 -56.02 l 153.281 
-56.059 l 153.402 -56.102 l 153.461 -56.129 l 153.52 -56.152 l 153.641 -56.211
 l 153.758 -56.273 l 153.875 -56.344 l 153.934 -56.383 l 153.996 -56.422
 l 154.113 -56.504 l 154.352 -56.691 l 154.406 -56.734 l 154.461 -56.785
 l 154.57 -56.883 l 154.793 -57.102 l 154.848 -57.156 l 154.902 -57.215 
l 155.016 -57.336 l 155.238 -57.594 l 155.348 -57.727 l 155.457 -57.867 
l 155.68 -58.164 l 156.121 -58.812 l 156.18 -58.898 l 156.234 -58.984 l 
156.344 -59.16 l 156.566 -59.531 l 157.008 -60.316 l 157.895 -62.078 l 157.953
 -62.207 l 158.016 -62.336 l 158.133 -62.594 l 158.375 -63.129 l 158.855
 -64.238 l 159.816 -66.613 l 161.734 -71.855 l 165.324 -82.457 l 168.84 
-92.645 l 168.898 -92.812 l 168.961 -92.977 l 169.078 -93.305 l 169.316 
-93.957 l 169.793 -95.242 l 170.746 -97.746 l 172.652 -102.445 l 172.711
 -102.574 l 172.766 -102.707 l 172.879 -102.965 l 173.098 -103.477 l 173.543
 -104.488 l 174.434 -106.434 l 174.488 -106.551 l 174.547 -106.668 l 174.656
 -106.902 l 174.879 -107.367 l 175.324 -108.277 l 176.215 -110.027 l 176.273
 -110.145 l 176.336 -110.258 l 176.457 -110.484 l 176.695 -110.938 l 177.18
 -111.816 l 178.145 -113.492 l 178.203 -113.594 l 178.266 -113.691 l 178.387
 -113.895 l 178.625 -114.289 l 179.109 -115.062 l 180.074 -116.527 l 180.309
 -116.871 l 180.547 -117.211 l 181.02 -117.867 l 181.965 -119.121 l 182.027
 -119.195 l 182.203 -119.418 l 182.441 -119.715 l 182.914 -120.285 l 183.859
 -121.367 l 183.914 -121.426 l 183.973 -121.488 l 184.082 -121.605 l 184.301
 -121.844 l 184.742 -122.305 l 185.629 -123.18 l 185.684 -123.23 l 185.738
 -123.285 l 185.848 -123.391 l 186.07 -123.594 l 186.512 -123.992 l 187.395
 -124.754 l 187.453 -124.801 l 187.512 -124.852 l 187.633 -124.949 l 187.871
 -125.141 l 188.352 -125.512 l 189.309 -126.215 l 189.367 -126.258 l 189.43
 -126.297 l 189.551 -126.383 l 190.266 -126.863 l 191.227 -127.461 l 191.336
 -127.523 l 191.449 -127.59 l 191.672 -127.723 l 192.117 -127.973 l 193.012
 -128.449 l 193.07 -128.477 l 193.125 -128.508 l 193.238 -128.562 l 193.906
 -128.891 l 194.801 -129.297 l 195.238 -129.484 l 195.68 -129.664 l 196.555
 -130.008 l 196.773 -130.086 l 196.992 -130.168 l 197.43 -130.32 l 198.426
 -130.652 l 198.547 -130.688 l 198.785 -130.762 l 199.258 -130.906 l 200.211
 -131.172 l 200.328 -131.203 l 200.449 -131.234 l 200.688 -131.297 l 201.16
 -131.418 l 202.113 -131.645 l 202.223 -131.668 l 202.336 -131.691 l 202.555
 -131.742 l 203 -131.836 l 203.887 -132.016 l 203.941 -132.023 l 203.996
 -132.035 l 204.109 -132.059 l 204.332 -132.098 l 204.773 -132.18 l 205.66
 -132.332 l 205.723 -132.34 l 205.785 -132.352 l 205.91 -132.371 l 206.156
 -132.41 l 206.652 -132.484 l 207.645 -132.629 l 207.77 -132.645 l 207.891
 -132.66 l 208.141 -132.691 l 208.633 -132.758 l 208.695 -132.766 l 208.758
 -132.77 l 208.883 -132.785 l 209.129 -132.816 l 209.254 -132.832 l 209.379
 -132.844 l 209.438 -132.852 l 209.625 -132.875 l S Q
0.882353 0.611765 0.141176 rg
[ 3.456 3.456] 0 d
q 1 0 0 1 0 143 cm
29.215 -134.074 m 29.273 -134.074 l 29.328 -134.07 l 29.715 -134.07 l 29.77
 -134.066 l 30.102 -134.066 l 30.156 -134.062 l 30.324 -134.062 l 30.543
 -134.059 l 30.988 -134.055 l 31.043 -134.051 l 31.207 -134.051 l 31.43 
-134.047 l 31.484 -134.043 l 31.652 -134.043 l 31.871 -134.039 l 31.93 -134.035
 l 31.984 -134.035 l 32.094 -134.031 l 32.316 -134.027 l 32.758 -134.016
 l 32.816 -134.016 l 32.879 -134.012 l 32.996 -134.008 l 33.238 -134 l 33.297
 -134 l 33.359 -133.996 l 33.477 -133.992 l 33.719 -133.984 l 33.777 -133.98
 l 33.836 -133.98 l 33.957 -133.977 l 34.195 -133.965 l 34.676 -133.941 
l 34.738 -133.941 l 34.797 -133.938 l 34.918 -133.93 l 35.156 -133.918 l
 35.219 -133.914 l 35.277 -133.91 l 35.398 -133.902 l 35.637 -133.891 l 
35.695 -133.887 l 35.758 -133.883 l 35.879 -133.875 l 36.117 -133.855 l 
36.598 -133.82 l 36.652 -133.816 l 36.711 -133.812 l 36.82 -133.801 l 37.043
 -133.781 l 37.492 -133.742 l 37.547 -133.734 l 37.605 -133.73 l 37.719 
-133.719 l 37.941 -133.695 l 38.391 -133.645 l 38.445 -133.637 l 38.5 -133.633
 l 38.613 -133.617 l 38.836 -133.59 l 39.285 -133.527 l 40.18 -133.395 l
 40.234 -133.383 l 40.289 -133.375 l 40.402 -133.355 l 41.059 -133.238 l
 41.168 -133.215 l 41.281 -133.195 l 41.5 -133.152 l 42.156 -133.012 l 42.379
 -132.961 l 42.816 -132.855 l 43.695 -132.629 l 43.754 -132.613 l 43.816
 -132.598 l 43.934 -132.566 l 44.648 -132.355 l 45.602 -132.055 l 45.66 
-132.035 l 45.723 -132.016 l 45.84 -131.977 l 46.078 -131.895 l 46.555 -131.727
 l 47.508 -131.371 l 47.562 -131.348 l 47.617 -131.328 l 47.73 -131.281 
l 47.953 -131.195 l 48.398 -131.016 l 49.285 -130.645 l 51.066 -129.848 
l 54.922 -127.992 l 58.707 -126.156 l 62.238 -124.578 l 62.297 -124.555 
l 62.355 -124.527 l 62.477 -124.48 l 62.715 -124.379 l 63.195 -124.184 l
 64.152 -123.805 l 66.066 -123.098 l 66.121 -123.078 l 66.18 -123.055 l 
66.289 -123.016 l 66.512 -122.941 l 66.961 -122.785 l 67.852 -122.492 l 
69.641 -121.945 l 70.078 -121.82 l 70.516 -121.699 l 71.395 -121.461 l 73.145
 -121.023 l 73.203 -121.012 l 73.266 -120.996 l 73.383 -120.969 l 73.621
 -120.914 l 74.094 -120.805 l 75.047 -120.598 l 76.945 -120.215 l 77.004
 -120.203 l 77.059 -120.191 l 77.168 -120.172 l 77.391 -120.129 l 77.836
 -120.047 l 78.719 -119.891 l 80.492 -119.594 l 84.34 -119.027 l 88.113 
-118.535 l 91.637 -118.094 l 95.453 -117.613 l 99.02 -117.129 l 102.879 
-116.531 l 102.938 -116.52 l 102.996 -116.512 l 103.117 -116.492 l 103.355
 -116.453 l 103.828 -116.367 l 104.777 -116.199 l 106.672 -115.84 l 106.781
 -115.816 l 106.895 -115.793 l 107.113 -115.75 l 107.555 -115.656 l 108.441
 -115.469 l 110.211 -115.059 l 110.27 -115.043 l 110.328 -115.031 l 110.449
 -115 l 110.688 -114.941 l 111.168 -114.82 l 112.125 -114.566 l 114.043 
-114.016 l 114.102 -114 l 114.156 -113.98 l 114.27 -113.949 l 114.492 -113.879
 l 114.938 -113.734 l 115.836 -113.441 l 115.945 -113.402 l 116.059 -113.363
 l 116.281 -113.285 l 116.73 -113.125 l 117.625 -112.793 l 117.68 -112.773
 l 117.734 -112.75 l 117.844 -112.711 l 118.062 -112.621 l 118.504 -112.449
 l 119.379 -112.082 l 119.488 -112.035 l 119.598 -111.984 l 119.82 -111.891
 l 120.258 -111.691 l 121.137 -111.281 l 121.195 -111.25 l 121.254 -111.223
 l 121.371 -111.164 l 121.609 -111.043 l 122.086 -110.805 l 123.039 -110.293
 l 123.098 -110.262 l 123.156 -110.227 l 123.277 -110.16 l 123.516 -110.023
 l 123.992 -109.746 l 124.941 -109.164 l 125 -109.129 l 125.055 -109.094
 l 125.164 -109.02 l 125.387 -108.875 l 125.832 -108.582 l 126.719 -107.957
 l 126.777 -107.918 l 126.832 -107.875 l 126.941 -107.793 l 127.164 -107.629
 l 127.609 -107.293 l 128.496 -106.582 l 128.559 -106.531 l 128.617 -106.48
 l 128.98 -106.176 l 129.461 -105.754 l 130.422 -104.863 l 130.484 -104.809
 l 130.543 -104.75 l 130.664 -104.633 l 130.906 -104.395 l 131.387 -103.906
 l 132.348 -102.879 l 132.406 -102.812 l 132.469 -102.746 l 132.586 -102.613
 l 132.82 -102.344 l 133.293 -101.789 l 134.238 -100.617 l 134.301 -100.543
 l 134.359 -100.465 l 134.477 -100.312 l 134.711 -100 l 135.184 -99.359 
l 136.129 -98.012 l 136.184 -97.93 l 136.242 -97.848 l 136.352 -97.68 l 
136.57 -97.348 l 137.012 -96.66 l 137.895 -95.227 l 139.656 -92.07 l 139.719
 -91.957 l 139.777 -91.844 l 139.895 -91.613 l 140.137 -91.148 l 140.613
 -90.199 l 141.57 -88.219 l 143.48 -83.938 l 147.055 -75.137 l 147.105 -75
 l 147.16 -74.859 l 147.27 -74.586 l 147.488 -74.035 l 147.93 -72.938 l 
148.805 -70.777 l 148.855 -70.645 l 149.02 -70.246 l 149.238 -69.723 l 149.68
 -68.691 l 150.555 -66.727 l 150.613 -66.602 l 150.672 -66.473 l 150.789
 -66.223 l 151.027 -65.727 l 151.504 -64.781 l 151.562 -64.664 l 151.621
 -64.555 l 151.738 -64.332 l 151.977 -63.895 l 152.453 -63.082 l 152.57 
-62.887 l 152.688 -62.699 l 152.926 -62.34 l 152.984 -62.254 l 153.047 -62.168
 l 153.164 -62 l 153.402 -61.684 l 153.461 -61.605 l 153.52 -61.531 l 153.641
 -61.387 l 153.875 -61.113 l 153.934 -61.051 l 153.996 -60.988 l 154.113
 -60.863 l 154.352 -60.641 l 154.406 -60.59 l 154.461 -60.543 l 154.57 -60.453
 l 154.629 -60.41 l 154.684 -60.367 l 154.793 -60.285 l 154.902 -60.215 
l 155.016 -60.145 l 155.125 -60.082 l 155.238 -60.023 l 155.293 -60 l 155.348
 -59.973 l 155.402 -59.953 l 155.457 -59.93 l 155.516 -59.906 l 155.57 -59.891
 l 155.625 -59.871 l 155.68 -59.855 l 155.734 -59.844 l 155.789 -59.828 
l 155.848 -59.816 l 156.012 -59.793 l 156.121 -59.785 l 156.18 -59.781 l
 156.289 -59.781 l 156.453 -59.793 l 156.512 -59.801 l 156.566 -59.809 l
 156.73 -59.844 l 156.785 -59.859 l 156.844 -59.875 l 157.008 -59.934 l 
157.117 -59.98 l 157.23 -60.031 l 157.449 -60.156 l 157.508 -60.191 l 157.562
 -60.23 l 157.672 -60.305 l 157.895 -60.48 l 157.953 -60.531 l 158.016 -60.586
 l 158.133 -60.695 l 158.375 -60.941 l 158.434 -61.008 l 158.496 -61.074
 l 158.613 -61.215 l 158.855 -61.516 l 158.914 -61.594 l 158.977 -61.676
 l 159.094 -61.844 l 159.336 -62.199 l 159.816 -62.988 l 159.934 -63.199
 l 160.055 -63.418 l 160.297 -63.879 l 160.773 -64.863 l 161.734 -67.094
 l 161.793 -67.234 l 161.848 -67.375 l 161.961 -67.66 l 162.184 -68.242 
l 162.633 -69.449 l 163.527 -72.02 l 165.324 -77.605 l 168.84 -89.086 l 
168.898 -89.277 l 168.961 -89.469 l 169.078 -89.848 l 169.316 -90.605 l 
169.793 -92.102 l 170.746 -95.02 l 172.652 -100.484 l 172.711 -100.637 l
 172.766 -100.785 l 172.879 -101.086 l 173.098 -101.68 l 173.543 -102.848
 l 174.434 -105.082 l 174.488 -105.219 l 174.547 -105.352 l 174.656 -105.621
 l 174.879 -106.152 l 175.324 -107.191 l 176.215 -109.172 l 176.273 -109.301
 l 176.336 -109.434 l 176.457 -109.688 l 176.695 -110.195 l 177.18 -111.18
 l 178.145 -113.043 l 178.203 -113.156 l 178.266 -113.27 l 178.387 -113.488
 l 178.625 -113.926 l 179.109 -114.773 l 180.074 -116.371 l 180.133 -116.469
 l 180.191 -116.562 l 180.309 -116.746 l 180.547 -117.113 l 181.02 -117.824
 l 181.965 -119.164 l 182.027 -119.242 l 182.086 -119.324 l 182.203 -119.48
 l 182.441 -119.793 l 182.914 -120.398 l 183.859 -121.535 l 183.914 -121.598
 l 183.973 -121.66 l 184.082 -121.789 l 184.301 -122.035 l 184.742 -122.516
 l 185.629 -123.418 l 185.684 -123.477 l 185.738 -123.527 l 185.848 -123.637
 l 186.07 -123.848 l 186.512 -124.258 l 187.395 -125.031 l 187.453 -125.082
 l 187.512 -125.129 l 187.633 -125.23 l 187.871 -125.422 l 188.352 -125.801
 l 189.309 -126.508 l 189.367 -126.551 l 189.43 -126.594 l 189.551 -126.676
 l 189.789 -126.84 l 190.266 -127.156 l 191.227 -127.75 l 191.336 -127.812
 l 191.449 -127.879 l 191.672 -128.008 l 192.117 -128.258 l 193.012 -128.727
 l 193.07 -128.754 l 193.125 -128.781 l 193.238 -128.836 l 193.461 -128.945
 l 193.906 -129.156 l 194.801 -129.555 l 194.855 -129.578 l 194.91 -129.598
 l 195.02 -129.645 l 195.238 -129.734 l 195.68 -129.91 l 196.555 -130.242
 l 196.773 -130.32 l 197.43 -130.543 l 198.309 -130.824 l 198.426 -130.863
 l 198.547 -130.898 l 198.785 -130.969 l 199.258 -131.105 l 200.211 -131.359
 l 200.328 -131.391 l 200.449 -131.418 l 200.688 -131.48 l 201.16 -131.594
 l 202.113 -131.809 l 202.223 -131.832 l 202.336 -131.855 l 202.555 -131.902
 l 203 -131.988 l 203.887 -132.16 l 203.941 -132.168 l 203.996 -132.18 l
 204.109 -132.199 l 204.332 -132.238 l 204.773 -132.312 l 205.66 -132.457
 l 205.723 -132.465 l 205.785 -132.477 l 205.91 -132.492 l 206.156 -132.531
 l 206.652 -132.602 l 207.645 -132.734 l 207.77 -132.75 l 207.891 -132.766
 l 208.141 -132.797 l 208.633 -132.855 l 208.695 -132.863 l 208.758 -132.867
 l 208.883 -132.883 l 209.129 -132.91 l 209.254 -132.926 l 209.379 -132.938
 l 209.438 -132.945 l 209.562 -132.961 l 209.625 -132.965 l S Q
  Q
Q
0 g
0.072 w
0 J
0 j
[] 0.0 d
3.25 M q 1 0 0 1 0 143 cm
29.215 -134.09 m 29.215 -131.836 l S Q
Q q
21.699 8.699 15.102 -8.699 re W n
q
21 9 16 -9 re W n
  q
0 g
22.762 4.312 m 22.762 5.043 22.84 5.629 22.988 6.078 c 23.141 6.527 23.363
 6.871 23.66 7.109 c 23.961 7.348 24.332 7.469 24.777 7.469 c 25.113 7.469
 25.402 7.402 25.652 7.266 c 25.902 7.129 26.113 6.938 26.277 6.688 c 26.445
 6.438 26.578 6.133 26.668 5.773 c 26.762 5.414 26.809 4.926 26.809 4.312
 c 26.809 3.582 26.734 2.996 26.586 2.547 c 26.434 2.098 26.211 1.754 25.91
 1.508 c 25.613 1.262 25.238 1.141 24.777 1.141 c 24.184 1.141 23.715 1.355
 23.371 1.781 c 22.965 2.301 22.762 3.145 22.762 4.312 c h
23.543 4.312 m 23.543 3.293 23.664 2.613 23.902 2.273 c 24.145 1.934 24.434
 1.766 24.777 1.766 c 25.133 1.766 25.43 1.934 25.668 2.273 c 25.91 2.613
 26.027 3.293 26.027 4.312 c 26.027 5.332 25.91 6.012 25.668 6.344 c 25.43
 6.676 25.133 6.844 24.777 6.844 c 24.426 6.844 24.145 6.691 23.934 6.391
 c 23.676 6.016 23.543 5.324 23.543 4.312 c f*
26.793 2.109 0.875 -0.859 re f*
28.168 4.312 m 28.168 5.043 28.246 5.629 28.395 6.078 c 28.547 6.527 28.77
 6.871 29.066 7.109 c 29.363 7.348 29.738 7.469 30.184 7.469 c 30.52 7.469
 30.809 7.402 31.059 7.266 c 31.309 7.129 31.52 6.938 31.684 6.688 c 31.852
 6.438 31.98 6.133 32.078 5.773 c 32.168 5.414 32.215 4.926 32.215 4.312
 c 32.215 3.582 32.141 2.996 31.988 2.547 c 31.84 2.098 31.613 1.754 31.316
 1.508 c 31.02 1.262 30.645 1.141 30.184 1.141 c 29.59 1.141 29.121 1.355
 28.777 1.781 c 28.371 2.301 28.168 3.145 28.168 4.312 c h
28.953 4.312 m 28.953 3.293 29.07 2.613 29.309 2.273 c 29.551 1.934 29.84
 1.766 30.184 1.766 c 30.539 1.766 30.836 1.934 31.078 2.273 c 31.316 2.613
 31.434 3.293 31.434 4.312 c 31.434 5.332 31.316 6.012 31.078 6.344 c 30.836
 6.676 30.539 6.844 30.184 6.844 c 29.832 6.844 29.551 6.691 29.34 6.391
 c 29.082 6.016 28.953 5.324 28.953 4.312 c f*
34.637 1.25 m 33.887 1.25 l 33.887 6.094 l 33.699 5.926 33.457 5.754 33.16
 5.578 c 32.863 5.402 32.598 5.27 32.355 5.188 c 32.355 5.922 l 32.785 6.121
 33.156 6.359 33.473 6.641 c 33.789 6.922 34.02 7.199 34.152 7.469 c 34.637
 7.469 l 34.637 1.25 l f*
  Q
Q
Q q
0 g
0.072 w
0 J
0 j
[] 0.0 d
3.25 M q 1 0 0 1 0 143 cm
77.988 -134.09 m 77.988 -131.836 l S Q
Q q
69.699 8.699 16.102 -8.699 re W n
q
69 9 17 -9 re W n
  q
0 g
71.535 4.312 m 71.535 5.043 71.613 5.629 71.762 6.078 c 71.914 6.527 72.137
 6.871 72.434 7.109 c 72.73 7.348 73.105 7.469 73.551 7.469 c 73.887 7.469
 74.176 7.402 74.426 7.266 c 74.676 7.129 74.887 6.938 75.051 6.688 c 75.219
 6.438 75.348 6.133 75.441 5.773 c 75.535 5.414 75.582 4.926 75.582 4.312
 c 75.582 3.582 75.508 2.996 75.355 2.547 c 75.207 2.098 74.98 1.754 74.684
 1.508 c 74.387 1.262 74.012 1.141 73.551 1.141 c 72.957 1.141 72.488 1.355
 72.145 1.781 c 71.738 2.301 71.535 3.145 71.535 4.312 c h
72.316 4.312 m 72.316 3.293 72.438 2.613 72.676 2.273 c 72.918 1.934 73.207
 1.766 73.551 1.766 c 73.906 1.766 74.203 1.934 74.441 2.273 c 74.684 2.613
 74.801 3.293 74.801 4.312 c 74.801 5.332 74.684 6.012 74.441 6.344 c 74.203
 6.676 73.906 6.844 73.551 6.844 c 73.199 6.844 72.918 6.691 72.707 6.391
 c 72.449 6.016 72.316 5.324 72.316 4.312 c f*
75.566 2.109 0.875 -0.859 re f*
79.801 1.25 m 79.051 1.25 l 79.051 6.094 l 78.863 5.926 78.621 5.754 78.324
 5.578 c 78.027 5.402 77.762 5.27 77.52 5.188 c 77.52 5.922 l 77.949 6.121
 78.32 6.359 78.637 6.641 c 78.957 6.922 79.184 7.199 79.316 7.469 c 79.801
 7.469 l 79.801 1.25 l f*
80.551 4.312 m 80.551 5.043 80.629 5.629 80.777 6.078 c 80.93 6.527 81.152
 6.871 81.449 7.109 c 81.746 7.348 82.117 7.469 82.566 7.469 c 82.898 7.469
 83.191 7.402 83.441 7.266 c 83.691 7.129 83.898 6.938 84.066 6.688 c 84.234
 6.438 84.363 6.133 84.457 5.773 c 84.551 5.414 84.598 4.926 84.598 4.312
 c 84.598 3.582 84.523 2.996 84.371 2.547 c 84.223 2.098 83.996 1.754 83.699
 1.508 c 83.402 1.262 83.023 1.141 82.566 1.141 c 81.973 1.141 81.504 1.355
 81.16 1.781 c 80.754 2.301 80.551 3.145 80.551 4.312 c h
81.332 4.312 m 81.332 3.293 81.453 2.613 81.691 2.273 c 81.934 1.934 82.223
 1.766 82.566 1.766 c 82.922 1.766 83.219 1.934 83.457 2.273 c 83.695 2.613
 83.816 3.293 83.816 4.312 c 83.816 5.332 83.695 6.012 83.457 6.344 c 83.219
 6.676 82.922 6.844 82.566 6.844 c 82.215 6.844 81.934 6.691 81.723 6.391
 c 81.465 6.016 81.332 5.324 81.332 4.312 c f*
  Q
Q
Q q
0 g
0.072 w
0 J
0 j
[] 0.0 d
3.25 M q 1 0 0 1 0 143 cm
126.762 -134.09 m 126.762 -131.836 l S Q
Q q
123.699 8.699 6.102 -8.699 re W n
q
123 9 7 -9 re W n
  q
0 g
127.676 1.25 m 126.926 1.25 l 126.926 6.094 l 126.738 5.926 126.496 5.754
 126.199 5.578 c 125.902 5.402 125.633 5.27 125.395 5.188 c 125.395 5.922
 l 125.82 6.121 126.195 6.359 126.512 6.641 c 126.828 6.922 127.055 7.199
 127.191 7.469 c 127.676 7.469 l 127.676 1.25 l f*
  Q
Q
Q q
0 g
0.072 w
0 J
0 j
[] 0.0 d
3.25 M q 1 0 0 1 0 143 cm
175.535 -134.09 m 175.535 -131.836 l S Q
Q q
170.699 8.699 10.102 -8.699 re W n
q
170 9 11 -9 re W n
  q
0 g
174.645 1.25 m 173.895 1.25 l 173.895 6.094 l 173.707 5.926 173.465 5.754
 173.168 5.578 c 172.871 5.402 172.602 5.27 172.363 5.188 c 172.363 5.922
 l 172.789 6.121 173.16 6.359 173.48 6.641 c 173.797 6.922 174.023 7.199
 174.16 7.469 c 174.645 7.469 l 174.645 1.25 l f*
175.395 4.312 m 175.395 5.043 175.469 5.629 175.621 6.078 c 175.77 6.527
 175.996 6.871 176.293 7.109 c 176.59 7.348 176.961 7.469 177.41 7.469 c
 177.742 7.469 178.035 7.402 178.285 7.266 c 178.535 7.129 178.742 6.938
 178.91 6.688 c 179.074 6.438 179.207 6.133 179.301 5.773 c 179.395 5.414
 179.441 4.926 179.441 4.312 c 179.441 3.582 179.363 2.996 179.215 2.547
 c 179.062 2.098 178.84 1.754 178.543 1.508 c 178.246 1.262 177.867 1.141
 177.41 1.141 c 176.816 1.141 176.348 1.355 176.004 1.781 c 175.598 2.301
 175.395 3.145 175.395 4.312 c h
176.176 4.312 m 176.176 3.293 176.293 2.613 176.535 2.273 c 176.773 1.934
 177.066 1.766 177.41 1.766 c 177.762 1.766 178.059 1.934 178.301 2.273 
c 178.539 2.613 178.66 3.293 178.66 4.312 c 178.66 5.332 178.539 6.012 178.301
 6.344 c 178.059 6.676 177.762 6.844 177.41 6.844 c 177.055 6.844 176.773
 6.691 176.566 6.391 c 176.305 6.016 176.176 5.324 176.176 4.312 c f*
  Q
Q
Q q
0 g
0.072 w
0 J
0 j
[] 0.0 d
3.25 M q 1 0 0 1 0 143 cm
224.309 -134.09 m 224.309 -131.836 l S Q
Q q
217.699 8.699 14.102 -8.699 re W n
q
217 9 15 -9 re W n
  q
0 g
221.613 1.25 m 220.863 1.25 l 220.863 6.094 l 220.676 5.926 220.434 5.754
 220.137 5.578 c 219.84 5.402 219.57 5.27 219.332 5.188 c 219.332 5.922 
l 219.758 6.121 220.129 6.359 220.449 6.641 c 220.766 6.922 220.992 7.199
 221.129 7.469 c 221.613 7.469 l 221.613 1.25 l f*
222.359 4.312 m 222.359 5.043 222.438 5.629 222.59 6.078 c 222.738 6.527
 222.965 6.871 223.262 7.109 c 223.559 7.348 223.93 7.469 224.379 7.469 
c 224.711 7.469 225.004 7.402 225.254 7.266 c 225.504 7.129 225.711 6.938
 225.879 6.688 c 226.043 6.438 226.176 6.133 226.27 5.773 c 226.359 5.414
 226.406 4.926 226.406 4.312 c 226.406 3.582 226.332 2.996 226.184 2.547
 c 226.031 2.098 225.809 1.754 225.512 1.508 c 225.215 1.262 224.836 1.141
 224.379 1.141 c 223.781 1.141 223.312 1.355 222.973 1.781 c 222.562 2.301
 222.359 3.145 222.359 4.312 c h
223.145 4.312 m 223.145 3.293 223.262 2.613 223.504 2.273 c 223.742 1.934
 224.031 1.766 224.379 1.766 c 224.73 1.766 225.027 1.934 225.27 2.273 c
 225.508 2.613 225.629 3.293 225.629 4.312 c 225.629 5.332 225.508 6.012
 225.27 6.344 c 225.027 6.676 224.73 6.844 224.379 6.844 c 224.023 6.844
 223.742 6.691 223.531 6.391 c 223.273 6.016 223.145 5.324 223.145 4.312
 c f*
225.969 4.312 m 225.969 5.043 226.047 5.629 226.195 6.078 c 226.348 6.527
 226.57 6.871 226.867 7.109 c 227.164 7.348 227.539 7.469 227.984 7.469 
c 228.32 7.469 228.609 7.402 228.859 7.266 c 229.109 7.129 229.32 6.938 
229.484 6.688 c 229.652 6.438 229.781 6.133 229.879 5.773 c 229.969 5.414
 230.016 4.926 230.016 4.312 c 230.016 3.582 229.941 2.996 229.789 2.547
 c 229.641 2.098 229.414 1.754 229.117 1.508 c 228.82 1.262 228.445 1.141
 227.984 1.141 c 227.391 1.141 226.922 1.355 226.578 1.781 c 226.172 2.301
 225.969 3.145 225.969 4.312 c h
226.754 4.312 m 226.754 3.293 226.871 2.613 227.109 2.273 c 227.352 1.934
 227.641 1.766 227.984 1.766 c 228.34 1.766 228.637 1.934 228.879 2.273 
c 229.117 2.613 229.234 3.293 229.234 4.312 c 229.234 5.332 229.117 6.012
 228.879 6.344 c 228.637 6.676 228.34 6.844 227.984 6.844 c 227.633 6.844
 227.352 6.691 227.141 6.391 c 226.883 6.016 226.754 5.324 226.754 4.312
 c f*
  Q
Q
Q q
0 g
0.072 w
0 J
0 j
[] 0.0 d
3.25 M q 1 0 0 1 0 143 cm
9.809 -134.09 m 9.809 -132.965 l S Q
q 1 0 0 1 0 143 cm
14.535 -134.09 m 14.535 -132.965 l S Q
q 1 0 0 1 0 143 cm
18.395 -134.09 m 18.395 -132.965 l S Q
q 1 0 0 1 0 143 cm
21.66 -134.09 m 21.66 -132.965 l S Q
q 1 0 0 1 0 143 cm
24.488 -134.09 m 24.488 -132.965 l S Q
q 1 0 0 1 0 143 cm
26.984 -134.09 m 26.984 -132.965 l S Q
q 1 0 0 1 0 143 cm
43.898 -134.09 m 43.898 -132.965 l S Q
q 1 0 0 1 0 143 cm
52.488 -134.09 m 52.488 -132.965 l S Q
q 1 0 0 1 0 143 cm
58.582 -134.09 m 58.582 -132.965 l S Q
q 1 0 0 1 0 143 cm
63.309 -134.09 m 63.309 -132.965 l S Q
q 1 0 0 1 0 143 cm
67.168 -134.09 m 67.168 -132.965 l S Q
q 1 0 0 1 0 143 cm
70.434 -134.09 m 70.434 -132.965 l S Q
q 1 0 0 1 0 143 cm
73.262 -134.09 m 73.262 -132.965 l S Q
q 1 0 0 1 0 143 cm
75.758 -134.09 m 75.758 -132.965 l S Q
q 1 0 0 1 0 143 cm
92.672 -134.09 m 92.672 -132.965 l S Q
q 1 0 0 1 0 143 cm
101.262 -134.09 m 101.262 -132.965 l S Q
q 1 0 0 1 0 143 cm
107.352 -134.09 m 107.352 -132.965 l S Q
q 1 0 0 1 0 143 cm
112.078 -134.09 m 112.078 -132.965 l S Q
q 1 0 0 1 0 143 cm
115.941 -134.09 m 115.941 -132.965 l S Q
q 1 0 0 1 0 143 cm
119.207 -134.09 m 119.207 -132.965 l S Q
q 1 0 0 1 0 143 cm
122.035 -134.09 m 122.035 -132.965 l S Q
q 1 0 0 1 0 143 cm
124.531 -134.09 m 124.531 -132.965 l S Q
q 1 0 0 1 0 143 cm
141.445 -134.09 m 141.445 -132.965 l S Q
q 1 0 0 1 0 143 cm
150.031 -134.09 m 150.031 -132.965 l S Q
q 1 0 0 1 0 143 cm
156.125 -134.09 m 156.125 -132.965 l S Q
q 1 0 0 1 0 143 cm
160.852 -134.09 m 160.852 -132.965 l S Q
q 1 0 0 1 0 143 cm
164.715 -134.09 m 164.715 -132.965 l S Q
q 1 0 0 1 0 143 cm
167.98 -134.09 m 167.98 -132.965 l S Q
q 1 0 0 1 0 143 cm
170.809 -134.09 m 170.809 -132.965 l S Q
q 1 0 0 1 0 143 cm
173.305 -134.09 m 173.305 -132.965 l S Q
q 1 0 0 1 0 143 cm
190.219 -134.09 m 190.219 -132.965 l S Q
q 1 0 0 1 0 143 cm
198.805 -134.09 m 198.805 -132.965 l S Q
q 1 0 0 1 0 143 cm
204.898 -134.09 m 204.898 -132.965 l S Q
q 1 0 0 1 0 143 cm
209.625 -134.09 m 209.625 -132.965 l S Q
q 1 0 0 1 0 143 cm
213.488 -134.09 m 213.488 -132.965 l S Q
q 1 0 0 1 0 143 cm
216.754 -134.09 m 216.754 -132.965 l S Q
q 1 0 0 1 0 143 cm
219.582 -134.09 m 219.582 -132.965 l S Q
q 1 0 0 1 0 143 cm
222.074 -134.09 m 222.074 -132.965 l S Q
0.36 w
q 1 0 0 1 0 143 cm
6.664 -134.09 m 232.176 -134.09 l S Q
Q q
236.699 14.699 15.301 -11.098 re W n
q
236 15 16 -12 re W n
  q
0 g
239.688 7.59 m 239.688 13.059 l 237.641 13.059 l 237.641 13.793 l 242.547
 13.793 l 242.547 13.059 l 240.496 13.059 l 240.496 7.59 l 239.688 7.59 
l f*
245.777 5.777 m 245.246 5.777 l 245.02 6.059 244.812 6.359 244.621 6.684
 c 244.438 7.008 244.277 7.34 244.148 7.684 c 244.016 8.027 243.914 8.379
 243.844 8.738 c 243.77 9.098 243.734 9.461 243.734 9.824 c 243.734 10.199
 243.77 10.566 243.844 10.926 c 243.914 11.285 244.02 11.637 244.156 11.98
 c 244.289 12.324 244.449 12.656 244.633 12.973 c 244.812 13.289 245.02 
13.594 245.246 13.887 c 245.777 13.887 l 245.582 13.562 245.406 13.242 245.246
 12.926 c 245.094 12.609 244.961 12.285 244.852 11.957 c 244.738 11.629 
244.66 11.289 244.609 10.941 c 244.555 10.594 244.527 10.227 244.527 9.84
 c 244.527 9.477 244.559 9.117 244.613 8.762 c 244.672 8.406 244.758 8.059
 244.863 7.715 c 244.977 7.371 245.109 7.039 245.266 6.715 c 245.422 6.391
 245.594 6.082 245.777 5.777 c f*
245.953 7.59 m 245.953 13.793 l 246.703 13.793 l 246.703 10.246 l 248.516
 12.074 l 249.5 12.074 l 247.781 10.418 l 249.672 7.59 l 248.734 7.59 l 
247.25 9.887 l 246.703 9.371 l 246.703 7.59 l 245.953 7.59 l f*
250.984 9.824 m 250.984 9.461 250.945 9.098 250.875 8.738 c 250.801 8.379
 250.699 8.027 250.57 7.684 c 250.438 7.34 250.281 7.008 250.094 6.691 c
 249.906 6.375 249.703 6.07 249.484 5.777 c 248.938 5.777 l 249.133 6.102
 249.312 6.422 249.469 6.738 c 249.625 7.055 249.758 7.379 249.867 7.707
 c 249.977 8.035 250.059 8.375 250.117 8.723 c 250.172 9.07 250.203 9.438
 250.203 9.824 c 250.203 10.18 250.172 10.535 250.109 10.895 c 250.047 11.254
 249.961 11.602 249.852 11.941 c 249.742 12.281 249.609 12.613 249.453 12.941
 c 249.297 13.27 249.125 13.586 248.938 13.887 c 249.484 13.887 l 249.715
 13.605 249.918 13.305 250.102 12.98 c 250.281 12.656 250.438 12.324 250.57
 11.98 c 250.699 11.637 250.801 11.285 250.875 10.926 c 250.945 10.566 250.984
 10.199 250.984 9.824 c f*
  Q
Q
Q q
0 g
0.36 w
0 J
0 j
[] 0.0 d
3.25 M q 1 0 0 1 0 143 cm
11.176 -134.09 m 13.574 -134.09 l S Q
q 1 0 0 1 0 143 cm
11.176 -128.453 m 12.613 -128.453 l S Q
q 1 0 0 1 0 143 cm
11.176 -122.816 m 12.613 -122.816 l S Q
q 1 0 0 1 0 143 cm
11.176 -117.176 m 12.613 -117.176 l S Q
q 1 0 0 1 0 143 cm
11.176 -111.539 m 12.613 -111.539 l S Q
q 1 0 0 1 0 143 cm
11.176 -105.902 m 13.574 -105.902 l S Q
Q q
0 41.699 10.801 -9.098 re W n
q
0 42 11 -10 re W n
  q
0 g
-0.141 38.035 m -0.141 38.766 -0.066 39.352 0.086 39.801 c 0.238 40.25 
0.461 40.594 0.758 40.832 c 1.055 41.07 1.426 41.191 1.875 41.191 c 2.207
 41.191 2.5 41.125 2.75 40.988 c 3 40.852 3.207 40.66 3.375 40.41 c 3.543
 40.16 3.672 39.855 3.766 39.496 c 3.859 39.137 3.906 38.648 3.906 38.035
 c 3.906 37.305 3.832 36.719 3.68 36.27 c 3.527 35.82 3.305 35.477 3.008
 35.23 c 2.711 34.984 2.332 34.863 1.875 34.863 c 1.281 34.863 0.812 35.078
 0.469 35.504 c 0.062 36.023 -0.141 36.867 -0.141 38.035 c h
0.641 38.035 m 0.641 37.016 0.762 36.336 1 35.996 c 1.238 35.656 1.531 
35.488 1.875 35.488 c 2.23 35.488 2.527 35.656 2.766 35.996 c 3.004 36.336
 3.125 37.016 3.125 38.035 c 3.125 39.055 3.004 39.734 2.766 40.066 c 2.527
 40.398 2.23 40.566 1.875 40.566 c 1.52 40.566 1.238 40.414 1.031 40.113
 c 0.77 39.738 0.641 39.047 0.641 38.035 c f*
3.891 35.832 0.875 -0.859 re f*
8.125 34.973 m 7.375 34.973 l 7.375 39.816 l 7.188 39.648 6.945 39.477 
6.648 39.301 c 6.352 39.125 6.082 38.992 5.844 38.91 c 5.844 39.645 l 6.27
 39.844 6.645 40.082 6.961 40.363 c 7.277 40.645 7.504 40.922 7.641 41.191
 c 8.125 41.191 l 8.125 34.973 l f*
  Q
Q
Q q
0 g
0.36 w
0 J
0 j
[] 0.0 d
3.25 M q 1 0 0 1 0 143 cm
11.176 -100.266 m 12.613 -100.266 l S Q
q 1 0 0 1 0 143 cm
11.176 -94.625 m 12.613 -94.625 l S Q
q 1 0 0 1 0 143 cm
11.176 -88.988 m 12.613 -88.988 l S Q
q 1 0 0 1 0 143 cm
11.176 -83.352 m 12.613 -83.352 l S Q
q 1 0 0 1 0 143 cm
11.176 -77.715 m 13.574 -77.715 l S Q
Q q
0 70.699 10.801 -10.098 re W n
q
0 71 11 -11 re W n
  q
0 g
-0.141 66.223 m -0.141 66.953 -0.066 67.543 0.086 67.988 c 0.238 68.438
 0.461 68.781 0.758 69.02 c 1.055 69.262 1.426 69.383 1.875 69.383 c 2.207
 69.383 2.5 69.312 2.75 69.18 c 3 69.043 3.207 68.852 3.375 68.602 c 3.543
 68.352 3.672 68.043 3.766 67.684 c 3.859 67.328 3.906 66.84 3.906 66.223
 c 3.906 65.496 3.832 64.906 3.68 64.461 c 3.527 64.012 3.305 63.664 3.008
 63.418 c 2.711 63.176 2.332 63.055 1.875 63.055 c 1.281 63.055 0.812 63.266
 0.469 63.691 c 0.062 64.215 -0.141 65.059 -0.141 66.223 c h
0.641 66.223 m 0.641 65.203 0.762 64.523 1 64.184 c 1.238 63.848 1.531 
63.68 1.875 63.68 c 2.23 63.68 2.527 63.848 2.766 64.184 c 3.004 64.523 
3.125 65.203 3.125 66.223 c 3.125 67.246 3.004 67.922 2.766 68.258 c 2.527
 68.59 2.23 68.758 1.875 68.758 c 1.52 68.758 1.238 68.605 1.031 68.305 
c 0.77 67.93 0.641 67.234 0.641 66.223 c f*
3.891 64.02 0.875 -0.859 re f*
9.266 63.895 m 9.266 63.16 l 5.172 63.16 l 5.16 63.352 5.188 63.527 5.25
 63.691 c 5.355 63.973 5.523 64.25 5.758 64.52 c 5.992 64.793 6.324 65.105
 6.75 65.461 c 7.426 66.012 7.883 66.449 8.117 66.77 c 8.352 67.094 8.469
 67.395 8.469 67.68 c 8.469 67.98 8.363 68.234 8.148 68.441 c 7.934 68.652
 7.656 68.758 7.312 68.758 c 6.938 68.758 6.641 68.645 6.422 68.43 c 6.203
 68.211 6.094 67.902 6.094 67.508 c 5.312 67.586 l 5.363 68.168 5.566 68.613
 5.914 68.918 c 6.262 69.227 6.734 69.383 7.328 69.383 c 7.922 69.383 8.391
 69.219 8.734 68.891 c 9.078 68.559 9.25 68.152 9.25 67.66 c 9.25 67.41 
9.199 67.168 9.102 66.93 c 9 66.688 8.836 66.434 8.602 66.168 c 8.367 65.902
 7.973 65.543 7.422 65.086 c 6.961 64.699 6.672 64.438 6.547 64.305 c 6.422
 64.168 6.312 64.031 6.219 63.895 c 9.266 63.895 l f*
  Q
Q
Q q
0 g
0.36 w
0 J
0 j
[] 0.0 d
3.25 M q 1 0 0 1 0 143 cm
11.176 -72.074 m 12.613 -72.074 l S Q
q 1 0 0 1 0 143 cm
11.176 -66.438 m 12.613 -66.438 l S Q
q 1 0 0 1 0 143 cm
11.176 -60.797 m 12.613 -60.797 l S Q
q 1 0 0 1 0 143 cm
11.176 -55.16 m 12.613 -55.16 l S Q
q 1 0 0 1 0 143 cm
11.176 -49.523 m 13.574 -49.523 l S Q
Q q
0 98.699 10.801 -10.098 re W n
q
0 99 11 -11 re W n
  q
0 g
-0.141 94.414 m -0.141 95.145 -0.066 95.73 0.086 96.18 c 0.238 96.629 0.461
 96.973 0.758 97.211 c 1.055 97.449 1.426 97.57 1.875 97.57 c 2.207 97.57
 2.5 97.504 2.75 97.367 c 3 97.23 3.207 97.039 3.375 96.789 c 3.543 96.539
 3.672 96.234 3.766 95.875 c 3.859 95.516 3.906 95.027 3.906 94.414 c 3.906
 93.684 3.832 93.098 3.68 92.648 c 3.527 92.199 3.305 91.855 3.008 91.609
 c 2.711 91.363 2.332 91.242 1.875 91.242 c 1.281 91.242 0.812 91.457 0.469
 91.883 c 0.062 92.402 -0.141 93.246 -0.141 94.414 c h
0.641 94.414 m 0.641 93.395 0.762 92.715 1 92.375 c 1.238 92.035 1.531 
91.867 1.875 91.867 c 2.23 91.867 2.527 92.035 2.766 92.375 c 3.004 92.715
 3.125 93.395 3.125 94.414 c 3.125 95.434 3.004 96.109 2.766 96.445 c 2.527
 96.777 2.23 96.945 1.875 96.945 c 1.52 96.945 1.238 96.793 1.031 96.492
 c 0.77 96.117 0.641 95.422 0.641 94.414 c f*
3.891 92.211 0.875 -0.859 re f*
5.266 92.992 m 6.031 93.086 l 6.113 92.656 6.262 92.348 6.477 92.156 c 
6.691 91.965 6.949 91.867 7.25 91.867 c 7.605 91.867 7.902 91.992 8.148 
92.242 c 8.395 92.492 8.516 92.797 8.516 93.164 c 8.516 93.52 8.402 93.809
 8.172 94.031 c 7.941 94.254 7.656 94.367 7.312 94.367 c 7.168 94.367 6.984
 94.34 6.766 94.289 c 6.859 94.945 l 6.984 94.945 l 7.309 94.945 7.598 95.027
 7.852 95.195 c 8.105 95.359 8.234 95.621 8.234 95.977 c 8.234 96.258 8.141
 96.488 7.953 96.672 c 7.766 96.855 7.527 96.945 7.234 96.945 c 6.934 96.945
 6.684 96.852 6.484 96.664 c 6.285 96.477 6.16 96.199 6.109 95.836 c 5.344
 95.961 l 5.438 96.473 5.648 96.867 5.977 97.148 c 6.305 97.43 6.711 97.57
 7.203 97.57 c 7.547 97.57 7.863 97.496 8.148 97.352 c 8.434 97.207 8.652
 97.008 8.797 96.758 c 8.941 96.508 9.016 96.242 9.016 95.961 c 9.016 95.691
 8.945 95.445 8.805 95.227 c 8.664 95.008 8.453 94.836 8.172 94.711 c 8.535
 94.629 8.82 94.453 9.023 94.188 c 9.227 93.922 9.328 93.586 9.328 93.18
 c 9.328 92.637 9.129 92.18 8.734 91.805 c 8.336 91.43 7.836 91.242 7.234
 91.242 c 6.691 91.242 6.242 91.402 5.883 91.727 c 5.523 92.047 5.316 92.473
 5.266 92.992 c f*
  Q
Q
Q q
0 g
0.36 w
0 J
0 j
[] 0.0 d
3.25 M q 1 0 0 1 0 143 cm
11.176 -43.887 m 12.613 -43.887 l S Q
q 1 0 0 1 0 143 cm
11.176 -38.246 m 12.613 -38.246 l S Q
q 1 0 0 1 0 143 cm
11.176 -32.609 m 12.613 -32.609 l S Q
q 1 0 0 1 0 143 cm
11.176 -26.973 m 12.613 -26.973 l S Q
q 1 0 0 1 0 143 cm
11.176 -21.336 m 13.574 -21.336 l S Q
Q q
0 126.699 10.801 -10.098 re W n
q
0 127 11 -11 re W n
  q
0 g
-0.141 122.602 m -0.141 123.332 -0.066 123.922 0.086 124.367 c 0.238 124.816
 0.461 125.16 0.758 125.398 c 1.055 125.641 1.426 125.758 1.875 125.758 
c 2.207 125.758 2.5 125.691 2.75 125.555 c 3 125.422 3.207 125.227 3.375
 124.977 c 3.543 124.727 3.672 124.422 3.766 124.062 c 3.859 123.703 3.906
 123.219 3.906 122.602 c 3.906 121.871 3.832 121.285 3.68 120.836 c 3.527
 120.391 3.305 120.043 3.008 119.797 c 2.711 119.555 2.332 119.43 1.875 
119.43 c 1.281 119.43 0.812 119.645 0.469 120.07 c 0.062 120.594 -0.141 
121.438 -0.141 122.602 c h
0.641 122.602 m 0.641 121.582 0.762 120.902 1 120.562 c 1.238 120.227 1.531
 120.055 1.875 120.055 c 2.23 120.055 2.527 120.227 2.766 120.562 c 3.004
 120.902 3.125 121.582 3.125 122.602 c 3.125 123.621 3.004 124.301 2.766
 124.633 c 2.527 124.969 2.23 125.133 1.875 125.133 c 1.52 125.133 1.238
 124.984 1.031 124.68 c 0.77 124.305 0.641 123.613 0.641 122.602 c f*
3.891 120.398 0.875 -0.859 re f*
7.703 119.539 m 7.703 121.023 l 5.016 121.023 l 5.016 121.727 l 7.844 125.742
 l 8.469 125.742 l 8.469 121.727 l 9.297 121.727 l 9.297 121.023 l 8.469
 121.023 l 8.469 119.539 l h
7.703 121.727 m 7.703 124.508 l 5.766 121.727 l 7.703 121.727 l f*
  Q
Q
Q q
0 g
0.36 w
0 J
0 j
[] 0.0 d
3.25 M q 1 0 0 1 0 143 cm
11.176 -134.09 m 11.176 -21.336 l S Q
Q q
7.719 134.645 7 -10 re W n
q
7 135 8 -11 re W n
  q
0 g
13.426 129.406 m 14.238 129.203 l 14.07 128.527 13.766 128.012 13.316 127.656
 c 12.867 127.305 12.32 127.125 11.676 127.125 c 11.008 127.125 10.469 127.262
 10.051 127.531 c 9.633 127.805 9.316 128.195 9.098 128.711 c 8.879 129.227
 8.77 129.781 8.77 130.375 c 8.77 131.02 8.891 131.586 9.137 132.062 c 9.383
 132.543 9.73 132.906 10.184 133.156 c 10.637 133.406 11.141 133.531 11.691
 133.531 c 12.305 133.531 12.824 133.375 13.246 133.062 c 13.668 132.75 
13.961 132.309 14.129 131.734 c 13.332 131.547 l 13.188 131.996 12.977 132.32
 12.699 132.523 c 12.422 132.727 12.082 132.828 11.676 132.828 c 11.195 
132.828 10.797 132.719 10.48 132.492 c 10.164 132.27 9.938 131.965 9.809
 131.578 c 9.68 131.191 9.613 130.797 9.613 130.391 c 9.613 129.859 9.688
 129.395 9.84 129 c 9.992 128.605 10.227 128.312 10.551 128.117 c 10.875
 127.926 11.227 127.828 11.613 127.828 c 12.07 127.828 12.461 127.961 12.777
 128.227 c 13.094 128.492 13.312 128.887 13.426 129.406 c f*
  Q
Q
Q q
72.699 143 94.102 -11.398 re W n
q
72 143 95 -12 re W n
  q
0 g
74.125 136.234 m 74.125 143.656 l 75.109 143.656 l 75.109 140.609 l 78.969
 140.609 l 78.969 143.656 l 79.953 143.656 l 79.953 136.234 l 78.969 136.234
 l 78.969 139.734 l 75.109 139.734 l 75.109 136.234 l 74.125 136.234 l f*
83.281 137.969 m 84.234 137.844 l 84.09 137.305 83.812 136.879 83.406 136.57
 c 83 136.266 82.484 136.109 81.859 136.109 c 81.078 136.109 80.457 136.352
 79.992 136.836 c 79.527 137.32 79.297 138 79.297 138.875 c 79.297 139.781
 79.531 140.484 80 140.984 c 80.469 141.484 81.07 141.734 81.812 141.734
 c 82.531 141.734 83.117 141.488 83.578 141 c 84.035 140.512 84.266 139.824
 84.266 138.938 c 84.266 138.887 84.262 138.805 84.25 138.688 c 80.25 138.688
 l 80.281 138.105 80.445 137.652 80.75 137.336 c 81.051 137.02 81.426 136.859
 81.875 136.859 c 82.207 136.859 82.492 136.949 82.727 137.125 c 82.961 
137.305 83.145 137.586 83.281 137.969 c h
80.297 139.438 m 83.297 139.438 l 83.254 139.895 83.141 140.234 82.953 
140.453 c 82.66 140.809 82.285 140.984 81.828 140.984 c 81.41 140.984 81.059
 140.844 80.773 140.562 c 80.484 140.281 80.328 139.906 80.297 139.438 c
 f*
87.438 136.891 m 87.102 136.609 86.781 136.41 86.469 136.289 c 86.156 136.172
 85.82 136.109 85.469 136.109 c 84.875 136.109 84.418 136.258 84.102 136.547
 c 83.781 136.84 83.625 137.211 83.625 137.656 c 83.625 137.918 83.684 138.156
 83.805 138.375 c 83.922 138.594 84.082 138.77 84.273 138.898 c 84.465 139.027
 84.688 139.133 84.938 139.203 c 85.113 139.246 85.383 139.285 85.75 139.328
 c 86.477 139.422 87.02 139.531 87.375 139.656 c 87.375 139.891 l 87.375
 140.258 87.285 140.516 87.109 140.672 c 86.879 140.883 86.535 140.984 86.078
 140.984 c 85.648 140.984 85.336 140.91 85.133 140.758 c 84.93 140.605 84.773
 140.34 84.672 139.953 c 83.781 140.078 l 83.863 140.465 83.996 140.773 
84.18 141.008 c 84.359 141.242 84.629 141.422 84.984 141.547 c 85.34 141.672
 85.742 141.734 86.203 141.734 c 86.66 141.734 87.035 141.68 87.328 141.57
 c 87.617 141.461 87.832 141.324 87.961 141.164 c 88.09 141.004 88.188 140.797
 88.25 140.547 c 88.281 140.391 88.297 140.109 88.297 139.703 c 88.297 138.484
 l 88.297 137.641 88.312 137.105 88.352 136.883 c 88.387 136.66 88.465 136.441
 88.578 136.234 c 87.625 136.234 l 87.531 136.422 87.469 136.641 87.438 
136.891 c h
87.375 138.938 m 87.039 138.805 86.539 138.688 85.875 138.594 c 85.5 138.543
 85.234 138.48 85.078 138.414 c 84.922 138.348 84.801 138.246 84.719 138.117
 c 84.633 137.988 84.594 137.84 84.594 137.672 c 84.594 137.434 84.688 137.23
 84.875 137.07 c 85.062 136.91 85.332 136.828 85.688 136.828 c 86.031 136.828
 86.34 136.902 86.617 137.055 c 86.891 137.207 87.094 137.418 87.219 137.688
 c 87.32 137.895 87.375 138.199 87.375 138.594 c 87.375 138.938 l f*
90.25 137.047 m 90.391 136.25 l 90.129 136.188 89.898 136.156 89.703 136.156
 c 89.367 136.156 89.109 136.211 88.93 136.32 c 88.746 136.43 88.617 136.566
 88.539 136.734 c 88.461 136.902 88.422 137.262 88.422 137.812 c 88.422 
140.906 l 87.766 140.906 l 87.766 141.609 l 88.422 141.609 l 88.422 142.953
 l 89.344 143.5 l 89.344 141.609 l 90.25 141.609 l 90.25 140.906 l 89.344
 140.906 l 89.344 137.766 l 89.344 137.508 89.359 137.336 89.391 137.258
 c 89.422 137.18 89.473 137.121 89.547 137.078 c 89.617 137.035 89.723 137.016
 89.859 137.016 c 89.953 137.016 90.082 137.027 90.25 137.047 c f*
96.078 138.203 m 96.984 138.094 l 96.879 137.469 96.629 136.98 96.227 136.633
 c 95.824 136.285 95.332 136.109 94.75 136.109 c 94.012 136.109 93.414 136.352
 92.969 136.836 c 92.52 137.32 92.297 138.012 92.297 138.906 c 92.297 139.488
 92.395 139.996 92.586 140.43 c 92.777 140.863 93.07 141.188 93.461 141.406
 c 93.852 141.625 94.281 141.734 94.75 141.734 c 95.332 141.734 95.809 141.586
 96.18 141.289 c 96.547 140.992 96.785 140.574 96.891 140.031 c 96.016 139.891
 l 95.922 140.258 95.77 140.527 95.555 140.711 c 95.34 140.895 95.082 140.984
 94.781 140.984 c 94.32 140.984 93.949 140.82 93.664 140.492 c 93.379 140.164
 93.234 139.641 93.234 138.922 c 93.234 138.203 93.371 137.68 93.648 137.352
 c 93.922 137.023 94.285 136.859 94.734 136.859 c 95.09 136.859 95.387 136.969
 95.625 137.188 c 95.863 137.406 96.016 137.746 96.078 138.203 c f*
99.969 136.891 m 99.637 136.609 99.312 136.41 99 136.289 c 98.688 136.172
 98.355 136.109 98 136.109 c 97.406 136.109 96.949 136.258 96.633 136.547
 c 96.316 136.84 96.156 137.211 96.156 137.656 c 96.156 137.918 96.215 138.156
 96.336 138.375 c 96.457 138.594 96.613 138.77 96.805 138.898 c 96.996 139.027
 97.219 139.133 97.469 139.203 c 97.645 139.246 97.914 139.285 98.281 139.328
 c 99.012 139.422 99.551 139.531 99.906 139.656 c 99.906 139.891 l 99.906
 140.258 99.816 140.516 99.641 140.672 c 99.41 140.883 99.066 140.984 98.609
 140.984 c 98.184 140.984 97.867 140.91 97.664 140.758 c 97.461 140.605 
97.309 140.34 97.203 139.953 c 96.312 140.078 l 96.395 140.465 96.527 140.773
 96.711 141.008 c 96.895 141.242 97.16 141.422 97.516 141.547 c 97.871 141.672
 98.277 141.734 98.734 141.734 c 99.191 141.734 99.566 141.68 99.859 141.57
 c 100.152 141.461 100.363 141.324 100.492 141.164 c 100.621 141.004 100.719
 140.797 100.781 140.547 c 100.812 140.391 100.828 140.109 100.828 139.703
 c 100.828 138.484 l 100.828 137.641 100.848 137.105 100.883 136.883 c 100.918
 136.66 100.996 136.441 101.109 136.234 c 100.156 136.234 l 100.062 136.422
 100 136.641 99.969 136.891 c h
99.906 138.938 m 99.574 138.805 99.074 138.688 98.406 138.594 c 98.031 
138.543 97.766 138.48 97.609 138.414 c 97.453 138.348 97.332 138.246 97.25
 138.117 c 97.164 137.988 97.125 137.84 97.125 137.672 c 97.125 137.434 
97.219 137.23 97.406 137.07 c 97.594 136.91 97.863 136.828 98.219 136.828
 c 98.562 136.828 98.871 136.902 99.148 137.055 c 99.422 137.207 99.625 
137.418 99.75 137.688 c 99.855 137.895 99.906 138.199 99.906 138.594 c 99.906
 138.938 l f*
100.797 134.172 m 100.797 141.609 l 101.625 141.609 l 101.625 140.922 l
 101.824 141.191 102.043 141.395 102.289 141.531 c 102.531 141.668 102.832
 141.734 103.188 141.734 c 103.645 141.734 104.051 141.617 104.398 141.383
 c 104.746 141.148 105.012 140.816 105.195 140.383 c 105.379 139.949 105.469
 139.48 105.469 138.969 c 105.469 138.418 105.367 137.922 105.172 137.477
 c 104.973 137.035 104.684 136.695 104.305 136.461 c 103.926 136.227 103.531
 136.109 103.125 136.109 c 102.812 136.109 102.535 136.176 102.297 136.305
 c 102.059 136.438 101.859 136.602 101.703 136.797 c 101.703 134.172 l h
101.625 138.891 m 101.625 138.203 101.762 137.691 102.039 137.359 c 102.316
 137.027 102.656 136.859 103.062 136.859 c 103.469 136.859 103.816 137.031
 104.102 137.375 c 104.387 137.719 104.531 138.25 104.531 138.969 c 104.531
 139.656 104.391 140.172 104.109 140.508 c 103.828 140.848 103.488 141.016
 103.094 141.016 c 102.707 141.016 102.367 140.836 102.07 140.477 c 101.773
 140.117 101.625 139.59 101.625 138.891 c f*
108.625 136.891 m 108.289 136.609 107.969 136.41 107.656 136.289 c 107.344
 136.172 107.012 136.109 106.656 136.109 c 106.062 136.109 105.605 136.258
 105.289 136.547 c 104.973 136.84 104.812 137.211 104.812 137.656 c 104.812
 137.918 104.871 138.156 104.992 138.375 c 105.109 138.594 105.27 138.77
 105.461 138.898 c 105.652 139.027 105.875 139.133 106.125 139.203 c 106.301
 139.246 106.57 139.285 106.938 139.328 c 107.664 139.422 108.207 139.531
 108.562 139.656 c 108.562 139.891 l 108.562 140.258 108.473 140.516 108.297
 140.672 c 108.066 140.883 107.723 140.984 107.266 140.984 c 106.84 140.984
 106.523 140.91 106.32 140.758 c 106.117 140.605 105.965 140.34 105.859 
139.953 c 104.969 140.078 l 105.051 140.465 105.184 140.773 105.367 141.008
 c 105.551 141.242 105.816 141.422 106.172 141.547 c 106.527 141.672 106.934
 141.734 107.391 141.734 c 107.848 141.734 108.223 141.68 108.516 141.57
 c 108.809 141.461 109.02 141.324 109.148 141.164 c 109.277 141.004 109.375
 140.797 109.438 140.547 c 109.469 140.391 109.484 140.109 109.484 139.703
 c 109.484 138.484 l 109.484 137.641 109.504 137.105 109.539 136.883 c 109.574
 136.66 109.652 136.441 109.766 136.234 c 108.812 136.234 l 108.719 136.422
 108.656 136.641 108.625 136.891 c h
108.562 138.938 m 108.23 138.805 107.73 138.688 107.062 138.594 c 106.688
 138.543 106.422 138.48 106.266 138.414 c 106.109 138.348 105.988 138.246
 105.906 138.117 c 105.82 137.988 105.781 137.84 105.781 137.672 c 105.781
 137.434 105.875 137.23 106.062 137.07 c 106.25 136.91 106.52 136.828 106.875
 136.828 c 107.219 136.828 107.527 136.902 107.805 137.055 c 108.078 137.207
 108.281 137.418 108.406 137.688 c 108.512 137.895 108.562 138.199 108.562
 138.594 c 108.562 138.938 l f*
112.953 138.203 m 113.859 138.094 l 113.754 137.469 113.504 136.98 113.102
 136.633 c 112.699 136.285 112.207 136.109 111.625 136.109 c 110.887 136.109
 110.289 136.352 109.844 136.836 c 109.395 137.32 109.172 138.012 109.172
 138.906 c 109.172 139.488 109.27 139.996 109.461 140.43 c 109.652 140.863
 109.945 141.188 110.336 141.406 c 110.727 141.625 111.156 141.734 111.625
 141.734 c 112.207 141.734 112.684 141.586 113.055 141.289 c 113.426 140.992
 113.66 140.574 113.766 140.031 c 112.891 139.891 l 112.797 140.258 112.645
 140.527 112.43 140.711 c 112.215 140.895 111.957 140.984 111.656 140.984
 c 111.195 140.984 110.824 140.82 110.539 140.492 c 110.254 140.164 110.109
 139.641 110.109 138.922 c 110.109 138.203 110.246 137.68 110.523 137.352
 c 110.801 137.023 111.16 136.859 111.609 136.859 c 111.965 136.859 112.262
 136.969 112.5 137.188 c 112.738 137.406 112.891 137.746 112.953 138.203
 c f*
113.344 142.609 m 113.344 143.656 l 114.25 143.656 l 114.25 142.609 l h
113.344 136.234 m 113.344 141.609 l 114.25 141.609 l 114.25 136.234 l 113.344
 136.234 l f*
117.062 137.047 m 117.203 136.25 l 116.941 136.188 116.715 136.156 116.516
 136.156 c 116.184 136.156 115.926 136.211 115.742 136.32 c 115.559 136.43
 115.43 136.566 115.352 136.734 c 115.273 136.902 115.234 137.262 115.234
 137.812 c 115.234 140.906 l 114.578 140.906 l 114.578 141.609 l 115.234
 141.609 l 115.234 142.953 l 116.156 143.5 l 116.156 141.609 l 117.062 141.609
 l 117.062 140.906 l 116.156 140.906 l 116.156 137.766 l 116.156 137.508
 116.172 137.336 116.203 137.258 c 116.234 137.18 116.285 137.121 116.359
 137.078 c 116.434 137.035 116.535 137.016 116.672 137.016 c 116.766 137.016
 116.895 137.027 117.062 137.047 c f*
117.188 134.156 m 117.094 135.016 l 117.289 134.965 117.465 134.938 117.609
 134.938 c 117.816 134.938 117.98 134.973 118.102 135.039 c 118.219 135.105
 118.316 135.203 118.391 135.328 c 118.453 135.41 118.547 135.637 118.672
 136 c 118.691 136.055 118.719 136.125 118.75 136.219 c 116.719 141.609 
l 117.703 141.609 l 118.812 138.5 l 118.957 138.105 119.09 137.688 119.203
 137.25 c 119.305 137.668 119.43 138.078 119.578 138.484 c 120.734 141.609
 l 121.641 141.609 l 119.594 136.141 l 119.375 135.547 119.203 135.141 119.078
 134.922 c 118.922 134.621 118.738 134.398 118.531 134.258 c 118.32 134.117
 118.07 134.047 117.781 134.047 c 117.602 134.047 117.406 134.086 117.188
 134.156 c f*
121.359 136.234 m 121.359 137.266 l 122.391 137.266 l 122.391 136.234 l
 122.391 135.852 122.324 135.539 122.195 135.305 c 122.066 135.07 121.848
 134.891 121.547 134.766 c 121.297 135.156 l 121.492 135.238 121.637 135.363
 121.727 135.523 c 121.816 135.688 121.863 135.922 121.875 136.234 c 121.359
 136.234 l f*
128.609 136.234 m 127.703 136.234 l 127.703 142.047 l 127.484 141.84 127.195
 141.633 126.844 141.422 c 126.488 141.215 126.164 141.059 125.875 140.953
 c 125.875 141.828 l 126.383 142.066 126.832 142.355 127.219 142.695 c 127.602
 143.035 127.875 143.363 128.031 143.688 c 128.609 143.688 l 128.609 136.234
 l f*
129.641 137.953 m 130.516 138.031 l 130.598 137.625 130.742 137.328 130.953
 137.141 c 131.16 136.953 131.426 136.859 131.75 136.859 c 132.031 136.859
 132.277 136.926 132.492 137.055 c 132.703 137.188 132.879 137.355 133.016
 137.57 c 133.148 137.785 133.262 138.074 133.352 138.438 c 133.438 138.805
 133.484 139.172 133.484 139.547 c 133.484 139.734 l 133.297 139.441 133.047
 139.207 132.734 139.023 c 132.422 138.844 132.078 138.75 131.703 138.75
 c 131.086 138.75 130.57 138.977 130.148 139.422 c 129.727 139.871 129.516
 140.461 129.516 141.188 c 129.516 141.938 129.734 142.543 130.18 143 c 
130.621 143.461 131.176 143.688 131.844 143.688 c 132.32 143.688 132.762
 143.559 133.164 143.297 c 133.562 143.035 133.867 142.668 134.078 142.188
 c 134.285 141.711 134.391 141.012 134.391 140.094 c 134.391 139.145 134.289
 138.391 134.086 137.828 c 133.883 137.266 133.574 136.84 133.164 136.547
 c 132.75 136.258 132.273 136.109 131.734 136.109 c 131.148 136.109 130.672
 136.27 130.305 136.594 c 129.934 136.918 129.711 137.371 129.641 137.953
 c h
133.375 141.234 m 133.375 141.758 133.234 142.172 132.961 142.477 c 132.684
 142.785 132.348 142.938 131.953 142.938 c 131.547 142.938 131.195 142.77
 130.898 142.438 c 130.602 142.105 130.453 141.68 130.453 141.156 c 130.453
 140.68 130.594 140.293 130.875 140 c 131.156 139.711 131.508 139.562 131.938
 139.562 c 132.352 139.562 132.695 139.711 132.969 140 c 133.238 140.293
 133.375 140.703 133.375 141.234 c f*
136.25 134.172 m 136.25 141.609 l 137.078 141.609 l 137.078 140.922 l 137.277
 141.191 137.496 141.395 137.742 141.531 c 137.984 141.668 138.285 141.734
 138.641 141.734 c 139.098 141.734 139.504 141.617 139.852 141.383 c 140.199
 141.148 140.465 140.816 140.648 140.383 c 140.828 139.949 140.922 139.48
 140.922 138.969 c 140.922 138.418 140.82 137.922 140.625 137.477 c 140.426
 137.035 140.137 136.695 139.758 136.461 c 139.379 136.227 138.984 136.109
 138.578 136.109 c 138.266 136.109 137.988 136.176 137.75 136.305 c 137.512
 136.438 137.312 136.602 137.156 136.797 c 137.156 134.172 l h
137.078 138.891 m 137.078 138.203 137.215 137.691 137.492 137.359 c 137.77
 137.027 138.109 136.859 138.516 136.859 c 138.922 136.859 139.27 137.031
 139.555 137.375 c 139.84 137.719 139.984 138.25 139.984 138.969 c 139.984
 139.656 139.844 140.172 139.562 140.508 c 139.281 140.848 138.941 141.016
 138.547 141.016 c 138.16 141.016 137.82 140.836 137.523 140.477 c 137.227
 140.117 137.078 139.59 137.078 138.891 c f*
144.078 136.891 m 143.742 136.609 143.422 136.41 143.109 136.289 c 142.797
 136.172 142.465 136.109 142.109 136.109 c 141.516 136.109 141.059 136.258
 140.742 136.547 c 140.426 136.84 140.266 137.211 140.266 137.656 c 140.266
 137.918 140.324 138.156 140.445 138.375 c 140.562 138.594 140.723 138.77
 140.914 138.898 c 141.105 139.027 141.328 139.133 141.578 139.203 c 141.754
 139.246 142.023 139.285 142.391 139.328 c 143.117 139.422 143.66 139.531
 144.016 139.656 c 144.016 139.891 l 144.016 140.258 143.926 140.516 143.75
 140.672 c 143.52 140.883 143.176 140.984 142.719 140.984 c 142.289 140.984
 141.977 140.91 141.773 140.758 c 141.57 140.605 141.414 140.34 141.312 
139.953 c 140.422 140.078 l 140.504 140.465 140.637 140.773 140.82 141.008
 c 141.004 141.242 141.27 141.422 141.625 141.547 c 141.98 141.672 142.387
 141.734 142.844 141.734 c 143.301 141.734 143.676 141.68 143.969 141.57
 c 144.262 141.461 144.473 141.324 144.602 141.164 c 144.73 141.004 144.828
 140.797 144.891 140.547 c 144.922 140.391 144.938 140.109 144.938 139.703
 c 144.938 138.484 l 144.938 137.641 144.953 137.105 144.992 136.883 c 145.027
 136.66 145.105 136.441 145.219 136.234 c 144.266 136.234 l 144.172 136.422
 144.109 136.641 144.078 136.891 c h
144.016 138.938 m 143.684 138.805 143.184 138.688 142.516 138.594 c 142.141
 138.543 141.875 138.48 141.719 138.414 c 141.562 138.348 141.441 138.246
 141.359 138.117 c 141.273 137.988 141.234 137.84 141.234 137.672 c 141.234
 137.434 141.328 137.23 141.516 137.07 c 141.703 136.91 141.973 136.828 
142.328 136.828 c 142.672 136.828 142.98 136.902 143.258 137.055 c 143.531
 137.207 143.734 137.418 143.859 137.688 c 143.965 137.895 144.016 138.199
 144.016 138.594 c 144.016 138.938 l f*
144.891 136.234 m 144.891 141.609 l 145.719 141.609 l 145.719 140.797 l
 145.926 141.184 146.117 141.438 146.297 141.555 c 146.473 141.676 146.664
 141.734 146.875 141.734 c 147.188 141.734 147.5 141.637 147.812 141.438
 c 147.5 140.594 l 147.281 140.73 147.059 140.797 146.828 140.797 c 146.629
 140.797 146.453 140.738 146.297 140.617 c 146.141 140.496 146.023 140.328
 145.953 140.109 c 145.848 139.785 145.797 139.434 145.797 139.047 c 145.797
 136.234 l 144.891 136.234 l f*
149.484 137.047 m 149.625 136.25 l 149.363 136.188 149.137 136.156 148.938
 136.156 c 148.605 136.156 148.348 136.211 148.164 136.32 c 147.98 136.43
 147.852 136.566 147.773 136.734 c 147.695 136.902 147.656 137.262 147.656
 137.812 c 147.656 140.906 l 147 140.906 l 147 141.609 l 147.656 141.609
 l 147.656 142.953 l 148.578 143.5 l 148.578 141.609 l 149.484 141.609 l
 149.484 140.906 l 148.578 140.906 l 148.578 137.766 l 148.578 137.508 148.594
 137.336 148.625 137.258 c 148.656 137.18 148.707 137.121 148.781 137.078
 c 148.855 137.035 148.957 137.016 149.094 137.016 c 149.188 137.016 149.316
 137.027 149.484 137.047 c f*
149.656 142.609 m 149.656 143.656 l 150.562 143.656 l 150.562 142.609 l
 h
149.656 136.234 m 149.656 141.609 l 150.562 141.609 l 150.562 136.234 l
 149.656 136.234 l f*
154.891 138.203 m 155.797 138.094 l 155.691 137.469 155.438 136.98 155.039
 136.633 c 154.637 136.285 154.145 136.109 153.562 136.109 c 152.82 136.109
 152.227 136.352 151.781 136.836 c 151.332 137.32 151.109 138.012 151.109
 138.906 c 151.109 139.488 151.203 139.996 151.398 140.43 c 151.59 140.863
 151.883 141.188 152.273 141.406 c 152.664 141.625 153.094 141.734 153.562
 141.734 c 154.145 141.734 154.621 141.586 154.992 141.289 c 155.359 140.992
 155.598 140.574 155.703 140.031 c 154.828 139.891 l 154.734 140.258 154.578
 140.527 154.367 140.711 c 154.152 140.895 153.895 140.984 153.594 140.984
 c 153.133 140.984 152.762 140.82 152.477 140.492 c 152.188 140.164 152.047
 139.641 152.047 138.922 c 152.047 138.203 152.184 137.68 152.461 137.352
 c 152.734 137.023 153.098 136.859 153.547 136.859 c 153.898 136.859 154.195
 136.969 154.438 137.188 c 154.676 137.406 154.828 137.746 154.891 138.203
 c f*
155.25 143.656 0.922 -7.422 re f*
160.688 137.969 m 161.641 137.844 l 161.492 137.305 161.219 136.879 160.812
 136.57 c 160.406 136.266 159.891 136.109 159.266 136.109 c 158.484 136.109
 157.859 136.352 157.398 136.836 c 156.934 137.32 156.703 138 156.703 138.875
 c 156.703 139.781 156.938 140.484 157.406 140.984 c 157.875 141.484 158.477
 141.734 159.219 141.734 c 159.938 141.734 160.523 141.488 160.984 141 c
 161.441 140.512 161.672 139.824 161.672 138.938 c 161.672 138.887 161.664
 138.805 161.656 138.688 c 157.656 138.688 l 157.688 138.105 157.852 137.652
 158.156 137.336 c 158.457 137.02 158.832 136.859 159.281 136.859 c 159.613
 136.859 159.898 136.949 160.133 137.125 c 160.367 137.305 160.551 137.586
 160.688 137.969 c h
157.703 139.438 m 160.703 139.438 l 160.66 139.895 160.547 140.234 160.359
 140.453 c 160.066 140.809 159.691 140.984 159.234 140.984 c 158.816 140.984
 158.465 140.844 158.18 140.562 c 157.891 140.281 157.734 139.906 157.703
 139.438 c f*
160.969 137.844 m 161.875 137.984 l 161.926 137.621 162.066 137.344 162.297
 137.148 c 162.523 136.957 162.848 136.859 163.266 136.859 c 163.691 136.859
 164.004 136.945 164.203 137.117 c 164.398 137.289 164.5 137.488 164.5 137.719
 c 164.5 137.93 164.41 138.09 164.234 138.203 c 164.109 138.285 163.801 
138.391 163.312 138.516 c 162.633 138.684 162.168 138.828 161.914 138.953
 c 161.656 139.078 161.461 139.25 161.328 139.469 c 161.191 139.688 161.125
 139.93 161.125 140.188 c 161.125 140.43 161.18 140.648 161.289 140.852 
c 161.398 141.055 161.547 141.227 161.734 141.359 c 161.879 141.465 162.074
 141.555 162.32 141.625 c 162.562 141.699 162.828 141.734 163.109 141.734
 c 163.523 141.734 163.895 141.676 164.219 141.555 c 164.539 141.438 164.777
 141.27 164.93 141.062 c 165.078 140.855 165.18 140.574 165.234 140.219 
c 164.344 140.109 l 164.301 140.383 164.184 140.594 163.992 140.75 c 163.797
 140.906 163.523 140.984 163.172 140.984 c 162.754 140.984 162.457 140.918
 162.281 140.781 c 162.102 140.645 162.016 140.484 162.016 140.297 c 162.016
 140.172 162.051 140.062 162.125 139.969 c 162.195 139.875 162.312 139.797
 162.469 139.734 c 162.562 139.691 162.832 139.613 163.281 139.5 c 163.926
 139.324 164.375 139.18 164.633 139.07 c 164.887 138.961 165.086 138.805
 165.227 138.594 c 165.367 138.387 165.438 138.125 165.438 137.812 c 165.438
 137.512 165.348 137.227 165.172 136.953 c 164.992 136.684 164.738 136.477
 164.406 136.328 c 164.07 136.184 163.695 136.109 163.281 136.109 c 162.582
 136.109 162.047 136.258 161.68 136.547 c 161.309 136.84 161.07 137.27 160.969
 137.844 c f*
  Q
Q
Q Q
showpage
%%Trailer
end restore
%%EOF
