%!PS-Adobe-3.0 EPSF-3.0
%%Creator: cairo 1.14.2 (http://cairographics.org)
%%CreationDate: Thu May 21 12:49:09 2015
%%Pages: 1
%%DocumentData: Clean7Bit
%%LanguageLevel: 2
%%BoundingBox: 0 0 263 149
%%EndComments
%%BeginProlog
save
50 dict begin
/q { gsave } bind def
/Q { grestore } bind def
/cm { 6 array astore concat } bind def
/w { setlinewidth } bind def
/J { setlinecap } bind def
/j { setlinejoin } bind def
/M { setmiterlimit } bind def
/d { setdash } bind def
/m { moveto } bind def
/l { lineto } bind def
/c { curveto } bind def
/h { closepath } bind def
/re { exch dup neg 3 1 roll 5 3 roll moveto 0 rlineto
      0 exch rlineto 0 rlineto closepath } bind def
/S { stroke } bind def
/f { fill } bind def
/f* { eofill } bind def
/n { newpath } bind def
/W { clip } bind def
/W* { eoclip } bind def
/BT { } bind def
/ET { } bind def
/pdfmark where { pop globaldict /?pdfmark /exec load put }
    { globaldict begin /?pdfmark /pop load def /pdfmark
    /cleartomark load def end } ifelse
/BDC { mark 3 1 roll /BDC pdfmark } bind def
/EMC { mark /EMC pdfmark } bind def
/cairo_store_point { /cairo_point_y exch def /cairo_point_x exch def } def
/Tj { show currentpoint cairo_store_point } bind def
/TJ {
  {
    dup
    type /stringtype eq
    { show } { -0.001 mul 0 cairo_font_matrix dtransform rmoveto } ifelse
  } forall
  currentpoint cairo_store_point
} bind def
/cairo_selectfont { cairo_font_matrix aload pop pop pop 0 0 6 array astore
    cairo_font exch selectfont cairo_point_x cairo_point_y moveto } bind def
/Tf { pop /cairo_font exch def /cairo_font_matrix where
      { pop cairo_selectfont } if } bind def
/Td { matrix translate cairo_font_matrix matrix concatmatrix dup
      /cairo_font_matrix exch def dup 4 get exch 5 get cairo_store_point
      /cairo_font where { pop cairo_selectfont } if } bind def
/Tm { 2 copy 8 2 roll 6 array astore /cairo_font_matrix exch def
      cairo_store_point /cairo_font where { pop cairo_selectfont } if } bind def
/g { setgray } bind def
/rg { setrgbcolor } bind def
/d1 { setcachedevice } bind def
%%EndProlog
%%BeginSetup
%%EndSetup
%%Page: 1 1
%%BeginPageSetup
%%PageBoundingBox: 0 0 263 149
%%EndPageSetup
q 0 0 263 149 rectclip q
Q q
5.719 128.523 239 -121 re W n
q
5 129 240 -122 re W n
  q
0.368627 0.505882 0.709804 rg
1.152 w
2 J
0 j
[] 0.0 d
3.25 M q 1 0 0 1 0 149 cm
30.156 -140.086 m 30.738 -140.086 l 30.855 -140.082 l 32.02 -140.082 l 
32.078 -140.078 l 32.543 -140.078 l 32.602 -140.074 l 33.066 -140.074 l 
33.184 -140.07 l 33.531 -140.07 l 33.648 -140.066 l 33.883 -140.066 l 33.945
 -140.062 l 34.137 -140.062 l 34.387 -140.059 l 34.516 -140.059 l 34.641
 -140.055 l 34.891 -140.051 l 35.02 -140.051 l 35.145 -140.047 l 35.398 
-140.043 l 35.461 -140.043 l 35.523 -140.039 l 35.648 -140.039 l 35.902 
-140.031 l 35.965 -140.027 l 36.027 -140.027 l 36.156 -140.023 l 36.406 
-140.02 l 36.469 -140.016 l 36.531 -140.016 l 36.66 -140.012 l 36.91 -140
 l 37.039 -140 l 37.164 -139.992 l 37.418 -139.984 l 37.922 -139.961 l 37.98
 -139.957 l 38.039 -139.957 l 38.156 -139.949 l 38.395 -139.938 l 38.453
 -139.934 l 38.512 -139.934 l 38.922 -139.906 l 38.984 -139.902 l 39.336
 -139.879 l 39.809 -139.844 l 39.926 -139.836 l 40.043 -139.824 l 40.277
 -139.805 l 40.75 -139.758 l 40.809 -139.754 l 40.867 -139.746 l 40.984 
-139.734 l 41.223 -139.707 l 41.691 -139.652 l 41.809 -139.637 l 41.922 
-139.621 l 42.156 -139.59 l 42.617 -139.52 l 42.676 -139.512 l 42.734 -139.5
 l 42.848 -139.48 l 43.082 -139.441 l 43.543 -139.359 l 43.602 -139.348 
l 43.656 -139.336 l 43.773 -139.312 l 44.004 -139.266 l 44.465 -139.168 
l 45.391 -138.938 l 45.453 -138.918 l 45.516 -138.902 l 45.891 -138.797 
l 46.395 -138.645 l 46.52 -138.605 l 46.645 -138.562 l 46.895 -138.48 l 
47.395 -138.305 l 47.461 -138.281 l 47.648 -138.211 l 47.898 -138.113 l 
48.398 -137.91 l 49.402 -137.469 l 49.637 -137.359 l 49.871 -137.246 l 50.34
 -137.012 l 51.273 -136.512 l 53.145 -135.406 l 53.207 -135.367 l 53.273
 -135.328 l 53.398 -135.25 l 53.652 -135.09 l 54.16 -134.762 l 55.172 -134.094
 l 57.203 -132.738 l 57.266 -132.699 l 57.328 -132.656 l 57.449 -132.574
 l 57.699 -132.41 l 58.195 -132.086 l 59.191 -131.461 l 59.316 -131.383 
l 59.691 -131.16 l 60.188 -130.867 l 61.184 -130.324 l 61.242 -130.293 l
 61.301 -130.266 l 61.414 -130.207 l 61.648 -130.09 l 62.113 -129.867 l 
62.23 -129.812 l 62.344 -129.758 l 62.578 -129.656 l 63.043 -129.461 l 63.102
 -129.438 l 63.156 -129.414 l 63.273 -129.371 l 63.508 -129.281 l 63.969
 -129.117 l 64.203 -129.039 l 64.434 -128.969 l 64.898 -128.836 l 64.961
 -128.816 l 65.023 -128.801 l 65.152 -128.77 l 65.465 -128.691 l 65.527 
-128.68 l 65.656 -128.652 l 65.906 -128.598 l 66.156 -128.551 l 66.41 -128.508
 l 66.473 -128.5 l 66.535 -128.488 l 66.66 -128.473 l 66.914 -128.438 l 
67.039 -128.422 l 67.164 -128.41 l 67.289 -128.395 l 67.418 -128.387 l 67.48
 -128.379 l 67.543 -128.375 l 67.605 -128.367 l 67.918 -128.348 l 67.984
 -128.348 l 68.172 -128.336 l 68.234 -128.336 l 68.297 -128.332 l 68.422
 -128.332 l 68.488 -128.328 l 69.043 -128.328 l 69.105 -128.332 l 69.223
 -128.332 l 69.281 -128.336 l 69.34 -128.336 l 69.398 -128.34 l 69.457 -128.34
 l 69.574 -128.348 l 69.633 -128.348 l 70.16 -128.383 l 70.219 -128.391 
l 70.34 -128.398 l 70.398 -128.402 l 70.457 -128.41 l 70.809 -128.445 l 
70.926 -128.461 l 71.043 -128.473 l 71.277 -128.504 l 71.746 -128.57 l 71.809
 -128.582 l 71.867 -128.59 l 72.219 -128.648 l 72.688 -128.734 l 72.805 
-128.758 l 72.918 -128.777 l 73.148 -128.824 l 73.609 -128.922 l 74.531 
-129.133 l 76.375 -129.594 l 80.375 -130.645 l 80.492 -130.676 l 80.609 
-130.703 l 80.844 -130.762 l 81.309 -130.875 l 82.242 -131.094 l 82.359 
-131.117 l 82.477 -131.145 l 82.707 -131.195 l 83.172 -131.293 l 84.109 
-131.48 l 84.359 -131.527 l 84.613 -131.57 l 85.117 -131.66 l 85.184 -131.668
 l 85.246 -131.68 l 85.371 -131.699 l 85.625 -131.738 l 86.129 -131.812 
l 86.195 -131.824 l 86.383 -131.848 l 86.637 -131.883 l 86.762 -131.898 
l 86.891 -131.914 l 87.141 -131.941 l 87.207 -131.949 l 87.27 -131.957 l
 87.395 -131.969 l 87.648 -131.996 l 87.711 -132 l 87.773 -132.008 l 87.898
 -132.02 l 88.152 -132.039 l 88.215 -132.047 l 88.402 -132.059 l 88.465 
-132.066 l 88.527 -132.07 l 88.648 -132.078 l 88.898 -132.094 l 89.145 -132.105
 l 89.27 -132.113 l 89.395 -132.117 l 89.457 -132.121 l 89.52 -132.121 l
 89.645 -132.129 l 89.766 -132.129 l 89.828 -132.133 l 89.891 -132.133 l
 89.953 -132.137 l 90.141 -132.137 l 90.203 -132.141 l 90.82 -132.141 l 
90.883 -132.137 l 91.07 -132.137 l 91.133 -132.133 l 91.195 -132.133 l 91.258
 -132.129 l 91.316 -132.129 l 91.379 -132.125 l 91.441 -132.125 l 91.504
 -132.121 l 91.629 -132.117 l 91.754 -132.109 l 91.879 -132.105 l 91.938
 -132.102 l 92.125 -132.09 l 92.242 -132.082 l 92.355 -132.074 l 92.59 -132.055
 l 92.645 -132.047 l 92.703 -132.043 l 92.82 -132.031 l 93.051 -132.012 
l 93.168 -131.996 l 93.281 -131.984 l 93.516 -131.957 l 93.977 -131.891 
l 94.035 -131.883 l 94.094 -131.871 l 94.211 -131.855 l 94.441 -131.816 
l 94.496 -131.805 l 94.555 -131.793 l 94.672 -131.773 l 94.902 -131.73 l
 95.137 -131.684 l 95.367 -131.633 l 95.828 -131.523 l 95.891 -131.508 l
 95.957 -131.492 l 96.082 -131.461 l 96.332 -131.395 l 96.836 -131.25 l 
97.336 -131.094 l 97.84 -130.918 l 97.902 -130.898 l 98.34 -130.734 l 98.844
 -130.535 l 99.848 -130.094 l 100.082 -129.984 l 100.316 -129.871 l 100.785
 -129.637 l 101.723 -129.137 l 103.598 -128.027 l 103.723 -127.949 l 103.852
 -127.867 l 104.105 -127.707 l 104.613 -127.383 l 105.629 -126.723 l 105.691
 -126.68 l 105.754 -126.641 l 105.883 -126.555 l 106.137 -126.391 l 106.645
 -126.059 l 107.66 -125.406 l 107.91 -125.25 l 108.16 -125.098 l 108.656
 -124.793 l 109.656 -124.223 l 109.719 -124.188 l 109.777 -124.152 l 109.902
 -124.09 l 110.152 -123.957 l 110.715 -123.676 l 110.777 -123.648 l 111.152
 -123.473 l 111.648 -123.262 l 111.883 -123.168 l 112.113 -123.082 l 112.23
 -123.035 l 112.348 -122.996 l 112.578 -122.918 l 112.695 -122.879 l 113.047
 -122.773 l 113.102 -122.758 l 113.277 -122.711 l 113.512 -122.652 l 113.566
 -122.641 l 113.629 -122.625 l 113.742 -122.602 l 113.801 -122.586 l 114.035
 -122.539 l 114.094 -122.531 l 114.207 -122.508 l 114.441 -122.473 l 114.559
 -122.457 l 114.672 -122.441 l 114.789 -122.426 l 114.906 -122.414 l 114.965
 -122.406 l 115.023 -122.402 l 115.078 -122.398 l 115.371 -122.379 l 115.496
 -122.371 l 115.559 -122.371 l 115.621 -122.367 l 115.688 -122.367 l 115.75
 -122.363 l 116.066 -122.363 l 116.129 -122.367 l 116.191 -122.367 l 116.254
 -122.371 l 116.316 -122.371 l 116.441 -122.379 l 116.508 -122.383 l 116.758
 -122.398 l 116.883 -122.41 l 116.945 -122.418 l 117.012 -122.422 l 117.262
 -122.453 l 117.391 -122.473 l 117.516 -122.488 l 117.641 -122.512 l 117.895
 -122.555 l 118.02 -122.578 l 118.145 -122.605 l 118.398 -122.66 l 118.648
 -122.723 l 118.902 -122.785 l 119.406 -122.934 l 119.465 -122.953 l 119.523
 -122.969 l 119.641 -123.008 l 119.879 -123.086 l 120.348 -123.25 l 121.289
 -123.613 l 123.172 -124.414 l 123.23 -124.438 l 123.289 -124.465 l 123.402
 -124.516 l 123.637 -124.613 l 124.098 -124.809 l 124.156 -124.836 l 124.211
 -124.859 l 124.328 -124.906 l 124.559 -125 l 125.02 -125.184 l 125.078 
-125.207 l 125.137 -125.227 l 125.25 -125.27 l 125.48 -125.355 l 125.945
 -125.516 l 126 -125.535 l 126.059 -125.555 l 126.176 -125.59 l 126.406 
-125.66 l 126.465 -125.676 l 126.52 -125.695 l 126.637 -125.727 l 126.867
 -125.785 l 126.93 -125.805 l 126.992 -125.816 l 127.18 -125.863 l 127.242
 -125.875 l 127.367 -125.902 l 127.68 -125.961 l 127.742 -125.969 l 127.867
 -125.988 l 127.93 -126 l 128.117 -126.023 l 128.184 -126.031 l 128.242 
-126.035 l 128.309 -126.043 l 128.367 -126.047 l 128.434 -126.055 l 128.621
 -126.066 l 128.684 -126.066 l 128.746 -126.07 l 128.809 -126.07 l 128.871
 -126.074 l 129.121 -126.074 l 129.184 -126.07 l 129.246 -126.07 l 129.496
 -126.055 l 129.559 -126.047 l 129.621 -126.043 l 129.684 -126.035 l 129.746
 -126.031 l 129.871 -126.016 l 129.934 -126.004 l 129.996 -125.996 l 130.246
 -125.949 l 130.371 -125.922 l 130.434 -125.91 l 130.621 -125.863 l 130.875
 -125.789 l 130.934 -125.77 l 130.988 -125.75 l 131.105 -125.711 l 131.34
 -125.621 l 131.457 -125.574 l 131.867 -125.383 l 132.043 -125.289 l 132.277
 -125.156 l 132.742 -124.855 l 132.801 -124.812 l 132.859 -124.773 l 132.977
 -124.688 l 133.211 -124.504 l 133.68 -124.105 l 133.734 -124.055 l 133.797
 -124 l 133.91 -123.887 l 134.145 -123.656 l 134.613 -123.156 l 134.676 
-123.082 l 134.738 -123.012 l 134.867 -122.863 l 135.117 -122.551 l 135.625
 -121.887 l 135.688 -121.797 l 135.754 -121.711 l 135.879 -121.527 l 136.133
 -121.152 l 136.641 -120.359 l 136.891 -119.938 l 137.145 -119.496 l 137.652
 -118.574 l 138.664 -116.527 l 138.789 -116.262 l 138.914 -115.988 l 139.164
 -115.434 l 139.66 -114.277 l 140.656 -111.793 l 142.645 -106.199 l 142.762
 -105.848 l 142.875 -105.496 l 143.109 -104.785 l 143.57 -103.344 l 144.5
 -100.363 l 146.355 -94.148 l 146.605 -93.289 l 146.859 -92.43 l 147.359
 -90.711 l 148.367 -87.281 l 148.43 -87.066 l 148.492 -86.855 l 148.617 
-86.43 l 148.871 -85.586 l 149.371 -83.91 l 150.379 -80.656 l 150.438 -80.469
 l 150.496 -80.285 l 150.613 -79.914 l 150.848 -79.188 l 151.316 -77.758
 l 152.258 -75.043 l 152.316 -74.883 l 152.375 -74.719 l 152.492 -74.398
 l 152.727 -73.766 l 153.195 -72.547 l 154.137 -70.309 l 154.191 -70.18 
l 154.25 -70.051 l 154.367 -69.801 l 154.598 -69.312 l 155.055 -68.387 l
 155.172 -68.168 l 155.285 -67.953 l 155.516 -67.535 l 155.977 -66.766 l
 156.035 -66.672 l 156.094 -66.586 l 156.207 -66.406 l 156.438 -66.07 l 
156.496 -65.988 l 156.551 -65.91 l 156.668 -65.754 l 156.898 -65.461 l 156.953
 -65.391 l 157.012 -65.32 l 157.129 -65.184 l 157.359 -64.93 l 157.414 -64.867
 l 157.473 -64.809 l 157.59 -64.695 l 157.816 -64.484 l 157.879 -64.43 l
 158.066 -64.277 l 158.191 -64.184 l 158.316 -64.094 l 158.566 -63.938 l
 158.691 -63.867 l 158.816 -63.805 l 159.004 -63.723 l 159.129 -63.676 l
 159.316 -63.617 l 159.504 -63.57 l 159.629 -63.547 l 159.754 -63.531 l 
159.941 -63.52 l 160.129 -63.52 l 160.254 -63.527 l 160.441 -63.551 l 160.566
 -63.574 l 160.629 -63.59 l 160.691 -63.602 l 160.754 -63.617 l 160.879 
-63.656 l 161.129 -63.75 l 161.191 -63.777 l 161.316 -63.836 l 161.379 -63.867
 l 161.438 -63.898 l 161.562 -63.969 l 161.812 -64.125 l 161.871 -64.164
 l 161.93 -64.207 l 162.047 -64.289 l 162.34 -64.523 l 162.398 -64.574 l
 162.512 -64.68 l 162.746 -64.898 l 162.805 -64.961 l 162.863 -65.02 l 162.98
 -65.141 l 163.211 -65.398 l 163.68 -65.965 l 163.734 -66.039 l 163.797 
-66.117 l 163.91 -66.273 l 164.145 -66.598 l 164.609 -67.293 l 165.543 -68.863
 l 165.605 -68.977 l 165.668 -69.094 l 165.797 -69.328 l 166.047 -69.805
 l 166.555 -70.801 l 167.562 -72.953 l 169.586 -77.746 l 169.82 -78.34 l
 170.055 -78.938 l 170.527 -80.148 l 171.473 -82.621 l 173.359 -87.668 l
 177.059 -97.469 l 181.07 -107.145 l 181.129 -107.277 l 181.539 -108.18 
l 182.008 -109.195 l 182.945 -111.152 l 184.816 -114.805 l 184.883 -114.922
 l 184.945 -115.039 l 185.07 -115.27 l 185.324 -115.73 l 185.832 -116.629
 l 186.848 -118.352 l 186.91 -118.453 l 186.973 -118.559 l 187.102 -118.766
 l 187.355 -119.172 l 187.863 -119.969 l 188.879 -121.484 l 188.938 -121.574
 l 189 -121.664 l 189.375 -122.191 l 189.871 -122.879 l 190.867 -124.18 
l 191.117 -124.492 l 191.367 -124.797 l 191.863 -125.398 l 192.863 -126.531
 l 192.922 -126.594 l 192.977 -126.656 l 193.094 -126.781 l 193.324 -127.031
 l 193.789 -127.516 l 194.719 -128.438 l 194.953 -128.656 l 195.184 -128.871
 l 195.648 -129.293 l 196.578 -130.098 l 196.703 -130.199 l 196.832 -130.305
 l 197.082 -130.508 l 197.586 -130.902 l 198.594 -131.645 l 198.656 -131.691
 l 198.723 -131.734 l 198.848 -131.824 l 199.098 -131.996 l 199.602 -132.332
 l 200.609 -132.969 l 200.844 -133.109 l 201.082 -133.246 l 201.551 -133.516
 l 202.492 -134.023 l 202.609 -134.086 l 202.961 -134.262 l 203.434 -134.492
 l 204.371 -134.93 l 204.43 -134.953 l 204.488 -134.98 l 204.605 -135.031
 l 205.297 -135.324 l 206.219 -135.688 l 206.277 -135.711 l 206.332 -135.73
 l 206.449 -135.773 l 206.68 -135.859 l 207.141 -136.027 l 208.062 -136.34
 l 208.312 -136.418 l 208.562 -136.5 l 209.062 -136.652 l 210.062 -136.941
 l 210.129 -136.957 l 210.188 -136.973 l 210.312 -137.008 l 210.562 -137.074
 l 211.066 -137.203 l 212.066 -137.445 l 212.125 -137.461 l 212.184 -137.473
 l 212.301 -137.5 l 212.531 -137.551 l 213 -137.652 l 213.934 -137.848 l
 213.992 -137.855 l 214.051 -137.867 l 214.164 -137.891 l 214.398 -137.938
 l 214.867 -138.023 l 215.801 -138.188 l 215.863 -138.195 l 216.062 -138.23
 l 216.32 -138.273 l 216.844 -138.352 l 217.887 -138.508 l 217.949 -138.516
 l 218.016 -138.523 l 218.145 -138.543 l 218.406 -138.578 l 218.926 -138.645
 l 219.059 -138.66 l 219.188 -138.68 l 219.449 -138.711 l 219.516 -138.719
 l 219.578 -138.727 l 219.711 -138.742 l 219.773 -138.75 l 219.906 -138.766
 l 219.969 -138.773 l S Q
0.882353 0.611765 0.141176 rg
[ 3.456 3.456] 0 d
q 1 0 0 1 0 149 cm
30.156 -140.086 m 32.254 -140.086 l 32.484 -140.082 l 33.648 -140.082 l
 33.883 -140.078 l 34.137 -140.078 l 34.387 -140.074 l 34.891 -140.074 l
 34.957 -140.07 l 35.398 -140.07 l 35.461 -140.066 l 35.648 -140.066 l 35.902
 -140.062 l 36.156 -140.062 l 36.406 -140.059 l 36.469 -140.059 l 36.531
 -140.055 l 36.66 -140.055 l 36.91 -140.051 l 37.039 -140.051 l 37.164 -140.047
 l 37.418 -140.043 l 37.922 -140.031 l 38.039 -140.031 l 38.156 -140.027
 l 38.395 -140.023 l 38.453 -140.02 l 38.512 -140.02 l 38.629 -140.016 l
 38.863 -140.012 l 38.922 -140.008 l 38.984 -140.008 l 39.336 -139.996 l
 39.809 -139.98 l 39.867 -139.98 l 39.926 -139.977 l 40.277 -139.965 l 40.34
 -139.961 l 40.398 -139.957 l 40.75 -139.945 l 40.867 -139.938 l 40.984 
-139.934 l 41.223 -139.922 l 41.691 -139.895 l 41.75 -139.895 l 41.809 -139.891
 l 41.922 -139.883 l 42.156 -139.867 l 42.617 -139.836 l 42.734 -139.828
 l 42.848 -139.82 l 43.082 -139.805 l 43.543 -139.766 l 43.602 -139.762 
l 43.656 -139.758 l 43.773 -139.746 l 44.004 -139.727 l 44.465 -139.68 l
 45.391 -139.578 l 45.891 -139.516 l 46.395 -139.445 l 46.52 -139.43 l 47.395
 -139.293 l 47.461 -139.281 l 47.523 -139.273 l 47.648 -139.25 l 47.898 
-139.207 l 48.398 -139.113 l 49.402 -138.914 l 49.461 -138.902 l 49.52 -138.887
 l 49.637 -138.863 l 49.871 -138.809 l 50.34 -138.703 l 51.273 -138.469 
l 51.742 -138.344 l 52.211 -138.215 l 53.145 -137.938 l 53.207 -137.918 
l 53.273 -137.898 l 53.398 -137.859 l 53.652 -137.781 l 54.16 -137.617 l
 55.172 -137.277 l 57.203 -136.543 l 61.184 -134.965 l 64.898 -133.465 l
 68.93 -131.949 l 72.688 -130.715 l 72.746 -130.695 l 72.805 -130.68 l 72.918
 -130.645 l 73.148 -130.578 l 73.609 -130.441 l 74.531 -130.18 l 76.375 
-129.691 l 76.625 -129.629 l 76.875 -129.57 l 77.375 -129.449 l 78.375 -129.215
 l 80.375 -128.785 l 80.434 -128.777 l 80.492 -128.766 l 80.609 -128.738
 l 80.844 -128.695 l 81.309 -128.602 l 82.242 -128.43 l 84.109 -128.102 
l 84.172 -128.094 l 84.234 -128.082 l 84.359 -128.062 l 84.613 -128.02 l
 85.117 -127.941 l 86.129 -127.785 l 88.152 -127.496 l 92.125 -126.992 l
 95.828 -126.574 l 99.848 -126.145 l 103.598 -125.734 l 107.66 -125.258 
l 111.648 -124.727 l 111.766 -124.711 l 111.883 -124.691 l 112.113 -124.656
 l 112.578 -124.59 l 113.512 -124.445 l 115.371 -124.141 l 115.496 -124.117
 l 115.621 -124.098 l 115.875 -124.055 l 116.379 -123.965 l 117.391 -123.777
 l 119.406 -123.371 l 119.641 -123.324 l 119.879 -123.273 l 120.348 -123.168
 l 121.289 -122.953 l 123.172 -122.484 l 123.23 -122.473 l 123.289 -122.457
 l 123.402 -122.426 l 123.637 -122.363 l 124.098 -122.238 l 125.02 -121.977
 l 125.078 -121.957 l 125.137 -121.941 l 125.25 -121.906 l 125.48 -121.84
 l 125.945 -121.695 l 126.867 -121.402 l 126.93 -121.383 l 126.992 -121.359
 l 127.117 -121.32 l 127.867 -121.062 l 128.871 -120.699 l 129.371 -120.512
 l 129.871 -120.312 l 130.875 -119.902 l 130.934 -119.875 l 130.988 -119.852
 l 131.34 -119.699 l 131.809 -119.488 l 132.742 -119.055 l 132.801 -119.023
 l 132.859 -118.996 l 132.977 -118.938 l 133.211 -118.824 l 133.68 -118.586
 l 134.613 -118.09 l 134.738 -118.02 l 134.867 -117.945 l 135.117 -117.805
 l 135.625 -117.512 l 136.641 -116.891 l 136.703 -116.848 l 136.766 -116.809
 l 136.891 -116.727 l 137.145 -116.562 l 137.652 -116.223 l 138.664 -115.504
 l 139.164 -115.129 l 139.66 -114.742 l 140.656 -113.926 l 140.719 -113.871
 l 140.777 -113.82 l 141.152 -113.492 l 141.648 -113.047 l 142.645 -112.102
 l 142.762 -111.984 l 142.875 -111.867 l 143.109 -111.633 l 143.57 -111.152
 l 144.5 -110.137 l 144.559 -110.07 l 144.613 -110.004 l 144.73 -109.871
 l 144.965 -109.602 l 145.426 -109.051 l 146.355 -107.887 l 146.605 -107.559
 l 146.859 -107.227 l 147.359 -106.539 l 148.367 -105.09 l 150.379 -101.887
 l 150.496 -101.684 l 150.613 -101.484 l 150.848 -101.078 l 151.316 -100.246
 l 152.258 -98.52 l 154.137 -94.812 l 157.816 -86.887 l 158.316 -85.793 
l 158.816 -84.711 l 159.816 -82.594 l 159.941 -82.336 l 160.066 -82.082 
l 160.316 -81.57 l 160.816 -80.582 l 161.812 -78.723 l 161.871 -78.617 l
 161.93 -78.516 l 162.047 -78.316 l 162.281 -77.922 l 162.746 -77.172 l 
162.863 -76.992 l 162.98 -76.816 l 163.211 -76.477 l 163.68 -75.848 l 163.734
 -75.77 l 163.797 -75.695 l 163.91 -75.555 l 164.145 -75.277 l 164.203 -75.215
 l 164.262 -75.148 l 164.379 -75.023 l 164.609 -74.781 l 164.844 -74.562
 l 165.074 -74.363 l 165.137 -74.316 l 165.191 -74.27 l 165.309 -74.184 
l 165.543 -74.02 l 165.668 -73.941 l 165.797 -73.871 l 165.859 -73.836 l
 166.047 -73.742 l 166.109 -73.719 l 166.176 -73.691 l 166.238 -73.664 l
 166.301 -73.645 l 166.363 -73.621 l 166.426 -73.602 l 166.488 -73.586 l
 166.555 -73.57 l 166.68 -73.539 l 166.742 -73.527 l 166.867 -73.512 l 166.934
 -73.504 l 167.059 -73.496 l 167.246 -73.496 l 167.312 -73.5 l 167.375 -73.508
 l 167.438 -73.512 l 167.5 -73.52 l 167.688 -73.555 l 167.754 -73.57 l 167.816
 -73.59 l 167.879 -73.605 l 167.941 -73.629 l 168.066 -73.672 l 168.133 
-73.699 l 168.195 -73.723 l 168.32 -73.781 l 168.383 -73.816 l 168.445 -73.848
 l 168.574 -73.922 l 168.699 -74 l 168.824 -74.086 l 168.891 -74.133 l 168.953
 -74.18 l 169.078 -74.277 l 169.141 -74.328 l 169.203 -74.383 l 169.332 
-74.492 l 169.586 -74.738 l 169.645 -74.797 l 169.703 -74.859 l 169.82 -74.988
 l 170.055 -75.258 l 170.113 -75.332 l 170.176 -75.402 l 170.293 -75.555
 l 170.527 -75.867 l 170.586 -75.949 l 170.645 -76.035 l 170.762 -76.203
 l 171 -76.562 l 171.473 -77.332 l 171.59 -77.535 l 171.707 -77.746 l 171.941
 -78.18 l 172.414 -79.098 l 173.359 -81.121 l 173.414 -81.254 l 173.473 
-81.383 l 173.59 -81.652 l 173.82 -82.195 l 174.281 -83.316 l 175.207 -85.672
 l 177.059 -90.715 l 181.07 -101.906 l 181.129 -102.062 l 181.188 -102.223
 l 181.305 -102.535 l 181.539 -103.156 l 182.008 -104.383 l 182.945 -106.77
 l 183.004 -106.914 l 183.062 -107.062 l 183.18 -107.352 l 183.414 -107.926
 l 183.883 -109.055 l 184.816 -111.227 l 184.883 -111.371 l 184.945 -111.516
 l 185.07 -111.797 l 185.324 -112.359 l 185.832 -113.457 l 186.848 -115.547
 l 186.91 -115.676 l 186.973 -115.801 l 187.102 -116.051 l 187.355 -116.543
 l 187.863 -117.504 l 188.879 -119.328 l 188.938 -119.434 l 189 -119.543
 l 189.125 -119.754 l 189.375 -120.172 l 189.871 -120.992 l 190.867 -122.535
 l 190.93 -122.629 l 190.992 -122.719 l 191.117 -122.902 l 191.367 -123.266
 l 191.863 -123.965 l 192.863 -125.285 l 192.922 -125.359 l 192.977 -125.434
 l 193.094 -125.582 l 193.324 -125.867 l 193.789 -126.43 l 194.719 -127.488
 l 194.953 -127.738 l 195.184 -127.988 l 195.648 -128.469 l 196.578 -129.375
 l 196.703 -129.492 l 196.832 -129.609 l 197.082 -129.836 l 197.586 -130.281
 l 198.594 -131.113 l 198.656 -131.16 l 198.723 -131.211 l 199.098 -131.504
 l 199.602 -131.875 l 200.609 -132.578 l 200.668 -132.613 l 200.844 -132.73
 l 201.082 -132.883 l 201.551 -133.176 l 202.492 -133.73 l 202.609 -133.793
 l 202.727 -133.859 l 202.961 -133.988 l 203.434 -134.238 l 204.371 -134.707
 l 204.605 -134.816 l 205.297 -135.133 l 206.219 -135.523 l 206.277 -135.547
 l 206.332 -135.57 l 206.449 -135.617 l 206.68 -135.707 l 207.141 -135.883
 l 208.062 -136.215 l 208.125 -136.238 l 208.188 -136.258 l 208.562 -136.387
 l 209.062 -136.547 l 210.062 -136.848 l 210.129 -136.867 l 210.188 -136.887
 l 210.562 -136.992 l 211.066 -137.125 l 212.066 -137.379 l 212.125 -137.395
 l 212.184 -137.406 l 212.301 -137.438 l 212.531 -137.492 l 213 -137.598
 l 213.934 -137.797 l 214.051 -137.82 l 214.164 -137.844 l 214.398 -137.891
 l 214.867 -137.98 l 215.801 -138.148 l 215.863 -138.16 l 216.062 -138.195
 l 216.32 -138.238 l 216.844 -138.32 l 217.887 -138.48 l 217.949 -138.488
 l 218.016 -138.496 l 218.145 -138.516 l 218.406 -138.555 l 218.926 -138.621
 l 218.992 -138.633 l 219.059 -138.641 l 219.188 -138.656 l 219.449 -138.691
 l 219.516 -138.699 l 219.578 -138.707 l 219.711 -138.723 l 219.773 -138.73
 l 219.906 -138.746 l 219.969 -138.754 l S Q
  Q
Q
0 g
0.072 w
0 J
0 j
[] 0.0 d
3.25 M q 1 0 0 1 0 149 cm
30.156 -140.09 m 30.156 -137.719 l S Q
Q q
22.699 8.602 15.102 -8.602 re W n
q
22 9 16 -9 re W n
  q
0 g
23.703 4.312 m 23.703 5.043 23.777 5.629 23.93 6.078 c 24.082 6.527 24.305
 6.871 24.602 7.109 c 24.898 7.348 25.27 7.469 25.719 7.469 c 26.051 7.469
 26.344 7.402 26.594 7.266 c 26.844 7.129 27.051 6.938 27.219 6.688 c 27.387
 6.438 27.516 6.133 27.609 5.773 c 27.703 5.414 27.75 4.926 27.75 4.312 
c 27.75 3.582 27.676 2.996 27.523 2.547 c 27.371 2.098 27.148 1.754 26.852
 1.508 c 26.555 1.262 26.176 1.141 25.719 1.141 c 25.125 1.141 24.656 1.355
 24.312 1.781 c 23.906 2.301 23.703 3.145 23.703 4.312 c h
24.484 4.312 m 24.484 3.293 24.605 2.613 24.844 2.273 c 25.086 1.934 25.375
 1.766 25.719 1.766 c 26.074 1.766 26.371 1.934 26.609 2.273 c 26.848 2.613
 26.969 3.293 26.969 4.312 c 26.969 5.332 26.848 6.012 26.609 6.344 c 26.371
 6.676 26.074 6.844 25.719 6.844 c 25.363 6.844 25.086 6.691 24.875 6.391
 c 24.613 6.016 24.484 5.324 24.484 4.312 c f*
27.734 2.109 0.875 -0.859 re f*
29.109 4.312 m 29.109 5.043 29.184 5.629 29.336 6.078 c 29.488 6.527 29.711
 6.871 30.008 7.109 c 30.305 7.348 30.676 7.469 31.125 7.469 c 31.457 7.469
 31.75 7.402 32 7.266 c 32.25 7.129 32.457 6.938 32.625 6.688 c 32.793 6.438
 32.922 6.133 33.016 5.773 c 33.109 5.414 33.156 4.926 33.156 4.312 c 33.156
 3.582 33.082 2.996 32.93 2.547 c 32.777 2.098 32.555 1.754 32.258 1.508
 c 31.961 1.262 31.582 1.141 31.125 1.141 c 30.531 1.141 30.062 1.355 29.719
 1.781 c 29.312 2.301 29.109 3.145 29.109 4.312 c h
29.891 4.312 m 29.891 3.293 30.012 2.613 30.25 2.273 c 30.488 1.934 30.781
 1.766 31.125 1.766 c 31.48 1.766 31.777 1.934 32.016 2.273 c 32.254 2.613
 32.375 3.293 32.375 4.312 c 32.375 5.332 32.254 6.012 32.016 6.344 c 31.777
 6.676 31.48 6.844 31.125 6.844 c 30.77 6.844 30.488 6.691 30.281 6.391 
c 30.02 6.016 29.891 5.324 29.891 4.312 c f*
35.578 1.25 m 34.828 1.25 l 34.828 6.094 l 34.641 5.926 34.398 5.754 34.102
 5.578 c 33.805 5.402 33.535 5.27 33.297 5.188 c 33.297 5.922 l 33.723 6.121
 34.098 6.359 34.414 6.641 c 34.73 6.922 34.957 7.199 35.094 7.469 c 35.578
 7.469 l 35.578 1.25 l f*
  Q
Q
Q q
0 g
0.072 w
0 J
0 j
[] 0.0 d
3.25 M q 1 0 0 1 0 149 cm
81.473 -140.09 m 81.473 -137.719 l S Q
Q q
73.699 8.602 16.102 -8.602 re W n
q
73 9 17 -9 re W n
  q
0 g
75.02 4.312 m 75.02 5.043 75.094 5.629 75.246 6.078 c 75.395 6.527 75.621
 6.871 75.918 7.109 c 76.215 7.348 76.586 7.469 77.035 7.469 c 77.367 7.469
 77.66 7.402 77.91 7.266 c 78.16 7.129 78.367 6.938 78.535 6.688 c 78.703
 6.438 78.832 6.133 78.926 5.773 c 79.02 5.414 79.066 4.926 79.066 4.312
 c 79.066 3.582 78.988 2.996 78.84 2.547 c 78.688 2.098 78.465 1.754 78.168
 1.508 c 77.871 1.262 77.492 1.141 77.035 1.141 c 76.441 1.141 75.973 1.355
 75.629 1.781 c 75.223 2.301 75.02 3.145 75.02 4.312 c h
75.801 4.312 m 75.801 3.293 75.918 2.613 76.16 2.273 c 76.398 1.934 76.691
 1.766 77.035 1.766 c 77.387 1.766 77.684 1.934 77.926 2.273 c 78.164 2.613
 78.285 3.293 78.285 4.312 c 78.285 5.332 78.164 6.012 77.926 6.344 c 77.684
 6.676 77.387 6.844 77.035 6.844 c 76.68 6.844 76.398 6.691 76.191 6.391
 c 75.93 6.016 75.801 5.324 75.801 4.312 c f*
79.047 2.109 0.875 -0.859 re f*
83.285 1.25 m 82.535 1.25 l 82.535 6.094 l 82.348 5.926 82.105 5.754 81.809
 5.578 c 81.512 5.402 81.242 5.27 81.004 5.188 c 81.004 5.922 l 81.43 6.121
 81.801 6.359 82.121 6.641 c 82.438 6.922 82.664 7.199 82.797 7.469 c 83.285
 7.469 l 83.285 1.25 l f*
84.031 4.312 m 84.031 5.043 84.109 5.629 84.262 6.078 c 84.41 6.527 84.637
 6.871 84.934 7.109 c 85.23 7.348 85.602 7.469 86.047 7.469 c 86.383 7.469
 86.672 7.402 86.922 7.266 c 87.172 7.129 87.383 6.938 87.547 6.688 c 87.715
 6.438 87.848 6.133 87.941 5.773 c 88.031 5.414 88.082 4.926 88.082 4.312
 c 88.082 3.582 88.004 2.996 87.855 2.547 c 87.703 2.098 87.48 1.754 87.184
 1.508 c 86.887 1.262 86.508 1.141 86.047 1.141 c 85.457 1.141 84.984 1.355
 84.645 1.781 c 84.234 2.301 84.031 3.145 84.031 4.312 c h
84.816 4.312 m 84.816 3.293 84.934 2.613 85.172 2.273 c 85.414 1.934 85.707
 1.766 86.047 1.766 c 86.402 1.766 86.699 1.934 86.941 2.273 c 87.18 2.613
 87.297 3.293 87.297 4.312 c 87.297 5.332 87.18 6.012 86.941 6.344 c 86.699
 6.676 86.402 6.844 86.047 6.844 c 85.695 6.844 85.414 6.691 85.207 6.391
 c 84.945 6.016 84.816 5.324 84.816 4.312 c f*
  Q
Q
Q q
0 g
0.072 w
0 J
0 j
[] 0.0 d
3.25 M q 1 0 0 1 0 149 cm
132.785 -140.09 m 132.785 -137.719 l S Q
Q q
129.699 8.602 6.102 -8.602 re W n
q
129 9 7 -9 re W n
  q
0 g
133.699 1.25 m 132.949 1.25 l 132.949 6.094 l 132.762 5.926 132.52 5.754
 132.223 5.578 c 131.926 5.402 131.66 5.27 131.422 5.188 c 131.422 5.922
 l 131.848 6.121 132.219 6.359 132.535 6.641 c 132.855 6.922 133.082 7.199
 133.215 7.469 c 133.699 7.469 l 133.699 1.25 l f*
  Q
Q
Q q
0 g
0.072 w
0 J
0 j
[] 0.0 d
3.25 M q 1 0 0 1 0 149 cm
184.102 -140.09 m 184.102 -137.719 l S Q
Q q
178.699 8.602 10.102 -8.602 re W n
q
178 9 11 -9 re W n
  q
0 g
183.211 1.25 m 182.461 1.25 l 182.461 6.094 l 182.273 5.926 182.031 5.754
 181.734 5.578 c 181.438 5.402 181.172 5.27 180.93 5.188 c 180.93 5.922 
l 181.359 6.121 181.73 6.359 182.047 6.641 c 182.363 6.922 182.594 7.199
 182.727 7.469 c 183.211 7.469 l 183.211 1.25 l f*
183.961 4.312 m 183.961 5.043 184.035 5.629 184.188 6.078 c 184.34 6.527
 184.562 6.871 184.859 7.109 c 185.156 7.348 185.527 7.469 185.977 7.469
 c 186.309 7.469 186.602 7.402 186.852 7.266 c 187.102 7.129 187.309 6.938
 187.477 6.688 c 187.645 6.438 187.773 6.133 187.867 5.773 c 187.961 5.414
 188.008 4.926 188.008 4.312 c 188.008 3.582 187.934 2.996 187.781 2.547
 c 187.633 2.098 187.406 1.754 187.109 1.508 c 186.812 1.262 186.434 1.141
 185.977 1.141 c 185.383 1.141 184.914 1.355 184.57 1.781 c 184.164 2.301
 183.961 3.145 183.961 4.312 c h
184.742 4.312 m 184.742 3.293 184.863 2.613 185.102 2.273 c 185.344 1.934
 185.633 1.766 185.977 1.766 c 186.332 1.766 186.629 1.934 186.867 2.273
 c 187.105 2.613 187.227 3.293 187.227 4.312 c 187.227 5.332 187.105 6.012
 186.867 6.344 c 186.629 6.676 186.332 6.844 185.977 6.844 c 185.621 6.844
 185.344 6.691 185.133 6.391 c 184.871 6.016 184.742 5.324 184.742 4.312
 c f*
  Q
Q
Q q
0 g
0.072 w
0 J
0 j
[] 0.0 d
3.25 M q 1 0 0 1 0 149 cm
235.418 -140.09 m 235.418 -137.719 l S Q
Q q
228.699 8.602 14.102 -8.602 re W n
q
228 9 15 -9 re W n
  q
0 g
232.723 1.25 m 231.973 1.25 l 231.973 6.094 l 231.785 5.926 231.543 5.754
 231.246 5.578 c 230.949 5.402 230.68 5.27 230.441 5.188 c 230.441 5.922
 l 230.867 6.121 231.238 6.359 231.559 6.641 c 231.875 6.922 232.102 7.199
 232.238 7.469 c 232.723 7.469 l 232.723 1.25 l f*
233.473 4.312 m 233.473 5.043 233.547 5.629 233.699 6.078 c 233.848 6.527
 234.074 6.871 234.371 7.109 c 234.668 7.348 235.039 7.469 235.488 7.469
 c 235.82 7.469 236.113 7.402 236.363 7.266 c 236.613 7.129 236.82 6.938
 236.988 6.688 c 237.152 6.438 237.285 6.133 237.379 5.773 c 237.473 5.414
 237.52 4.926 237.52 4.312 c 237.52 3.582 237.441 2.996 237.293 2.547 c 
237.141 2.098 236.918 1.754 236.621 1.508 c 236.324 1.262 235.945 1.141 
235.488 1.141 c 234.895 1.141 234.426 1.355 234.082 1.781 c 233.676 2.301
 233.473 3.145 233.473 4.312 c h
234.254 4.312 m 234.254 3.293 234.371 2.613 234.613 2.273 c 234.852 1.934
 235.145 1.766 235.488 1.766 c 235.84 1.766 236.137 1.934 236.379 2.273 
c 236.617 2.613 236.738 3.293 236.738 4.312 c 236.738 5.332 236.617 6.012
 236.379 6.344 c 236.137 6.676 235.84 6.844 235.488 6.844 c 235.133 6.844
 234.852 6.691 234.645 6.391 c 234.383 6.016 234.254 5.324 234.254 4.312
 c f*
237.078 4.312 m 237.078 5.043 237.156 5.629 237.309 6.078 c 237.457 6.527
 237.684 6.871 237.98 7.109 c 238.277 7.348 238.648 7.469 239.098 7.469 
c 239.43 7.469 239.723 7.402 239.973 7.266 c 240.223 7.129 240.43 6.938 
240.598 6.688 c 240.762 6.438 240.895 6.133 240.988 5.773 c 241.078 5.414
 241.129 4.926 241.129 4.312 c 241.129 3.582 241.051 2.996 240.902 2.547
 c 240.75 2.098 240.527 1.754 240.23 1.508 c 239.934 1.262 239.555 1.141
 239.098 1.141 c 238.504 1.141 238.031 1.355 237.691 1.781 c 237.281 2.301
 237.078 3.145 237.078 4.312 c h
237.863 4.312 m 237.863 3.293 237.98 2.613 238.223 2.273 c 238.461 1.934
 238.754 1.766 239.098 1.766 c 239.449 1.766 239.746 1.934 239.988 2.273
 c 240.227 2.613 240.348 3.293 240.348 4.312 c 240.348 5.332 240.227 6.012
 239.988 6.344 c 239.746 6.676 239.449 6.844 239.098 6.844 c 238.742 6.844
 238.461 6.691 238.254 6.391 c 237.992 6.016 237.863 5.324 237.863 4.312
 c f*
  Q
Q
Q q
0 g
0.072 w
0 J
0 j
[] 0.0 d
3.25 M q 1 0 0 1 0 149 cm
9.738 -140.09 m 9.738 -138.902 l S Q
q 1 0 0 1 0 149 cm
14.711 -140.09 m 14.711 -138.902 l S Q
q 1 0 0 1 0 149 cm
18.773 -140.09 m 18.773 -138.902 l S Q
q 1 0 0 1 0 149 cm
22.207 -140.09 m 22.207 -138.902 l S Q
q 1 0 0 1 0 149 cm
25.184 -140.09 m 25.184 -138.902 l S Q
q 1 0 0 1 0 149 cm
27.809 -140.09 m 27.809 -138.902 l S Q
q 1 0 0 1 0 149 cm
45.605 -140.09 m 45.605 -138.902 l S Q
q 1 0 0 1 0 149 cm
54.641 -140.09 m 54.641 -138.902 l S Q
q 1 0 0 1 0 149 cm
61.051 -140.09 m 61.051 -138.902 l S Q
q 1 0 0 1 0 149 cm
66.023 -140.09 m 66.023 -138.902 l S Q
q 1 0 0 1 0 149 cm
70.09 -140.09 m 70.09 -138.902 l S Q
q 1 0 0 1 0 149 cm
73.523 -140.09 m 73.523 -138.902 l S Q
q 1 0 0 1 0 149 cm
76.5 -140.09 m 76.5 -138.902 l S Q
q 1 0 0 1 0 149 cm
79.125 -140.09 m 79.125 -138.902 l S Q
q 1 0 0 1 0 149 cm
96.918 -140.09 m 96.918 -138.902 l S Q
q 1 0 0 1 0 149 cm
105.953 -140.09 m 105.953 -138.902 l S Q
q 1 0 0 1 0 149 cm
112.367 -140.09 m 112.367 -138.902 l S Q
q 1 0 0 1 0 149 cm
117.34 -140.09 m 117.34 -138.902 l S Q
q 1 0 0 1 0 149 cm
121.402 -140.09 m 121.402 -138.902 l S Q
q 1 0 0 1 0 149 cm
124.84 -140.09 m 124.84 -138.902 l S Q
q 1 0 0 1 0 149 cm
127.812 -140.09 m 127.812 -138.902 l S Q
q 1 0 0 1 0 149 cm
130.438 -140.09 m 130.438 -138.902 l S Q
q 1 0 0 1 0 149 cm
148.234 -140.09 m 148.234 -138.902 l S Q
q 1 0 0 1 0 149 cm
157.27 -140.09 m 157.27 -138.902 l S Q
q 1 0 0 1 0 149 cm
163.684 -140.09 m 163.684 -138.902 l S Q
q 1 0 0 1 0 149 cm
168.656 -140.09 m 168.656 -138.902 l S Q
q 1 0 0 1 0 149 cm
172.719 -140.09 m 172.719 -138.902 l S Q
q 1 0 0 1 0 149 cm
176.152 -140.09 m 176.152 -138.902 l S Q
q 1 0 0 1 0 149 cm
179.129 -140.09 m 179.129 -138.902 l S Q
q 1 0 0 1 0 149 cm
181.754 -140.09 m 181.754 -138.902 l S Q
q 1 0 0 1 0 149 cm
199.551 -140.09 m 199.551 -138.902 l S Q
q 1 0 0 1 0 149 cm
208.586 -140.09 m 208.586 -138.902 l S Q
q 1 0 0 1 0 149 cm
214.996 -140.09 m 214.996 -138.902 l S Q
q 1 0 0 1 0 149 cm
219.969 -140.09 m 219.969 -138.902 l S Q
q 1 0 0 1 0 149 cm
224.031 -140.09 m 224.031 -138.902 l S Q
q 1 0 0 1 0 149 cm
227.469 -140.09 m 227.469 -138.902 l S Q
q 1 0 0 1 0 149 cm
230.445 -140.09 m 230.445 -138.902 l S Q
q 1 0 0 1 0 149 cm
233.07 -140.09 m 233.07 -138.902 l S Q
0.36 w
q 1 0 0 1 0 149 cm
6.43 -140.09 m 243.695 -140.09 l S Q
Q q
247.699 14.602 15.301 -11.102 re W n
q
247 15 16 -12 re W n
  q
0 g
251.207 7.59 m 251.207 13.059 l 249.16 13.059 l 249.16 13.793 l 254.066
 13.793 l 254.066 13.059 l 252.02 13.059 l 252.02 7.59 l 251.207 7.59 l f*
257.301 5.777 m 256.77 5.777 l 256.539 6.059 256.332 6.363 256.145 6.684
 c 255.957 7.008 255.797 7.34 255.668 7.684 c 255.535 8.027 255.434 8.379
 255.363 8.738 c 255.289 9.098 255.254 9.461 255.254 9.824 c 255.254 10.199
 255.289 10.566 255.363 10.926 c 255.434 11.285 255.539 11.637 255.676 11.98
 c 255.809 12.324 255.969 12.656 256.152 12.973 c 256.332 13.293 256.539
 13.598 256.77 13.887 c 257.301 13.887 l 257.102 13.566 256.926 13.246 256.77
 12.926 c 256.613 12.609 256.48 12.285 256.371 11.957 c 256.262 11.629 256.18
 11.293 256.129 10.941 c 256.074 10.594 256.051 10.227 256.051 9.84 c 256.051
 9.477 256.078 9.117 256.137 8.762 c 256.191 8.41 256.277 8.059 256.387 
7.715 c 256.496 7.371 256.629 7.039 256.785 6.715 c 256.941 6.395 257.113
 6.082 257.301 5.777 c f*
257.473 7.59 m 257.473 13.793 l 258.223 13.793 l 258.223 10.246 l 260.035
 12.074 l 261.02 12.074 l 259.301 10.418 l 261.191 7.59 l 260.254 7.59 l
 258.77 9.887 l 258.223 9.371 l 258.223 7.59 l 257.473 7.59 l f*
262.504 9.824 m 262.504 9.461 262.469 9.098 262.395 8.738 c 262.32 8.379
 262.219 8.027 262.09 7.684 c 261.961 7.34 261.801 7.012 261.613 6.691 c
 261.426 6.375 261.223 6.07 261.004 5.777 c 260.457 5.777 l 260.652 6.102
 260.832 6.422 260.988 6.738 c 261.145 7.059 261.277 7.379 261.387 7.707
 c 261.496 8.035 261.578 8.375 261.637 8.723 c 261.691 9.074 261.723 9.441
 261.723 9.824 c 261.723 10.18 261.691 10.535 261.629 10.895 c 261.566 11.254
 261.48 11.605 261.371 11.941 c 261.262 12.281 261.129 12.613 260.973 12.941
 c 260.816 13.27 260.645 13.586 260.457 13.887 c 261.004 13.887 l 261.234
 13.605 261.438 13.305 261.621 12.98 c 261.805 12.66 261.961 12.324 262.09
 11.98 c 262.219 11.637 262.32 11.285 262.395 10.926 c 262.469 10.566 262.504
 10.199 262.504 9.824 c f*
  Q
Q
Q q
0 g
0.36 w
0 J
0 j
[] 0.0 d
3.25 M q 1 0 0 1 0 149 cm
11.176 -140.09 m 13.703 -140.09 l S Q
q 1 0 0 1 0 149 cm
11.176 -134.156 m 12.691 -134.156 l S Q
q 1 0 0 1 0 149 cm
11.176 -128.227 m 12.691 -128.227 l S Q
q 1 0 0 1 0 149 cm
11.176 -122.293 m 12.691 -122.293 l S Q
q 1 0 0 1 0 149 cm
11.176 -116.363 m 12.691 -116.363 l S Q
q 1 0 0 1 0 149 cm
11.176 -110.434 m 13.703 -110.434 l S Q
Q q
0 43.602 10.801 -10.102 re W n
q
0 44 11 -11 re W n
  q
0 g
-0.141 39.504 m -0.141 40.234 -0.066 40.824 0.086 41.27 c 0.238 41.719 
0.461 42.062 0.758 42.301 c 1.055 42.543 1.426 42.66 1.875 42.66 c 2.207
 42.66 2.5 42.594 2.75 42.461 c 3 42.324 3.207 42.133 3.375 41.883 c 3.543
 41.633 3.672 41.328 3.766 40.965 c 3.859 40.605 3.906 40.121 3.906 39.504
 c 3.906 38.777 3.832 38.188 3.68 37.738 c 3.527 37.293 3.305 36.945 3.008
 36.703 c 2.711 36.457 2.332 36.336 1.875 36.336 c 1.281 36.336 0.812 36.547
 0.469 36.973 c 0.062 37.496 -0.141 38.34 -0.141 39.504 c h
0.641 39.504 m 0.641 38.484 0.762 37.805 1 37.465 c 1.238 37.129 1.531 
36.961 1.875 36.961 c 2.23 36.961 2.527 37.129 2.766 37.465 c 3.004 37.805
 3.125 38.484 3.125 39.504 c 3.125 40.527 3.004 41.203 2.766 41.535 c 2.527
 41.871 2.23 42.035 1.875 42.035 c 1.52 42.035 1.238 41.887 1.031 41.586
 c 0.77 41.211 0.641 40.516 0.641 39.504 c f*
3.891 37.301 0.875 -0.859 re f*
8.125 36.441 m 7.375 36.441 l 7.375 41.285 l 7.188 41.121 6.945 40.949 
6.648 40.77 c 6.352 40.594 6.082 40.465 5.844 40.383 c 5.844 41.113 l 6.27
 41.312 6.645 41.551 6.961 41.836 c 7.277 42.113 7.504 42.391 7.641 42.66
 c 8.125 42.66 l 8.125 36.441 l f*
  Q
Q
Q q
0 g
0.36 w
0 J
0 j
[] 0.0 d
3.25 M q 1 0 0 1 0 149 cm
11.176 -104.5 m 12.691 -104.5 l S Q
q 1 0 0 1 0 149 cm
11.176 -98.566 m 12.691 -98.566 l S Q
q 1 0 0 1 0 149 cm
11.176 -92.637 m 12.691 -92.637 l S Q
q 1 0 0 1 0 149 cm
11.176 -86.707 m 12.691 -86.707 l S Q
q 1 0 0 1 0 149 cm
11.176 -80.773 m 13.703 -80.773 l S Q
Q q
0 73.602 10.801 -10.102 re W n
q
0 74 11 -11 re W n
  q
0 g
-0.141 69.164 m -0.141 69.895 -0.066 70.48 0.086 70.93 c 0.238 71.379 0.461
 71.723 0.758 71.961 c 1.055 72.203 1.426 72.32 1.875 72.32 c 2.207 72.32
 2.5 72.254 2.75 72.117 c 3 71.98 3.207 71.789 3.375 71.539 c 3.543 71.289
 3.672 70.984 3.766 70.625 c 3.859 70.266 3.906 69.777 3.906 69.164 c 3.906
 68.434 3.832 67.848 3.68 67.398 c 3.527 66.953 3.305 66.605 3.008 66.359
 c 2.711 66.113 2.332 65.992 1.875 65.992 c 1.281 65.992 0.812 66.207 0.469
 66.633 c 0.062 67.152 -0.141 67.996 -0.141 69.164 c h
0.641 69.164 m 0.641 68.145 0.762 67.465 1 67.125 c 1.238 66.785 1.531 
66.617 1.875 66.617 c 2.23 66.617 2.527 66.785 2.766 67.125 c 3.004 67.465
 3.125 68.145 3.125 69.164 c 3.125 70.184 3.004 70.863 2.766 71.195 c 2.527
 71.527 2.23 71.695 1.875 71.695 c 1.52 71.695 1.238 71.543 1.031 71.242
 c 0.77 70.867 0.641 70.176 0.641 69.164 c f*
3.891 66.961 0.875 -0.859 re f*
9.266 66.836 m 9.266 66.102 l 5.172 66.102 l 5.16 66.289 5.188 66.469 5.25
 66.633 c 5.355 66.914 5.523 67.191 5.758 67.461 c 5.992 67.73 6.324 68.043
 6.75 68.398 c 7.426 68.953 7.883 69.387 8.117 69.711 c 8.352 70.035 8.469
 70.336 8.469 70.617 c 8.469 70.918 8.363 71.176 8.148 71.383 c 7.934 71.594
 7.656 71.695 7.312 71.695 c 6.938 71.695 6.641 71.586 6.422 71.367 c 6.203
 71.148 6.094 70.844 6.094 70.445 c 5.312 70.523 l 5.363 71.105 5.566 71.555
 5.914 71.859 c 6.262 72.168 6.734 72.32 7.328 72.32 c 7.922 72.32 8.391
 72.156 8.734 71.828 c 9.078 71.5 9.25 71.094 9.25 70.602 c 9.25 70.352 
9.199 70.105 9.102 69.867 c 9 69.629 8.836 69.375 8.602 69.109 c 8.367 68.844
 7.973 68.48 7.422 68.023 c 6.961 67.637 6.672 67.379 6.547 67.242 c 6.422
 67.105 6.312 66.973 6.219 66.836 c 9.266 66.836 l f*
  Q
Q
Q q
0 g
0.36 w
0 J
0 j
[] 0.0 d
3.25 M q 1 0 0 1 0 149 cm
11.176 -74.844 m 12.691 -74.844 l S Q
q 1 0 0 1 0 149 cm
11.176 -68.91 m 12.691 -68.91 l S Q
q 1 0 0 1 0 149 cm
11.176 -62.98 m 12.691 -62.98 l S Q
q 1 0 0 1 0 149 cm
11.176 -57.047 m 12.691 -57.047 l S Q
q 1 0 0 1 0 149 cm
11.176 -51.113 m 13.703 -51.113 l S Q
Q q
0 102.602 10.801 -10.102 re W n
q
0 103 11 -11 re W n
  q
0 g
-0.141 98.82 m -0.141 99.551 -0.066 100.141 0.086 100.59 c 0.238 101.035
 0.461 101.379 0.758 101.617 c 1.055 101.859 1.426 101.98 1.875 101.98 c
 2.207 101.98 2.5 101.91 2.75 101.777 c 3 101.641 3.207 101.449 3.375 101.199
 c 3.543 100.949 3.672 100.645 3.766 100.281 c 3.859 99.922 3.906 99.438
 3.906 98.82 c 3.906 98.094 3.832 97.504 3.68 97.059 c 3.527 96.609 3.305
 96.262 3.008 96.02 c 2.711 95.773 2.332 95.652 1.875 95.652 c 1.281 95.652
 0.812 95.863 0.469 96.289 c 0.062 96.812 -0.141 97.656 -0.141 98.82 c h
0.641 98.82 m 0.641 97.801 0.762 97.121 1 96.781 c 1.238 96.445 1.531 96.277
 1.875 96.277 c 2.23 96.277 2.527 96.445 2.766 96.781 c 3.004 97.121 3.125
 97.801 3.125 98.82 c 3.125 99.844 3.004 100.52 2.766 100.855 c 2.527 101.188
 2.23 101.355 1.875 101.355 c 1.52 101.355 1.238 101.203 1.031 100.902 c
 0.77 100.527 0.641 99.832 0.641 98.82 c f*
3.891 96.621 0.875 -0.859 re f*
5.266 97.402 m 6.031 97.492 l 6.113 97.066 6.262 96.758 6.477 96.566 c 
6.691 96.371 6.949 96.277 7.25 96.277 c 7.605 96.277 7.902 96.402 8.148 
96.652 c 8.395 96.902 8.516 97.207 8.516 97.57 c 8.516 97.926 8.402 98.215
 8.172 98.441 c 7.941 98.664 7.656 98.777 7.312 98.777 c 7.168 98.777 6.984
 98.75 6.766 98.699 c 6.859 99.355 l 6.984 99.355 l 7.309 99.355 7.598 99.438
 7.852 99.605 c 8.105 99.77 8.234 100.031 8.234 100.387 c 8.234 100.664 
8.141 100.898 7.953 101.078 c 7.766 101.262 7.527 101.355 7.234 101.355 
c 6.934 101.355 6.684 101.262 6.484 101.07 c 6.285 100.887 6.16 100.609 
6.109 100.242 c 5.344 100.367 l 5.438 100.879 5.648 101.277 5.977 101.559
 c 6.305 101.84 6.711 101.98 7.203 101.98 c 7.547 101.98 7.863 101.906 8.148
 101.762 c 8.434 101.613 8.652 101.414 8.797 101.164 c 8.941 100.914 9.016
 100.652 9.016 100.367 c 9.016 100.098 8.945 99.855 8.805 99.637 c 8.664
 99.414 8.453 99.242 8.172 99.117 c 8.535 99.035 8.82 98.863 9.023 98.598
 c 9.227 98.332 9.328 97.992 9.328 97.59 c 9.328 97.047 9.129 96.59 8.734
 96.215 c 8.336 95.84 7.836 95.652 7.234 95.652 c 6.691 95.652 6.242 95.812
 5.883 96.137 c 5.523 96.457 5.316 96.879 5.266 97.402 c f*
  Q
Q
Q q
0 g
0.36 w
0 J
0 j
[] 0.0 d
3.25 M q 1 0 0 1 0 149 cm
11.176 -45.184 m 12.691 -45.184 l S Q
q 1 0 0 1 0 149 cm
11.176 -39.254 m 12.691 -39.254 l S Q
q 1 0 0 1 0 149 cm
11.176 -33.32 m 12.691 -33.32 l S Q
q 1 0 0 1 0 149 cm
11.176 -27.391 m 12.691 -27.391 l S Q
q 1 0 0 1 0 149 cm
11.176 -21.457 m 13.703 -21.457 l S Q
Q q
0 132.602 10.801 -10.102 re W n
q
0 133 11 -11 re W n
  q
0 g
-0.141 128.48 m -0.141 129.211 -0.066 129.797 0.086 130.246 c 0.238 130.695
 0.461 131.039 0.758 131.277 c 1.055 131.516 1.426 131.637 1.875 131.637
 c 2.207 131.637 2.5 131.57 2.75 131.434 c 3 131.297 3.207 131.105 3.375
 130.855 c 3.543 130.605 3.672 130.301 3.766 129.941 c 3.859 129.582 3.906
 129.094 3.906 128.48 c 3.906 127.75 3.832 127.164 3.68 126.715 c 3.527 
126.266 3.305 125.922 3.008 125.676 c 2.711 125.43 2.332 125.309 1.875 125.309
 c 1.281 125.309 0.812 125.523 0.469 125.949 c 0.062 126.469 -0.141 127.312
 -0.141 128.48 c h
0.641 128.48 m 0.641 127.461 0.762 126.781 1 126.441 c 1.238 126.102 1.531
 125.934 1.875 125.934 c 2.23 125.934 2.527 126.102 2.766 126.441 c 3.004
 126.781 3.125 127.461 3.125 128.48 c 3.125 129.5 3.004 130.18 2.766 130.512
 c 2.527 130.844 2.23 131.012 1.875 131.012 c 1.52 131.012 1.238 130.859
 1.031 130.559 c 0.77 130.184 0.641 129.492 0.641 128.48 c f*
3.891 126.277 0.875 -0.859 re f*
7.703 125.418 m 7.703 126.902 l 5.016 126.902 l 5.016 127.605 l 7.844 131.621
 l 8.469 131.621 l 8.469 127.605 l 9.297 127.605 l 9.297 126.902 l 8.469
 126.902 l 8.469 125.418 l h
7.703 127.605 m 7.703 130.387 l 5.766 127.605 l 7.703 127.605 l f*
  Q
Q
Q q
0 g
0.36 w
0 J
0 j
[] 0.0 d
3.25 M q 1 0 0 1 0 149 cm
11.176 -140.09 m 11.176 -21.457 l S Q
Q q
7.719 140.523 7 -10 re W n
q
7 141 8 -11 re W n
  q
0 g
13.426 135.285 m 14.238 135.082 l 14.07 134.406 13.766 133.891 13.316 133.535
 c 12.867 133.18 12.32 133.004 11.676 133.004 c 11.008 133.004 10.469 133.141
 10.051 133.41 c 9.633 133.68 9.316 134.074 9.098 134.59 c 8.879 135.105
 8.77 135.66 8.77 136.254 c 8.77 136.898 8.891 137.461 9.137 137.941 c 9.383
 138.422 9.73 138.785 10.184 139.035 c 10.637 139.285 11.141 139.41 11.691
 139.41 c 12.305 139.41 12.824 139.254 13.246 138.941 c 13.668 138.629 13.961
 138.188 14.129 137.613 c 13.332 137.426 l 13.188 137.871 12.977 138.199
 12.699 138.402 c 12.422 138.605 12.082 138.707 11.676 138.707 c 11.195 
138.707 10.797 138.594 10.48 138.371 c 10.164 138.148 9.938 137.844 9.809
 137.457 c 9.68 137.07 9.613 136.676 9.613 136.27 c 9.613 135.738 9.688 
135.273 9.84 134.879 c 9.992 134.484 10.227 134.188 10.551 133.996 c 10.875
 133.805 11.227 133.707 11.613 133.707 c 12.07 133.707 12.461 133.84 12.777
 134.105 c 13.094 134.371 13.312 134.766 13.426 135.285 c f*
  Q
Q
Q q
77.699 149 94.102 -11.5 re W n
q
77 149 95 -12 re W n
  q
0 g
79.766 142.113 m 79.766 149.535 l 80.75 149.535 l 80.75 146.488 l 84.609
 146.488 l 84.609 149.535 l 85.594 149.535 l 85.594 142.113 l 84.609 142.113
 l 84.609 145.613 l 80.75 145.613 l 80.75 142.113 l 79.766 142.113 l f*
88.922 143.848 m 89.875 143.723 l 89.73 143.18 89.453 142.758 89.047 142.449
 c 88.641 142.141 88.125 141.988 87.5 141.988 c 86.719 141.988 86.098 142.23
 85.633 142.715 c 85.168 143.199 84.938 143.879 84.938 144.754 c 84.938 
145.66 85.172 146.363 85.641 146.863 c 86.109 147.363 86.715 147.613 87.453
 147.613 c 88.172 147.613 88.762 147.367 89.219 146.879 c 89.68 146.391 
89.906 145.703 89.906 144.816 c 89.906 144.766 89.902 144.68 89.891 144.566
 c 85.891 144.566 l 85.922 143.984 86.09 143.531 86.391 143.215 c 86.691
 142.898 87.066 142.738 87.516 142.738 c 87.848 142.738 88.133 142.828 88.367
 143.004 c 88.602 143.18 88.785 143.461 88.922 143.848 c h
85.938 145.316 m 88.938 145.316 l 88.895 145.773 88.781 146.113 88.594 
146.332 c 88.305 146.688 87.93 146.863 87.469 146.863 c 87.055 146.863 86.703
 146.723 86.414 146.441 c 86.129 146.16 85.969 145.785 85.938 145.316 c f*
93.078 142.77 m 92.746 142.488 92.422 142.285 92.109 142.168 c 91.797 142.047
 91.465 141.988 91.109 141.988 c 90.516 141.988 90.059 142.133 89.742 142.426
 c 89.426 142.719 89.266 143.086 89.266 143.535 c 89.266 143.797 89.328 
144.035 89.445 144.254 c 89.566 144.473 89.723 144.648 89.914 144.777 c 
90.105 144.906 90.328 145.008 90.578 145.082 c 90.758 145.121 91.027 145.164
 91.391 145.207 c 92.121 145.301 92.66 145.41 93.016 145.535 c 93.016 145.77
 l 93.016 146.133 92.926 146.395 92.75 146.551 c 92.52 146.758 92.176 146.863
 91.719 146.863 c 91.293 146.863 90.977 146.785 90.773 146.637 c 90.57 146.484
 90.418 146.219 90.312 145.832 c 89.422 145.957 l 89.508 146.344 89.637 
146.652 89.82 146.887 c 90.004 147.121 90.27 147.301 90.625 147.426 c 90.98
 147.551 91.387 147.613 91.844 147.613 c 92.301 147.613 92.676 147.559 92.969
 147.449 c 93.262 147.34 93.473 147.203 93.602 147.043 c 93.73 146.883 93.828
 146.676 93.891 146.426 c 93.922 146.27 93.938 145.988 93.938 145.582 c 
93.938 144.363 l 93.938 143.52 93.957 142.984 93.992 142.762 c 94.027 142.535
 94.105 142.32 94.219 142.113 c 93.266 142.113 l 93.172 142.301 93.109 142.52
 93.078 142.77 c h
93.016 144.816 m 92.684 144.68 92.184 144.566 91.516 144.473 c 91.141 144.422
 90.875 144.359 90.719 144.293 c 90.562 144.227 90.441 144.125 90.359 143.996
 c 90.277 143.867 90.234 143.719 90.234 143.551 c 90.234 143.312 90.328 
143.109 90.516 142.949 c 90.703 142.785 90.973 142.707 91.328 142.707 c 
91.672 142.707 91.98 142.781 92.258 142.934 c 92.535 143.086 92.734 143.297
 92.859 143.566 c 92.965 143.773 93.016 144.078 93.016 144.473 c 93.016 
144.816 l f*
95.891 142.926 m 96.031 142.129 l 95.77 142.066 95.543 142.035 95.344 142.035
 c 95.012 142.035 94.754 142.09 94.57 142.199 c 94.387 142.309 94.258 142.445
 94.18 142.613 c 94.102 142.781 94.062 143.141 94.062 143.691 c 94.062 146.785
 l 93.406 146.785 l 93.406 147.488 l 94.062 147.488 l 94.062 148.832 l 94.984
 149.379 l 94.984 147.488 l 95.891 147.488 l 95.891 146.785 l 94.984 146.785
 l 94.984 143.645 l 94.984 143.383 95 143.215 95.031 143.137 c 95.062 143.059
 95.113 142.996 95.188 142.957 c 95.262 142.914 95.363 142.895 95.5 142.895
 c 95.594 142.895 95.723 142.906 95.891 142.926 c f*
101.719 144.082 m 102.625 143.973 l 102.523 143.348 102.27 142.859 101.867
 142.512 c 101.469 142.164 100.977 141.988 100.391 141.988 c 99.652 141.988
 99.059 142.23 98.609 142.715 c 98.16 143.199 97.938 143.891 97.938 144.785
 c 97.938 145.367 98.035 145.875 98.227 146.309 c 98.418 146.742 98.711 
147.066 99.102 147.285 c 99.492 147.504 99.922 147.613 100.391 147.613 c
 100.977 147.613 101.449 147.465 101.82 147.168 c 102.191 146.871 102.43
 146.453 102.531 145.91 c 101.656 145.77 l 101.562 146.133 101.41 146.406
 101.195 146.59 c 100.984 146.773 100.727 146.863 100.422 146.863 c 99.965
 146.863 99.594 146.699 99.305 146.371 c 99.02 146.043 98.875 145.52 98.875
 144.801 c 98.875 144.082 99.016 143.559 99.289 143.23 c 99.566 142.902 
99.93 142.738 100.375 142.738 c 100.73 142.738 101.027 142.848 101.266 143.066
 c 101.508 143.285 101.656 143.621 101.719 144.082 c f*
105.609 142.77 m 105.277 142.488 104.953 142.285 104.641 142.168 c 104.328
 142.047 103.996 141.988 103.641 141.988 c 103.047 141.988 102.594 142.133
 102.273 142.426 c 101.957 142.719 101.797 143.086 101.797 143.535 c 101.797
 143.797 101.859 144.035 101.977 144.254 c 102.098 144.473 102.254 144.648
 102.445 144.777 c 102.641 144.906 102.859 145.008 103.109 145.082 c 103.289
 145.121 103.559 145.164 103.922 145.207 c 104.652 145.301 105.195 145.41
 105.547 145.535 c 105.547 145.77 l 105.547 146.133 105.461 146.395 105.281
 146.551 c 105.055 146.758 104.711 146.863 104.25 146.863 c 103.824 146.863
 103.508 146.785 103.305 146.637 c 103.102 146.484 102.949 146.219 102.844
 145.832 c 101.953 145.957 l 102.039 146.344 102.172 146.652 102.352 146.887
 c 102.535 147.121 102.805 147.301 103.156 147.426 c 103.512 147.551 103.918
 147.613 104.375 147.613 c 104.836 147.613 105.211 147.559 105.5 147.449
 c 105.793 147.34 106.004 147.203 106.133 147.043 c 106.266 146.883 106.359
 146.676 106.422 146.426 c 106.453 146.27 106.469 145.988 106.469 145.582
 c 106.469 144.363 l 106.469 143.52 106.488 142.984 106.523 142.762 c 106.562
 142.535 106.637 142.32 106.75 142.113 c 105.797 142.113 l 105.703 142.301
 105.641 142.52 105.609 142.77 c h
105.547 144.816 m 105.215 144.68 104.715 144.566 104.047 144.473 c 103.672
 144.422 103.406 144.359 103.25 144.293 c 103.094 144.227 102.977 144.125
 102.891 143.996 c 102.809 143.867 102.766 143.719 102.766 143.551 c 102.766
 143.312 102.859 143.109 103.047 142.949 c 103.234 142.785 103.508 142.707
 103.859 142.707 c 104.203 142.707 104.516 142.781 104.789 142.934 c 105.066
 143.086 105.266 143.297 105.391 143.566 c 105.496 143.773 105.547 144.078
 105.547 144.473 c 105.547 144.816 l f*
106.438 140.051 m 106.438 147.488 l 107.266 147.488 l 107.266 146.801 l
 107.465 147.07 107.688 147.273 107.93 147.41 c 108.176 147.547 108.477 
147.613 108.828 147.613 c 109.285 147.613 109.691 147.496 110.039 147.262
 c 110.391 147.027 110.656 146.695 110.836 146.262 c 111.02 145.828 111.109
 145.359 111.109 144.848 c 111.109 144.297 111.012 143.797 110.812 143.355
 c 110.617 142.91 110.328 142.574 109.945 142.34 c 109.566 142.105 109.172
 141.988 108.766 141.988 c 108.453 141.988 108.18 142.055 107.938 142.184
 c 107.699 142.312 107.5 142.477 107.344 142.676 c 107.344 140.051 l h
107.266 144.77 m 107.266 144.082 107.406 143.57 107.68 143.238 c 107.957
 142.906 108.297 142.738 108.703 142.738 c 109.109 142.738 109.457 142.91
 109.742 143.254 c 110.031 143.598 110.172 144.129 110.172 144.848 c 110.172
 145.535 110.031 146.047 109.75 146.387 c 109.469 146.727 109.133 146.895
 108.734 146.895 c 108.352 146.895 108.008 146.715 107.711 146.355 c 107.414
 145.996 107.266 145.469 107.266 144.77 c f*
114.266 142.77 m 113.934 142.488 113.609 142.285 113.297 142.168 c 112.984
 142.047 112.652 141.988 112.297 141.988 c 111.703 141.988 111.246 142.133
 110.93 142.426 c 110.613 142.719 110.453 143.086 110.453 143.535 c 110.453
 143.797 110.516 144.035 110.633 144.254 c 110.754 144.473 110.91 144.648
 111.102 144.777 c 111.297 144.906 111.516 145.008 111.766 145.082 c 111.945
 145.121 112.215 145.164 112.578 145.207 c 113.309 145.301 113.852 145.41
 114.203 145.535 c 114.203 145.77 l 114.203 146.133 114.113 146.395 113.938
 146.551 c 113.711 146.758 113.363 146.863 112.906 146.863 c 112.48 146.863
 112.164 146.785 111.961 146.637 c 111.758 146.484 111.605 146.219 111.5
 145.832 c 110.609 145.957 l 110.695 146.344 110.824 146.652 111.008 146.887
 c 111.191 147.121 111.461 147.301 111.812 147.426 c 112.168 147.551 112.574
 147.613 113.031 147.613 c 113.488 147.613 113.863 147.559 114.156 147.449
 c 114.449 147.34 114.66 147.203 114.789 147.043 c 114.922 146.883 115.016
 146.676 115.078 146.426 c 115.109 146.27 115.125 145.988 115.125 145.582
 c 115.125 144.363 l 115.125 143.52 115.145 142.984 115.18 142.762 c 115.219
 142.535 115.293 142.32 115.406 142.113 c 114.453 142.113 l 114.359 142.301
 114.297 142.52 114.266 142.77 c h
114.203 144.816 m 113.871 144.68 113.371 144.566 112.703 144.473 c 112.328
 144.422 112.062 144.359 111.906 144.293 c 111.75 144.227 111.633 144.125
 111.547 143.996 c 111.465 143.867 111.422 143.719 111.422 143.551 c 111.422
 143.312 111.516 143.109 111.703 142.949 c 111.891 142.785 112.16 142.707
 112.516 142.707 c 112.859 142.707 113.172 142.781 113.445 142.934 c 113.723
 143.086 113.922 143.297 114.047 143.566 c 114.152 143.773 114.203 144.078
 114.203 144.473 c 114.203 144.816 l f*
118.594 144.082 m 119.5 143.973 l 119.398 143.348 119.145 142.859 118.742
 142.512 c 118.344 142.164 117.852 141.988 117.266 141.988 c 116.527 141.988
 115.934 142.23 115.484 142.715 c 115.035 143.199 114.812 143.891 114.812
 144.785 c 114.812 145.367 114.91 145.875 115.102 146.309 c 115.297 146.742
 115.586 147.066 115.977 147.285 c 116.367 147.504 116.797 147.613 117.266
 147.613 c 117.852 147.613 118.324 147.465 118.695 147.168 c 119.066 146.871
 119.305 146.453 119.406 145.91 c 118.531 145.77 l 118.438 146.133 118.285
 146.406 118.07 146.59 c 117.859 146.773 117.602 146.863 117.297 146.863
 c 116.84 146.863 116.469 146.699 116.18 146.371 c 115.895 146.043 115.75
 145.52 115.75 144.801 c 115.75 144.082 115.891 143.559 116.164 143.23 c
 116.441 142.902 116.805 142.738 117.25 142.738 c 117.605 142.738 117.902
 142.848 118.141 143.066 c 118.383 143.285 118.531 143.621 118.594 144.082
 c f*
118.984 148.488 m 118.984 149.535 l 119.891 149.535 l 119.891 148.488 l
 h
118.984 142.113 m 118.984 147.488 l 119.891 147.488 l 119.891 142.113 l
 118.984 142.113 l f*
122.703 142.926 m 122.844 142.129 l 122.586 142.066 122.355 142.035 122.156
 142.035 c 121.824 142.035 121.566 142.09 121.383 142.199 c 121.199 142.309
 121.07 142.445 120.992 142.613 c 120.914 142.781 120.875 143.141 120.875
 143.691 c 120.875 146.785 l 120.219 146.785 l 120.219 147.488 l 120.875
 147.488 l 120.875 148.832 l 121.797 149.379 l 121.797 147.488 l 122.703
 147.488 l 122.703 146.785 l 121.797 146.785 l 121.797 143.645 l 121.797
 143.383 121.812 143.215 121.844 143.137 c 121.875 143.059 121.93 142.996
 122 142.957 c 122.074 142.914 122.18 142.895 122.312 142.895 c 122.406 
142.895 122.535 142.906 122.703 142.926 c f*
122.828 140.035 m 122.734 140.895 l 122.934 140.844 123.105 140.816 123.25
 140.816 c 123.461 140.816 123.621 140.852 123.742 140.918 c 123.863 140.984
 123.961 141.082 124.031 141.207 c 124.094 141.289 124.188 141.516 124.312
 141.879 c 124.336 141.93 124.359 142.004 124.391 142.098 c 122.359 147.488
 l 123.344 147.488 l 124.453 144.379 l 124.598 143.984 124.73 143.566 124.844
 143.129 c 124.949 143.547 125.074 143.957 125.219 144.363 c 126.375 147.488
 l 127.281 147.488 l 125.234 142.02 l 125.016 141.426 124.844 141.02 124.719
 140.801 c 124.562 140.496 124.383 140.277 124.172 140.137 c 123.965 139.996
 123.715 139.926 123.422 139.926 c 123.246 139.926 123.047 139.961 122.828
 140.035 c f*
127 142.113 m 127 143.145 l 128.031 143.145 l 128.031 142.113 l 128.031
 141.727 127.969 141.418 127.836 141.184 c 127.707 140.949 127.488 140.77
 127.188 140.645 c 126.938 141.035 l 127.137 141.117 127.281 141.242 127.367
 141.402 c 127.457 141.562 127.508 141.801 127.516 142.113 c 127 142.113
 l f*
135.609 142.988 m 135.609 142.113 l 130.703 142.113 l 130.691 142.332 130.73
 142.547 130.812 142.754 c 130.938 143.086 131.137 143.414 131.414 143.738
 c 131.691 144.062 132.09 144.438 132.609 144.863 c 133.41 145.52 133.957
 146.043 134.242 146.434 c 134.527 146.824 134.672 147.191 134.672 147.535
 c 134.672 147.891 134.543 148.191 134.281 148.441 c 134.02 148.691 133.684
 148.816 133.266 148.816 c 132.828 148.816 132.477 148.684 132.211 148.418
 c 131.945 148.152 131.812 147.789 131.812 147.332 c 130.875 147.426 l 130.938
 148.121 131.18 148.656 131.602 149.02 c 132.023 149.383 132.586 149.566
 133.281 149.566 c 134 149.566 134.566 149.367 134.984 148.973 c 135.402
 148.578 135.609 148.086 135.609 147.504 c 135.609 147.211 135.547 146.922
 135.422 146.637 c 135.297 146.352 135.094 146.047 134.812 145.73 c 134.531
 145.41 134.062 144.977 133.406 144.426 c 132.863 143.957 132.516 143.641
 132.359 143.48 c 132.203 143.32 132.074 143.156 131.969 142.988 c 135.609
 142.988 l f*
135.156 144.066 m 136.062 144.191 l 136.168 143.68 136.348 143.312 136.602
 143.082 c 136.855 142.852 137.16 142.738 137.516 142.738 c 137.941 142.738
 138.305 142.887 138.602 143.184 c 138.898 143.48 139.047 143.848 139.047
 144.285 c 139.047 144.703 138.91 145.047 138.641 145.316 c 138.371 145.586
 138.02 145.723 137.594 145.723 c 137.426 145.723 137.215 145.691 136.953
 145.629 c 137.047 146.426 l 137.203 146.426 l 137.59 146.426 137.938 146.523
 138.25 146.723 c 138.562 146.922 138.719 147.234 138.719 147.66 c 138.719
 147.992 138.605 148.27 138.375 148.488 c 138.145 148.707 137.855 148.816
 137.5 148.816 c 137.145 148.816 136.852 148.703 136.617 148.48 c 136.383
 148.258 136.23 147.926 136.156 147.488 c 135.25 147.645 l 135.355 148.258
 135.605 148.734 136 149.066 c 136.395 149.398 136.891 149.566 137.484 149.566
 c 137.891 149.566 138.262 149.48 138.602 149.309 c 138.941 149.137 139.199
 148.898 139.383 148.598 c 139.566 148.297 139.656 147.977 139.656 147.645
 c 139.656 147.32 139.57 147.027 139.398 146.762 c 139.227 146.496 138.969
 146.285 138.625 146.129 c 139.062 146.035 139.402 145.828 139.648 145.504
 c 139.895 145.18 140.016 144.781 140.016 144.301 c 140.016 143.656 139.777
 143.109 139.305 142.66 c 138.832 142.211 138.234 141.988 137.516 141.988
 c 136.859 141.988 136.316 142.18 135.891 142.566 c 135.465 142.953 135.219
 143.453 135.156 144.066 c f*
141.891 140.051 m 141.891 147.488 l 142.719 147.488 l 142.719 146.801 l
 142.918 147.07 143.141 147.273 143.383 147.41 c 143.629 147.547 143.93 
147.613 144.281 147.613 c 144.738 147.613 145.145 147.496 145.492 147.262
 c 145.844 147.027 146.109 146.695 146.289 146.262 c 146.473 145.828 146.562
 145.359 146.562 144.848 c 146.562 144.297 146.465 143.797 146.266 143.355
 c 146.07 142.91 145.781 142.574 145.398 142.34 c 145.02 142.105 144.625
 141.988 144.219 141.988 c 143.906 141.988 143.633 142.055 143.391 142.184
 c 143.152 142.312 142.953 142.477 142.797 142.676 c 142.797 140.051 l h
142.719 144.77 m 142.719 144.082 142.859 143.57 143.133 143.238 c 143.41
 142.906 143.75 142.738 144.156 142.738 c 144.562 142.738 144.91 142.91 
145.195 143.254 c 145.484 143.598 145.625 144.129 145.625 144.848 c 145.625
 145.535 145.484 146.047 145.203 146.387 c 144.922 146.727 144.586 146.895
 144.188 146.895 c 143.805 146.895 143.461 146.715 143.164 146.355 c 142.867
 145.996 142.719 145.469 142.719 144.77 c f*
149.719 142.77 m 149.387 142.488 149.062 142.285 148.75 142.168 c 148.438
 142.047 148.105 141.988 147.75 141.988 c 147.156 141.988 146.699 142.133
 146.383 142.426 c 146.066 142.719 145.906 143.086 145.906 143.535 c 145.906
 143.797 145.969 144.035 146.086 144.254 c 146.207 144.473 146.363 144.648
 146.555 144.777 c 146.746 144.906 146.969 145.008 147.219 145.082 c 147.398
 145.121 147.668 145.164 148.031 145.207 c 148.762 145.301 149.305 145.41
 149.656 145.535 c 149.656 145.77 l 149.656 146.133 149.566 146.395 149.391
 146.551 c 149.16 146.758 148.816 146.863 148.359 146.863 c 147.934 146.863
 147.617 146.785 147.414 146.637 c 147.211 146.484 147.059 146.219 146.953
 145.832 c 146.062 145.957 l 146.148 146.344 146.277 146.652 146.461 146.887
 c 146.645 147.121 146.91 147.301 147.266 147.426 c 147.621 147.551 148.027
 147.613 148.484 147.613 c 148.941 147.613 149.316 147.559 149.609 147.449
 c 149.902 147.34 150.113 147.203 150.242 147.043 c 150.371 146.883 150.469
 146.676 150.531 146.426 c 150.562 146.27 150.578 145.988 150.578 145.582
 c 150.578 144.363 l 150.578 143.52 150.598 142.984 150.633 142.762 c 150.672
 142.535 150.746 142.32 150.859 142.113 c 149.906 142.113 l 149.812 142.301
 149.75 142.52 149.719 142.77 c h
149.656 144.816 m 149.324 144.68 148.824 144.566 148.156 144.473 c 147.781
 144.422 147.516 144.359 147.359 144.293 c 147.203 144.227 147.086 144.125
 147 143.996 c 146.918 143.867 146.875 143.719 146.875 143.551 c 146.875
 143.312 146.969 143.109 147.156 142.949 c 147.344 142.785 147.613 142.707
 147.969 142.707 c 148.312 142.707 148.621 142.781 148.898 142.934 c 149.176
 143.086 149.375 143.297 149.5 143.566 c 149.605 143.773 149.656 144.078
 149.656 144.473 c 149.656 144.816 l f*
150.531 142.113 m 150.531 147.488 l 151.359 147.488 l 151.359 146.676 l
 151.566 147.062 151.762 147.312 151.938 147.434 c 152.113 147.555 152.309
 147.613 152.516 147.613 c 152.828 147.613 153.141 147.516 153.453 147.316
 c 153.141 146.473 l 152.922 146.609 152.699 146.676 152.469 146.676 c 152.27
 146.676 152.094 146.617 151.938 146.496 c 151.781 146.375 151.668 146.207
 151.594 145.988 c 151.488 145.664 151.438 145.312 151.438 144.926 c 151.438
 142.113 l 150.531 142.113 l f*
155.125 142.926 m 155.266 142.129 l 155.008 142.066 154.777 142.035 154.578
 142.035 c 154.246 142.035 153.988 142.09 153.805 142.199 c 153.621 142.309
 153.492 142.445 153.414 142.613 c 153.336 142.781 153.297 143.141 153.297
 143.691 c 153.297 146.785 l 152.641 146.785 l 152.641 147.488 l 153.297
 147.488 l 153.297 148.832 l 154.219 149.379 l 154.219 147.488 l 155.125
 147.488 l 155.125 146.785 l 154.219 146.785 l 154.219 143.645 l 154.219
 143.383 154.234 143.215 154.266 143.137 c 154.297 143.059 154.352 142.996
 154.422 142.957 c 154.496 142.914 154.602 142.895 154.734 142.895 c 154.828
 142.895 154.961 142.906 155.125 142.926 c f*
155.297 148.488 m 155.297 149.535 l 156.203 149.535 l 156.203 148.488 l
 h
155.297 142.113 m 155.297 147.488 l 156.203 147.488 l 156.203 142.113 l
 155.297 142.113 l f*
160.531 144.082 m 161.438 143.973 l 161.336 143.348 161.082 142.859 160.68
 142.512 c 160.277 142.164 159.785 141.988 159.203 141.988 c 158.465 141.988
 157.871 142.23 157.422 142.715 c 156.973 143.199 156.75 143.891 156.75 
144.785 c 156.75 145.367 156.848 145.875 157.039 146.309 c 157.23 146.742
 157.523 147.066 157.914 147.285 c 158.305 147.504 158.734 147.613 159.203
 147.613 c 159.785 147.613 160.262 147.465 160.633 147.168 c 161.004 146.871
 161.238 146.453 161.344 145.91 c 160.469 145.77 l 160.375 146.133 160.223
 146.406 160.008 146.59 c 159.797 146.773 159.535 146.863 159.234 146.863
 c 158.777 146.863 158.402 146.699 158.117 146.371 c 157.832 146.043 157.688
 145.52 157.688 144.801 c 157.688 144.082 157.824 143.559 158.102 143.23
 c 158.379 142.902 158.738 142.738 159.188 142.738 c 159.543 142.738 159.84
 142.848 160.078 143.066 c 160.316 143.285 160.469 143.621 160.531 144.082
 c f*
160.891 149.535 0.922 -7.422 re f*
166.328 143.848 m 167.281 143.723 l 167.137 143.18 166.859 142.758 166.453
 142.449 c 166.047 142.141 165.531 141.988 164.906 141.988 c 164.125 141.988
 163.504 142.23 163.039 142.715 c 162.574 143.199 162.344 143.879 162.344
 144.754 c 162.344 145.66 162.578 146.363 163.047 146.863 c 163.516 147.363
 164.121 147.613 164.859 147.613 c 165.578 147.613 166.168 147.367 166.625
 146.879 c 167.086 146.391 167.312 145.703 167.312 144.816 c 167.312 144.766
 167.309 144.68 167.297 144.566 c 163.297 144.566 l 163.328 143.984 163.496
 143.531 163.797 143.215 c 164.098 142.898 164.473 142.738 164.922 142.738
 c 165.254 142.738 165.539 142.828 165.773 143.004 c 166.008 143.18 166.191
 143.461 166.328 143.848 c h
163.344 145.316 m 166.344 145.316 l 166.301 145.773 166.188 146.113 166
 146.332 c 165.711 146.688 165.336 146.863 164.875 146.863 c 164.461 146.863
 164.105 146.723 163.82 146.441 c 163.535 146.16 163.375 145.785 163.344
 145.316 c f*
166.609 143.723 m 167.516 143.863 l 167.566 143.496 167.707 143.219 167.938
 143.027 c 168.168 142.836 168.488 142.738 168.906 142.738 c 169.332 142.738
 169.645 142.824 169.844 142.996 c 170.043 143.168 170.141 143.367 170.141
 143.598 c 170.141 143.805 170.051 143.969 169.875 144.082 c 169.75 144.164
 169.441 144.27 168.953 144.395 c 168.277 144.562 167.809 144.707 167.555
 144.832 c 167.301 144.957 167.105 145.129 166.969 145.348 c 166.832 145.566
 166.766 145.805 166.766 146.066 c 166.766 146.305 166.82 146.527 166.93
 146.73 c 167.039 146.934 167.188 147.102 167.375 147.238 c 167.52 147.344
 167.715 147.43 167.961 147.504 c 168.207 147.578 168.469 147.613 168.75
 147.613 c 169.168 147.613 169.535 147.555 169.859 147.434 c 170.184 147.312
 170.418 147.148 170.57 146.941 c 170.723 146.734 170.824 146.453 170.875
 146.098 c 169.984 145.988 l 169.941 146.258 169.824 146.473 169.633 146.629
 c 169.441 146.785 169.168 146.863 168.812 146.863 c 168.395 146.863 168.098
 146.797 167.922 146.66 c 167.746 146.523 167.656 146.363 167.656 146.176
 c 167.656 146.051 167.691 145.941 167.766 145.848 c 167.84 145.754 167.953
 145.676 168.109 145.613 c 168.203 145.57 168.473 145.492 168.922 145.379
 c 169.566 145.203 170.02 145.059 170.273 144.949 c 170.527 144.84 170.727
 144.68 170.867 144.473 c 171.008 144.266 171.078 144.004 171.078 143.691
 c 171.078 143.391 170.988 143.102 170.812 142.832 c 170.637 142.562 170.379
 142.352 170.047 142.207 c 169.715 142.062 169.34 141.988 168.922 141.988
 c 168.223 141.988 167.691 142.133 167.32 142.426 c 166.949 142.719 166.715
 143.148 166.609 143.723 c f*
  Q
Q
Q Q
showpage
%%Trailer
end restore
%%EOF
