%!PS-Adobe-3.0 EPSF-3.0
%%Creator: cairo 1.14.2 (http://cairographics.org)
%%CreationDate: Thu May 21 12:51:02 2015
%%Pages: 1
%%DocumentData: Clean7Bit
%%LanguageLevel: 2
%%BoundingBox: 0 0 245 139
%%EndComments
%%BeginProlog
save
50 dict begin
/q { gsave } bind def
/Q { grestore } bind def
/cm { 6 array astore concat } bind def
/w { setlinewidth } bind def
/J { setlinecap } bind def
/j { setlinejoin } bind def
/M { setmiterlimit } bind def
/d { setdash } bind def
/m { moveto } bind def
/l { lineto } bind def
/c { curveto } bind def
/h { closepath } bind def
/re { exch dup neg 3 1 roll 5 3 roll moveto 0 rlineto
      0 exch rlineto 0 rlineto closepath } bind def
/S { stroke } bind def
/f { fill } bind def
/f* { eofill } bind def
/n { newpath } bind def
/W { clip } bind def
/W* { eoclip } bind def
/BT { } bind def
/ET { } bind def
/pdfmark where { pop globaldict /?pdfmark /exec load put }
    { globaldict begin /?pdfmark /pop load def /pdfmark
    /cleartomark load def end } ifelse
/BDC { mark 3 1 roll /BDC pdfmark } bind def
/EMC { mark /EMC pdfmark } bind def
/cairo_store_point { /cairo_point_y exch def /cairo_point_x exch def } def
/Tj { show currentpoint cairo_store_point } bind def
/TJ {
  {
    dup
    type /stringtype eq
    { show } { -0.001 mul 0 cairo_font_matrix dtransform rmoveto } ifelse
  } forall
  currentpoint cairo_store_point
} bind def
/cairo_selectfont { cairo_font_matrix aload pop pop pop 0 0 6 array astore
    cairo_font exch selectfont cairo_point_x cairo_point_y moveto } bind def
/Tf { pop /cairo_font exch def /cairo_font_matrix where
      { pop cairo_selectfont } if } bind def
/Td { matrix translate cairo_font_matrix matrix concatmatrix dup
      /cairo_font_matrix exch def dup 4 get exch 5 get cairo_store_point
      /cairo_font where { pop cairo_selectfont } if } bind def
/Tm { 2 copy 8 2 roll 6 array astore /cairo_font_matrix exch def
      cairo_store_point /cairo_font where { pop cairo_selectfont } if } bind def
/g { setgray } bind def
/rg { setrgbcolor } bind def
/d1 { setcachedevice } bind def
%%EndProlog
%%BeginSetup
%%EndSetup
%%Page: 1 1
%%BeginPageSetup
%%PageBoundingBox: 0 0 245 139
%%EndPageSetup
q 0 0 245 139 rectclip q
Q q
5.719 118.973 220 -111 re W n
q
5 119 221 -112 re W n
  q
0.368627 0.505882 0.709804 rg
1.152 w
2 J
0 j
[] 0.0 d
3.25 M q 1 0 0 1 0 139 cm
28.629 -130.09 m 30.555 -130.09 l 30.609 -130.086 l 32.637 -130.086 l 32.75
 -130.082 l 33.68 -130.082 l 33.91 -130.078 l 34.145 -130.078 l 34.375 -130.074
 l 34.84 -130.074 l 34.898 -130.07 l 35.07 -130.07 l 35.305 -130.066 l 35.535
 -130.066 l 35.77 -130.062 l 35.879 -130.062 l 35.984 -130.059 l 36.203 
-130.055 l 36.418 -130.055 l 36.637 -130.051 l 36.691 -130.047 l 36.742 
-130.047 l 36.852 -130.043 l 37.07 -130.039 l 37.504 -130.027 l 37.609 -130.027
 l 37.938 -130.016 l 37.988 -130.016 l 38.043 -130.012 l 38.152 -130.008
 l 38.367 -130 l 38.477 -130 l 38.586 -129.992 l 38.805 -129.984 l 39.234
 -129.965 l 39.344 -129.957 l 39.449 -129.953 l 39.66 -129.941 l 39.77 -129.934
 l 39.875 -129.93 l 40.086 -129.914 l 40.141 -129.914 l 40.191 -129.906 
l 40.297 -129.902 l 40.512 -129.887 l 40.938 -129.852 l 40.988 -129.848 
l 41.043 -129.844 l 41.148 -129.832 l 41.359 -129.812 l 41.785 -129.77 l
 41.84 -129.766 l 41.891 -129.758 l 42 -129.746 l 42.211 -129.723 l 42.637
 -129.668 l 42.695 -129.66 l 42.75 -129.652 l 42.867 -129.633 l 43.098 -129.602
 l 43.559 -129.527 l 43.617 -129.516 l 43.672 -129.508 l 43.789 -129.484
 l 44.02 -129.441 l 44.48 -129.352 l 44.539 -129.336 l 44.594 -129.324 l
 44.711 -129.301 l 44.941 -129.25 l 45.402 -129.137 l 45.461 -129.121 l 
45.516 -129.105 l 45.633 -129.074 l 45.863 -129.012 l 46.324 -128.879 l 
46.379 -128.859 l 46.434 -128.844 l 46.539 -128.809 l 46.754 -128.738 l 
47.184 -128.594 l 47.293 -128.555 l 47.398 -128.516 l 47.613 -128.434 l 
48.043 -128.262 l 48.098 -128.242 l 48.262 -128.172 l 48.477 -128.082 l 
48.906 -127.887 l 49.766 -127.461 l 49.883 -127.398 l 50 -127.34 l 50.23
 -127.211 l 50.699 -126.945 l 51.633 -126.371 l 51.688 -126.332 l 51.746
 -126.293 l 51.863 -126.219 l 52.098 -126.062 l 52.562 -125.738 l 53.496
 -125.055 l 53.555 -125.012 l 53.609 -124.969 l 53.727 -124.879 l 53.953
 -124.703 l 54.41 -124.336 l 55.328 -123.574 l 57.156 -121.953 l 60.574 
-118.789 l 60.633 -118.734 l 60.691 -118.684 l 60.805 -118.578 l 61.035 
-118.371 l 61.5 -117.961 l 62.426 -117.164 l 62.543 -117.07 l 62.656 -116.977
 l 62.891 -116.785 l 63.352 -116.422 l 64.277 -115.738 l 64.332 -115.703
 l 64.387 -115.664 l 64.492 -115.59 l 64.711 -115.445 l 65.141 -115.168 
l 65.195 -115.137 l 65.25 -115.102 l 65.359 -115.035 l 65.574 -114.91 l 
66.008 -114.672 l 66.062 -114.645 l 66.113 -114.613 l 66.223 -114.559 l 
66.438 -114.453 l 66.492 -114.426 l 66.547 -114.402 l 66.656 -114.352 l 
66.871 -114.254 l 66.98 -114.207 l 67.09 -114.164 l 67.305 -114.078 l 67.734
 -113.922 l 67.844 -113.891 l 67.949 -113.855 l 68.16 -113.793 l 68.215 
-113.781 l 68.266 -113.766 l 68.371 -113.738 l 68.582 -113.688 l 68.637 
-113.676 l 68.688 -113.664 l 68.793 -113.641 l 68.848 -113.633 l 68.902 
-113.621 l 69.008 -113.602 l 69.059 -113.594 l 69.113 -113.586 l 69.219 
-113.566 l 69.273 -113.559 l 69.324 -113.555 l 69.43 -113.539 l 69.484 -113.531
 l 69.535 -113.527 l 69.59 -113.52 l 69.645 -113.516 l 69.695 -113.512 l
 69.75 -113.508 l 69.855 -113.496 l 69.906 -113.492 l 69.961 -113.492 l 
70.016 -113.488 l 70.066 -113.484 l 70.117 -113.484 l 70.172 -113.48 l 70.227
 -113.48 l 70.277 -113.477 l 70.703 -113.477 l 70.754 -113.48 l 70.809 -113.48
 l 70.859 -113.484 l 70.914 -113.488 l 70.969 -113.488 l 71.02 -113.492 
l 71.074 -113.496 l 71.125 -113.5 l 71.242 -113.508 l 71.297 -113.516 l 
71.414 -113.523 l 71.473 -113.531 l 71.586 -113.543 l 71.703 -113.559 l 
71.816 -113.574 l 72.043 -113.609 l 72.16 -113.633 l 72.273 -113.652 l 72.504
 -113.695 l 72.562 -113.711 l 72.621 -113.723 l 72.734 -113.746 l 72.965
 -113.805 l 73.023 -113.816 l 73.082 -113.832 l 73.195 -113.863 l 73.426
 -113.926 l 73.883 -114.062 l 73.941 -114.082 l 74 -114.098 l 74.113 -114.137
 l 74.344 -114.211 l 74.805 -114.371 l 74.859 -114.391 l 74.91 -114.41 l
 75.02 -114.449 l 75.234 -114.527 l 75.66 -114.691 l 76.52 -115.023 l 76.574
 -115.043 l 76.629 -115.066 l 76.734 -115.105 l 77.379 -115.352 l 78.234
 -115.656 l 78.293 -115.672 l 78.352 -115.695 l 78.469 -115.73 l 78.703 
-115.805 l 78.758 -115.82 l 78.816 -115.84 l 78.934 -115.875 l 79.164 -115.941
 l 79.281 -115.973 l 79.398 -116 l 79.633 -116.059 l 79.688 -116.07 l 79.746
 -116.086 l 80.098 -116.156 l 80.152 -116.164 l 80.211 -116.176 l 80.328
 -116.195 l 80.387 -116.207 l 80.562 -116.23 l 80.617 -116.238 l 80.734 
-116.254 l 80.793 -116.258 l 80.852 -116.266 l 80.91 -116.27 l 80.969 -116.277
 l 81.086 -116.285 l 81.141 -116.289 l 81.258 -116.297 l 81.316 -116.297
 l 81.434 -116.305 l 81.84 -116.305 l 81.957 -116.297 l 82.012 -116.297 
l 82.129 -116.289 l 82.184 -116.285 l 82.242 -116.281 l 82.297 -116.273 
l 82.355 -116.27 l 82.41 -116.262 l 82.469 -116.258 l 82.527 -116.25 l 82.641
 -116.234 l 82.699 -116.223 l 82.754 -116.215 l 82.867 -116.195 l 82.984
 -116.172 l 83.098 -116.148 l 83.152 -116.137 l 83.211 -116.121 l 83.324
 -116.094 l 83.383 -116.082 l 83.441 -116.062 l 83.555 -116.031 l 83.781
 -115.961 l 83.84 -115.941 l 83.895 -115.922 l 84.012 -115.879 l 84.238 
-115.789 l 84.297 -115.766 l 84.352 -115.742 l 84.469 -115.691 l 84.695 
-115.586 l 84.754 -115.559 l 84.809 -115.527 l 84.922 -115.469 l 85.152 
-115.348 l 85.609 -115.07 l 85.66 -115.035 l 85.715 -115 l 85.82 -114.93
 l 86.035 -114.781 l 86.461 -114.465 l 86.512 -114.422 l 86.566 -114.379
 l 86.672 -114.293 l 86.887 -114.117 l 87.312 -113.742 l 87.363 -113.695
 l 87.418 -113.645 l 87.523 -113.547 l 87.738 -113.344 l 88.16 -112.922 
l 89.016 -112.012 l 89.07 -111.949 l 89.129 -111.883 l 89.246 -111.754 l
 89.477 -111.488 l 89.938 -110.953 l 90.859 -109.848 l 91.094 -109.566 l
 91.324 -109.289 l 91.785 -108.73 l 92.707 -107.637 l 92.816 -107.512 l 
92.922 -107.387 l 93.141 -107.145 l 93.57 -106.668 l 93.68 -106.551 l 93.785
 -106.438 l 94 -106.211 l 94.539 -105.672 l 94.648 -105.57 l 94.863 -105.367
 l 95.293 -104.988 l 95.402 -104.895 l 95.512 -104.809 l 95.727 -104.637
 l 96.156 -104.312 l 96.215 -104.273 l 96.273 -104.23 l 96.391 -104.152 
l 96.621 -104.004 l 96.68 -103.965 l 96.855 -103.859 l 97.09 -103.73 l 97.207
 -103.668 l 97.324 -103.609 l 97.559 -103.496 l 97.617 -103.469 l 97.672
 -103.445 l 97.789 -103.395 l 98.023 -103.305 l 98.082 -103.281 l 98.141
 -103.262 l 98.258 -103.219 l 98.316 -103.203 l 98.375 -103.184 l 98.492
 -103.148 l 98.551 -103.133 l 98.609 -103.113 l 98.727 -103.086 l 98.781
 -103.07 l 98.84 -103.055 l 99.191 -102.984 l 99.25 -102.977 l 99.309 -102.965
 l 99.602 -102.926 l 99.66 -102.922 l 99.719 -102.914 l 99.836 -102.906 
l 99.891 -102.902 l 100.008 -102.895 l 100.062 -102.891 l 100.18 -102.891
 l 100.234 -102.887 l 100.465 -102.887 l 100.523 -102.891 l 100.637 -102.891
 l 100.754 -102.898 l 100.809 -102.902 l 100.926 -102.91 l 100.98 -102.914
 l 101.098 -102.922 l 101.152 -102.93 l 101.27 -102.941 l 101.324 -102.949
 l 101.383 -102.957 l 101.496 -102.973 l 101.613 -102.988 l 101.727 -103.008
 l 101.785 -103.016 l 101.84 -103.027 l 101.957 -103.047 l 102.184 -103.094
 l 102.301 -103.117 l 102.414 -103.145 l 102.645 -103.203 l 102.699 -103.215
 l 102.758 -103.23 l 102.871 -103.262 l 103.102 -103.324 l 103.559 -103.465
 l 103.613 -103.48 l 103.668 -103.5 l 103.773 -103.535 l 103.988 -103.605
 l 104.414 -103.758 l 105.27 -104.086 l 106.98 -104.82 l 107.039 -104.844
 l 107.098 -104.871 l 107.215 -104.922 l 107.445 -105.031 l 107.91 -105.25
 l 108.84 -105.703 l 110.691 -106.672 l 114.156 -108.723 l 114.211 -108.754
 l 114.262 -108.789 l 114.367 -108.855 l 114.582 -108.984 l 115.008 -109.25
 l 115.855 -109.773 l 115.906 -109.805 l 115.961 -109.84 l 116.277 -110.027
 l 116.703 -110.277 l 117.555 -110.75 l 117.609 -110.781 l 117.668 -110.812
 l 117.781 -110.871 l 118.012 -110.988 l 118.473 -111.207 l 118.531 -111.234
 l 118.59 -111.258 l 118.703 -111.309 l 118.934 -111.406 l 119.395 -111.582
 l 119.512 -111.621 l 119.625 -111.66 l 119.855 -111.734 l 119.914 -111.75
 l 119.969 -111.766 l 120.086 -111.797 l 120.316 -111.855 l 120.371 -111.867
 l 120.605 -111.914 l 120.66 -111.922 l 120.777 -111.941 l 120.836 -111.953
 l 120.891 -111.961 l 120.949 -111.969 l 121.008 -111.973 l 121.062 -111.98
 l 121.121 -111.984 l 121.18 -111.992 l 121.238 -111.996 l 121.289 -112 
l 121.398 -112.008 l 121.453 -112.008 l 121.504 -112.012 l 121.773 -112.012
 l 121.828 -112.008 l 121.883 -112.008 l 121.934 -112.004 l 122.098 -111.992
 l 122.148 -111.984 l 122.203 -111.98 l 122.258 -111.973 l 122.312 -111.969
 l 122.363 -111.961 l 122.418 -111.953 l 122.527 -111.934 l 122.578 -111.922
 l 122.633 -111.91 l 122.742 -111.891 l 122.797 -111.875 l 122.848 -111.863
 l 122.957 -111.836 l 123.012 -111.82 l 123.062 -111.805 l 123.172 -111.77
 l 123.227 -111.754 l 123.277 -111.734 l 123.387 -111.695 l 123.438 -111.672
 l 123.492 -111.652 l 123.602 -111.609 l 123.816 -111.512 l 123.867 -111.484
 l 124.031 -111.402 l 124.246 -111.281 l 124.301 -111.246 l 124.352 -111.215
 l 124.461 -111.148 l 124.676 -111.004 l 124.734 -110.961 l 124.789 -110.918
 l 124.906 -110.832 l 125.141 -110.648 l 125.375 -110.445 l 125.605 -110.234
 l 125.664 -110.176 l 125.723 -110.121 l 125.84 -110.004 l 126.07 -109.758
 l 126.539 -109.223 l 126.598 -109.152 l 126.656 -109.078 l 126.77 -108.93
 l 127.004 -108.625 l 127.469 -107.965 l 127.527 -107.879 l 127.703 -107.609
 l 127.934 -107.242 l 128.402 -106.457 l 128.457 -106.355 l 128.516 -106.258
 l 128.629 -106.051 l 128.859 -105.629 l 129.316 -104.738 l 130.23 -102.793
 l 130.285 -102.664 l 130.344 -102.535 l 130.461 -102.273 l 130.688 -101.738
 l 131.145 -100.633 l 132.059 -98.273 l 132.113 -98.133 l 132.164 -97.988
 l 132.273 -97.699 l 132.484 -97.113 l 132.91 -95.918 l 133.766 -93.438 
l 135.473 -88.203 l 135.527 -88.02 l 135.586 -87.84 l 135.703 -87.477 l 
135.934 -86.746 l 136.398 -85.285 l 137.32 -82.363 l 137.379 -82.184 l 137.438
 -82 l 137.555 -81.641 l 137.785 -80.918 l 138.246 -79.488 l 139.172 -76.707
 l 139.227 -76.547 l 139.281 -76.391 l 139.387 -76.074 l 139.605 -75.453
 l 140.035 -74.23 l 140.898 -71.914 l 140.953 -71.773 l 141.008 -71.637 
l 141.113 -71.363 l 141.332 -70.824 l 141.762 -69.785 l 142.625 -67.875 
l 142.68 -67.766 l 142.73 -67.66 l 142.84 -67.445 l 143.051 -67.031 l 143.473
 -66.246 l 143.523 -66.152 l 143.578 -66.059 l 143.684 -65.879 l 143.895
 -65.523 l 144.32 -64.871 l 144.371 -64.793 l 144.426 -64.719 l 144.531 
-64.57 l 144.742 -64.285 l 144.797 -64.219 l 144.848 -64.152 l 144.953 -64.02
 l 145.164 -63.77 l 145.219 -63.711 l 145.27 -63.652 l 145.379 -63.539 l
 145.59 -63.328 l 145.641 -63.273 l 145.695 -63.227 l 145.801 -63.129 l 
146.012 -62.953 l 146.07 -62.906 l 146.129 -62.863 l 146.242 -62.781 l 146.301
 -62.742 l 146.355 -62.703 l 146.473 -62.629 l 146.527 -62.594 l 146.586
 -62.562 l 146.699 -62.5 l 146.758 -62.473 l 146.816 -62.441 l 146.93 -62.391
 l 147.047 -62.344 l 147.102 -62.324 l 147.219 -62.285 l 147.273 -62.27 
l 147.391 -62.238 l 147.445 -62.227 l 147.562 -62.203 l 147.617 -62.191 
l 147.676 -62.184 l 147.734 -62.18 l 147.793 -62.172 l 147.848 -62.168 l
 147.906 -62.164 l 148.078 -62.164 l 148.195 -62.172 l 148.25 -62.176 l 
148.367 -62.191 l 148.422 -62.199 l 148.48 -62.211 l 148.539 -62.219 l 148.594
 -62.234 l 148.652 -62.246 l 148.77 -62.277 l 148.824 -62.297 l 148.883 
-62.316 l 148.996 -62.355 l 149.113 -62.402 l 149.227 -62.453 l 149.285 
-62.48 l 149.344 -62.512 l 149.457 -62.57 l 149.688 -62.707 l 149.738 -62.742
 l 149.793 -62.777 l 149.902 -62.852 l 150.113 -63.012 l 150.223 -63.098
 l 150.328 -63.188 l 150.543 -63.379 l 150.598 -63.43 l 150.648 -63.48 l
 150.758 -63.586 l 150.973 -63.809 l 151.398 -64.297 l 151.453 -64.359 l
 151.508 -64.426 l 151.613 -64.562 l 151.828 -64.84 l 152.258 -65.438 l 
153.113 -66.781 l 153.23 -66.977 l 153.348 -67.176 l 153.578 -67.586 l 154.043
 -68.441 l 154.973 -70.281 l 156.832 -74.391 l 156.887 -74.516 l 156.938
 -74.645 l 157.047 -74.898 l 157.266 -75.41 l 157.699 -76.453 l 158.566 
-78.578 l 160.301 -82.938 l 163.703 -91.473 l 167.395 -100.008 l 167.445
 -100.125 l 167.5 -100.238 l 167.609 -100.469 l 167.824 -100.93 l 168.254
 -101.832 l 169.117 -103.582 l 170.84 -106.852 l 170.895 -106.957 l 171.07
 -107.273 l 171.305 -107.688 l 171.77 -108.496 l 172.703 -110.051 l 172.938
 -110.426 l 173.172 -110.793 l 173.637 -111.516 l 174.57 -112.895 l 174.629
 -112.977 l 174.684 -113.059 l 174.801 -113.219 l 175.027 -113.539 l 175.484
 -114.164 l 176.402 -115.352 l 176.461 -115.422 l 176.516 -115.496 l 176.633
 -115.637 l 176.859 -115.918 l 177.316 -116.465 l 178.234 -117.504 l 178.289
 -117.562 l 178.34 -117.617 l 178.449 -117.734 l 178.66 -117.965 l 179.09
 -118.406 l 179.941 -119.254 l 180.051 -119.355 l 180.156 -119.457 l 180.371
 -119.656 l 180.797 -120.043 l 181.652 -120.785 l 181.77 -120.879 l 181.883
 -120.977 l 182.117 -121.164 l 182.578 -121.527 l 183.508 -122.215 l 183.562
 -122.258 l 183.621 -122.297 l 183.738 -122.379 l 183.969 -122.539 l 184.434
 -122.852 l 185.359 -123.441 l 185.414 -123.473 l 185.469 -123.508 l 185.574
 -123.57 l 185.789 -123.699 l 186.223 -123.949 l 187.09 -124.422 l 187.145
 -124.449 l 187.195 -124.477 l 187.305 -124.531 l 187.523 -124.645 l 187.953
 -124.859 l 188.82 -125.262 l 188.871 -125.285 l 188.926 -125.309 l 189.242
 -125.449 l 189.668 -125.629 l 190.516 -125.969 l 190.566 -125.992 l 190.621
 -126.012 l 190.727 -126.051 l 190.938 -126.133 l 191.363 -126.285 l 192.211
 -126.578 l 192.27 -126.598 l 192.324 -126.617 l 192.441 -126.652 l 192.672
 -126.727 l 193.133 -126.871 l 194.051 -127.137 l 194.168 -127.168 l 194.281
 -127.203 l 194.512 -127.266 l 194.973 -127.387 l 195.891 -127.609 l 195.945
 -127.625 l 196 -127.637 l 196.105 -127.66 l 196.32 -127.711 l 196.75 -127.805
 l 197.609 -127.984 l 197.664 -127.996 l 197.715 -128.008 l 197.824 -128.027
 l 198.039 -128.07 l 198.469 -128.152 l 199.324 -128.305 l 199.387 -128.312
 l 199.445 -128.324 l 199.566 -128.344 l 199.805 -128.383 l 200.285 -128.461
 l 201.242 -128.605 l 201.305 -128.613 l 201.363 -128.621 l 201.484 -128.637
 l 201.723 -128.668 l 202.199 -128.734 l 202.262 -128.742 l 202.32 -128.75
 l 202.441 -128.766 l 202.68 -128.793 l 202.742 -128.805 l 202.801 -128.809
 l 202.922 -128.824 l 203.039 -128.84 l 203.102 -128.848 l 203.16 -128.852
 l S Q
0.882353 0.611765 0.141176 rg
[ 3.456 3.456] 0 d
q 1 0 0 1 0 139 cm
28.629 -130.09 m 32.285 -130.09 l 32.344 -130.086 l 34.609 -130.086 l 34.84
 -130.082 l 35.879 -130.082 l 35.984 -130.078 l 36.418 -130.078 l 36.637
 -130.074 l 37.07 -130.074 l 37.504 -130.07 l 37.559 -130.066 l 37.719 -130.066
 l 37.938 -130.062 l 38.152 -130.062 l 38.367 -130.059 l 38.477 -130.059
 l 38.586 -130.055 l 38.805 -130.055 l 39.234 -130.047 l 39.289 -130.043
 l 39.449 -130.043 l 39.66 -130.039 l 39.715 -130.039 l 39.77 -130.035 l
 39.875 -130.035 l 40.086 -130.031 l 40.141 -130.027 l 40.191 -130.027 l
 40.297 -130.023 l 40.512 -130.02 l 40.938 -130.008 l 40.988 -130.008 l 
41.043 -130.004 l 41.359 -129.992 l 41.785 -129.98 l 41.84 -129.977 l 41.891
 -129.977 l 42 -129.973 l 42.211 -129.961 l 42.637 -129.941 l 42.695 -129.941
 l 42.75 -129.938 l 42.867 -129.934 l 43.098 -129.918 l 43.559 -129.895 
l 43.617 -129.891 l 43.672 -129.887 l 43.789 -129.883 l 44.02 -129.867 l
 44.48 -129.832 l 44.539 -129.832 l 44.594 -129.824 l 44.711 -129.816 l 
44.941 -129.801 l 45.402 -129.762 l 45.461 -129.754 l 45.516 -129.75 l 45.633
 -129.738 l 45.863 -129.719 l 46.324 -129.668 l 46.434 -129.66 l 46.539 
-129.648 l 46.754 -129.625 l 47.184 -129.57 l 47.238 -129.566 l 47.293 -129.559
 l 47.398 -129.543 l 47.613 -129.516 l 48.043 -129.457 l 48.262 -129.426
 l 48.477 -129.395 l 48.906 -129.328 l 49.766 -129.18 l 49.824 -129.168 
l 49.883 -129.16 l 50 -129.137 l 50.23 -129.094 l 50.699 -129 l 51.633 -128.801
 l 51.688 -128.789 l 51.746 -128.773 l 51.863 -128.75 l 52.098 -128.695 
l 52.562 -128.582 l 53.496 -128.344 l 53.555 -128.332 l 53.609 -128.316 
l 53.727 -128.285 l 53.953 -128.223 l 54.41 -128.094 l 55.328 -127.828 l
 57.156 -127.258 l 60.574 -126.098 l 64.277 -124.82 l 67.734 -123.707 l 
71.125 -122.746 l 71.184 -122.73 l 71.242 -122.719 l 71.355 -122.688 l 71.586
 -122.629 l 72.043 -122.512 l 72.965 -122.289 l 74.805 -121.871 l 74.859
 -121.859 l 74.91 -121.848 l 75.02 -121.828 l 75.234 -121.781 l 75.66 -121.691
 l 76.52 -121.52 l 78.234 -121.203 l 78.293 -121.191 l 78.352 -121.184 l
 78.469 -121.16 l 78.703 -121.121 l 79.164 -121.043 l 80.098 -120.891 l 
81.957 -120.613 l 82.012 -120.605 l 82.07 -120.598 l 82.184 -120.582 l 82.41
 -120.547 l 82.867 -120.484 l 83.781 -120.363 l 85.609 -120.137 l 89.016
 -119.754 l 92.707 -119.379 l 96.156 -119.039 l 99.891 -118.66 l 103.559
 -118.254 l 106.98 -117.816 l 107.039 -117.809 l 107.098 -117.797 l 107.215
 -117.781 l 107.445 -117.75 l 107.91 -117.684 l 108.84 -117.547 l 110.691
 -117.25 l 110.746 -117.242 l 110.801 -117.23 l 110.91 -117.215 l 111.125
 -117.176 l 111.559 -117.102 l 112.426 -116.945 l 114.156 -116.605 l 114.211
 -116.594 l 114.262 -116.582 l 114.367 -116.559 l 114.582 -116.516 l 115.008
 -116.422 l 115.855 -116.234 l 115.906 -116.223 l 115.961 -116.211 l 116.066
 -116.184 l 116.277 -116.137 l 117.555 -115.82 l 117.609 -115.805 l 117.668
 -115.789 l 117.781 -115.762 l 118.012 -115.703 l 118.473 -115.578 l 119.395
 -115.316 l 119.453 -115.297 l 119.512 -115.281 l 119.625 -115.246 l 119.855
 -115.18 l 120.316 -115.039 l 121.238 -114.742 l 121.289 -114.723 l 121.344
 -114.707 l 121.453 -114.668 l 121.668 -114.598 l 122.098 -114.445 l 122.957
 -114.133 l 123.012 -114.113 l 123.062 -114.094 l 123.172 -114.051 l 123.387
 -113.969 l 123.816 -113.797 l 124.676 -113.441 l 124.734 -113.414 l 124.789
 -113.391 l 125.141 -113.238 l 125.605 -113.027 l 126.539 -112.582 l 126.598
 -112.551 l 126.656 -112.523 l 126.77 -112.465 l 127.004 -112.344 l 127.469
 -112.102 l 128.402 -111.586 l 128.457 -111.551 l 128.516 -111.52 l 128.629
 -111.453 l 128.859 -111.316 l 129.316 -111.039 l 130.23 -110.449 l 130.285
 -110.41 l 130.344 -110.371 l 130.461 -110.297 l 130.688 -110.141 l 131.145
 -109.816 l 132.059 -109.129 l 132.113 -109.09 l 132.164 -109.047 l 132.273
 -108.965 l 132.484 -108.793 l 132.91 -108.441 l 133.766 -107.703 l 133.82
 -107.656 l 133.871 -107.605 l 133.98 -107.512 l 134.191 -107.312 l 134.617
 -106.906 l 135.473 -106.055 l 135.527 -105.992 l 135.586 -105.934 l 135.703
 -105.812 l 135.934 -105.562 l 136.398 -105.055 l 137.32 -103.977 l 137.438
 -103.836 l 137.555 -103.691 l 137.785 -103.402 l 138.246 -102.809 l 139.172
 -101.551 l 139.227 -101.477 l 139.281 -101.398 l 139.387 -101.246 l 139.605
 -100.934 l 140.035 -100.289 l 140.898 -98.945 l 142.625 -95.984 l 142.68
 -95.887 l 142.73 -95.793 l 142.84 -95.598 l 143.051 -95.207 l 143.473 -94.406
 l 144.32 -92.746 l 146.012 -89.219 l 149.688 -81.152 l 149.738 -81.039 
l 149.793 -80.922 l 149.902 -80.695 l 150.113 -80.246 l 150.543 -79.359 
l 151.398 -77.676 l 151.453 -77.578 l 151.508 -77.477 l 151.613 -77.277 
l 151.828 -76.891 l 152.258 -76.145 l 152.312 -76.055 l 152.363 -75.969 
l 152.473 -75.793 l 152.688 -75.453 l 153.113 -74.809 l 153.23 -74.645 l
 153.348 -74.488 l 153.578 -74.184 l 153.695 -74.035 l 153.812 -73.895 l
 154.043 -73.629 l 154.16 -73.504 l 154.277 -73.387 l 154.508 -73.16 l 154.566
 -73.105 l 154.625 -73.055 l 154.738 -72.957 l 154.973 -72.777 l 155.031
 -72.734 l 155.09 -72.695 l 155.203 -72.621 l 155.32 -72.551 l 155.438 -72.484
 l 155.496 -72.457 l 155.555 -72.426 l 155.609 -72.402 l 155.668 -72.375
 l 155.785 -72.328 l 155.902 -72.289 l 155.961 -72.273 l 156.02 -72.254 
l 156.074 -72.242 l 156.133 -72.227 l 156.191 -72.215 l 156.367 -72.191 
l 156.426 -72.188 l 156.48 -72.184 l 156.539 -72.18 l 156.656 -72.18 l 156.773
 -72.188 l 156.832 -72.195 l 156.887 -72.203 l 156.938 -72.211 l 156.992
 -72.219 l 157.102 -72.242 l 157.32 -72.305 l 157.371 -72.328 l 157.48 -72.367
 l 157.535 -72.391 l 157.754 -72.5 l 157.809 -72.531 l 157.914 -72.598 l
 157.969 -72.629 l 158.023 -72.664 l 158.188 -72.781 l 158.238 -72.824 l
 158.348 -72.91 l 158.566 -73.102 l 158.676 -73.203 l 158.781 -73.312 l 
159 -73.543 l 159.109 -73.668 l 159.215 -73.797 l 159.434 -74.07 l 159.488
 -74.141 l 159.543 -74.215 l 159.648 -74.363 l 159.867 -74.672 l 160.301
 -75.352 l 160.355 -75.441 l 160.406 -75.531 l 160.516 -75.715 l 160.727
 -76.09 l 161.152 -76.887 l 162.004 -78.656 l 162.055 -78.773 l 162.109 
-78.891 l 162.215 -79.129 l 162.426 -79.617 l 162.852 -80.617 l 163.703 
-82.734 l 163.762 -82.883 l 163.816 -83.031 l 163.934 -83.328 l 164.164 
-83.93 l 164.625 -85.152 l 165.547 -87.648 l 167.395 -92.695 l 167.445 -92.844
 l 167.5 -92.988 l 167.609 -93.281 l 167.824 -93.859 l 168.254 -95.012 l
 169.117 -97.273 l 170.84 -101.555 l 170.895 -101.695 l 171.305 -102.652
 l 171.77 -103.719 l 172.703 -105.762 l 172.762 -105.887 l 172.82 -106.008
 l 172.938 -106.254 l 173.172 -106.738 l 173.637 -107.684 l 174.57 -109.477
 l 174.629 -109.582 l 174.684 -109.688 l 174.801 -109.898 l 175.027 -110.312
 l 175.484 -111.117 l 176.402 -112.648 l 176.461 -112.738 l 176.516 -112.832
 l 176.633 -113.012 l 176.859 -113.371 l 177.316 -114.066 l 178.234 -115.379
 l 178.289 -115.449 l 178.34 -115.523 l 178.449 -115.668 l 178.66 -115.953
 l 179.09 -116.512 l 179.941 -117.562 l 180.051 -117.688 l 180.156 -117.812
 l 180.371 -118.059 l 180.797 -118.535 l 181.652 -119.438 l 181.77 -119.555
 l 181.883 -119.672 l 182.117 -119.898 l 182.578 -120.34 l 183.508 -121.168
 l 183.562 -121.219 l 183.621 -121.266 l 183.738 -121.363 l 183.969 -121.555
 l 184.434 -121.926 l 185.359 -122.625 l 185.414 -122.66 l 185.469 -122.703
 l 185.574 -122.777 l 185.789 -122.93 l 186.223 -123.223 l 187.09 -123.77
 l 187.145 -123.805 l 187.195 -123.836 l 187.305 -123.902 l 187.523 -124.031
 l 187.953 -124.277 l 188.82 -124.746 l 188.871 -124.773 l 188.926 -124.797
 l 189.242 -124.961 l 189.668 -125.164 l 190.516 -125.555 l 190.566 -125.578
 l 190.621 -125.602 l 190.727 -125.648 l 190.938 -125.738 l 191.363 -125.914
 l 192.211 -126.242 l 192.27 -126.266 l 192.324 -126.285 l 192.441 -126.328
 l 192.672 -126.41 l 193.133 -126.57 l 194.051 -126.871 l 194.168 -126.91
 l 194.281 -126.945 l 194.512 -127.016 l 194.973 -127.148 l 195.891 -127.398
 l 196 -127.43 l 196.105 -127.457 l 196.32 -127.512 l 196.75 -127.617 l 
197.609 -127.812 l 197.664 -127.828 l 197.715 -127.84 l 197.824 -127.859
 l 198.039 -127.906 l 198.469 -127.996 l 199.324 -128.164 l 199.387 -128.176
 l 199.445 -128.188 l 199.566 -128.211 l 199.805 -128.254 l 200.285 -128.336
 l 201.242 -128.492 l 201.305 -128.504 l 201.363 -128.512 l 201.484 -128.527
 l 201.723 -128.566 l 202.199 -128.637 l 202.262 -128.645 l 202.32 -128.652
 l 202.441 -128.668 l 202.68 -128.703 l 202.742 -128.711 l 202.801 -128.719
 l 202.922 -128.734 l 203.039 -128.75 l 203.102 -128.758 l 203.16 -128.766
 l S Q
  Q
Q
0 g
0.072 w
0 J
0 j
[] 0.0 d
3.25 M q 1 0 0 1 0 139 cm
28.629 -130.09 m 28.629 -127.906 l S Q
Q q
20.699 8 16.102 -8 re W n
q
20 8 17 -8 re W n
  q
0 g
22.176 4.312 m 22.176 5.043 22.25 5.629 22.402 6.078 c 22.555 6.527 22.777
 6.871 23.074 7.109 c 23.371 7.348 23.742 7.469 24.191 7.469 c 24.523 7.469
 24.816 7.402 25.066 7.266 c 25.316 7.129 25.523 6.938 25.691 6.688 c 25.859
 6.438 25.988 6.133 26.082 5.773 c 26.176 5.414 26.223 4.926 26.223 4.312
 c 26.223 3.582 26.148 2.996 25.996 2.547 c 25.844 2.098 25.621 1.754 25.324
 1.508 c 25.027 1.262 24.648 1.141 24.191 1.141 c 23.598 1.141 23.129 1.355
 22.785 1.781 c 22.379 2.301 22.176 3.145 22.176 4.312 c h
22.957 4.312 m 22.957 3.293 23.078 2.613 23.316 2.273 c 23.555 1.934 23.848
 1.766 24.191 1.766 c 24.543 1.766 24.844 1.934 25.082 2.273 c 25.32 2.613
 25.441 3.293 25.441 4.312 c 25.441 5.332 25.32 6.012 25.082 6.344 c 24.844
 6.676 24.543 6.844 24.191 6.844 c 23.836 6.844 23.555 6.691 23.348 6.391
 c 23.086 6.016 22.957 5.324 22.957 4.312 c f*
26.207 2.109 0.875 -0.859 re f*
27.582 4.312 m 27.582 5.043 27.656 5.629 27.809 6.078 c 27.961 6.527 28.184
 6.871 28.48 7.109 c 28.777 7.348 29.148 7.469 29.598 7.469 c 29.93 7.469
 30.223 7.402 30.473 7.266 c 30.723 7.129 30.93 6.938 31.098 6.688 c 31.266
 6.438 31.395 6.133 31.488 5.773 c 31.582 5.414 31.629 4.926 31.629 4.312
 c 31.629 3.582 31.555 2.996 31.402 2.547 c 31.25 2.098 31.027 1.754 30.73
 1.508 c 30.434 1.262 30.055 1.141 29.598 1.141 c 29.004 1.141 28.535 1.355
 28.191 1.781 c 27.785 2.301 27.582 3.145 27.582 4.312 c h
28.363 4.312 m 28.363 3.293 28.48 2.613 28.723 2.273 c 28.961 1.934 29.254
 1.766 29.598 1.766 c 29.953 1.766 30.246 1.934 30.488 2.273 c 30.727 2.613
 30.848 3.293 30.848 4.312 c 30.848 5.332 30.727 6.012 30.488 6.344 c 30.246
 6.676 29.953 6.844 29.598 6.844 c 29.242 6.844 28.961 6.691 28.754 6.391
 c 28.492 6.016 28.363 5.324 28.363 4.312 c f*
34.051 1.25 m 33.301 1.25 l 33.301 6.094 l 33.113 5.926 32.871 5.754 32.574
 5.578 c 32.277 5.402 32.008 5.27 31.77 5.188 c 31.77 5.922 l 32.195 6.121
 32.566 6.359 32.887 6.641 c 33.203 6.922 33.43 7.199 33.566 7.469 c 34.051
 7.469 l 34.051 1.25 l f*
  Q
Q
Q q
0 g
0.072 w
0 J
0 j
[] 0.0 d
3.25 M q 1 0 0 1 0 139 cm
75.812 -130.09 m 75.812 -127.906 l S Q
Q q
67.699 8 16.102 -8 re W n
q
67 8 17 -8 re W n
  q
0 g
69.359 4.312 m 69.359 5.043 69.434 5.629 69.586 6.078 c 69.738 6.527 69.961
 6.871 70.258 7.109 c 70.555 7.348 70.926 7.469 71.375 7.469 c 71.707 7.469
 72 7.402 72.25 7.266 c 72.5 7.129 72.707 6.938 72.875 6.688 c 73.043 6.438
 73.172 6.133 73.266 5.773 c 73.359 5.414 73.406 4.926 73.406 4.312 c 73.406
 3.582 73.332 2.996 73.18 2.547 c 73.027 2.098 72.805 1.754 72.508 1.508
 c 72.211 1.262 71.832 1.141 71.375 1.141 c 70.781 1.141 70.312 1.355 69.969
 1.781 c 69.562 2.301 69.359 3.145 69.359 4.312 c h
70.141 4.312 m 70.141 3.293 70.262 2.613 70.5 2.273 c 70.738 1.934 71.031
 1.766 71.375 1.766 c 71.73 1.766 72.027 1.934 72.266 2.273 c 72.504 2.613
 72.625 3.293 72.625 4.312 c 72.625 5.332 72.504 6.012 72.266 6.344 c 72.027
 6.676 71.73 6.844 71.375 6.844 c 71.02 6.844 70.738 6.691 70.531 6.391 
c 70.27 6.016 70.141 5.324 70.141 4.312 c f*
73.391 2.109 0.875 -0.859 re f*
77.625 1.25 m 76.875 1.25 l 76.875 6.094 l 76.688 5.926 76.445 5.754 76.148
 5.578 c 75.852 5.402 75.582 5.27 75.344 5.188 c 75.344 5.922 l 75.77 6.121
 76.145 6.359 76.461 6.641 c 76.777 6.922 77.004 7.199 77.141 7.469 c 77.625
 7.469 l 77.625 1.25 l f*
78.375 4.312 m 78.375 5.043 78.449 5.629 78.602 6.078 c 78.754 6.527 78.977
 6.871 79.273 7.109 c 79.57 7.348 79.941 7.469 80.391 7.469 c 80.723 7.469
 81.016 7.402 81.266 7.266 c 81.516 7.129 81.723 6.938 81.891 6.688 c 82.059
 6.438 82.188 6.133 82.281 5.773 c 82.375 5.414 82.422 4.926 82.422 4.312
 c 82.422 3.582 82.348 2.996 82.195 2.547 c 82.043 2.098 81.82 1.754 81.523
 1.508 c 81.227 1.262 80.848 1.141 80.391 1.141 c 79.797 1.141 79.328 1.355
 78.984 1.781 c 78.578 2.301 78.375 3.145 78.375 4.312 c h
79.156 4.312 m 79.156 3.293 79.273 2.613 79.516 2.273 c 79.754 1.934 80.047
 1.766 80.391 1.766 c 80.742 1.766 81.039 1.934 81.281 2.273 c 81.52 2.613
 81.641 3.293 81.641 4.312 c 81.641 5.332 81.52 6.012 81.281 6.344 c 81.039
 6.676 80.742 6.844 80.391 6.844 c 80.035 6.844 79.754 6.691 79.547 6.391
 c 79.285 6.016 79.156 5.324 79.156 4.312 c f*
  Q
Q
Q q
0 g
0.072 w
0 J
0 j
[] 0.0 d
3.25 M q 1 0 0 1 0 139 cm
122.996 -130.09 m 122.996 -127.906 l S Q
Q q
119.699 8 7.102 -8 re W n
q
119 8 8 -8 re W n
  q
0 g
123.91 1.25 m 123.16 1.25 l 123.16 6.094 l 122.973 5.926 122.73 5.754 122.434
 5.578 c 122.137 5.402 121.867 5.27 121.629 5.188 c 121.629 5.922 l 122.055
 6.121 122.43 6.359 122.746 6.641 c 123.062 6.922 123.289 7.199 123.426 
7.469 c 123.91 7.469 l 123.91 1.25 l f*
  Q
Q
Q q
0 g
0.072 w
0 J
0 j
[] 0.0 d
3.25 M q 1 0 0 1 0 139 cm
170.18 -130.09 m 170.18 -127.906 l S Q
Q q
164.699 8 11.102 -8 re W n
q
164 8 12 -8 re W n
  q
0 g
169.289 1.25 m 168.539 1.25 l 168.539 6.094 l 168.352 5.926 168.109 5.754
 167.812 5.578 c 167.516 5.402 167.246 5.27 167.008 5.188 c 167.008 5.922
 l 167.434 6.121 167.809 6.359 168.125 6.641 c 168.441 6.922 168.668 7.199
 168.805 7.469 c 169.289 7.469 l 169.289 1.25 l f*
170.039 4.312 m 170.039 5.043 170.113 5.629 170.266 6.078 c 170.414 6.527
 170.641 6.871 170.938 7.109 c 171.234 7.348 171.605 7.469 172.055 7.469
 c 172.387 7.469 172.68 7.402 172.93 7.266 c 173.18 7.129 173.387 6.938 
173.555 6.688 c 173.723 6.438 173.852 6.133 173.945 5.773 c 174.039 5.414
 174.086 4.926 174.086 4.312 c 174.086 3.582 174.012 2.996 173.859 2.547
 c 173.707 2.098 173.484 1.754 173.188 1.508 c 172.891 1.262 172.512 1.141
 172.055 1.141 c 171.461 1.141 170.992 1.355 170.648 1.781 c 170.242 2.301
 170.039 3.145 170.039 4.312 c h
170.82 4.312 m 170.82 3.293 170.938 2.613 171.18 2.273 c 171.418 1.934 
171.711 1.766 172.055 1.766 c 172.406 1.766 172.703 1.934 172.945 2.273 
c 173.184 2.613 173.305 3.293 173.305 4.312 c 173.305 5.332 173.184 6.012
 172.945 6.344 c 172.703 6.676 172.406 6.844 172.055 6.844 c 171.699 6.844
 171.418 6.691 171.211 6.391 c 170.949 6.016 170.82 5.324 170.82 4.312 c
 f*
  Q
Q
Q q
0 g
0.072 w
0 J
0 j
[] 0.0 d
3.25 M q 1 0 0 1 0 139 cm
217.363 -130.09 m 217.363 -127.906 l S Q
Q q
210.699 8 14.102 -8 re W n
q
210 8 15 -8 re W n
  q
0 g
214.668 1.25 m 213.918 1.25 l 213.918 6.094 l 213.73 5.926 213.488 5.754
 213.191 5.578 c 212.895 5.402 212.629 5.27 212.387 5.188 c 212.387 5.922
 l 212.816 6.121 213.188 6.359 213.504 6.641 c 213.82 6.922 214.051 7.199
 214.184 7.469 c 214.668 7.469 l 214.668 1.25 l f*
215.418 4.312 m 215.418 5.043 215.492 5.629 215.645 6.078 c 215.797 6.527
 216.02 6.871 216.316 7.109 c 216.613 7.348 216.984 7.469 217.434 7.469 
c 217.766 7.469 218.059 7.402 218.309 7.266 c 218.559 7.129 218.766 6.938
 218.934 6.688 c 219.102 6.438 219.23 6.133 219.324 5.773 c 219.418 5.414
 219.465 4.926 219.465 4.312 c 219.465 3.582 219.391 2.996 219.238 2.547
 c 219.09 2.098 218.863 1.754 218.566 1.508 c 218.27 1.262 217.891 1.141
 217.434 1.141 c 216.84 1.141 216.371 1.355 216.027 1.781 c 215.621 2.301
 215.418 3.145 215.418 4.312 c h
216.199 4.312 m 216.199 3.293 216.32 2.613 216.559 2.273 c 216.801 1.934
 217.09 1.766 217.434 1.766 c 217.789 1.766 218.086 1.934 218.324 2.273 
c 218.562 2.613 218.684 3.293 218.684 4.312 c 218.684 5.332 218.562 6.012
 218.324 6.344 c 218.086 6.676 217.789 6.844 217.434 6.844 c 217.078 6.844
 216.801 6.691 216.59 6.391 c 216.328 6.016 216.199 5.324 216.199 4.312 
c f*
219.027 4.312 m 219.027 5.043 219.102 5.629 219.254 6.078 c 219.406 6.527
 219.629 6.871 219.926 7.109 c 220.223 7.348 220.594 7.469 221.043 7.469
 c 221.375 7.469 221.668 7.402 221.918 7.266 c 222.168 7.129 222.375 6.938
 222.543 6.688 c 222.711 6.438 222.84 6.133 222.934 5.773 c 223.027 5.414
 223.074 4.926 223.074 4.312 c 223.074 3.582 223 2.996 222.848 2.547 c 222.695
 2.098 222.473 1.754 222.176 1.508 c 221.879 1.262 221.5 1.141 221.043 1.141
 c 220.449 1.141 219.98 1.355 219.637 1.781 c 219.23 2.301 219.027 3.145
 219.027 4.312 c h
219.809 4.312 m 219.809 3.293 219.93 2.613 220.168 2.273 c 220.406 1.934
 220.699 1.766 221.043 1.766 c 221.398 1.766 221.695 1.934 221.934 2.273
 c 222.172 2.613 222.293 3.293 222.293 4.312 c 222.293 5.332 222.172 6.012
 221.934 6.344 c 221.695 6.676 221.398 6.844 221.043 6.844 c 220.688 6.844
 220.406 6.691 220.199 6.391 c 219.938 6.016 219.809 5.324 219.809 4.312
 c f*
  Q
Q
Q q
0 g
0.072 w
0 J
0 j
[] 0.0 d
3.25 M q 1 0 0 1 0 139 cm
9.852 -130.09 m 9.852 -129 l S Q
q 1 0 0 1 0 139 cm
14.426 -130.09 m 14.426 -129 l S Q
q 1 0 0 1 0 139 cm
18.16 -130.09 m 18.16 -129 l S Q
q 1 0 0 1 0 139 cm
21.32 -130.09 m 21.32 -129 l S Q
q 1 0 0 1 0 139 cm
24.055 -130.09 m 24.055 -129 l S Q
q 1 0 0 1 0 139 cm
26.469 -130.09 m 26.469 -129 l S Q
q 1 0 0 1 0 139 cm
42.832 -130.09 m 42.832 -129 l S Q
q 1 0 0 1 0 139 cm
51.141 -130.09 m 51.141 -129 l S Q
q 1 0 0 1 0 139 cm
57.035 -130.09 m 57.035 -129 l S Q
q 1 0 0 1 0 139 cm
61.609 -130.09 m 61.609 -129 l S Q
q 1 0 0 1 0 139 cm
65.344 -130.09 m 65.344 -129 l S Q
q 1 0 0 1 0 139 cm
68.504 -130.09 m 68.504 -129 l S Q
q 1 0 0 1 0 139 cm
71.238 -130.09 m 71.238 -129 l S Q
q 1 0 0 1 0 139 cm
73.652 -130.09 m 73.652 -129 l S Q
q 1 0 0 1 0 139 cm
90.016 -130.09 m 90.016 -129 l S Q
q 1 0 0 1 0 139 cm
98.324 -130.09 m 98.324 -129 l S Q
q 1 0 0 1 0 139 cm
104.219 -130.09 m 104.219 -129 l S Q
q 1 0 0 1 0 139 cm
108.793 -130.09 m 108.793 -129 l S Q
q 1 0 0 1 0 139 cm
112.527 -130.09 m 112.527 -129 l S Q
q 1 0 0 1 0 139 cm
115.688 -130.09 m 115.688 -129 l S Q
q 1 0 0 1 0 139 cm
118.426 -130.09 m 118.426 -129 l S Q
q 1 0 0 1 0 139 cm
120.836 -130.09 m 120.836 -129 l S Q
q 1 0 0 1 0 139 cm
137.199 -130.09 m 137.199 -129 l S Q
q 1 0 0 1 0 139 cm
145.508 -130.09 m 145.508 -129 l S Q
q 1 0 0 1 0 139 cm
151.402 -130.09 m 151.402 -129 l S Q
q 1 0 0 1 0 139 cm
155.977 -130.09 m 155.977 -129 l S Q
q 1 0 0 1 0 139 cm
159.711 -130.09 m 159.711 -129 l S Q
q 1 0 0 1 0 139 cm
162.871 -130.09 m 162.871 -129 l S Q
q 1 0 0 1 0 139 cm
165.605 -130.09 m 165.605 -129 l S Q
q 1 0 0 1 0 139 cm
168.02 -130.09 m 168.02 -129 l S Q
q 1 0 0 1 0 139 cm
184.383 -130.09 m 184.383 -129 l S Q
q 1 0 0 1 0 139 cm
192.691 -130.09 m 192.691 -129 l S Q
q 1 0 0 1 0 139 cm
198.586 -130.09 m 198.586 -129 l S Q
q 1 0 0 1 0 139 cm
203.16 -130.09 m 203.16 -129 l S Q
q 1 0 0 1 0 139 cm
206.895 -130.09 m 206.895 -129 l S Q
q 1 0 0 1 0 139 cm
210.055 -130.09 m 210.055 -129 l S Q
q 1 0 0 1 0 139 cm
212.789 -130.09 m 212.789 -129 l S Q
q 1 0 0 1 0 139 cm
215.203 -130.09 m 215.203 -129 l S Q
0.36 w
q 1 0 0 1 0 139 cm
6.812 -130.09 m 224.977 -130.09 l S Q
Q q
229.699 15 15.301 -12.102 re W n
q
229 15 16 -13 re W n
  q
0 g
232.484 7.59 m 232.484 13.059 l 230.438 13.059 l 230.438 13.793 l 235.344
 13.793 l 235.344 13.059 l 233.297 13.059 l 233.297 7.59 l 232.484 7.59 
l f*
238.578 5.777 m 238.047 5.777 l 237.82 6.059 237.609 6.363 237.422 6.684
 c 237.234 7.008 237.078 7.34 236.945 7.684 c 236.816 8.027 236.715 8.379
 236.641 8.738 c 236.57 9.098 236.531 9.461 236.531 9.824 c 236.531 10.199
 236.57 10.566 236.641 10.926 c 236.715 11.285 236.82 11.637 236.953 11.98
 c 237.09 12.324 237.25 12.656 237.43 12.973 c 237.613 13.293 237.82 13.598
 238.047 13.887 c 238.578 13.887 l 238.383 13.566 238.203 13.246 238.047
 12.926 c 237.891 12.609 237.758 12.285 237.648 11.957 c 237.539 11.629 
237.461 11.293 237.406 10.941 c 237.355 10.594 237.328 10.227 237.328 9.84
 c 237.328 9.477 237.359 9.117 237.414 8.762 c 237.473 8.41 237.555 8.059
 237.664 7.715 c 237.773 7.371 237.906 7.039 238.062 6.715 c 238.219 6.395
 238.391 6.082 238.578 5.777 c f*
238.754 7.59 m 238.754 13.793 l 239.504 13.793 l 239.504 10.246 l 241.316
 12.074 l 242.301 12.074 l 240.578 10.418 l 242.473 7.59 l 241.531 7.59 
l 240.051 9.887 l 239.504 9.371 l 239.504 7.59 l 238.754 7.59 l f*
243.781 9.824 m 243.781 9.461 243.746 9.098 243.676 8.738 c 243.602 8.379
 243.5 8.027 243.367 7.684 c 243.238 7.34 243.078 7.012 242.895 6.691 c 
242.703 6.375 242.504 6.07 242.281 5.777 c 241.734 5.777 l 241.934 6.102
 242.113 6.422 242.27 6.738 c 242.426 7.059 242.559 7.379 242.664 7.707 
c 242.777 8.035 242.859 8.375 242.914 8.723 c 242.973 9.074 243.004 9.441
 243.004 9.824 c 243.004 10.18 242.973 10.535 242.906 10.895 c 242.848 11.254
 242.762 11.605 242.652 11.941 c 242.539 12.281 242.406 12.613 242.254 12.941
 c 242.098 13.27 241.926 13.586 241.734 13.887 c 242.281 13.887 l 242.512
 13.605 242.719 13.305 242.902 12.98 c 243.082 12.66 243.238 12.324 243.367
 11.98 c 243.5 11.637 243.602 11.285 243.676 10.926 c 243.746 10.566 243.781
 10.199 243.781 9.824 c f*
  Q
Q
Q q
0 g
0.36 w
0 J
0 j
[] 0.0 d
3.25 M q 1 0 0 1 0 139 cm
11.176 -130.09 m 13.492 -130.09 l S Q
q 1 0 0 1 0 139 cm
11.176 -124.637 m 12.566 -124.637 l S Q
q 1 0 0 1 0 139 cm
11.176 -119.184 m 12.566 -119.184 l S Q
q 1 0 0 1 0 139 cm
11.176 -113.727 m 12.566 -113.727 l S Q
q 1 0 0 1 0 139 cm
11.176 -108.273 m 12.566 -108.273 l S Q
q 1 0 0 1 0 139 cm
11.176 -102.82 m 13.492 -102.82 l S Q
Q q
0 41 10.801 -10.102 re W n
q
0 41 11 -11 re W n
  q
0 g
-0.141 37.117 m -0.141 37.848 -0.066 38.438 0.086 38.883 c 0.238 39.332
 0.461 39.676 0.758 39.914 c 1.055 40.156 1.426 40.273 1.875 40.273 c 2.207
 40.273 2.5 40.207 2.75 40.07 c 3 39.938 3.207 39.742 3.375 39.492 c 3.543
 39.242 3.672 38.938 3.766 38.578 c 3.859 38.219 3.906 37.734 3.906 37.117
 c 3.906 36.391 3.832 35.801 3.68 35.352 c 3.527 34.906 3.305 34.559 3.008
 34.312 c 2.711 34.07 2.332 33.945 1.875 33.945 c 1.281 33.945 0.812 34.16
 0.469 34.586 c 0.062 35.109 -0.141 35.953 -0.141 37.117 c h
0.641 37.117 m 0.641 36.098 0.762 35.418 1 35.078 c 1.238 34.742 1.531 
34.57 1.875 34.57 c 2.23 34.57 2.527 34.742 2.766 35.078 c 3.004 35.418 
3.125 36.098 3.125 37.117 c 3.125 38.141 3.004 38.816 2.766 39.148 c 2.527
 39.484 2.23 39.648 1.875 39.648 c 1.52 39.648 1.238 39.5 1.031 39.195 c
 0.77 38.82 0.641 38.129 0.641 37.117 c f*
3.891 34.914 0.875 -0.859 re f*
8.125 34.055 m 7.375 34.055 l 7.375 38.898 l 7.188 38.734 6.945 38.562 
6.648 38.383 c 6.352 38.207 6.082 38.078 5.844 37.992 c 5.844 38.727 l 6.27
 38.926 6.645 39.164 6.961 39.445 c 7.277 39.727 7.504 40.004 7.641 40.273
 c 8.125 40.273 l 8.125 34.055 l f*
  Q
Q
Q q
0 g
0.36 w
0 J
0 j
[] 0.0 d
3.25 M q 1 0 0 1 0 139 cm
11.176 -97.363 m 12.566 -97.363 l S Q
q 1 0 0 1 0 139 cm
11.176 -91.91 m 12.566 -91.91 l S Q
q 1 0 0 1 0 139 cm
11.176 -86.457 m 12.566 -86.457 l S Q
q 1 0 0 1 0 139 cm
11.176 -81.004 m 12.566 -81.004 l S Q
q 1 0 0 1 0 139 cm
11.176 -75.547 m 13.492 -75.547 l S Q
Q q
0 68 10.801 -9.102 re W n
q
0 68 11 -10 re W n
  q
0 g
-0.141 64.387 m -0.141 65.117 -0.066 65.707 0.086 66.152 c 0.238 66.602
 0.461 66.945 0.758 67.184 c 1.055 67.426 1.426 67.543 1.875 67.543 c 2.207
 67.543 2.5 67.477 2.75 67.344 c 3 67.207 3.207 67.016 3.375 66.766 c 3.543
 66.516 3.672 66.211 3.766 65.848 c 3.859 65.488 3.906 65.004 3.906 64.387
 c 3.906 63.66 3.832 63.07 3.68 62.621 c 3.527 62.176 3.305 61.828 3.008
 61.586 c 2.711 61.34 2.332 61.219 1.875 61.219 c 1.281 61.219 0.812 61.43
 0.469 61.855 c 0.062 62.379 -0.141 63.223 -0.141 64.387 c h
0.641 64.387 m 0.641 63.367 0.762 62.688 1 62.348 c 1.238 62.012 1.531 
61.844 1.875 61.844 c 2.23 61.844 2.527 62.012 2.766 62.348 c 3.004 62.688
 3.125 63.367 3.125 64.387 c 3.125 65.41 3.004 66.086 2.766 66.418 c 2.527
 66.754 2.23 66.918 1.875 66.918 c 1.52 66.918 1.238 66.77 1.031 66.469 
c 0.77 66.094 0.641 65.398 0.641 64.387 c f*
3.891 62.184 0.875 -0.855 re f*
9.266 62.059 m 9.266 61.328 l 5.172 61.328 l 5.16 61.516 5.188 61.691 5.25
 61.855 c 5.355 62.137 5.523 62.414 5.758 62.684 c 5.992 62.957 6.324 63.27
 6.75 63.621 c 7.426 64.176 7.883 64.613 8.117 64.934 c 8.352 65.258 8.469
 65.559 8.469 65.844 c 8.469 66.145 8.363 66.398 8.148 66.605 c 7.934 66.816
 7.656 66.918 7.312 66.918 c 6.938 66.918 6.641 66.809 6.422 66.594 c 6.203
 66.371 6.094 66.066 6.094 65.668 c 5.312 65.746 l 5.363 66.332 5.566 66.777
 5.914 67.086 c 6.262 67.391 6.734 67.543 7.328 67.543 c 7.922 67.543 8.391
 67.383 8.734 67.055 c 9.078 66.723 9.25 66.316 9.25 65.828 c 9.25 65.578
 9.199 65.332 9.102 65.094 c 9 64.852 8.836 64.598 8.602 64.336 c 8.367 
64.066 7.973 63.707 7.422 63.246 c 6.961 62.863 6.672 62.602 6.547 62.469
 c 6.422 62.332 6.312 62.195 6.219 62.059 c 9.266 62.059 l f*
  Q
Q
Q q
0 g
0.36 w
0 J
0 j
[] 0.0 d
3.25 M q 1 0 0 1 0 139 cm
11.176 -70.094 m 12.566 -70.094 l S Q
q 1 0 0 1 0 139 cm
11.176 -64.641 m 12.566 -64.641 l S Q
q 1 0 0 1 0 139 cm
11.176 -59.188 m 12.566 -59.188 l S Q
q 1 0 0 1 0 139 cm
11.176 -53.734 m 12.566 -53.734 l S Q
q 1 0 0 1 0 139 cm
11.176 -48.277 m 13.492 -48.277 l S Q
Q q
0 96 10.801 -10.102 re W n
q
0 96 11 -11 re W n
  q
0 g
-0.141 91.66 m -0.141 92.391 -0.066 92.977 0.086 93.426 c 0.238 93.871 
0.461 94.219 0.758 94.457 c 1.055 94.695 1.426 94.816 1.875 94.816 c 2.207
 94.816 2.5 94.746 2.75 94.613 c 3 94.477 3.207 94.285 3.375 94.035 c 3.543
 93.785 3.672 93.48 3.766 93.121 c 3.859 92.762 3.906 92.273 3.906 91.66
 c 3.906 90.93 3.832 90.344 3.68 89.895 c 3.527 89.445 3.305 89.102 3.008
 88.855 c 2.711 88.609 2.332 88.488 1.875 88.488 c 1.281 88.488 0.812 88.703
 0.469 89.129 c 0.062 89.648 -0.141 90.492 -0.141 91.66 c h
0.641 91.66 m 0.641 90.641 0.762 89.961 1 89.621 c 1.238 89.281 1.531 89.113
 1.875 89.113 c 2.23 89.113 2.527 89.281 2.766 89.621 c 3.004 89.961 3.125
 90.641 3.125 91.66 c 3.125 92.68 3.004 93.355 2.766 93.691 c 2.527 94.023
 2.23 94.191 1.875 94.191 c 1.52 94.191 1.238 94.039 1.031 93.738 c 0.77
 93.363 0.641 92.668 0.641 91.66 c f*
3.891 89.457 0.875 -0.859 re f*
5.266 90.238 m 6.031 90.332 l 6.113 89.902 6.262 89.594 6.477 89.402 c 
6.691 89.211 6.949 89.113 7.25 89.113 c 7.605 89.113 7.902 89.238 8.148 
89.488 c 8.395 89.738 8.516 90.043 8.516 90.41 c 8.516 90.766 8.402 91.055
 8.172 91.277 c 7.941 91.5 7.656 91.613 7.312 91.613 c 7.168 91.613 6.984
 91.586 6.766 91.535 c 6.859 92.191 l 6.984 92.191 l 7.309 92.191 7.598 
92.273 7.852 92.441 c 8.105 92.605 8.234 92.867 8.234 93.223 c 8.234 93.504
 8.141 93.734 7.953 93.918 c 7.766 94.102 7.527 94.191 7.234 94.191 c 6.934
 94.191 6.684 94.098 6.484 93.91 c 6.285 93.723 6.16 93.445 6.109 93.082
 c 5.344 93.207 l 5.438 93.719 5.648 94.113 5.977 94.395 c 6.305 94.676 
6.711 94.816 7.203 94.816 c 7.547 94.816 7.863 94.742 8.148 94.598 c 8.434
 94.453 8.652 94.254 8.797 94.004 c 8.941 93.754 9.016 93.488 9.016 93.207
 c 9.016 92.938 8.945 92.691 8.805 92.473 c 8.664 92.254 8.453 92.082 8.172
 91.957 c 8.535 91.871 8.82 91.699 9.023 91.434 c 9.227 91.168 9.328 90.832
 9.328 90.426 c 9.328 89.883 9.129 89.426 8.734 89.051 c 8.336 88.676 7.836
 88.488 7.234 88.488 c 6.691 88.488 6.242 88.648 5.883 88.973 c 5.523 89.293
 5.316 89.719 5.266 90.238 c f*
  Q
Q
Q q
0 g
0.36 w
0 J
0 j
[] 0.0 d
3.25 M q 1 0 0 1 0 139 cm
11.176 -42.824 m 12.566 -42.824 l S Q
q 1 0 0 1 0 139 cm
11.176 -37.371 m 12.566 -37.371 l S Q
q 1 0 0 1 0 139 cm
11.176 -31.914 m 12.566 -31.914 l S Q
q 1 0 0 1 0 139 cm
11.176 -26.461 m 12.566 -26.461 l S Q
q 1 0 0 1 0 139 cm
11.176 -21.008 m 13.492 -21.008 l S Q
Q q
0 123 10.801 -10.102 re W n
q
0 123 11 -11 re W n
  q
0 g
-0.141 118.93 m -0.141 119.66 -0.066 120.246 0.086 120.695 c 0.238 121.145
 0.461 121.488 0.758 121.727 c 1.055 121.965 1.426 122.086 1.875 122.086
 c 2.207 122.086 2.5 122.02 2.75 121.883 c 3 121.746 3.207 121.555 3.375
 121.305 c 3.543 121.055 3.672 120.75 3.766 120.391 c 3.859 120.031 3.906
 119.543 3.906 118.93 c 3.906 118.199 3.832 117.613 3.68 117.164 c 3.527
 116.715 3.305 116.371 3.008 116.125 c 2.711 115.879 2.332 115.758 1.875
 115.758 c 1.281 115.758 0.812 115.973 0.469 116.398 c 0.062 116.918 -0.141
 117.762 -0.141 118.93 c h
0.641 118.93 m 0.641 117.91 0.762 117.23 1 116.891 c 1.238 116.551 1.531
 116.383 1.875 116.383 c 2.23 116.383 2.527 116.551 2.766 116.891 c 3.004
 117.23 3.125 117.91 3.125 118.93 c 3.125 119.949 3.004 120.629 2.766 120.961
 c 2.527 121.293 2.23 121.461 1.875 121.461 c 1.52 121.461 1.238 121.309
 1.031 121.008 c 0.77 120.633 0.641 119.941 0.641 118.93 c f*
3.891 116.727 0.875 -0.859 re f*
7.703 115.867 m 7.703 117.352 l 5.016 117.352 l 5.016 118.055 l 7.844 122.07
 l 8.469 122.07 l 8.469 118.055 l 9.297 118.055 l 9.297 117.352 l 8.469 
117.352 l 8.469 115.867 l h
7.703 118.055 m 7.703 120.836 l 5.766 118.055 l 7.703 118.055 l f*
  Q
Q
Q q
0 g
0.36 w
0 J
0 j
[] 0.0 d
3.25 M q 1 0 0 1 0 139 cm
11.176 -130.09 m 11.176 -21.008 l S Q
Q q
7.719 130.973 7 -10 re W n
q
7 131 8 -11 re W n
  q
0 g
13.426 125.734 m 14.238 125.531 l 14.07 124.855 13.766 124.34 13.316 123.984
 c 12.867 123.629 12.32 123.453 11.676 123.453 c 11.008 123.453 10.469 123.59
 10.051 123.859 c 9.633 124.129 9.316 124.523 9.098 125.039 c 8.879 125.555
 8.77 126.109 8.77 126.703 c 8.77 127.348 8.891 127.91 9.137 128.391 c 9.383
 128.867 9.73 129.234 10.184 129.484 c 10.637 129.734 11.141 129.859 11.691
 129.859 c 12.305 129.859 12.824 129.703 13.246 129.391 c 13.668 129.078
 13.961 128.637 14.129 128.062 c 13.332 127.875 l 13.188 128.32 12.977 128.648
 12.699 128.852 c 12.422 129.055 12.082 129.156 11.676 129.156 c 11.195 
129.156 10.797 129.043 10.48 128.82 c 10.164 128.598 9.938 128.289 9.809
 127.906 c 9.68 127.52 9.613 127.125 9.613 126.719 c 9.613 126.188 9.688
 125.723 9.84 125.328 c 9.992 124.934 10.227 124.637 10.551 124.445 c 10.875
 124.254 11.227 124.156 11.613 124.156 c 12.07 124.156 12.461 124.289 12.777
 124.555 c 13.094 124.82 13.312 125.215 13.426 125.734 c f*
  Q
Q
Q q
68.699 139 94.102 -11.102 re W n
q
68 139 95 -12 re W n
  q
0 g
70.598 132.562 m 70.598 139.984 l 71.582 139.984 l 71.582 136.938 l 75.441
 136.938 l 75.441 139.984 l 76.426 139.984 l 76.426 132.562 l 75.441 132.562
 l 75.441 136.062 l 71.582 136.062 l 71.582 132.562 l 70.598 132.562 l f*
79.754 134.297 m 80.707 134.172 l 80.562 133.629 80.285 133.203 79.879 
132.898 c 79.473 132.59 78.957 132.438 78.332 132.438 c 77.551 132.438 76.93
 132.68 76.465 133.164 c 76 133.648 75.77 134.328 75.77 135.203 c 75.77 
136.109 76.004 136.812 76.473 137.312 c 76.941 137.812 77.543 138.062 78.285
 138.062 c 79.004 138.062 79.594 137.816 80.051 137.328 c 80.508 136.84 
80.738 136.152 80.738 135.266 c 80.738 135.215 80.734 135.129 80.723 135.016
 c 76.723 135.016 l 76.754 134.434 76.918 133.98 77.223 133.664 c 77.523
 133.348 77.898 133.188 78.348 133.188 c 78.68 133.188 78.965 133.277 79.199
 133.453 c 79.434 133.629 79.617 133.91 79.754 134.297 c h
76.77 135.766 m 79.77 135.766 l 79.727 136.223 79.613 136.562 79.426 136.781
 c 79.133 137.137 78.758 137.312 78.301 137.312 c 77.883 137.312 77.531 
137.172 77.246 136.891 c 76.961 136.609 76.801 136.234 76.77 135.766 c f*
83.91 133.219 m 83.578 132.938 83.254 132.734 82.941 132.617 c 82.629 132.496
 82.293 132.438 81.941 132.438 c 81.348 132.438 80.891 132.582 80.574 132.875
 c 80.258 133.164 80.098 133.535 80.098 133.984 c 80.098 134.242 80.156 
134.484 80.277 134.703 c 80.395 134.922 80.555 135.098 80.746 135.227 c 
80.938 135.355 81.16 135.457 81.41 135.531 c 81.586 135.57 81.855 135.613
 82.223 135.656 c 82.953 135.75 83.492 135.859 83.848 135.984 c 83.848 136.219
 l 83.848 136.582 83.758 136.844 83.582 137 c 83.352 137.207 83.008 137.312
 82.551 137.312 c 82.121 137.312 81.809 137.234 81.605 137.086 c 81.402 
136.934 81.246 136.664 81.145 136.281 c 80.254 136.406 l 80.336 136.789 
80.469 137.102 80.652 137.336 c 80.836 137.57 81.102 137.75 81.457 137.875
 c 81.812 138 82.219 138.062 82.676 138.062 c 83.133 138.062 83.508 138.008
 83.801 137.898 c 84.094 137.789 84.305 137.652 84.434 137.492 c 84.562 
137.328 84.66 137.125 84.723 136.875 c 84.754 136.719 84.77 136.438 84.77
 136.031 c 84.77 134.812 l 84.77 133.969 84.785 133.434 84.824 133.211 c
 84.859 132.984 84.938 132.77 85.051 132.562 c 84.098 132.562 l 84.004 132.75
 83.941 132.969 83.91 133.219 c h
83.848 135.266 m 83.516 135.129 83.016 135.016 82.348 134.922 c 81.973 
134.867 81.707 134.809 81.551 134.742 c 81.395 134.676 81.273 134.574 81.191
 134.445 c 81.105 134.316 81.066 134.164 81.066 134 c 81.066 133.762 81.16
 133.559 81.348 133.398 c 81.535 133.234 81.805 133.156 82.16 133.156 c 
82.504 133.156 82.812 133.23 83.09 133.383 c 83.363 133.531 83.566 133.742
 83.691 134.016 c 83.793 134.223 83.848 134.527 83.848 134.922 c 83.848 
135.266 l f*
86.723 133.375 m 86.863 132.578 l 86.602 132.516 86.371 132.484 86.176 
132.484 c 85.844 132.484 85.586 132.539 85.402 132.648 c 85.219 132.758 
85.09 132.895 85.012 133.062 c 84.934 133.23 84.895 133.59 84.895 134.141
 c 84.895 137.234 l 84.238 137.234 l 84.238 137.938 l 84.895 137.938 l 84.895
 139.281 l 85.816 139.828 l 85.816 137.938 l 86.723 137.938 l 86.723 137.234
 l 85.816 137.234 l 85.816 134.094 l 85.816 133.832 85.832 133.664 85.863
 133.586 c 85.895 133.508 85.945 133.445 86.02 133.406 c 86.094 133.363 
86.195 133.344 86.332 133.344 c 86.426 133.344 86.555 133.355 86.723 133.375
 c f*
92.551 134.531 m 93.457 134.422 l 93.352 133.797 93.102 133.309 92.699 
132.961 c 92.297 132.609 91.805 132.438 91.223 132.438 c 90.484 132.438 
89.891 132.68 89.441 133.164 c 88.992 133.648 88.77 134.34 88.77 135.234
 c 88.77 135.816 88.867 136.324 89.059 136.758 c 89.25 137.191 89.543 137.516
 89.934 137.734 c 90.324 137.953 90.754 138.062 91.223 138.062 c 91.805 
138.062 92.281 137.914 92.652 137.617 c 93.023 137.32 93.258 136.902 93.363
 136.359 c 92.488 136.219 l 92.395 136.582 92.242 136.855 92.027 137.039
 c 91.812 137.223 91.555 137.312 91.254 137.312 c 90.793 137.312 90.422 
137.148 90.137 136.82 c 89.852 136.492 89.707 135.969 89.707 135.25 c 89.707
 134.531 89.844 134.008 90.121 133.68 c 90.398 133.352 90.758 133.188 91.207
 133.188 c 91.562 133.188 91.859 133.297 92.098 133.516 c 92.336 133.734
 92.488 134.07 92.551 134.531 c f*
96.441 133.219 m 96.109 132.938 95.785 132.734 95.473 132.617 c 95.16 132.496
 94.828 132.438 94.473 132.438 c 93.879 132.438 93.422 132.582 93.105 132.875
 c 92.789 133.164 92.629 133.535 92.629 133.984 c 92.629 134.242 92.688 
134.484 92.809 134.703 c 92.93 134.922 93.086 135.098 93.277 135.227 c 93.469
 135.355 93.691 135.457 93.941 135.531 c 94.117 135.57 94.391 135.613 94.754
 135.656 c 95.484 135.75 96.023 135.859 96.379 135.984 c 96.379 136.219 
l 96.379 136.582 96.289 136.844 96.113 137 c 95.883 137.207 95.539 137.312
 95.082 137.312 c 94.656 137.312 94.34 137.234 94.137 137.086 c 93.934 136.934
 93.781 136.664 93.676 136.281 c 92.785 136.406 l 92.867 136.789 93 137.102
 93.184 137.336 c 93.367 137.57 93.633 137.75 93.988 137.875 c 94.344 138
 94.75 138.062 95.207 138.062 c 95.664 138.062 96.039 138.008 96.332 137.898
 c 96.625 137.789 96.836 137.652 96.965 137.492 c 97.094 137.328 97.191 
137.125 97.254 136.875 c 97.285 136.719 97.301 136.438 97.301 136.031 c 
97.301 134.812 l 97.301 133.969 97.32 133.434 97.355 133.211 c 97.391 132.984
 97.469 132.77 97.582 132.562 c 96.629 132.562 l 96.535 132.75 96.473 132.969
 96.441 133.219 c h
96.379 135.266 m 96.047 135.129 95.547 135.016 94.879 134.922 c 94.504 
134.867 94.238 134.809 94.082 134.742 c 93.926 134.676 93.805 134.574 93.723
 134.445 c 93.641 134.316 93.598 134.164 93.598 134 c 93.598 133.762 93.691
 133.559 93.879 133.398 c 94.066 133.234 94.336 133.156 94.691 133.156 c
 95.035 133.156 95.344 133.23 95.621 133.383 c 95.898 133.531 96.098 133.742
 96.223 134.016 c 96.328 134.223 96.379 134.527 96.379 134.922 c 96.379 
135.266 l f*
97.27 130.5 m 97.27 137.938 l 98.098 137.938 l 98.098 137.25 l 98.297 137.52
 98.516 137.723 98.762 137.859 c 99.008 137.992 99.305 138.062 99.66 138.062
 c 100.117 138.062 100.523 137.945 100.871 137.711 c 101.219 137.477 101.484
 137.145 101.668 136.711 c 101.852 136.277 101.941 135.809 101.941 135.297
 c 101.941 134.742 101.844 134.246 101.645 133.805 c 101.445 133.359 101.156
 133.023 100.777 132.789 c 100.398 132.555 100.004 132.438 99.598 132.438
 c 99.285 132.438 99.008 132.504 98.77 132.633 c 98.531 132.762 98.332 132.926
 98.176 133.125 c 98.176 130.5 l h
98.098 135.219 m 98.098 134.531 98.234 134.02 98.512 133.688 c 98.789 133.355
 99.129 133.188 99.535 133.188 c 99.941 133.188 100.289 133.359 100.574 
133.703 c 100.859 134.047 101.004 134.578 101.004 135.297 c 101.004 135.984
 100.863 136.496 100.582 136.836 c 100.301 137.176 99.961 137.344 99.566
 137.344 c 99.18 137.344 98.84 137.164 98.543 136.805 c 98.246 136.445 98.098
 135.914 98.098 135.219 c f*
105.098 133.219 m 104.766 132.938 104.441 132.734 104.129 132.617 c 103.816
 132.496 103.484 132.438 103.129 132.438 c 102.535 132.438 102.078 132.582
 101.762 132.875 c 101.445 133.164 101.285 133.535 101.285 133.984 c 101.285
 134.242 101.344 134.484 101.465 134.703 c 101.586 134.922 101.742 135.098
 101.934 135.227 c 102.125 135.355 102.348 135.457 102.598 135.531 c 102.773
 135.57 103.047 135.613 103.41 135.656 c 104.141 135.75 104.68 135.859 105.035
 135.984 c 105.035 136.219 l 105.035 136.582 104.945 136.844 104.77 137 
c 104.539 137.207 104.195 137.312 103.738 137.312 c 103.312 137.312 102.996
 137.234 102.793 137.086 c 102.59 136.934 102.438 136.664 102.332 136.281
 c 101.441 136.406 l 101.523 136.789 101.656 137.102 101.84 137.336 c 102.023
 137.57 102.289 137.75 102.645 137.875 c 103 138 103.406 138.062 103.863
 138.062 c 104.32 138.062 104.695 138.008 104.988 137.898 c 105.281 137.789
 105.492 137.652 105.621 137.492 c 105.75 137.328 105.848 137.125 105.91
 136.875 c 105.941 136.719 105.957 136.438 105.957 136.031 c 105.957 134.812
 l 105.957 133.969 105.977 133.434 106.012 133.211 c 106.047 132.984 106.125
 132.77 106.238 132.562 c 105.285 132.562 l 105.191 132.75 105.129 132.969
 105.098 133.219 c h
105.035 135.266 m 104.703 135.129 104.203 135.016 103.535 134.922 c 103.16
 134.867 102.895 134.809 102.738 134.742 c 102.582 134.676 102.461 134.574
 102.379 134.445 c 102.297 134.316 102.254 134.164 102.254 134 c 102.254
 133.762 102.348 133.559 102.535 133.398 c 102.723 133.234 102.992 133.156
 103.348 133.156 c 103.691 133.156 104 133.23 104.277 133.383 c 104.555 
133.531 104.754 133.742 104.879 134.016 c 104.984 134.223 105.035 134.527
 105.035 134.922 c 105.035 135.266 l f*
109.426 134.531 m 110.332 134.422 l 110.227 133.797 109.977 133.309 109.574
 132.961 c 109.172 132.609 108.68 132.438 108.098 132.438 c 107.359 132.438
 106.766 132.68 106.316 133.164 c 105.867 133.648 105.645 134.34 105.645
 135.234 c 105.645 135.816 105.742 136.324 105.934 136.758 c 106.125 137.191
 106.418 137.516 106.809 137.734 c 107.199 137.953 107.629 138.062 108.098
 138.062 c 108.68 138.062 109.156 137.914 109.527 137.617 c 109.898 137.32
 110.133 136.902 110.238 136.359 c 109.363 136.219 l 109.27 136.582 109.117
 136.855 108.902 137.039 c 108.688 137.223 108.43 137.312 108.129 137.312
 c 107.672 137.312 107.297 137.148 107.012 136.82 c 106.727 136.492 106.582
 135.969 106.582 135.25 c 106.582 134.531 106.719 134.008 106.996 133.68
 c 107.273 133.352 107.633 133.188 108.082 133.188 c 108.438 133.188 108.734
 133.297 108.973 133.516 c 109.211 133.734 109.363 134.07 109.426 134.531
 c f*
109.816 138.938 m 109.816 139.984 l 110.723 139.984 l 110.723 138.938 l
 h
109.816 132.562 m 109.816 137.938 l 110.723 137.938 l 110.723 132.562 l
 109.816 132.562 l f*
113.535 133.375 m 113.676 132.578 l 113.414 132.516 113.188 132.484 112.988
 132.484 c 112.656 132.484 112.398 132.539 112.215 132.648 c 112.031 132.758
 111.902 132.895 111.824 133.062 c 111.746 133.23 111.707 133.59 111.707
 134.141 c 111.707 137.234 l 111.051 137.234 l 111.051 137.938 l 111.707
 137.938 l 111.707 139.281 l 112.629 139.828 l 112.629 137.938 l 113.535
 137.938 l 113.535 137.234 l 112.629 137.234 l 112.629 134.094 l 112.629
 133.832 112.645 133.664 112.676 133.586 c 112.707 133.508 112.758 133.445
 112.832 133.406 c 112.906 133.363 113.008 133.344 113.145 133.344 c 113.238
 133.344 113.367 133.355 113.535 133.375 c f*
113.66 130.484 m 113.566 131.344 l 113.766 131.289 113.938 131.266 114.082
 131.266 c 114.289 131.266 114.453 131.301 114.574 131.367 c 114.691 131.434
 114.789 131.531 114.863 131.656 c 114.926 131.738 115.02 131.965 115.145
 132.328 c 115.164 132.379 115.191 132.453 115.223 132.547 c 113.191 137.938
 l 114.176 137.938 l 115.285 134.828 l 115.43 134.434 115.562 134.016 115.676
 133.578 c 115.777 133.992 115.902 134.406 116.051 134.812 c 117.207 137.938
 l 118.113 137.938 l 116.066 132.469 l 115.848 131.875 115.676 131.469 115.551
 131.25 c 115.395 130.945 115.211 130.727 115.004 130.586 c 114.797 130.445
 114.547 130.375 114.254 130.375 c 114.074 130.375 113.879 130.41 113.66
 130.484 c f*
117.832 132.562 m 117.832 133.594 l 118.863 133.594 l 118.863 132.562 l
 118.863 132.176 118.797 131.867 118.668 131.633 c 118.539 131.398 118.32
 131.219 118.02 131.094 c 117.77 131.484 l 117.969 131.566 118.109 131.691
 118.199 131.852 c 118.289 132.012 118.336 132.25 118.348 132.562 c 117.832
 132.562 l f*
126.441 133.438 m 126.441 132.562 l 121.535 132.562 l 121.523 132.781 121.562
 132.992 121.645 133.203 c 121.77 133.535 121.969 133.863 122.246 134.188
 c 122.52 134.512 122.922 134.887 123.441 135.312 c 124.242 135.969 124.785
 136.492 125.074 136.883 c 125.359 137.273 125.504 137.641 125.504 137.984
 c 125.504 138.34 125.371 138.641 125.113 138.891 c 124.852 139.141 124.516
 139.266 124.098 139.266 c 123.66 139.266 123.309 139.133 123.043 138.867
 c 122.777 138.602 122.645 138.238 122.645 137.781 c 121.707 137.875 l 121.77
 138.57 122.012 139.105 122.434 139.469 c 122.855 139.832 123.414 140.016
 124.113 140.016 c 124.832 140.016 125.398 139.816 125.816 139.422 c 126.23
 139.027 126.441 138.535 126.441 137.953 c 126.441 137.66 126.379 137.371
 126.254 137.086 c 126.129 136.801 125.926 136.496 125.645 136.18 c 125.363
 135.859 124.895 135.426 124.238 134.875 c 123.695 134.406 123.348 134.09
 123.191 133.93 c 123.035 133.77 122.902 133.605 122.801 133.438 c 126.441
 133.438 l f*
126.035 139.016 m 126.035 139.891 l 130.848 139.891 l 130.848 139.188 l
 130.379 138.676 129.91 138.004 129.449 137.172 c 128.984 136.34 128.621
 135.484 128.363 134.609 c 128.184 133.984 128.07 133.301 128.02 132.562
 c 127.082 132.562 l 127.094 133.145 127.207 133.852 127.426 134.68 c 127.645
 135.508 127.961 136.305 128.371 137.07 c 128.781 137.836 129.219 138.484
 129.676 139.016 c 126.035 139.016 l f*
132.723 130.5 m 132.723 137.938 l 133.551 137.938 l 133.551 137.25 l 133.75
 137.52 133.969 137.723 134.215 137.859 c 134.461 137.992 134.758 138.062
 135.113 138.062 c 135.57 138.062 135.977 137.945 136.324 137.711 c 136.672
 137.477 136.938 137.145 137.121 136.711 c 137.305 136.277 137.395 135.809
 137.395 135.297 c 137.395 134.742 137.297 134.246 137.098 133.805 c 136.898
 133.359 136.609 133.023 136.23 132.789 c 135.852 132.555 135.457 132.438
 135.051 132.438 c 134.738 132.438 134.461 132.504 134.223 132.633 c 133.984
 132.762 133.785 132.926 133.629 133.125 c 133.629 130.5 l h
133.551 135.219 m 133.551 134.531 133.688 134.02 133.965 133.688 c 134.242
 133.355 134.582 133.188 134.988 133.188 c 135.395 133.188 135.742 133.359
 136.027 133.703 c 136.312 134.047 136.457 134.578 136.457 135.297 c 136.457
 135.984 136.316 136.496 136.035 136.836 c 135.754 137.176 135.414 137.344
 135.02 137.344 c 134.633 137.344 134.293 137.164 133.996 136.805 c 133.699
 136.445 133.551 135.914 133.551 135.219 c f*
140.551 133.219 m 140.219 132.938 139.895 132.734 139.582 132.617 c 139.27
 132.496 138.938 132.438 138.582 132.438 c 137.988 132.438 137.531 132.582
 137.215 132.875 c 136.898 133.164 136.738 133.535 136.738 133.984 c 136.738
 134.242 136.797 134.484 136.918 134.703 c 137.035 134.922 137.195 135.098
 137.387 135.227 c 137.578 135.355 137.801 135.457 138.051 135.531 c 138.227
 135.57 138.496 135.613 138.863 135.656 c 139.594 135.75 140.133 135.859
 140.488 135.984 c 140.488 136.219 l 140.488 136.582 140.398 136.844 140.223
 137 c 139.992 137.207 139.648 137.312 139.191 137.312 c 138.766 137.312
 138.449 137.234 138.246 137.086 c 138.043 136.934 137.891 136.664 137.785
 136.281 c 136.895 136.406 l 136.977 136.789 137.109 137.102 137.293 137.336
 c 137.477 137.57 137.742 137.75 138.098 137.875 c 138.453 138 138.859 138.062
 139.316 138.062 c 139.773 138.062 140.148 138.008 140.441 137.898 c 140.734
 137.789 140.945 137.652 141.074 137.492 c 141.203 137.328 141.301 137.125
 141.363 136.875 c 141.395 136.719 141.41 136.438 141.41 136.031 c 141.41
 134.812 l 141.41 133.969 141.43 133.434 141.465 133.211 c 141.5 132.984
 141.578 132.77 141.691 132.562 c 140.738 132.562 l 140.645 132.75 140.582
 132.969 140.551 133.219 c h
140.488 135.266 m 140.156 135.129 139.656 135.016 138.988 134.922 c 138.613
 134.867 138.348 134.809 138.191 134.742 c 138.035 134.676 137.914 134.574
 137.832 134.445 c 137.746 134.316 137.707 134.164 137.707 134 c 137.707
 133.762 137.801 133.559 137.988 133.398 c 138.176 133.234 138.445 133.156
 138.801 133.156 c 139.145 133.156 139.453 133.23 139.73 133.383 c 140.008
 133.531 140.207 133.742 140.332 134.016 c 140.438 134.223 140.488 134.527
 140.488 134.922 c 140.488 135.266 l f*
141.363 132.562 m 141.363 137.938 l 142.191 137.938 l 142.191 137.125 l
 142.398 137.512 142.594 137.762 142.77 137.883 c 142.945 138.004 143.141
 138.062 143.348 138.062 c 143.66 138.062 143.973 137.965 144.285 137.766
 c 143.973 136.922 l 143.754 137.059 143.531 137.125 143.301 137.125 c 143.102
 137.125 142.926 137.066 142.77 136.945 c 142.613 136.824 142.496 136.656
 142.426 136.438 c 142.32 136.113 142.27 135.762 142.27 135.375 c 142.27
 132.562 l 141.363 132.562 l f*
145.957 133.375 m 146.098 132.578 l 145.836 132.516 145.609 132.484 145.41
 132.484 c 145.078 132.484 144.82 132.539 144.637 132.648 c 144.453 132.758
 144.324 132.895 144.246 133.062 c 144.168 133.23 144.129 133.59 144.129
 134.141 c 144.129 137.234 l 143.473 137.234 l 143.473 137.938 l 144.129
 137.938 l 144.129 139.281 l 145.051 139.828 l 145.051 137.938 l 145.957
 137.938 l 145.957 137.234 l 145.051 137.234 l 145.051 134.094 l 145.051
 133.832 145.066 133.664 145.098 133.586 c 145.129 133.508 145.18 133.445
 145.254 133.406 c 145.328 133.363 145.43 133.344 145.566 133.344 c 145.66
 133.344 145.789 133.355 145.957 133.375 c f*
146.129 138.938 m 146.129 139.984 l 147.035 139.984 l 147.035 138.938 l
 h
146.129 132.562 m 146.129 137.938 l 147.035 137.938 l 147.035 132.562 l
 146.129 132.562 l f*
151.363 134.531 m 152.27 134.422 l 152.164 133.797 151.91 133.309 151.512
 132.961 c 151.109 132.609 150.617 132.438 150.035 132.438 c 149.297 132.438
 148.699 132.68 148.254 133.164 c 147.805 133.648 147.582 134.34 147.582
 135.234 c 147.582 135.816 147.68 136.324 147.871 136.758 c 148.062 137.191
 148.355 137.516 148.746 137.734 c 149.137 137.953 149.566 138.062 150.035
 138.062 c 150.617 138.062 151.094 137.914 151.465 137.617 c 151.836 137.32
 152.07 136.902 152.176 136.359 c 151.301 136.219 l 151.207 136.582 151.055
 136.855 150.84 137.039 c 150.625 137.223 150.367 137.312 150.066 137.312
 c 149.605 137.312 149.234 137.148 148.949 136.82 c 148.66 136.492 148.52
 135.969 148.52 135.25 c 148.52 134.531 148.656 134.008 148.934 133.68 c
 149.211 133.352 149.57 133.188 150.02 133.188 c 150.371 133.188 150.672
 133.297 150.91 133.516 c 151.148 133.734 151.301 134.07 151.363 134.531
 c f*
151.723 139.984 0.922 -7.422 re f*
157.16 134.297 m 158.113 134.172 l 157.969 133.629 157.691 133.203 157.285
 132.898 c 156.879 132.59 156.363 132.438 155.738 132.438 c 154.957 132.438
 154.336 132.68 153.871 133.164 c 153.406 133.648 153.176 134.328 153.176
 135.203 c 153.176 136.109 153.41 136.812 153.879 137.312 c 154.348 137.812
 154.949 138.062 155.691 138.062 c 156.41 138.062 156.996 137.816 157.457
 137.328 c 157.914 136.84 158.145 136.152 158.145 135.266 c 158.145 135.215
 158.141 135.129 158.129 135.016 c 154.129 135.016 l 154.16 134.434 154.324
 133.98 154.629 133.664 c 154.93 133.348 155.305 133.188 155.754 133.188
 c 156.086 133.188 156.371 133.277 156.605 133.453 c 156.84 133.629 157.023
 133.91 157.16 134.297 c h
154.176 135.766 m 157.176 135.766 l 157.133 136.223 157.02 136.562 156.832
 136.781 c 156.539 137.137 156.164 137.312 155.707 137.312 c 155.289 137.312
 154.938 137.172 154.652 136.891 c 154.363 136.609 154.207 136.234 154.176
 135.766 c f*
157.441 134.172 m 158.348 134.312 l 158.398 133.945 158.539 133.668 158.77
 133.477 c 158.996 133.281 159.32 133.188 159.738 133.188 c 160.164 133.188
 160.477 133.273 160.676 133.445 c 160.871 133.617 160.973 133.816 160.973
 134.047 c 160.973 134.254 160.883 134.414 160.707 134.531 c 160.582 134.613
 160.273 134.719 159.785 134.844 c 159.105 135.012 158.641 135.156 158.387
 135.281 c 158.133 135.406 157.934 135.578 157.801 135.797 c 157.664 136.016
 157.598 136.254 157.598 136.516 c 157.598 136.754 157.652 136.977 157.762
 137.18 c 157.871 137.383 158.02 137.551 158.207 137.688 c 158.352 137.789
 158.547 137.879 158.793 137.953 c 159.035 138.027 159.301 138.062 159.582
 138.062 c 159.996 138.062 160.367 138.004 160.691 137.883 c 161.012 137.762
 161.25 137.598 161.402 137.391 c 161.551 137.184 161.652 136.902 161.707
 136.547 c 160.816 136.438 l 160.773 136.707 160.656 136.922 160.465 137.078
 c 160.27 137.234 159.996 137.312 159.645 137.312 c 159.227 137.312 158.93
 137.242 158.754 137.109 c 158.574 136.973 158.488 136.812 158.488 136.625
 c 158.488 136.5 158.523 136.391 158.598 136.297 c 158.672 136.203 158.785
 136.125 158.941 136.062 c 159.035 136.02 159.305 135.941 159.754 135.828
 c 160.398 135.652 160.848 135.508 161.105 135.398 c 161.359 135.289 161.559
 135.129 161.699 134.922 c 161.84 134.715 161.91 134.453 161.91 134.141 
c 161.91 133.84 161.82 133.551 161.645 133.281 c 161.469 133.012 161.211
 132.801 160.879 132.656 c 160.547 132.512 160.172 132.438 159.754 132.438
 c 159.055 132.438 158.52 132.582 158.152 132.875 c 157.781 133.164 157.547
 133.598 157.441 134.172 c f*
  Q
Q
Q Q
showpage
%%Trailer
end restore
%%EOF
