%!PS-Adobe-3.0 EPSF-3.0
%%Creator: cairo 1.14.2 (http://cairographics.org)
%%CreationDate: Thu May 21 12:52:08 2015
%%Pages: 1
%%DocumentData: Clean7Bit
%%LanguageLevel: 2
%%BoundingBox: 0 0 289 162
%%EndComments
%%BeginProlog
save
50 dict begin
/q { gsave } bind def
/Q { grestore } bind def
/cm { 6 array astore concat } bind def
/w { setlinewidth } bind def
/J { setlinecap } bind def
/j { setlinejoin } bind def
/M { setmiterlimit } bind def
/d { setdash } bind def
/m { moveto } bind def
/l { lineto } bind def
/c { curveto } bind def
/h { closepath } bind def
/re { exch dup neg 3 1 roll 5 3 roll moveto 0 rlineto
      0 exch rlineto 0 rlineto closepath } bind def
/S { stroke } bind def
/f { fill } bind def
/f* { eofill } bind def
/n { newpath } bind def
/W { clip } bind def
/W* { eoclip } bind def
/BT { } bind def
/ET { } bind def
/pdfmark where { pop globaldict /?pdfmark /exec load put }
    { globaldict begin /?pdfmark /pop load def /pdfmark
    /cleartomark load def end } ifelse
/BDC { mark 3 1 roll /BDC pdfmark } bind def
/EMC { mark /EMC pdfmark } bind def
/cairo_store_point { /cairo_point_y exch def /cairo_point_x exch def } def
/Tj { show currentpoint cairo_store_point } bind def
/TJ {
  {
    dup
    type /stringtype eq
    { show } { -0.001 mul 0 cairo_font_matrix dtransform rmoveto } ifelse
  } forall
  currentpoint cairo_store_point
} bind def
/cairo_selectfont { cairo_font_matrix aload pop pop pop 0 0 6 array astore
    cairo_font exch selectfont cairo_point_x cairo_point_y moveto } bind def
/Tf { pop /cairo_font exch def /cairo_font_matrix where
      { pop cairo_selectfont } if } bind def
/Td { matrix translate cairo_font_matrix matrix concatmatrix dup
      /cairo_font_matrix exch def dup 4 get exch 5 get cairo_store_point
      /cairo_font where { pop cairo_selectfont } if } bind def
/Tm { 2 copy 8 2 roll 6 array astore /cairo_font_matrix exch def
      cairo_store_point /cairo_font where { pop cairo_selectfont } if } bind def
/g { setgray } bind def
/rg { setrgbcolor } bind def
/d1 { setcachedevice } bind def
%%EndProlog
%%BeginSetup
%%EndSetup
%%Page: 1 1
%%BeginPageSetup
%%PageBoundingBox: 0 0 289 162
%%EndPageSetup
q 0 0 289 162 rectclip q
Q q
4.719 141.746 266 -134 re W n
q
4 142 267 -135 re W n
  q
0.368627 0.505882 0.709804 rg
1.152 w
2 J
0 j
[] 0.0 d
3.25 M q 1 0 0 1 0 162 cm
32.273 -153.09 m 53.246 -153.09 l 53.383 -153.086 l 55.289 -153.086 l 55.352
 -153.082 l 56.395 -153.082 l 56.523 -153.078 l 56.914 -153.078 l 57.043
 -153.074 l 57.434 -153.074 l 57.562 -153.07 l 57.895 -153.07 l 57.965 -153.066
 l 58.105 -153.066 l 58.387 -153.062 l 58.527 -153.062 l 58.668 -153.059
 l 58.953 -153.055 l 59.094 -153.055 l 59.23 -153.051 l 59.516 -153.047 
l 59.586 -153.043 l 59.797 -153.043 l 60.078 -153.035 l 60.148 -153.031 
l 60.219 -153.031 l 60.641 -153.02 l 60.711 -153.016 l 60.781 -153.016 l
 60.922 -153.012 l 61.207 -153 l 61.277 -153 l 61.348 -152.996 l 61.488 
-152.992 l 61.77 -152.98 l 61.91 -152.973 l 62.051 -152.969 l 62.473 -152.945
 l 62.609 -152.938 l 62.887 -152.922 l 62.957 -152.918 l 63.023 -152.914
 l 63.16 -152.902 l 63.438 -152.883 l 63.578 -152.875 l 63.715 -152.863 
l 63.992 -152.84 l 64.547 -152.785 l 64.613 -152.777 l 64.684 -152.77 l 
64.82 -152.758 l 65.098 -152.723 l 65.238 -152.707 l 65.375 -152.688 l 65.652
 -152.652 l 65.723 -152.641 l 65.789 -152.633 l 65.93 -152.609 l 66.207 
-152.566 l 66.758 -152.473 l 66.824 -152.457 l 66.887 -152.445 l 67.016 
-152.422 l 67.273 -152.367 l 67.34 -152.352 l 67.402 -152.34 l 67.531 -152.309
 l 67.789 -152.25 l 67.855 -152.234 l 67.918 -152.219 l 68.047 -152.184 
l 68.309 -152.117 l 68.824 -151.969 l 68.887 -151.945 l 68.953 -151.926 
l 69.082 -151.887 l 69.34 -151.797 l 69.855 -151.609 l 69.918 -151.586 l
 69.984 -151.562 l 70.113 -151.508 l 70.371 -151.402 l 70.887 -151.168 l
 70.957 -151.137 l 71.027 -151.102 l 71.168 -151.035 l 71.449 -150.891 l
 72.008 -150.582 l 72.078 -150.539 l 72.148 -150.5 l 72.285 -150.414 l 72.566
 -150.238 l 73.129 -149.863 l 73.195 -149.812 l 73.266 -149.766 l 73.406
 -149.664 l 73.688 -149.453 l 74.246 -149.004 l 75.363 -147.988 l 75.43 
-147.922 l 75.496 -147.859 l 75.629 -147.727 l 75.887 -147.461 l 76.41 -146.895
 l 77.457 -145.656 l 77.52 -145.578 l 77.586 -145.492 l 77.719 -145.328 
l 77.977 -144.988 l 78.5 -144.281 l 79.543 -142.773 l 79.609 -142.68 l 79.672
 -142.582 l 79.801 -142.387 l 80.059 -141.992 l 80.57 -141.184 l 81.594 
-139.5 l 83.645 -135.973 l 83.711 -135.852 l 83.922 -135.488 l 84.199 -135.004
 l 84.754 -134.047 l 85.867 -132.18 l 85.934 -132.066 l 86.145 -131.727 
l 86.422 -131.281 l 86.977 -130.418 l 88.09 -128.816 l 88.152 -128.73 l 
88.219 -128.645 l 88.348 -128.473 l 88.609 -128.137 l 89.125 -127.5 l 89.191
 -127.422 l 89.258 -127.348 l 89.387 -127.199 l 89.645 -126.91 l 90.164 
-126.375 l 90.227 -126.312 l 90.293 -126.25 l 90.422 -126.129 l 90.684 -125.891
 l 90.746 -125.836 l 90.812 -125.777 l 90.941 -125.668 l 91.199 -125.457
 l 91.266 -125.406 l 91.332 -125.359 l 91.461 -125.262 l 91.719 -125.078
 l 92.238 -124.746 l 92.309 -124.707 l 92.379 -124.664 l 92.52 -124.586 
l 92.801 -124.441 l 92.871 -124.406 l 92.941 -124.375 l 93.082 -124.309 
l 93.363 -124.188 l 93.504 -124.133 l 93.645 -124.082 l 93.922 -123.984 
l 93.992 -123.965 l 94.062 -123.941 l 94.207 -123.898 l 94.484 -123.824 
l 94.555 -123.805 l 94.906 -123.727 l 95.047 -123.699 l 95.117 -123.684 
l 95.609 -123.602 l 95.68 -123.594 l 95.75 -123.582 l 95.891 -123.562 l 
96.172 -123.527 l 96.453 -123.496 l 96.734 -123.469 l 96.805 -123.461 l 
96.871 -123.453 l 97.012 -123.441 l 97.285 -123.414 l 97.355 -123.41 l 97.422
 -123.402 l 97.562 -123.391 l 97.84 -123.363 l 97.906 -123.355 l 97.977 
-123.348 l 98.113 -123.336 l 98.391 -123.305 l 98.461 -123.293 l 98.527 
-123.285 l 98.664 -123.27 l 98.941 -123.23 l 99.012 -123.219 l 99.082 -123.211
 l 99.492 -123.141 l 99.562 -123.125 l 99.633 -123.113 l 99.77 -123.086 
l 100.047 -123.023 l 100.113 -123.008 l 100.184 -122.988 l 100.32 -122.957
 l 100.598 -122.879 l 100.664 -122.859 l 100.734 -122.84 l 100.871 -122.797
 l 101.148 -122.707 l 101.215 -122.684 l 101.277 -122.66 l 101.406 -122.613
 l 101.664 -122.512 l 101.727 -122.488 l 101.793 -122.461 l 101.922 -122.406
 l 102.18 -122.289 l 102.242 -122.262 l 102.309 -122.23 l 102.438 -122.168
 l 102.691 -122.039 l 103.207 -121.758 l 103.273 -121.719 l 103.336 -121.68
 l 103.465 -121.605 l 103.723 -121.445 l 104.238 -121.109 l 105.266 -120.375
 l 105.336 -120.324 l 105.406 -120.27 l 105.547 -120.164 l 105.824 -119.949
 l 106.383 -119.516 l 107.5 -118.633 l 107.57 -118.578 l 107.637 -118.523
 l 107.777 -118.418 l 108.059 -118.203 l 108.613 -117.793 l 108.754 -117.691
 l 108.895 -117.594 l 109.172 -117.402 l 109.73 -117.043 l 109.797 -117.008
 l 109.863 -116.969 l 109.992 -116.891 l 110.254 -116.742 l 110.316 -116.711
 l 110.383 -116.672 l 110.512 -116.605 l 110.773 -116.48 l 110.84 -116.449
 l 110.902 -116.418 l 111.035 -116.363 l 111.293 -116.254 l 111.426 -116.207
 l 111.555 -116.16 l 111.816 -116.074 l 111.883 -116.055 l 111.945 -116.035
 l 112.074 -116 l 112.207 -115.969 l 112.336 -115.938 l 112.469 -115.914
 l 112.531 -115.902 l 112.598 -115.891 l 112.66 -115.879 l 112.727 -115.867
 l 112.793 -115.859 l 112.855 -115.852 l 112.988 -115.836 l 113.055 -115.832
 l 113.117 -115.824 l 113.184 -115.82 l 113.246 -115.816 l 113.312 -115.812
 l 113.379 -115.812 l 113.445 -115.809 l 113.703 -115.809 l 113.836 -115.816
 l 113.898 -115.82 l 114.039 -115.828 l 114.109 -115.836 l 114.184 -115.844
 l 114.395 -115.867 l 114.605 -115.902 l 114.746 -115.93 l 115.027 -115.992
 l 115.098 -116.012 l 115.172 -116.031 l 115.312 -116.07 l 115.594 -116.156
 l 115.664 -116.18 l 115.734 -116.207 l 115.875 -116.258 l 116.156 -116.363
 l 116.227 -116.395 l 116.301 -116.422 l 116.441 -116.484 l 116.723 -116.613
 l 117.285 -116.898 l 117.355 -116.938 l 117.43 -116.973 l 117.57 -117.051
 l 117.852 -117.211 l 118.414 -117.547 l 118.555 -117.633 l 118.691 -117.723
 l 118.969 -117.895 l 119.523 -118.254 l 120.633 -118.98 l 120.703 -119.027
 l 120.77 -119.07 l 120.91 -119.16 l 121.188 -119.34 l 121.742 -119.691 
l 122.852 -120.348 l 122.914 -120.383 l 122.98 -120.418 l 123.367 -120.629
 l 123.883 -120.891 l 123.949 -120.922 l 124.012 -120.953 l 124.141 -121.016
 l 124.402 -121.133 l 124.918 -121.355 l 124.984 -121.383 l 125.047 -121.41
 l 125.176 -121.461 l 125.434 -121.559 l 125.953 -121.742 l 126.016 -121.762
 l 126.082 -121.785 l 126.469 -121.902 l 126.984 -122.047 l 127.055 -122.066
 l 127.125 -122.082 l 127.266 -122.117 l 127.547 -122.184 l 127.828 -122.246
 l 128.105 -122.301 l 128.176 -122.316 l 128.246 -122.328 l 128.387 -122.355
 l 128.668 -122.402 l 129.23 -122.492 l 129.301 -122.504 l 129.367 -122.512
 l 129.789 -122.57 l 130.352 -122.641 l 131.473 -122.773 l 131.535 -122.781
 l 131.734 -122.805 l 131.992 -122.836 l 132.52 -122.902 l 132.582 -122.91
 l 132.648 -122.918 l 132.781 -122.938 l 133.039 -122.973 l 133.566 -123.055
 l 133.629 -123.062 l 133.695 -123.074 l 133.824 -123.098 l 134.09 -123.141
 l 134.613 -123.242 l 134.676 -123.254 l 134.742 -123.27 l 134.871 -123.293
 l 135.137 -123.352 l 135.656 -123.477 l 135.723 -123.492 l 135.785 -123.508
 l 135.914 -123.539 l 136.172 -123.605 l 136.684 -123.75 l 137.711 -124.07
 l 137.773 -124.09 l 137.84 -124.113 l 137.969 -124.156 l 138.223 -124.242
 l 138.738 -124.422 l 139.762 -124.797 l 139.832 -124.82 l 139.902 -124.848
 l 140.043 -124.898 l 140.32 -125 l 140.879 -125.203 l 140.945 -125.227 
l 141.156 -125.297 l 141.434 -125.395 l 141.988 -125.578 l 142.059 -125.598
 l 142.129 -125.621 l 142.27 -125.664 l 142.547 -125.742 l 142.688 -125.781
 l 142.824 -125.82 l 143.105 -125.891 l 143.172 -125.906 l 143.242 -125.922
 l 143.383 -125.957 l 143.449 -125.969 l 143.52 -125.984 l 143.66 -126.012
 l 143.73 -126.027 l 143.801 -126.039 l 143.938 -126.062 l 144.008 -126.078
 l 144.078 -126.086 l 144.219 -126.105 l 144.281 -126.117 l 144.348 -126.125
 l 144.41 -126.133 l 144.543 -126.148 l 144.605 -126.152 l 144.672 -126.16
 l 144.734 -126.164 l 144.801 -126.168 l 144.867 -126.176 l 144.93 -126.18
 l 144.996 -126.184 l 145.062 -126.184 l 145.125 -126.188 l 145.191 -126.188
 l 145.258 -126.191 l 145.516 -126.191 l 145.582 -126.188 l 145.645 -126.188
 l 145.711 -126.184 l 145.773 -126.18 l 145.906 -126.172 l 145.969 -126.168
 l 146.035 -126.16 l 146.102 -126.156 l 146.164 -126.148 l 146.297 -126.133
 l 146.359 -126.125 l 146.426 -126.113 l 146.555 -126.094 l 146.621 -126.082
 l 146.684 -126.07 l 146.812 -126.043 l 146.945 -126.012 l 147.074 -125.98
 l 147.336 -125.906 l 147.398 -125.887 l 147.465 -125.867 l 147.594 -125.824
 l 147.852 -125.727 l 147.918 -125.703 l 147.984 -125.672 l 148.113 -125.617
 l 148.371 -125.496 l 148.441 -125.461 l 148.516 -125.426 l 148.652 -125.352
 l 148.938 -125.188 l 149.008 -125.148 l 149.078 -125.102 l 149.219 -125.012
 l 149.5 -124.82 l 149.641 -124.719 l 149.781 -124.613 l 150.062 -124.387
 l 150.625 -123.891 l 150.695 -123.824 l 150.766 -123.754 l 150.906 -123.617
 l 151.188 -123.328 l 151.75 -122.695 l 151.82 -122.613 l 152.031 -122.355
 l 152.312 -122 l 152.879 -121.238 l 152.945 -121.141 l 153.016 -121.043
 l 153.152 -120.844 l 153.43 -120.43 l 153.984 -119.562 l 155.09 -117.645
 l 155.156 -117.52 l 155.227 -117.391 l 155.363 -117.133 l 155.641 -116.605
 l 156.195 -115.516 l 157.301 -113.191 l 157.363 -113.051 l 157.43 -112.91
 l 157.559 -112.625 l 157.816 -112.047 l 158.328 -110.875 l 159.359 -108.441
 l 161.426 -103.344 l 161.492 -103.168 l 161.562 -102.992 l 161.703 -102.637
 l 161.984 -101.934 l 162.543 -100.52 l 163.66 -97.711 l 163.73 -97.535 
l 163.801 -97.363 l 163.941 -97.016 l 164.219 -96.324 l 164.777 -94.957 
l 165.895 -92.297 l 165.961 -92.145 l 166.027 -91.996 l 166.156 -91.695 
l 166.418 -91.102 l 166.941 -89.938 l 167.984 -87.723 l 168.051 -87.594 
l 168.113 -87.461 l 168.246 -87.199 l 168.508 -86.684 l 169.027 -85.688 
l 170.07 -83.852 l 170.137 -83.746 l 170.199 -83.645 l 170.328 -83.438 l
 170.582 -83.031 l 171.094 -82.27 l 171.16 -82.18 l 171.223 -82.086 l 171.352
 -81.91 l 171.605 -81.562 l 172.117 -80.918 l 172.184 -80.84 l 172.246 -80.766
 l 172.375 -80.617 l 172.629 -80.332 l 172.695 -80.262 l 172.758 -80.195
 l 172.887 -80.062 l 173.141 -79.809 l 173.207 -79.75 l 173.27 -79.688 l
 173.398 -79.57 l 173.652 -79.352 l 173.719 -79.297 l 173.781 -79.246 l 
173.91 -79.145 l 174.164 -78.957 l 174.305 -78.863 l 174.441 -78.77 l 174.582
 -78.684 l 174.719 -78.605 l 174.859 -78.527 l 174.996 -78.457 l 175.273
 -78.328 l 175.344 -78.297 l 175.414 -78.27 l 175.555 -78.219 l 175.621 
-78.195 l 175.691 -78.172 l 175.828 -78.129 l 175.898 -78.109 l 176.109 
-78.062 l 176.176 -78.047 l 176.246 -78.031 l 176.316 -78.02 l 176.387 -78.012
 l 176.453 -78 l 176.594 -77.984 l 176.734 -77.977 l 176.801 -77.973 l 176.871
 -77.969 l 177.078 -77.969 l 177.289 -77.98 l 177.355 -77.988 l 177.426 
-77.992 l 177.496 -78.004 l 177.566 -78.012 l 177.637 -78.023 l 177.703 
-78.035 l 177.773 -78.047 l 177.844 -78.062 l 177.91 -78.078 l 178.051 -78.113
 l 178.191 -78.152 l 178.328 -78.195 l 178.398 -78.223 l 178.469 -78.246
 l 178.605 -78.297 l 178.672 -78.328 l 178.734 -78.352 l 178.863 -78.41 
l 179.125 -78.539 l 179.188 -78.574 l 179.254 -78.609 l 179.383 -78.684 
l 179.641 -78.84 l 179.773 -78.926 l 179.902 -79.016 l 180.16 -79.207 l 
180.68 -79.629 l 180.742 -79.688 l 180.809 -79.742 l 180.938 -79.863 l 181.195
 -80.109 l 181.715 -80.648 l 181.777 -80.719 l 181.844 -80.789 l 181.973
 -80.938 l 182.23 -81.238 l 182.75 -81.883 l 182.82 -81.977 l 182.891 -82.066
 l 183.031 -82.254 l 183.312 -82.637 l 183.871 -83.445 l 184.996 -85.219
 l 185.066 -85.34 l 185.277 -85.691 l 185.559 -86.18 l 186.117 -87.18 l 
187.242 -89.293 l 187.375 -89.551 l 187.766 -90.332 l 188.289 -91.391 l 
189.34 -93.586 l 191.438 -98.172 l 195.551 -107.461 l 200.012 -117.094 l
 200.074 -117.227 l 200.141 -117.359 l 200.27 -117.625 l 200.531 -118.148
 l 201.051 -119.191 l 202.094 -121.215 l 204.176 -125.031 l 204.242 -125.156
 l 204.316 -125.277 l 204.457 -125.523 l 204.738 -126.012 l 205.301 -126.965
 l 206.43 -128.797 l 206.5 -128.91 l 206.57 -129.02 l 206.711 -129.242 l
 206.992 -129.68 l 207.559 -130.535 l 208.688 -132.172 l 208.754 -132.27
 l 208.824 -132.367 l 208.961 -132.559 l 209.238 -132.941 l 209.793 -133.688
 l 210.898 -135.109 l 211.039 -135.281 l 211.176 -135.453 l 211.453 -135.789
 l 212.008 -136.445 l 213.113 -137.699 l 213.18 -137.77 l 213.242 -137.84
 l 213.371 -137.977 l 213.633 -138.254 l 214.148 -138.789 l 215.18 -139.812
 l 215.246 -139.875 l 215.309 -139.938 l 215.695 -140.301 l 216.215 -140.773
 l 217.246 -141.668 l 217.527 -141.902 l 217.809 -142.129 l 218.367 -142.574
 l 219.488 -143.41 l 219.629 -143.512 l 219.766 -143.609 l 220.047 -143.809
 l 220.605 -144.188 l 221.727 -144.906 l 221.859 -144.984 l 221.988 -145.066
 l 222.25 -145.223 l 222.773 -145.527 l 223.82 -146.105 l 223.883 -146.141
 l 223.949 -146.172 l 224.078 -146.242 l 224.34 -146.379 l 224.863 -146.641
 l 225.91 -147.137 l 225.973 -147.164 l 226.039 -147.195 l 226.164 -147.25
 l 226.422 -147.363 l 226.934 -147.586 l 227.961 -148.004 l 228.023 -148.031
 l 228.09 -148.055 l 228.215 -148.105 l 228.473 -148.203 l 228.984 -148.391
 l 230.012 -148.75 l 230.078 -148.773 l 230.289 -148.844 l 230.566 -148.934
 l 231.121 -149.109 l 232.234 -149.441 l 232.375 -149.48 l 232.512 -149.52
 l 232.789 -149.598 l 233.348 -149.746 l 234.461 -150.023 l 234.523 -150.039
 l 234.59 -150.055 l 234.719 -150.086 l 234.977 -150.145 l 235.496 -150.266
 l 236.535 -150.484 l 236.602 -150.5 l 236.664 -150.512 l 236.793 -150.539
 l 237.055 -150.59 l 237.574 -150.691 l 238.609 -150.879 l 238.684 -150.891
 l 238.754 -150.902 l 238.898 -150.93 l 239.191 -150.977 l 239.77 -151.07
 l 240.93 -151.25 l 241 -151.258 l 241.074 -151.27 l 241.219 -151.289 l 
241.508 -151.332 l 242.086 -151.41 l 242.16 -151.418 l 242.23 -151.43 l 
242.375 -151.449 l 242.664 -151.484 l 242.738 -151.496 l 242.809 -151.504
 l 242.953 -151.523 l 243.102 -151.539 l 243.172 -151.547 l 243.246 -151.559
 l S Q
0.882353 0.611765 0.141176 rg
[ 3.456 3.456] 0 d
q 1 0 0 1 0 162 cm
32.273 -153.09 m 39.922 -153.09 l 40.062 -153.086 l 42.215 -153.086 l 42.477
 -153.082 l 43.785 -153.082 l 44.047 -153.078 l 44.309 -153.078 l 44.57 
-153.074 l 45.16 -153.074 l 45.223 -153.07 l 45.672 -153.07 l 45.738 -153.066
 l 46.188 -153.066 l 46.25 -153.062 l 46.379 -153.062 l 46.637 -153.059 
l 47.148 -153.055 l 47.277 -153.055 l 47.406 -153.051 l 47.664 -153.047 
l 47.727 -153.047 l 47.793 -153.043 l 47.922 -153.043 l 48.18 -153.039 l
 48.305 -153.039 l 48.434 -153.035 l 48.691 -153.031 l 49.207 -153.02 l 
49.273 -153.02 l 49.344 -153.016 l 49.484 -153.016 l 49.762 -153.008 l 49.832
 -153.004 l 49.902 -153.004 l 50.039 -153 l 50.32 -152.992 l 50.391 -152.988
 l 50.461 -152.988 l 50.598 -152.984 l 50.879 -152.977 l 51.434 -152.957
 l 51.574 -152.949 l 51.715 -152.945 l 52.547 -152.91 l 52.828 -152.895 
l 53.105 -152.883 l 53.664 -152.852 l 53.727 -152.848 l 53.793 -152.844 
l 53.922 -152.836 l 54.184 -152.816 l 54.703 -152.781 l 54.77 -152.777 l
 54.832 -152.773 l 54.965 -152.766 l 55.223 -152.746 l 55.742 -152.703 l
 55.809 -152.695 l 55.871 -152.691 l 56.004 -152.68 l 56.262 -152.656 l 
56.781 -152.605 l 57.824 -152.496 l 57.965 -152.48 l 58.105 -152.461 l 58.387
 -152.43 l 58.953 -152.355 l 59.02 -152.348 l 59.094 -152.336 l 59.23 -152.316
 l 59.516 -152.277 l 60.078 -152.195 l 60.359 -152.148 l 60.641 -152.105
 l 61.207 -152.012 l 62.332 -151.805 l 62.402 -151.793 l 62.473 -151.777
 l 62.609 -151.75 l 62.887 -151.695 l 63.438 -151.582 l 64.547 -151.34 l
 66.758 -150.793 l 66.824 -150.777 l 66.887 -150.762 l 67.273 -150.656 l
 67.789 -150.52 l 68.824 -150.23 l 70.887 -149.621 l 75.363 -148.227 l 79.543
 -146.945 l 83.645 -145.793 l 83.711 -145.773 l 83.781 -145.758 l 83.922
 -145.719 l 84.199 -145.648 l 84.754 -145.504 l 85.867 -145.23 l 88.09 -144.711
 l 88.152 -144.699 l 88.219 -144.684 l 88.348 -144.656 l 88.609 -144.598
 l 89.125 -144.488 l 90.164 -144.273 l 92.238 -143.871 l 92.379 -143.848
 l 92.52 -143.82 l 92.801 -143.77 l 93.363 -143.672 l 94.484 -143.48 l 96.734
 -143.129 l 96.805 -143.117 l 96.871 -143.109 l 97.012 -143.09 l 97.285 
-143.047 l 97.84 -142.969 l 98.941 -142.816 l 101.148 -142.531 l 105.266
 -142.062 l 109.73 -141.617 l 113.898 -141.227 l 118.414 -140.805 l 122.852
 -140.359 l 126.984 -139.895 l 127.125 -139.879 l 127.266 -139.859 l 127.547
 -139.828 l 128.105 -139.758 l 129.23 -139.613 l 131.473 -139.301 l 131.535
 -139.293 l 131.602 -139.281 l 131.734 -139.266 l 131.992 -139.227 l 132.52
 -139.148 l 133.566 -138.984 l 135.656 -138.633 l 135.723 -138.621 l 135.785
 -138.609 l 136.172 -138.539 l 136.684 -138.445 l 137.711 -138.25 l 137.773
 -138.238 l 137.84 -138.227 l 137.969 -138.199 l 138.223 -138.148 l 138.738
 -138.043 l 139.762 -137.824 l 139.902 -137.793 l 140.043 -137.766 l 140.32
 -137.703 l 140.879 -137.574 l 141.988 -137.309 l 142.059 -137.289 l 142.129
 -137.273 l 142.27 -137.238 l 142.547 -137.168 l 143.105 -137.023 l 144.219
 -136.719 l 144.281 -136.699 l 144.348 -136.684 l 144.477 -136.645 l 144.734
 -136.57 l 145.258 -136.418 l 146.297 -136.098 l 146.359 -136.074 l 146.426
 -136.055 l 146.812 -135.926 l 147.336 -135.754 l 148.371 -135.391 l 148.441
 -135.363 l 148.516 -135.34 l 148.652 -135.285 l 148.938 -135.18 l 149.5
 -134.965 l 150.625 -134.512 l 150.695 -134.48 l 150.766 -134.453 l 150.906
 -134.395 l 151.188 -134.273 l 151.75 -134.023 l 152.879 -133.496 l 152.945
 -133.465 l 153.016 -133.43 l 153.152 -133.363 l 153.984 -132.941 l 155.09
 -132.34 l 155.156 -132.301 l 155.227 -132.262 l 155.363 -132.184 l 155.641
 -132.023 l 156.195 -131.695 l 157.301 -130.996 l 157.363 -130.953 l 157.43
 -130.91 l 157.816 -130.652 l 158.328 -130.293 l 159.359 -129.539 l 159.426
 -129.488 l 159.488 -129.441 l 159.617 -129.344 l 159.879 -129.141 l 160.391
 -128.727 l 161.426 -127.852 l 161.492 -127.789 l 161.562 -127.73 l 161.703
 -127.605 l 161.984 -127.352 l 162.543 -126.828 l 163.66 -125.719 l 163.801
 -125.57 l 163.941 -125.426 l 164.219 -125.129 l 164.777 -124.516 l 165.895
 -123.211 l 166.027 -123.055 l 166.156 -122.895 l 166.418 -122.57 l 166.941
 -121.902 l 167.984 -120.492 l 168.051 -120.402 l 168.113 -120.309 l 168.246
 -120.125 l 168.508 -119.75 l 169.027 -118.98 l 170.07 -117.363 l 170.137
 -117.262 l 170.199 -117.16 l 170.328 -116.953 l 170.582 -116.531 l 171.094
 -115.676 l 172.117 -113.883 l 174.164 -110.008 l 178.605 -100.633 l 178.672
 -100.492 l 178.734 -100.352 l 178.863 -100.07 l 179.125 -99.512 l 179.641
 -98.406 l 180.68 -96.238 l 180.742 -96.105 l 180.809 -95.973 l 180.938 
-95.711 l 181.195 -95.191 l 181.715 -94.18 l 182.75 -92.277 l 182.82 -92.152
 l 182.891 -92.031 l 183.031 -91.793 l 183.312 -91.328 l 183.871 -90.453
 l 183.941 -90.348 l 184.016 -90.246 l 184.152 -90.043 l 184.434 -89.652
 l 184.996 -88.941 l 185.137 -88.777 l 185.277 -88.617 l 185.559 -88.32 
l 185.629 -88.25 l 185.699 -88.184 l 185.84 -88.047 l 186.117 -87.801 l 
186.191 -87.742 l 186.262 -87.688 l 186.398 -87.582 l 186.539 -87.48 l 186.68
 -87.391 l 186.75 -87.344 l 186.82 -87.305 l 186.961 -87.223 l 187.102 -87.152
 l 187.242 -87.09 l 187.309 -87.059 l 187.375 -87.035 l 187.438 -87.012 
l 187.57 -86.965 l 187.637 -86.945 l 187.699 -86.926 l 187.832 -86.895 l
 187.965 -86.871 l 188.027 -86.859 l 188.094 -86.852 l 188.16 -86.848 l 
188.227 -86.84 l 188.289 -86.836 l 188.488 -86.836 l 188.555 -86.84 l 188.617
 -86.844 l 188.816 -86.867 l 188.883 -86.879 l 188.945 -86.895 l 189.012
 -86.906 l 189.078 -86.926 l 189.145 -86.941 l 189.211 -86.961 l 189.34 
-87.008 l 189.406 -87.031 l 189.473 -87.059 l 189.602 -87.113 l 189.668 
-87.145 l 189.734 -87.18 l 189.863 -87.25 l 189.996 -87.328 l 190.125 -87.41
 l 190.391 -87.598 l 190.453 -87.648 l 190.52 -87.703 l 190.652 -87.809 
l 190.914 -88.047 l 190.977 -88.113 l 191.043 -88.176 l 191.176 -88.312 
l 191.438 -88.598 l 191.5 -88.672 l 191.566 -88.75 l 191.695 -88.902 l 191.949
 -89.23 l 192.465 -89.953 l 192.531 -90.051 l 192.594 -90.148 l 192.723 
-90.348 l 192.98 -90.758 l 193.492 -91.645 l 193.559 -91.758 l 193.621 -91.875
 l 193.75 -92.113 l 194.008 -92.602 l 194.523 -93.625 l 195.551 -95.848 
l 195.617 -96.008 l 195.688 -96.164 l 195.828 -96.484 l 196.105 -97.137 
l 196.664 -98.477 l 197.781 -101.262 l 200.012 -107.078 l 204.176 -117.66
 l 204.242 -117.832 l 204.316 -117.996 l 204.457 -118.332 l 204.738 -118.996
 l 205.301 -120.297 l 206.43 -122.801 l 206.57 -123.105 l 206.711 -123.406
 l 206.992 -124 l 207.559 -125.164 l 208.688 -127.379 l 208.754 -127.512
 l 208.824 -127.641 l 208.961 -127.902 l 209.238 -128.414 l 209.793 -129.414
 l 210.898 -131.312 l 211.039 -131.539 l 211.176 -131.766 l 211.453 -132.207
 l 212.008 -133.074 l 213.113 -134.707 l 213.18 -134.797 l 213.242 -134.891
 l 213.371 -135.07 l 213.633 -135.426 l 214.148 -136.121 l 215.18 -137.434
 l 215.246 -137.512 l 215.309 -137.59 l 215.438 -137.742 l 215.695 -138.051
 l 216.215 -138.648 l 217.246 -139.773 l 217.316 -139.848 l 217.387 -139.918
 l 217.527 -140.066 l 217.809 -140.352 l 218.367 -140.902 l 219.488 -141.934
 l 219.629 -142.059 l 219.766 -142.18 l 220.047 -142.418 l 220.605 -142.883
 l 221.727 -143.754 l 221.793 -143.805 l 221.859 -143.852 l 221.988 -143.945
 l 222.25 -144.137 l 222.773 -144.5 l 223.82 -145.191 l 223.883 -145.23 
l 223.949 -145.273 l 224.078 -145.352 l 224.34 -145.512 l 224.863 -145.824
 l 225.91 -146.406 l 225.973 -146.441 l 226.039 -146.477 l 226.164 -146.543
 l 226.422 -146.676 l 226.934 -146.934 l 227.961 -147.418 l 228.023 -147.449
 l 228.09 -147.477 l 228.215 -147.535 l 228.473 -147.648 l 228.984 -147.867
 l 230.012 -148.281 l 230.078 -148.309 l 230.148 -148.336 l 230.289 -148.387
 l 230.566 -148.492 l 231.121 -148.691 l 232.234 -149.066 l 232.375 -149.113
 l 232.512 -149.156 l 232.789 -149.242 l 233.348 -149.414 l 234.461 -149.727
 l 234.523 -149.746 l 234.59 -149.762 l 234.719 -149.797 l 234.977 -149.863
 l 235.496 -149.996 l 236.535 -150.246 l 236.602 -150.262 l 236.664 -150.273
 l 236.793 -150.305 l 237.055 -150.363 l 237.574 -150.473 l 238.609 -150.684
 l 238.684 -150.695 l 238.754 -150.711 l 238.898 -150.738 l 239.191 -150.793
 l 239.77 -150.898 l 240.93 -151.094 l 241 -151.105 l 241.074 -151.117 l
 241.219 -151.141 l 241.508 -151.184 l 242.086 -151.273 l 242.16 -151.281
 l 242.23 -151.293 l 242.375 -151.312 l 242.664 -151.355 l 242.738 -151.363
 l 242.809 -151.375 l 242.953 -151.395 l 243.027 -151.402 l 243.102 -151.414
 l 243.172 -151.422 l 243.246 -151.434 l S Q
  Q
Q
0 g
0.072 w
0 J
0 j
[] 0.0 d
3.25 M q 1 0 0 1 0 162 cm
32.273 -153.09 m 32.273 -150.453 l S Q
Q q
24.699 8.801 15.102 -8.801 re W n
q
24 9 16 -9 re W n
  q
0 g
25.82 4.312 m 25.82 5.043 25.895 5.629 26.047 6.078 c 26.195 6.527 26.422
 6.871 26.719 7.109 c 27.016 7.348 27.387 7.469 27.836 7.469 c 28.168 7.469
 28.461 7.402 28.711 7.266 c 28.961 7.129 29.168 6.938 29.336 6.688 c 29.504
 6.438 29.633 6.133 29.727 5.773 c 29.82 5.414 29.867 4.926 29.867 4.312
 c 29.867 3.582 29.789 2.996 29.641 2.547 c 29.488 2.098 29.266 1.754 28.969
 1.508 c 28.672 1.262 28.293 1.141 27.836 1.141 c 27.242 1.141 26.773 1.355
 26.43 1.781 c 26.023 2.301 25.82 3.145 25.82 4.312 c h
26.602 4.312 m 26.602 3.293 26.719 2.613 26.961 2.273 c 27.199 1.934 27.492
 1.766 27.836 1.766 c 28.188 1.766 28.484 1.934 28.727 2.273 c 28.965 2.613
 29.086 3.293 29.086 4.312 c 29.086 5.332 28.965 6.012 28.727 6.344 c 28.484
 6.676 28.188 6.844 27.836 6.844 c 27.48 6.844 27.199 6.691 26.992 6.391
 c 26.73 6.016 26.602 5.324 26.602 4.312 c f*
29.852 2.109 0.875 -0.859 re f*
31.227 4.312 m 31.227 5.043 31.301 5.629 31.453 6.078 c 31.602 6.527 31.828
 6.871 32.125 7.109 c 32.422 7.348 32.793 7.469 33.242 7.469 c 33.574 7.469
 33.867 7.402 34.117 7.266 c 34.367 7.129 34.574 6.938 34.742 6.688 c 34.906
 6.438 35.039 6.133 35.133 5.773 c 35.227 5.414 35.273 4.926 35.273 4.312
 c 35.273 3.582 35.195 2.996 35.047 2.547 c 34.895 2.098 34.672 1.754 34.375
 1.508 c 34.078 1.262 33.699 1.141 33.242 1.141 c 32.648 1.141 32.18 1.355
 31.836 1.781 c 31.43 2.301 31.227 3.145 31.227 4.312 c h
32.008 4.312 m 32.008 3.293 32.125 2.613 32.367 2.273 c 32.605 1.934 32.898
 1.766 33.242 1.766 c 33.594 1.766 33.891 1.934 34.133 2.273 c 34.371 2.613
 34.492 3.293 34.492 4.312 c 34.492 5.332 34.371 6.012 34.133 6.344 c 33.891
 6.676 33.594 6.844 33.242 6.844 c 32.887 6.844 32.605 6.691 32.398 6.391
 c 32.137 6.016 32.008 5.324 32.008 4.312 c f*
37.695 1.25 m 36.945 1.25 l 36.945 6.094 l 36.758 5.926 36.516 5.754 36.219
 5.578 c 35.918 5.402 35.652 5.27 35.414 5.188 c 35.414 5.922 l 35.84 6.121
 36.211 6.359 36.531 6.641 c 36.848 6.922 37.074 7.199 37.211 7.469 c 37.695
 7.469 l 37.695 1.25 l f*
  Q
Q
Q q
0 g
0.072 w
0 J
0 j
[] 0.0 d
3.25 M q 1 0 0 1 0 162 cm
89.309 -153.09 m 89.309 -150.453 l S Q
Q q
81.699 8.801 15.102 -8.801 re W n
q
81 9 16 -9 re W n
  q
0 g
82.855 4.312 m 82.855 5.043 82.93 5.629 83.082 6.078 c 83.234 6.527 83.457
 6.871 83.754 7.109 c 84.051 7.348 84.422 7.469 84.871 7.469 c 85.203 7.469
 85.496 7.402 85.746 7.266 c 85.996 7.129 86.203 6.938 86.371 6.688 c 86.539
 6.438 86.668 6.133 86.762 5.773 c 86.855 5.414 86.902 4.926 86.902 4.312
 c 86.902 3.582 86.828 2.996 86.676 2.547 c 86.523 2.098 86.301 1.754 86.004
 1.508 c 85.707 1.262 85.328 1.141 84.871 1.141 c 84.277 1.141 83.809 1.355
 83.465 1.781 c 83.059 2.301 82.855 3.145 82.855 4.312 c h
83.637 4.312 m 83.637 3.293 83.758 2.613 83.996 2.273 c 84.234 1.934 84.527
 1.766 84.871 1.766 c 85.227 1.766 85.523 1.934 85.762 2.273 c 86 2.613 
86.121 3.293 86.121 4.312 c 86.121 5.332 86 6.012 85.762 6.344 c 85.523 
6.676 85.227 6.844 84.871 6.844 c 84.516 6.844 84.234 6.691 84.027 6.391
 c 83.766 6.016 83.637 5.324 83.637 4.312 c f*
86.887 2.109 0.875 -0.859 re f*
91.121 1.25 m 90.371 1.25 l 90.371 6.094 l 90.184 5.926 89.941 5.754 89.645
 5.578 c 89.348 5.402 89.078 5.27 88.84 5.188 c 88.84 5.922 l 89.266 6.121
 89.641 6.359 89.957 6.641 c 90.273 6.922 90.5 7.199 90.637 7.469 c 91.121
 7.469 l 91.121 1.25 l f*
91.871 4.312 m 91.871 5.043 91.945 5.629 92.098 6.078 c 92.246 6.527 92.473
 6.871 92.77 7.109 c 93.066 7.348 93.438 7.469 93.887 7.469 c 94.219 7.469
 94.512 7.402 94.762 7.266 c 95.012 7.129 95.219 6.938 95.387 6.688 c 95.555
 6.438 95.684 6.133 95.777 5.773 c 95.871 5.414 95.918 4.926 95.918 4.312
 c 95.918 3.582 95.844 2.996 95.691 2.547 c 95.539 2.098 95.316 1.754 95.02
 1.508 c 94.723 1.262 94.344 1.141 93.887 1.141 c 93.293 1.141 92.824 1.355
 92.48 1.781 c 92.074 2.301 91.871 3.145 91.871 4.312 c h
92.652 4.312 m 92.652 3.293 92.77 2.613 93.012 2.273 c 93.25 1.934 93.543
 1.766 93.887 1.766 c 94.238 1.766 94.535 1.934 94.777 2.273 c 95.016 2.613
 95.137 3.293 95.137 4.312 c 95.137 5.332 95.016 6.012 94.777 6.344 c 94.535
 6.676 94.238 6.844 93.887 6.844 c 93.531 6.844 93.25 6.691 93.043 6.391
 c 92.781 6.016 92.652 5.324 92.652 4.312 c f*
  Q
Q
Q q
0 g
0.072 w
0 J
0 j
[] 0.0 d
3.25 M q 1 0 0 1 0 162 cm
146.344 -153.09 m 146.344 -150.453 l S Q
Q q
142.699 8.801 7.102 -8.801 re W n
q
142 9 8 -9 re W n
  q
0 g
147.258 1.25 m 146.508 1.25 l 146.508 6.094 l 146.32 5.926 146.078 5.754
 145.781 5.578 c 145.484 5.402 145.215 5.27 144.977 5.188 c 144.977 5.922
 l 145.402 6.121 145.777 6.359 146.094 6.641 c 146.41 6.922 146.637 7.199
 146.773 7.469 c 147.258 7.469 l 147.258 1.25 l f*
  Q
Q
Q q
0 g
0.072 w
0 J
0 j
[] 0.0 d
3.25 M q 1 0 0 1 0 162 cm
203.379 -153.09 m 203.379 -150.453 l S Q
Q q
198.699 8.801 10.102 -8.801 re W n
q
198 9 11 -9 re W n
  q
0 g
202.488 1.25 m 201.738 1.25 l 201.738 6.094 l 201.551 5.926 201.309 5.754
 201.012 5.578 c 200.715 5.402 200.445 5.27 200.207 5.188 c 200.207 5.922
 l 200.633 6.121 201.008 6.359 201.324 6.641 c 201.641 6.922 201.867 7.199
 202.004 7.469 c 202.488 7.469 l 202.488 1.25 l f*
203.238 4.312 m 203.238 5.043 203.312 5.629 203.465 6.078 c 203.613 6.527
 203.84 6.871 204.137 7.109 c 204.434 7.348 204.805 7.469 205.254 7.469 
c 205.586 7.469 205.879 7.402 206.129 7.266 c 206.379 7.129 206.586 6.938
 206.754 6.688 c 206.922 6.438 207.051 6.133 207.145 5.773 c 207.238 5.414
 207.285 4.926 207.285 4.312 c 207.285 3.582 207.211 2.996 207.059 2.547
 c 206.906 2.098 206.684 1.754 206.387 1.508 c 206.09 1.262 205.711 1.141
 205.254 1.141 c 204.66 1.141 204.191 1.355 203.848 1.781 c 203.441 2.301
 203.238 3.145 203.238 4.312 c h
204.02 4.312 m 204.02 3.293 204.137 2.613 204.379 2.273 c 204.617 1.934
 204.91 1.766 205.254 1.766 c 205.605 1.766 205.902 1.934 206.145 2.273 
c 206.383 2.613 206.504 3.293 206.504 4.312 c 206.504 5.332 206.383 6.012
 206.145 6.344 c 205.902 6.676 205.605 6.844 205.254 6.844 c 204.898 6.844
 204.617 6.691 204.41 6.391 c 204.148 6.016 204.02 5.324 204.02 4.312 c f*
  Q
Q
Q q
0 g
0.072 w
0 J
0 j
[] 0.0 d
3.25 M q 1 0 0 1 0 162 cm
260.414 -153.09 m 260.414 -150.453 l S Q
Q q
253.699 8.801 14.102 -8.801 re W n
q
253 9 15 -9 re W n
  q
0 g
257.719 1.25 m 256.969 1.25 l 256.969 6.094 l 256.781 5.926 256.539 5.754
 256.242 5.578 c 255.945 5.402 255.676 5.27 255.438 5.188 c 255.438 5.922
 l 255.863 6.121 256.238 6.359 256.555 6.641 c 256.871 6.922 257.098 7.199
 257.234 7.469 c 257.719 7.469 l 257.719 1.25 l f*
258.469 4.312 m 258.469 5.043 258.543 5.629 258.695 6.078 c 258.848 6.527
 259.07 6.871 259.367 7.109 c 259.664 7.348 260.035 7.469 260.484 7.469 
c 260.816 7.469 261.109 7.402 261.359 7.266 c 261.609 7.129 261.816 6.938
 261.984 6.688 c 262.152 6.438 262.281 6.133 262.375 5.773 c 262.469 5.414
 262.516 4.926 262.516 4.312 c 262.516 3.582 262.441 2.996 262.289 2.547
 c 262.137 2.098 261.914 1.754 261.617 1.508 c 261.32 1.262 260.941 1.141
 260.484 1.141 c 259.891 1.141 259.422 1.355 259.078 1.781 c 258.672 2.301
 258.469 3.145 258.469 4.312 c h
259.25 4.312 m 259.25 3.293 259.367 2.613 259.609 2.273 c 259.848 1.934
 260.141 1.766 260.484 1.766 c 260.84 1.766 261.137 1.934 261.375 2.273 
c 261.613 2.613 261.734 3.293 261.734 4.312 c 261.734 5.332 261.613 6.012
 261.375 6.344 c 261.137 6.676 260.84 6.844 260.484 6.844 c 260.129 6.844
 259.848 6.691 259.641 6.391 c 259.379 6.016 259.25 5.324 259.25 4.312 c
 f*
262.078 4.312 m 262.078 5.043 262.152 5.629 262.305 6.078 c 262.453 6.527
 262.68 6.871 262.977 7.109 c 263.273 7.348 263.645 7.469 264.094 7.469 
c 264.426 7.469 264.719 7.402 264.969 7.266 c 265.219 7.129 265.426 6.938
 265.594 6.688 c 265.762 6.438 265.891 6.133 265.984 5.773 c 266.078 5.414
 266.125 4.926 266.125 4.312 c 266.125 3.582 266.051 2.996 265.898 2.547
 c 265.746 2.098 265.523 1.754 265.227 1.508 c 264.93 1.262 264.551 1.141
 264.094 1.141 c 263.5 1.141 263.031 1.355 262.688 1.781 c 262.281 2.301
 262.078 3.145 262.078 4.312 c h
262.859 4.312 m 262.859 3.293 262.977 2.613 263.219 2.273 c 263.457 1.934
 263.75 1.766 264.094 1.766 c 264.445 1.766 264.742 1.934 264.984 2.273 
c 265.223 2.613 265.344 3.293 265.344 4.312 c 265.344 5.332 265.223 6.012
 264.984 6.344 c 264.742 6.676 264.445 6.844 264.094 6.844 c 263.738 6.844
 263.457 6.691 263.25 6.391 c 262.988 6.016 262.859 5.324 262.859 4.312 
c f*
  Q
Q
Q q
0 g
0.072 w
0 J
0 j
[] 0.0 d
3.25 M q 1 0 0 1 0 162 cm
9.574 -153.09 m 9.574 -151.773 l S Q
q 1 0 0 1 0 162 cm
15.102 -153.09 m 15.102 -151.773 l S Q
q 1 0 0 1 0 162 cm
19.621 -153.09 m 19.621 -151.773 l S Q
q 1 0 0 1 0 162 cm
23.438 -153.09 m 23.438 -151.773 l S Q
q 1 0 0 1 0 162 cm
26.746 -153.09 m 26.746 -151.773 l S Q
q 1 0 0 1 0 162 cm
29.664 -153.09 m 29.664 -151.773 l S Q
q 1 0 0 1 0 162 cm
49.441 -153.09 m 49.441 -151.773 l S Q
q 1 0 0 1 0 162 cm
59.484 -153.09 m 59.484 -151.773 l S Q
q 1 0 0 1 0 162 cm
66.613 -153.09 m 66.613 -151.773 l S Q
q 1 0 0 1 0 162 cm
72.141 -153.09 m 72.141 -151.773 l S Q
q 1 0 0 1 0 162 cm
76.656 -153.09 m 76.656 -151.773 l S Q
q 1 0 0 1 0 162 cm
80.473 -153.09 m 80.473 -151.773 l S Q
q 1 0 0 1 0 162 cm
83.781 -153.09 m 83.781 -151.773 l S Q
q 1 0 0 1 0 162 cm
86.699 -153.09 m 86.699 -151.773 l S Q
q 1 0 0 1 0 162 cm
106.477 -153.09 m 106.477 -151.773 l S Q
q 1 0 0 1 0 162 cm
116.52 -153.09 m 116.52 -151.773 l S Q
q 1 0 0 1 0 162 cm
123.648 -153.09 m 123.648 -151.773 l S Q
q 1 0 0 1 0 162 cm
129.176 -153.09 m 129.176 -151.773 l S Q
q 1 0 0 1 0 162 cm
133.691 -153.09 m 133.691 -151.773 l S Q
q 1 0 0 1 0 162 cm
137.508 -153.09 m 137.508 -151.773 l S Q
q 1 0 0 1 0 162 cm
140.816 -153.09 m 140.816 -151.773 l S Q
q 1 0 0 1 0 162 cm
143.734 -153.09 m 143.734 -151.773 l S Q
q 1 0 0 1 0 162 cm
163.512 -153.09 m 163.512 -151.773 l S Q
q 1 0 0 1 0 162 cm
173.555 -153.09 m 173.555 -151.773 l S Q
q 1 0 0 1 0 162 cm
180.684 -153.09 m 180.684 -151.773 l S Q
q 1 0 0 1 0 162 cm
186.211 -153.09 m 186.211 -151.773 l S Q
q 1 0 0 1 0 162 cm
190.727 -153.09 m 190.727 -151.773 l S Q
q 1 0 0 1 0 162 cm
194.543 -153.09 m 194.543 -151.773 l S Q
q 1 0 0 1 0 162 cm
197.852 -153.09 m 197.852 -151.773 l S Q
q 1 0 0 1 0 162 cm
200.77 -153.09 m 200.77 -151.773 l S Q
q 1 0 0 1 0 162 cm
220.547 -153.09 m 220.547 -151.773 l S Q
q 1 0 0 1 0 162 cm
230.594 -153.09 m 230.594 -151.773 l S Q
q 1 0 0 1 0 162 cm
237.719 -153.09 m 237.719 -151.773 l S Q
q 1 0 0 1 0 162 cm
243.246 -153.09 m 243.246 -151.773 l S Q
q 1 0 0 1 0 162 cm
247.762 -153.09 m 247.762 -151.773 l S Q
q 1 0 0 1 0 162 cm
251.578 -153.09 m 251.578 -151.773 l S Q
q 1 0 0 1 0 162 cm
254.887 -153.09 m 254.887 -151.773 l S Q
q 1 0 0 1 0 162 cm
257.805 -153.09 m 257.805 -151.773 l S Q
0.36 w
q 1 0 0 1 0 162 cm
5.902 -153.09 m 269.617 -153.09 l S Q
Q q
273.699 14.801 15.301 -12.102 re W n
q
273 15 16 -13 re W n
  q
0 g
277.125 7.59 m 277.125 13.059 l 275.078 13.059 l 275.078 13.793 l 279.984
 13.793 l 279.984 13.059 l 277.938 13.059 l 277.938 7.59 l 277.125 7.59 
l f*
283.219 5.777 m 282.688 5.777 l 282.461 6.059 282.25 6.359 282.062 6.684
 c 281.875 7.008 281.719 7.34 281.586 7.684 c 281.457 8.027 281.355 8.379
 281.281 8.738 c 281.211 9.098 281.172 9.461 281.172 9.824 c 281.172 10.199
 281.211 10.566 281.281 10.926 c 281.355 11.285 281.461 11.637 281.594 11.98
 c 281.73 12.324 281.891 12.656 282.07 12.973 c 282.254 13.289 282.461 13.594
 282.688 13.887 c 283.219 13.887 l 283.023 13.562 282.844 13.242 282.688
 12.926 c 282.531 12.609 282.398 12.285 282.289 11.957 c 282.18 11.629 282.102
 11.289 282.047 10.941 c 281.996 10.594 281.969 10.227 281.969 9.84 c 281.969
 9.477 281.996 9.117 282.055 8.762 c 282.113 8.406 282.195 8.059 282.305
 7.715 c 282.414 7.371 282.547 7.039 282.703 6.715 c 282.859 6.391 283.031
 6.082 283.219 5.777 c f*
283.391 7.59 m 283.391 13.793 l 284.141 13.793 l 284.141 10.246 l 285.953
 12.074 l 286.938 12.074 l 285.219 10.418 l 287.109 7.59 l 286.172 7.59 
l 284.688 9.887 l 284.141 9.371 l 284.141 7.59 l 283.391 7.59 l f*
288.422 9.824 m 288.422 9.461 288.387 9.098 288.312 8.738 c 288.242 8.379
 288.141 8.027 288.008 7.684 c 287.879 7.34 287.719 7.008 287.531 6.691 
c 287.344 6.375 287.141 6.07 286.922 5.777 c 286.375 5.777 l 286.574 6.102
 286.754 6.422 286.906 6.738 c 287.062 7.055 287.195 7.379 287.305 7.707
 c 287.414 8.035 287.5 8.375 287.555 8.723 c 287.613 9.07 287.641 9.438 
287.641 9.824 c 287.641 10.18 287.609 10.535 287.547 10.895 c 287.484 11.254
 287.398 11.602 287.289 11.941 c 287.18 12.281 287.047 12.613 286.891 12.941
 c 286.734 13.27 286.562 13.586 286.375 13.887 c 286.922 13.887 l 287.152
 13.605 287.359 13.305 287.539 12.98 c 287.723 12.656 287.879 12.324 288.008
 11.98 c 288.141 11.637 288.242 11.285 288.312 10.926 c 288.387 10.566 288.422
 10.199 288.422 9.824 c f*
  Q
Q
Q q
0 g
0.36 w
0 J
0 j
[] 0.0 d
3.25 M q 1 0 0 1 0 162 cm
11.176 -153.09 m 13.977 -153.09 l S Q
q 1 0 0 1 0 162 cm
11.176 -146.496 m 12.855 -146.496 l S Q
q 1 0 0 1 0 162 cm
11.176 -139.906 m 12.855 -139.906 l S Q
q 1 0 0 1 0 162 cm
11.176 -133.312 m 12.855 -133.312 l S Q
q 1 0 0 1 0 162 cm
11.176 -126.719 m 12.855 -126.719 l S Q
q 1 0 0 1 0 162 cm
11.176 -120.125 m 13.977 -120.125 l S Q
Q q
0 46.801 10.801 -10.102 re W n
q
0 47 11 -11 re W n
  q
0 g
-0.141 42.812 m -0.141 43.539 -0.066 44.129 0.086 44.578 c 0.238 45.023
 0.461 45.367 0.758 45.609 c 1.055 45.848 1.426 45.969 1.875 45.969 c 2.207
 45.969 2.5 45.898 2.75 45.766 c 3 45.629 3.207 45.438 3.375 45.188 c 3.543
 44.938 3.672 44.633 3.766 44.273 c 3.859 43.914 3.906 43.426 3.906 42.812
 c 3.906 42.082 3.832 41.492 3.68 41.047 c 3.527 40.598 3.305 40.254 3.008
 40.008 c 2.711 39.762 2.332 39.641 1.875 39.641 c 1.281 39.641 0.812 39.852
 0.469 40.281 c 0.062 40.801 -0.141 41.645 -0.141 42.812 c h
0.641 42.812 m 0.641 41.789 0.762 41.109 1 40.773 c 1.238 40.434 1.531 
40.266 1.875 40.266 c 2.23 40.266 2.527 40.434 2.766 40.773 c 3.004 41.109
 3.125 41.789 3.125 42.812 c 3.125 43.832 3.004 44.508 2.766 44.844 c 2.527
 45.176 2.23 45.344 1.875 45.344 c 1.52 45.344 1.238 45.191 1.031 44.891
 c 0.77 44.516 0.641 43.82 0.641 42.812 c f*
3.891 40.609 0.875 -0.859 re f*
8.125 39.75 m 7.375 39.75 l 7.375 44.594 l 7.188 44.426 6.945 44.254 6.648
 44.078 c 6.352 43.898 6.082 43.77 5.844 43.688 c 5.844 44.422 l 6.27 44.617
 6.645 44.859 6.961 45.141 c 7.277 45.422 7.504 45.695 7.641 45.969 c 8.125
 45.969 l 8.125 39.75 l f*
  Q
Q
Q q
0 g
0.36 w
0 J
0 j
[] 0.0 d
3.25 M q 1 0 0 1 0 162 cm
11.176 -113.531 m 12.855 -113.531 l S Q
q 1 0 0 1 0 162 cm
11.176 -106.941 m 12.855 -106.941 l S Q
q 1 0 0 1 0 162 cm
11.176 -100.348 m 12.855 -100.348 l S Q
q 1 0 0 1 0 162 cm
11.176 -93.754 m 12.855 -93.754 l S Q
q 1 0 0 1 0 162 cm
11.176 -87.16 m 13.977 -87.16 l S Q
Q q
0 79.801 10.801 -10.102 re W n
q
0 80 11 -11 re W n
  q
0 g
-0.141 75.773 m -0.141 76.504 -0.066 77.094 0.086 77.539 c 0.238 77.988
 0.461 78.332 0.758 78.57 c 1.055 78.812 1.426 78.934 1.875 78.934 c 2.207
 78.934 2.5 78.863 2.75 78.73 c 3 78.594 3.207 78.402 3.375 78.152 c 3.543
 77.902 3.672 77.598 3.766 77.234 c 3.859 76.879 3.906 76.391 3.906 75.773
 c 3.906 75.047 3.832 74.457 3.68 74.012 c 3.527 73.562 3.305 73.215 3.008
 72.973 c 2.711 72.727 2.332 72.605 1.875 72.605 c 1.281 72.605 0.812 72.816
 0.469 73.242 c 0.062 73.766 -0.141 74.609 -0.141 75.773 c h
0.641 75.773 m 0.641 74.754 0.762 74.074 1 73.734 c 1.238 73.398 1.531 
73.23 1.875 73.23 c 2.23 73.23 2.527 73.398 2.766 73.734 c 3.004 74.074 
3.125 74.754 3.125 75.773 c 3.125 76.797 3.004 77.473 2.766 77.809 c 2.527
 78.141 2.23 78.309 1.875 78.309 c 1.52 78.309 1.238 78.156 1.031 77.855
 c 0.77 77.48 0.641 76.785 0.641 75.773 c f*
3.891 73.57 0.875 -0.855 re f*
9.266 73.445 m 9.266 72.715 l 5.172 72.715 l 5.16 72.902 5.188 73.078 5.25
 73.242 c 5.355 73.523 5.523 73.801 5.758 74.07 c 5.992 74.344 6.324 74.656
 6.75 75.012 c 7.426 75.562 7.883 76 8.117 76.32 c 8.352 76.645 8.469 76.945
 8.469 77.23 c 8.469 77.531 8.363 77.785 8.148 77.992 c 7.934 78.203 7.656
 78.309 7.312 78.309 c 6.938 78.309 6.641 78.195 6.422 77.98 c 6.203 77.762
 6.094 77.453 6.094 77.059 c 5.312 77.137 l 5.363 77.719 5.566 78.164 5.914
 78.473 c 6.262 78.777 6.734 78.934 7.328 78.934 c 7.922 78.934 8.391 78.77
 8.734 78.441 c 9.078 78.109 9.25 77.703 9.25 77.215 c 9.25 76.965 9.199
 76.719 9.102 76.48 c 9 76.238 8.836 75.984 8.602 75.723 c 8.367 75.457 
7.973 75.094 7.422 74.637 c 6.961 74.25 6.672 73.988 6.547 73.855 c 6.422
 73.719 6.312 73.582 6.219 73.445 c 9.266 73.445 l f*
  Q
Q
Q q
0 g
0.36 w
0 J
0 j
[] 0.0 d
3.25 M q 1 0 0 1 0 162 cm
11.176 -80.57 m 12.855 -80.57 l S Q
q 1 0 0 1 0 162 cm
11.176 -73.977 m 12.855 -73.977 l S Q
q 1 0 0 1 0 162 cm
11.176 -67.383 m 12.855 -67.383 l S Q
q 1 0 0 1 0 162 cm
11.176 -60.789 m 12.855 -60.789 l S Q
q 1 0 0 1 0 162 cm
11.176 -54.195 m 13.977 -54.195 l S Q
Q q
0 112.801 10.801 -10.102 re W n
q
0 113 11 -11 re W n
  q
0 g
-0.141 108.738 m -0.141 109.469 -0.066 110.059 0.086 110.508 c 0.238 110.953
 0.461 111.297 0.758 111.535 c 1.055 111.777 1.426 111.898 1.875 111.898
 c 2.207 111.898 2.5 111.828 2.75 111.695 c 3 111.559 3.207 111.367 3.375
 111.117 c 3.543 110.867 3.672 110.562 3.766 110.199 c 3.859 109.844 3.906
 109.355 3.906 108.738 c 3.906 108.012 3.832 107.422 3.68 106.977 c 3.527
 106.527 3.305 106.18 3.008 105.938 c 2.711 105.691 2.332 105.57 1.875 105.57
 c 1.281 105.57 0.812 105.781 0.469 106.211 c 0.062 106.73 -0.141 107.574
 -0.141 108.738 c h
0.641 108.738 m 0.641 107.719 0.762 107.039 1 106.699 c 1.238 106.363 1.531
 106.195 1.875 106.195 c 2.23 106.195 2.527 106.363 2.766 106.699 c 3.004
 107.039 3.125 107.719 3.125 108.738 c 3.125 109.762 3.004 110.438 2.766
 110.773 c 2.527 111.105 2.23 111.273 1.875 111.273 c 1.52 111.273 1.238
 111.121 1.031 110.82 c 0.77 110.445 0.641 109.75 0.641 108.738 c f*
3.891 106.535 0.875 -0.855 re f*
5.266 107.32 m 6.031 107.41 l 6.113 106.984 6.262 106.676 6.477 106.484
 c 6.691 106.289 6.949 106.195 7.25 106.195 c 7.605 106.195 7.902 106.32
 8.148 106.57 c 8.395 106.82 8.516 107.125 8.516 107.488 c 8.516 107.844
 8.402 108.133 8.172 108.359 c 7.941 108.582 7.656 108.695 7.312 108.695
 c 7.168 108.695 6.984 108.668 6.766 108.617 c 6.859 109.273 l 6.984 109.273
 l 7.309 109.273 7.598 109.355 7.852 109.523 c 8.105 109.688 8.234 109.949
 8.234 110.305 c 8.234 110.586 8.141 110.816 7.953 110.996 c 7.766 111.18
 7.527 111.273 7.234 111.273 c 6.934 111.273 6.684 111.18 6.484 110.988 
c 6.285 110.805 6.16 110.527 6.109 110.16 c 5.344 110.285 l 5.438 110.797
 5.648 111.195 5.977 111.477 c 6.305 111.758 6.711 111.898 7.203 111.898
 c 7.547 111.898 7.863 111.824 8.148 111.68 c 8.434 111.531 8.652 111.336
 8.797 111.086 c 8.941 110.836 9.016 110.57 9.016 110.285 c 9.016 110.016
 8.945 109.773 8.805 109.555 c 8.664 109.336 8.453 109.16 8.172 109.035 
c 8.535 108.953 8.82 108.781 9.023 108.516 c 9.227 108.246 9.328 107.91 
9.328 107.508 c 9.328 106.965 9.129 106.508 8.734 106.133 c 8.336 105.758
 7.836 105.57 7.234 105.57 c 6.691 105.57 6.242 105.73 5.883 106.055 c 5.523
 106.375 5.316 106.797 5.266 107.32 c f*
  Q
Q
Q q
0 g
0.36 w
0 J
0 j
[] 0.0 d
3.25 M q 1 0 0 1 0 162 cm
11.176 -47.605 m 12.855 -47.605 l S Q
q 1 0 0 1 0 162 cm
11.176 -41.012 m 12.855 -41.012 l S Q
q 1 0 0 1 0 162 cm
11.176 -34.418 m 12.855 -34.418 l S Q
q 1 0 0 1 0 162 cm
11.176 -27.824 m 12.855 -27.824 l S Q
q 1 0 0 1 0 162 cm
11.176 -21.234 m 13.977 -21.234 l S Q
Q q
0 145.801 10.801 -10.102 re W n
q
0 146 11 -11 re W n
  q
0 g
-0.141 141.703 m -0.141 142.434 -0.066 143.023 0.086 143.469 c 0.238 143.918
 0.461 144.262 0.758 144.5 c 1.055 144.742 1.426 144.859 1.875 144.859 c
 2.207 144.859 2.5 144.793 2.75 144.656 c 3 144.523 3.207 144.328 3.375 
144.078 c 3.543 143.828 3.672 143.523 3.766 143.164 c 3.859 142.805 3.906
 142.32 3.906 141.703 c 3.906 140.977 3.832 140.387 3.68 139.938 c 3.527
 139.492 3.305 139.145 3.008 138.898 c 2.711 138.656 2.332 138.531 1.875
 138.531 c 1.281 138.531 0.812 138.746 0.469 139.172 c 0.062 139.695 -0.141
 140.539 -0.141 141.703 c h
0.641 141.703 m 0.641 140.684 0.762 140.004 1 139.664 c 1.238 139.328 1.531
 139.156 1.875 139.156 c 2.23 139.156 2.527 139.328 2.766 139.664 c 3.004
 140.004 3.125 140.684 3.125 141.703 c 3.125 142.727 3.004 143.402 2.766
 143.734 c 2.527 144.07 2.23 144.234 1.875 144.234 c 1.52 144.234 1.238 
144.086 1.031 143.781 c 0.77 143.406 0.641 142.715 0.641 141.703 c f*
3.891 139.5 0.875 -0.859 re f*
7.703 138.641 m 7.703 140.125 l 5.016 140.125 l 5.016 140.828 l 7.844 144.844
 l 8.469 144.844 l 8.469 140.828 l 9.297 140.828 l 9.297 140.125 l 8.469
 140.125 l 8.469 138.641 l h
7.703 140.828 m 7.703 143.609 l 5.766 140.828 l 7.703 140.828 l f*
  Q
Q
Q q
0 g
0.36 w
0 J
0 j
[] 0.0 d
3.25 M q 1 0 0 1 0 162 cm
11.176 -153.09 m 11.176 -21.234 l S Q
Q q
7.719 153.746 7 -10 re W n
q
7 154 8 -11 re W n
  q
0 g
13.426 148.508 m 14.238 148.305 l 14.07 147.629 13.766 147.113 13.316 146.758
 c 12.867 146.406 12.32 146.227 11.676 146.227 c 11.008 146.227 10.469 146.363
 10.051 146.633 c 9.633 146.906 9.316 147.297 9.098 147.812 c 8.879 148.328
 8.77 148.883 8.77 149.477 c 8.77 150.121 8.891 150.688 9.137 151.164 c 
9.383 151.645 9.73 152.008 10.184 152.258 c 10.637 152.508 11.141 152.633
 11.691 152.633 c 12.305 152.633 12.824 152.477 13.246 152.164 c 13.668 
151.852 13.961 151.41 14.129 150.836 c 13.332 150.648 l 13.188 151.098 12.977
 151.422 12.699 151.625 c 12.422 151.828 12.082 151.93 11.676 151.93 c 11.195
 151.93 10.797 151.82 10.48 151.594 c 10.164 151.371 9.938 151.066 9.809
 150.68 c 9.68 150.297 9.613 149.898 9.613 149.492 c 9.613 148.961 9.688
 148.496 9.84 148.102 c 9.992 147.707 10.227 147.414 10.551 147.219 c 10.875
 147.027 11.227 146.93 11.613 146.93 c 12.07 146.93 12.461 147.062 12.777
 147.328 c 13.094 147.594 13.312 147.988 13.426 148.508 c f*
  Q
Q
Q q
90.699 162 94.102 -11.301 re W n
q
90 162 95 -12 re W n
  q
0 g
92.461 155.336 m 92.461 162.758 l 93.445 162.758 l 93.445 159.711 l 97.305
 159.711 l 97.305 162.758 l 98.289 162.758 l 98.289 155.336 l 97.305 155.336
 l 97.305 158.836 l 93.445 158.836 l 93.445 155.336 l 92.461 155.336 l f*
101.617 157.07 m 102.57 156.945 l 102.426 156.406 102.148 155.98 101.742
 155.672 c 101.336 155.367 100.82 155.211 100.195 155.211 c 99.414 155.211
 98.793 155.453 98.328 155.938 c 97.867 156.422 97.633 157.102 97.633 157.977
 c 97.633 158.883 97.867 159.586 98.336 160.086 c 98.805 160.586 99.41 160.836
 100.148 160.836 c 100.867 160.836 101.457 160.594 101.914 160.102 c 102.375
 159.613 102.602 158.926 102.602 158.039 c 102.602 157.988 102.598 157.906
 102.586 157.789 c 98.586 157.789 l 98.617 157.207 98.785 156.758 99.086
 156.438 c 99.391 156.121 99.766 155.961 100.211 155.961 c 100.547 155.961
 100.828 156.051 101.062 156.227 c 101.297 156.406 101.484 156.688 101.617
 157.07 c h
98.633 158.539 m 101.633 158.539 l 101.594 158.996 101.477 159.336 101.289
 159.555 c 101 159.91 100.625 160.086 100.164 160.086 c 99.75 160.086 99.398
 159.945 99.109 159.664 c 98.824 159.383 98.664 159.008 98.633 158.539 c
 f*
105.773 155.992 m 105.441 155.711 105.117 155.512 104.805 155.391 c 104.492
 155.273 104.16 155.211 103.805 155.211 c 103.211 155.211 102.758 155.359
 102.438 155.648 c 102.121 155.941 101.961 156.312 101.961 156.758 c 101.961
 157.02 102.023 157.258 102.141 157.477 c 102.262 157.695 102.418 157.871
 102.609 158 c 102.805 158.133 103.023 158.234 103.273 158.305 c 103.453
 158.348 103.723 158.391 104.086 158.43 c 104.816 158.523 105.359 158.633
 105.711 158.758 c 105.711 158.992 l 105.711 159.359 105.621 159.617 105.445
 159.773 c 105.219 159.984 104.871 160.086 104.414 160.086 c 103.988 160.086
 103.672 160.012 103.469 159.859 c 103.266 159.711 103.113 159.441 103.008
 159.055 c 102.117 159.18 l 102.203 159.566 102.336 159.875 102.516 160.109
 c 102.699 160.344 102.969 160.523 103.32 160.648 c 103.676 160.773 104.082
 160.836 104.539 160.836 c 104.996 160.836 105.371 160.781 105.664 160.672
 c 105.957 160.562 106.168 160.43 106.297 160.266 c 106.43 160.105 106.523
 159.898 106.586 159.648 c 106.617 159.492 106.633 159.211 106.633 158.805
 c 106.633 157.586 l 106.633 156.742 106.652 156.211 106.688 155.984 c 106.727
 155.762 106.801 155.547 106.914 155.336 c 105.961 155.336 l 105.867 155.523
 105.805 155.742 105.773 155.992 c h
105.711 158.039 m 105.379 157.906 104.879 157.789 104.211 157.695 c 103.836
 157.645 103.57 157.586 103.414 157.516 c 103.258 157.449 103.141 157.352
 103.055 157.219 c 102.973 157.09 102.93 156.941 102.93 156.773 c 102.93
 156.535 103.023 156.336 103.211 156.172 c 103.398 156.012 103.672 155.93
 104.023 155.93 c 104.367 155.93 104.68 156.008 104.953 156.156 c 105.23
 156.309 105.43 156.52 105.555 156.789 c 105.66 156.996 105.711 157.301 
105.711 157.695 c 105.711 158.039 l f*
108.586 156.148 m 108.727 155.352 l 108.469 155.289 108.238 155.258 108.039
 155.258 c 107.707 155.258 107.449 155.312 107.266 155.422 c 107.086 155.531
 106.953 155.672 106.875 155.836 c 106.797 156.004 106.758 156.363 106.758
 156.914 c 106.758 160.008 l 106.102 160.008 l 106.102 160.711 l 106.758
 160.711 l 106.758 162.055 l 107.68 162.602 l 107.68 160.711 l 108.586 160.711
 l 108.586 160.008 l 107.68 160.008 l 107.68 156.867 l 107.68 156.609 107.695
 156.438 107.727 156.359 c 107.758 156.281 107.812 156.223 107.883 156.18
 c 107.957 156.141 108.062 156.117 108.195 156.117 c 108.289 156.117 108.422
 156.129 108.586 156.148 c f*
114.414 157.305 m 115.32 157.195 l 115.219 156.57 114.965 156.086 114.562
 155.734 c 114.164 155.387 113.672 155.211 113.086 155.211 c 112.348 155.211
 111.754 155.453 111.305 155.938 c 110.859 156.422 110.633 157.113 110.633
 158.008 c 110.633 158.594 110.73 159.102 110.922 159.531 c 111.117 159.965
 111.406 160.289 111.797 160.508 c 112.188 160.727 112.617 160.836 113.086
 160.836 c 113.672 160.836 114.148 160.688 114.516 160.391 c 114.887 160.094
 115.125 159.676 115.227 159.133 c 114.352 158.992 l 114.258 159.359 114.105
 159.633 113.891 159.812 c 113.68 159.996 113.422 160.086 113.117 160.086
 c 112.66 160.086 112.289 159.922 112 159.594 c 111.715 159.266 111.57 158.742
 111.57 158.023 c 111.57 157.305 111.711 156.781 111.984 156.453 c 112.262
 156.125 112.625 155.961 113.07 155.961 c 113.426 155.961 113.723 156.07
 113.961 156.289 c 114.203 156.508 114.352 156.848 114.414 157.305 c f*
118.309 155.992 m 117.973 155.711 117.648 155.512 117.34 155.391 c 117.023
 155.273 116.691 155.211 116.34 155.211 c 115.742 155.211 115.289 155.359
 114.973 155.648 c 114.652 155.941 114.492 156.312 114.492 156.758 c 114.492
 157.02 114.555 157.258 114.676 157.477 c 114.793 157.695 114.949 157.871
 115.141 158 c 115.336 158.133 115.559 158.234 115.809 158.305 c 115.984
 158.348 116.254 158.391 116.617 158.43 c 117.348 158.523 117.891 158.633
 118.242 158.758 c 118.242 158.992 l 118.242 159.359 118.156 159.617 117.977
 159.773 c 117.75 159.984 117.406 160.086 116.945 160.086 c 116.52 160.086
 116.203 160.012 116.004 159.859 c 115.801 159.711 115.645 159.441 115.539
 159.055 c 114.648 159.18 l 114.734 159.566 114.867 159.875 115.051 160.109
 c 115.23 160.344 115.5 160.523 115.852 160.648 c 116.207 160.773 116.613
 160.836 117.07 160.836 c 117.531 160.836 117.906 160.781 118.195 160.672
 c 118.488 160.562 118.699 160.43 118.828 160.266 c 118.961 160.105 119.059
 159.898 119.117 159.648 c 119.148 159.492 119.164 159.211 119.164 158.805
 c 119.164 157.586 l 119.164 156.742 119.184 156.211 119.223 155.984 c 119.258
 155.762 119.332 155.547 119.445 155.336 c 118.492 155.336 l 118.398 155.523
 118.34 155.742 118.309 155.992 c h
118.242 158.039 m 117.91 157.906 117.41 157.789 116.742 157.695 c 116.367
 157.645 116.102 157.586 115.945 157.516 c 115.789 157.449 115.672 157.352
 115.59 157.219 c 115.504 157.09 115.465 156.941 115.465 156.773 c 115.465
 156.535 115.559 156.336 115.742 156.172 c 115.93 156.012 116.203 155.93
 116.559 155.93 c 116.898 155.93 117.211 156.008 117.484 156.156 c 117.762
 156.309 117.965 156.52 118.09 156.789 c 118.191 156.996 118.242 157.301
 118.242 157.695 c 118.242 158.039 l f*
119.137 153.273 m 119.137 160.711 l 119.965 160.711 l 119.965 160.023 l
 120.16 160.297 120.383 160.496 120.629 160.633 c 120.871 160.77 121.172
 160.836 121.523 160.836 c 121.984 160.836 122.387 160.719 122.734 160.484
 c 123.086 160.25 123.352 159.918 123.531 159.484 c 123.715 159.055 123.805
 158.582 123.805 158.07 c 123.805 157.52 123.707 157.023 123.508 156.578
 c 123.312 156.137 123.023 155.797 122.641 155.562 c 122.262 155.328 121.867
 155.211 121.465 155.211 c 121.148 155.211 120.875 155.277 120.637 155.406
 c 120.395 155.539 120.195 155.703 120.039 155.898 c 120.039 153.273 l h
119.965 157.992 m 119.965 157.305 120.102 156.797 120.379 156.461 c 120.652
 156.129 120.992 155.961 121.398 155.961 c 121.805 155.961 122.152 156.133
 122.438 156.477 c 122.727 156.82 122.867 157.352 122.867 158.07 c 122.867
 158.758 122.727 159.273 122.445 159.609 c 122.164 159.949 121.828 160.117
 121.43 160.117 c 121.047 160.117 120.703 159.938 120.406 159.578 c 120.109
 159.219 119.965 158.691 119.965 157.992 c f*
126.965 155.992 m 126.629 155.711 126.305 155.512 125.992 155.391 c 125.68
 155.273 125.348 155.211 124.992 155.211 c 124.398 155.211 123.945 155.359
 123.629 155.648 c 123.309 155.941 123.148 156.312 123.148 156.758 c 123.148
 157.02 123.211 157.258 123.328 157.477 c 123.449 157.695 123.605 157.871
 123.797 158 c 123.992 158.133 124.215 158.234 124.465 158.305 c 124.641
 158.348 124.91 158.391 125.273 158.43 c 126.004 158.523 126.547 158.633
 126.898 158.758 c 126.898 158.992 l 126.898 159.359 126.812 159.617 126.633
 159.773 c 126.406 159.984 126.062 160.086 125.602 160.086 c 125.176 160.086
 124.859 160.012 124.656 159.859 c 124.453 159.711 124.301 159.441 124.195
 159.055 c 123.305 159.18 l 123.391 159.566 123.523 159.875 123.703 160.109
 c 123.887 160.344 124.156 160.523 124.508 160.648 c 124.863 160.773 125.27
 160.836 125.727 160.836 c 126.188 160.836 126.562 160.781 126.852 160.672
 c 127.145 160.562 127.355 160.43 127.484 160.266 c 127.617 160.105 127.715
 159.898 127.773 159.648 c 127.805 159.492 127.82 159.211 127.82 158.805
 c 127.82 157.586 l 127.82 156.742 127.84 156.211 127.879 155.984 c 127.914
 155.762 127.988 155.547 128.102 155.336 c 127.148 155.336 l 127.055 155.523
 126.992 155.742 126.965 155.992 c h
126.898 158.039 m 126.566 157.906 126.066 157.789 125.398 157.695 c 125.023
 157.645 124.758 157.586 124.602 157.516 c 124.445 157.449 124.328 157.352
 124.242 157.219 c 124.16 157.09 124.117 156.941 124.117 156.773 c 124.117
 156.535 124.215 156.336 124.398 156.172 c 124.586 156.012 124.859 155.93
 125.215 155.93 c 125.555 155.93 125.867 156.008 126.141 156.156 c 126.418
 156.309 126.617 156.52 126.742 156.789 c 126.848 156.996 126.898 157.301
 126.898 157.695 c 126.898 158.039 l f*
131.289 157.305 m 132.195 157.195 l 132.094 156.57 131.84 156.086 131.438
 155.734 c 131.039 155.387 130.547 155.211 129.961 155.211 c 129.223 155.211
 128.629 155.453 128.18 155.938 c 127.734 156.422 127.508 157.113 127.508
 158.008 c 127.508 158.594 127.605 159.102 127.797 159.531 c 127.992 159.965
 128.281 160.289 128.672 160.508 c 129.062 160.727 129.492 160.836 129.961
 160.836 c 130.547 160.836 131.023 160.688 131.391 160.391 c 131.762 160.094
 132 159.676 132.102 159.133 c 131.227 158.992 l 131.133 159.359 130.98 
159.633 130.766 159.812 c 130.555 159.996 130.297 160.086 129.992 160.086
 c 129.535 160.086 129.164 159.922 128.875 159.594 c 128.59 159.266 128.445
 158.742 128.445 158.023 c 128.445 157.305 128.586 156.781 128.859 156.453
 c 129.137 156.125 129.5 155.961 129.945 155.961 c 130.301 155.961 130.598
 156.07 130.836 156.289 c 131.078 156.508 131.227 156.848 131.289 157.305
 c f*
131.684 161.711 m 131.684 162.758 l 132.59 162.758 l 132.59 161.711 l h
131.684 155.336 m 131.684 160.711 l 132.59 160.711 l 132.59 155.336 l 131.684
 155.336 l f*
135.398 156.148 m 135.539 155.352 l 135.281 155.289 135.051 155.258 134.852
 155.258 c 134.52 155.258 134.262 155.312 134.078 155.422 c 133.898 155.531
 133.766 155.672 133.688 155.836 c 133.609 156.004 133.57 156.363 133.57
 156.914 c 133.57 160.008 l 132.914 160.008 l 132.914 160.711 l 133.57 160.711
 l 133.57 162.055 l 134.492 162.602 l 134.492 160.711 l 135.398 160.711 
l 135.398 160.008 l 134.492 160.008 l 134.492 156.867 l 134.492 156.609 
134.508 156.438 134.539 156.359 c 134.57 156.281 134.625 156.223 134.695
 156.18 c 134.77 156.141 134.875 156.117 135.008 156.117 c 135.102 156.117
 135.234 156.129 135.398 156.148 c f*
135.523 153.258 m 135.43 154.117 l 135.629 154.066 135.801 154.039 135.945
 154.039 c 136.156 154.039 136.32 154.074 136.438 154.141 c 136.559 154.211
 136.656 154.305 136.727 154.43 c 136.789 154.516 136.883 154.738 137.008
 155.102 c 137.031 155.156 137.055 155.227 137.086 155.32 c 135.055 160.711
 l 136.039 160.711 l 137.148 157.602 l 137.297 157.207 137.426 156.789 137.539
 156.352 c 137.645 156.77 137.77 157.18 137.914 157.586 c 139.07 160.711
 l 139.977 160.711 l 137.93 155.242 l 137.711 154.648 137.539 154.242 137.414
 154.023 c 137.258 153.723 137.078 153.5 136.867 153.359 c 136.66 153.219
 136.41 153.148 136.117 153.148 c 135.941 153.148 135.742 153.188 135.523
 153.258 c f*
139.695 155.336 m 139.695 156.367 l 140.727 156.367 l 140.727 155.336 l
 140.727 154.953 140.664 154.641 140.531 154.406 c 140.402 154.172 140.188
 153.992 139.883 153.867 c 139.633 154.258 l 139.832 154.344 139.977 154.465
 140.062 154.625 c 140.152 154.789 140.203 155.023 140.215 155.336 c 139.695
 155.336 l f*
143.523 157.289 m 144.43 157.414 l 144.535 156.906 144.715 156.535 144.969
 156.305 c 145.227 156.078 145.531 155.961 145.883 155.961 c 146.312 155.961
 146.672 156.109 146.969 156.406 c 147.266 156.703 147.414 157.07 147.414
 157.508 c 147.414 157.926 147.281 158.27 147.008 158.539 c 146.738 158.812
 146.391 158.945 145.961 158.945 c 145.797 158.945 145.582 158.914 145.32
 158.852 c 145.414 159.648 l 145.57 159.648 l 145.957 159.648 146.305 159.746
 146.617 159.945 c 146.93 160.145 147.086 160.457 147.086 160.883 c 147.086
 161.219 146.973 161.492 146.742 161.711 c 146.516 161.93 146.223 162.039
 145.867 162.039 c 145.516 162.039 145.219 161.93 144.984 161.703 c 144.75
 161.48 144.598 161.148 144.523 160.711 c 143.617 160.867 l 143.723 161.484
 143.973 161.957 144.367 162.289 c 144.766 162.621 145.258 162.789 145.852
 162.789 c 146.258 162.789 146.633 162.703 146.969 162.531 c 147.309 162.359
 147.57 162.121 147.75 161.82 c 147.934 161.52 148.023 161.203 148.023 160.867
 c 148.023 160.547 147.938 160.25 147.766 159.984 c 147.594 159.719 147.336
 159.508 146.992 159.352 c 147.43 159.258 147.773 159.051 148.016 158.727
 c 148.262 158.406 148.383 158.004 148.383 157.523 c 148.383 156.879 148.148
 156.332 147.672 155.883 c 147.199 155.438 146.602 155.211 145.883 155.211
 c 145.227 155.211 144.688 155.406 144.258 155.789 c 143.832 156.176 143.586
 156.676 143.523 157.289 c f*
147.852 158.992 m 147.852 159.879 147.941 160.586 148.117 161.117 c 148.297
 161.648 148.562 162.062 148.922 162.352 c 149.281 162.645 149.734 162.789
 150.273 162.789 c 150.672 162.789 151.02 162.711 151.32 162.547 c 151.621
 162.387 151.871 162.156 152.062 161.852 c 152.258 161.551 152.41 161.184
 152.523 160.75 c 152.641 160.32 152.695 159.734 152.695 158.992 c 152.695
 158.129 152.605 157.43 152.422 156.891 c 152.242 156.355 151.973 155.941
 151.617 155.648 c 151.266 155.359 150.816 155.211 150.273 155.211 c 149.555
 155.211 148.992 155.469 148.586 155.977 c 148.098 156.602 147.852 157.609
 147.852 158.992 c h
148.789 158.992 m 148.789 157.773 148.93 156.965 149.211 156.562 c 149.492
 156.164 149.848 155.961 150.273 155.961 c 150.691 155.961 151.043 156.164
 151.328 156.57 c 151.617 156.977 151.758 157.785 151.758 158.992 c 151.758
 160.223 151.617 161.039 151.328 161.438 c 151.043 161.84 150.688 162.039
 150.258 162.039 c 149.844 162.039 149.508 161.863 149.258 161.508 c 148.945
 161.051 148.789 160.211 148.789 158.992 c f*
154.59 153.273 m 154.59 160.711 l 155.414 160.711 l 155.414 160.023 l 155.613
 160.297 155.836 160.496 156.078 160.633 c 156.324 160.77 156.625 160.836
 156.977 160.836 c 157.438 160.836 157.84 160.719 158.188 160.484 c 158.539
 160.25 158.805 159.918 158.984 159.484 c 159.168 159.055 159.258 158.582
 159.258 158.07 c 159.258 157.52 159.16 157.023 158.961 156.578 c 158.766
 156.137 158.477 155.797 158.094 155.562 c 157.715 155.328 157.32 155.211
 156.914 155.211 c 156.602 155.211 156.328 155.277 156.09 155.406 c 155.848
 155.539 155.648 155.703 155.492 155.898 c 155.492 153.273 l h
155.414 157.992 m 155.414 157.305 155.555 156.797 155.828 156.461 c 156.105
 156.129 156.445 155.961 156.852 155.961 c 157.258 155.961 157.605 156.133
 157.891 156.477 c 158.18 156.82 158.32 157.352 158.32 158.07 c 158.32 158.758
 158.18 159.273 157.898 159.609 c 157.617 159.949 157.281 160.117 156.883
 160.117 c 156.5 160.117 156.156 159.938 155.859 159.578 c 155.562 159.219
 155.414 158.691 155.414 157.992 c f*
162.414 155.992 m 162.082 155.711 161.758 155.512 161.445 155.391 c 161.133
 155.273 160.801 155.211 160.445 155.211 c 159.852 155.211 159.398 155.359
 159.078 155.648 c 158.762 155.941 158.602 156.312 158.602 156.758 c 158.602
 157.02 158.664 157.258 158.781 157.477 c 158.902 157.695 159.059 157.871
 159.25 158 c 159.445 158.133 159.664 158.234 159.914 158.305 c 160.094 
158.348 160.363 158.391 160.727 158.43 c 161.457 158.523 162 158.633 162.352
 158.758 c 162.352 158.992 l 162.352 159.359 162.266 159.617 162.086 159.773
 c 161.859 159.984 161.516 160.086 161.055 160.086 c 160.629 160.086 160.312
 160.012 160.109 159.859 c 159.906 159.711 159.754 159.441 159.648 159.055
 c 158.758 159.18 l 158.844 159.566 158.977 159.875 159.156 160.109 c 159.34
 160.344 159.609 160.523 159.961 160.648 c 160.316 160.773 160.723 160.836
 161.18 160.836 c 161.641 160.836 162.016 160.781 162.305 160.672 c 162.598
 160.562 162.809 160.43 162.938 160.266 c 163.07 160.105 163.164 159.898
 163.227 159.648 c 163.258 159.492 163.273 159.211 163.273 158.805 c 163.273
 157.586 l 163.273 156.742 163.293 156.211 163.328 155.984 c 163.367 155.762
 163.441 155.547 163.555 155.336 c 162.602 155.336 l 162.508 155.523 162.445
 155.742 162.414 155.992 c h
162.352 158.039 m 162.02 157.906 161.52 157.789 160.852 157.695 c 160.477
 157.645 160.211 157.586 160.055 157.516 c 159.898 157.449 159.781 157.352
 159.695 157.219 c 159.613 157.09 159.57 156.941 159.57 156.773 c 159.57
 156.535 159.664 156.336 159.852 156.172 c 160.039 156.012 160.312 155.93
 160.664 155.93 c 161.008 155.93 161.32 156.008 161.594 156.156 c 161.871
 156.309 162.07 156.52 162.195 156.789 c 162.301 156.996 162.352 157.301
 162.352 157.695 c 162.352 158.039 l f*
163.227 155.336 m 163.227 160.711 l 164.055 160.711 l 164.055 159.898 l
 164.266 160.285 164.457 160.539 164.633 160.656 c 164.812 160.777 165.004
 160.836 165.211 160.836 c 165.523 160.836 165.836 160.738 166.148 160.539
 c 165.836 159.695 l 165.617 159.832 165.395 159.898 165.164 159.898 c 164.969
 159.898 164.789 159.84 164.633 159.719 c 164.477 159.602 164.363 159.43
 164.289 159.211 c 164.188 158.891 164.133 158.535 164.133 158.148 c 164.133
 155.336 l 163.227 155.336 l f*
167.82 156.148 m 167.961 155.352 l 167.703 155.289 167.473 155.258 167.273
 155.258 c 166.941 155.258 166.684 155.312 166.504 155.422 c 166.32 155.531
 166.188 155.672 166.109 155.836 c 166.031 156.004 165.992 156.363 165.992
 156.914 c 165.992 160.008 l 165.34 160.008 l 165.34 160.711 l 165.992 160.711
 l 165.992 162.055 l 166.914 162.602 l 166.914 160.711 l 167.82 160.711 
l 167.82 160.008 l 166.914 160.008 l 166.914 156.867 l 166.914 156.609 166.93
 156.438 166.961 156.359 c 166.992 156.281 167.047 156.223 167.117 156.18
 c 167.191 156.141 167.297 156.117 167.43 156.117 c 167.523 156.117 167.656
 156.129 167.82 156.148 c f*
167.992 161.711 m 167.992 162.758 l 168.898 162.758 l 168.898 161.711 l
 h
167.992 155.336 m 167.992 160.711 l 168.898 160.711 l 168.898 155.336 l
 167.992 155.336 l f*
173.227 157.305 m 174.133 157.195 l 174.031 156.57 173.777 156.086 173.375
 155.734 c 172.977 155.387 172.484 155.211 171.898 155.211 c 171.16 155.211
 170.566 155.453 170.117 155.938 c 169.672 156.422 169.445 157.113 169.445
 158.008 c 169.445 158.594 169.543 159.102 169.734 159.531 c 169.93 159.965
 170.219 160.289 170.609 160.508 c 171 160.727 171.43 160.836 171.898 160.836
 c 172.484 160.836 172.961 160.688 173.328 160.391 c 173.699 160.094 173.938
 159.676 174.039 159.133 c 173.164 158.992 l 173.07 159.359 172.918 159.633
 172.703 159.812 c 172.492 159.996 172.234 160.086 171.93 160.086 c 171.473
 160.086 171.102 159.922 170.812 159.594 c 170.527 159.266 170.383 158.742
 170.383 158.023 c 170.383 157.305 170.523 156.781 170.797 156.453 c 171.074
 156.125 171.438 155.961 171.883 155.961 c 172.238 155.961 172.535 156.07
 172.773 156.289 c 173.016 156.508 173.164 156.848 173.227 157.305 c f*
173.586 162.758 0.922 -7.422 re f*
179.023 157.07 m 179.977 156.945 l 179.832 156.406 179.555 155.98 179.148
 155.672 c 178.742 155.367 178.227 155.211 177.602 155.211 c 176.82 155.211
 176.199 155.453 175.734 155.938 c 175.273 156.422 175.039 157.102 175.039
 157.977 c 175.039 158.883 175.273 159.586 175.742 160.086 c 176.211 160.586
 176.816 160.836 177.555 160.836 c 178.273 160.836 178.863 160.594 179.32
 160.102 c 179.781 159.613 180.008 158.926 180.008 158.039 c 180.008 157.988
 180.004 157.906 179.992 157.789 c 175.992 157.789 l 176.023 157.207 176.191
 156.758 176.492 156.438 c 176.797 156.121 177.172 155.961 177.617 155.961
 c 177.949 155.961 178.234 156.051 178.469 156.227 c 178.703 156.406 178.891
 156.688 179.023 157.07 c h
176.039 158.539 m 179.039 158.539 l 178.996 158.996 178.883 159.336 178.695
 159.555 c 178.406 159.91 178.031 160.086 177.57 160.086 c 177.156 160.086
 176.805 159.945 176.516 159.664 c 176.23 159.383 176.07 159.008 176.039
 158.539 c f*
179.305 156.945 m 180.211 157.086 l 180.266 156.723 180.402 156.445 180.633
 156.25 c 180.863 156.059 181.188 155.961 181.602 155.961 c 182.027 155.961
 182.344 156.047 182.539 156.219 c 182.738 156.391 182.836 156.594 182.836
 156.82 c 182.836 157.031 182.746 157.191 182.57 157.305 c 182.445 157.391
 182.141 157.492 181.648 157.617 c 180.973 157.785 180.508 157.93 180.25
 158.055 c 179.996 158.18 179.801 158.352 179.664 158.57 c 179.527 158.789
 179.461 159.031 179.461 159.289 c 179.461 159.531 179.516 159.75 179.625
 159.953 c 179.734 160.156 179.883 160.328 180.07 160.461 c 180.219 160.566
 180.41 160.656 180.656 160.727 c 180.902 160.801 181.164 160.836 181.445
 160.836 c 181.863 160.836 182.234 160.777 182.555 160.656 c 182.879 160.539
 183.113 160.371 183.266 160.164 c 183.418 159.957 183.52 159.676 183.57
 159.32 c 182.68 159.211 l 182.641 159.484 182.523 159.695 182.328 159.852
 c 182.137 160.008 181.863 160.086 181.508 160.086 c 181.094 160.086 180.797
 160.02 180.617 159.883 c 180.441 159.746 180.352 159.586 180.352 159.398
 c 180.352 159.273 180.391 159.164 180.461 159.07 c 180.535 158.977 180.648
 158.898 180.805 158.836 c 180.898 158.797 181.172 158.719 181.617 158.602
 c 182.266 158.426 182.715 158.281 182.969 158.172 c 183.227 158.062 183.422
 157.906 183.562 157.695 c 183.703 157.488 183.773 157.227 183.773 156.914
 c 183.773 156.613 183.688 156.328 183.508 156.055 c 183.332 155.785 183.074
 155.578 182.742 155.43 c 182.41 155.285 182.035 155.211 181.617 155.211
 c 180.922 155.211 180.387 155.359 180.016 155.648 c 179.648 155.941 179.41
 156.371 179.305 156.945 c f*
  Q
Q
Q Q
showpage
%%Trailer
end restore
%%EOF
