%!PS-Adobe-3.0 EPSF-3.0
%%Creator: cairo 1.14.2 (http://cairographics.org)
%%CreationDate: Thu May 21 12:52:51 2015
%%Pages: 1
%%DocumentData: Clean7Bit
%%LanguageLevel: 2
%%BoundingBox: 0 0 248 141
%%EndComments
%%BeginProlog
save
50 dict begin
/q { gsave } bind def
/Q { grestore } bind def
/cm { 6 array astore concat } bind def
/w { setlinewidth } bind def
/J { setlinecap } bind def
/j { setlinejoin } bind def
/M { setmiterlimit } bind def
/d { setdash } bind def
/m { moveto } bind def
/l { lineto } bind def
/c { curveto } bind def
/h { closepath } bind def
/re { exch dup neg 3 1 roll 5 3 roll moveto 0 rlineto
      0 exch rlineto 0 rlineto closepath } bind def
/S { stroke } bind def
/f { fill } bind def
/f* { eofill } bind def
/n { newpath } bind def
/W { clip } bind def
/W* { eoclip } bind def
/BT { } bind def
/ET { } bind def
/pdfmark where { pop globaldict /?pdfmark /exec load put }
    { globaldict begin /?pdfmark /pop load def /pdfmark
    /cleartomark load def end } ifelse
/BDC { mark 3 1 roll /BDC pdfmark } bind def
/EMC { mark /EMC pdfmark } bind def
/cairo_store_point { /cairo_point_y exch def /cairo_point_x exch def } def
/Tj { show currentpoint cairo_store_point } bind def
/TJ {
  {
    dup
    type /stringtype eq
    { show } { -0.001 mul 0 cairo_font_matrix dtransform rmoveto } ifelse
  } forall
  currentpoint cairo_store_point
} bind def
/cairo_selectfont { cairo_font_matrix aload pop pop pop 0 0 6 array astore
    cairo_font exch selectfont cairo_point_x cairo_point_y moveto } bind def
/Tf { pop /cairo_font exch def /cairo_font_matrix where
      { pop cairo_selectfont } if } bind def
/Td { matrix translate cairo_font_matrix matrix concatmatrix dup
      /cairo_font_matrix exch def dup 4 get exch 5 get cairo_store_point
      /cairo_font where { pop cairo_selectfont } if } bind def
/Tm { 2 copy 8 2 roll 6 array astore /cairo_font_matrix exch def
      cairo_store_point /cairo_font where { pop cairo_selectfont } if } bind def
/g { setgray } bind def
/rg { setrgbcolor } bind def
/d1 { setcachedevice } bind def
%%EndProlog
%%BeginSetup
%%EndSetup
%%Page: 1 1
%%BeginPageSetup
%%PageBoundingBox: 0 0 248 141
%%EndPageSetup
q 0 0 248 141 rectclip q
Q q
5.719 120.809 224 -113 re W n
q
5 121 225 -114 re W n
  q
0.368627 0.505882 0.709804 rg
1.152 w
2 J
0 j
[] 0.0 d
3.25 M q 1 0 0 1 0 141 cm
28.922 -132.09 m 35.004 -132.09 l 35.238 -132.086 l 37.504 -132.086 l 37.559
 -132.082 l 38.605 -132.082 l 38.828 -132.078 l 39.047 -132.078 l 39.27 
-132.074 l 39.488 -132.074 l 39.711 -132.07 l 39.926 -132.07 l 40.141 -132.066
 l 40.355 -132.066 l 40.574 -132.062 l 40.68 -132.062 l 40.789 -132.059 
l 41.004 -132.059 l 41.059 -132.055 l 41.223 -132.055 l 41.438 -132.051 
l 41.492 -132.047 l 41.543 -132.047 l 41.652 -132.043 l 41.871 -132.039 
l 41.977 -132.039 l 42.086 -132.035 l 42.301 -132.027 l 42.41 -132.027 l
 42.52 -132.023 l 43.164 -132 l 43.227 -132 l 43.281 -131.996 l 43.398 -131.992
 l 43.637 -131.98 l 43.691 -131.98 l 43.754 -131.977 l 43.867 -131.973 l
 44.102 -131.957 l 44.16 -131.957 l 44.223 -131.953 l 44.34 -131.945 l 44.57
 -131.934 l 45.039 -131.902 l 45.102 -131.898 l 45.156 -131.891 l 45.273
 -131.883 l 45.512 -131.863 l 45.566 -131.859 l 45.629 -131.855 l 45.742
 -131.844 l 45.977 -131.82 l 46.035 -131.816 l 46.098 -131.809 l 46.215 
-131.801 l 46.445 -131.773 l 46.914 -131.719 l 46.973 -131.711 l 47.023 
-131.703 l 47.137 -131.688 l 47.352 -131.66 l 47.789 -131.594 l 47.848 -131.582
 l 47.898 -131.574 l 48.012 -131.555 l 48.227 -131.52 l 48.664 -131.434 
l 48.723 -131.422 l 48.773 -131.414 l 48.887 -131.391 l 49.102 -131.344 
l 49.539 -131.238 l 49.598 -131.227 l 49.648 -131.211 l 49.762 -131.184 
l 49.977 -131.125 l 50.414 -131.004 l 50.477 -130.984 l 50.535 -130.969 
l 50.652 -130.93 l 50.891 -130.855 l 51.363 -130.691 l 51.422 -130.672 l
 51.484 -130.648 l 51.602 -130.605 l 51.84 -130.516 l 52.312 -130.32 l 52.371
 -130.297 l 52.43 -130.27 l 52.547 -130.219 l 52.785 -130.109 l 53.262 -129.887
 l 54.211 -129.379 l 54.266 -129.348 l 54.324 -129.312 l 54.441 -129.246
 l 54.672 -129.105 l 55.141 -128.816 l 56.07 -128.184 l 56.129 -128.145 
l 56.305 -128.016 l 56.535 -127.844 l 57 -127.488 l 57.934 -126.734 l 57.988
 -126.691 l 58.039 -126.645 l 58.367 -126.363 l 58.801 -125.984 l 59.668
 -125.195 l 61.406 -123.547 l 61.523 -123.438 l 61.641 -123.32 l 61.879 
-123.094 l 62.348 -122.641 l 63.289 -121.742 l 63.348 -121.684 l 63.523 
-121.52 l 63.762 -121.301 l 64.23 -120.867 l 65.172 -120.035 l 65.391 -119.848
 l 65.613 -119.664 l 66.051 -119.305 l 66.93 -118.637 l 66.984 -118.594 
l 67.148 -118.477 l 67.371 -118.324 l 67.809 -118.031 l 68.688 -117.5 l 
68.797 -117.438 l 68.902 -117.379 l 69.117 -117.266 l 69.551 -117.051 l 
69.605 -117.027 l 69.656 -117 l 69.766 -116.953 l 69.98 -116.855 l 70.41
 -116.68 l 70.465 -116.656 l 70.629 -116.598 l 70.844 -116.52 l 70.898 -116.5
 l 70.949 -116.48 l 71.059 -116.445 l 71.273 -116.379 l 71.328 -116.359 
l 71.383 -116.344 l 71.488 -116.312 l 71.703 -116.254 l 72.137 -116.145 
l 72.254 -116.121 l 72.367 -116.094 l 72.66 -116.035 l 72.719 -116.027 l
 73.07 -115.969 l 73.129 -115.961 l 73.188 -115.949 l 73.539 -115.902 l 
73.598 -115.898 l 73.656 -115.891 l 73.773 -115.879 l 74.004 -115.855 l 
74.062 -115.852 l 74.121 -115.844 l 74.648 -115.809 l 74.707 -115.809 l 
74.824 -115.801 l 74.941 -115.797 l 75 -115.793 l 75.059 -115.793 l 75.117
 -115.789 l 75.172 -115.789 l 75.23 -115.785 l 75.406 -115.785 l 75.465 
-115.781 l 76.422 -115.781 l 76.477 -115.785 l 76.641 -115.785 l 76.746 
-115.789 l 76.855 -115.789 l 76.965 -115.793 l 77.184 -115.797 l 77.621 
-115.809 l 77.676 -115.809 l 77.73 -115.812 l 77.895 -115.812 l 77.945 -115.816
 l 78.055 -115.816 l 78.109 -115.82 l 78.273 -115.82 l 78.328 -115.824 l
 78.492 -115.824 l 78.547 -115.828 l 79.422 -115.828 l 79.484 -115.824 l
 79.543 -115.824 l 79.602 -115.82 l 79.719 -115.82 l 79.777 -115.816 l 79.84
 -115.816 l 79.898 -115.812 l 79.957 -115.812 l 80.074 -115.805 l 80.133
 -115.805 l 80.191 -115.801 l 80.312 -115.793 l 80.664 -115.77 l 80.785 
-115.758 l 80.844 -115.754 l 80.902 -115.746 l 81.02 -115.734 l 81.258 -115.707
 l 81.316 -115.703 l 81.375 -115.691 l 81.609 -115.66 l 81.73 -115.641 l
 81.789 -115.629 l 81.848 -115.621 l 81.965 -115.598 l 82.203 -115.551 l
 82.32 -115.527 l 82.438 -115.5 l 82.676 -115.441 l 82.734 -115.43 l 82.793
 -115.41 l 82.91 -115.379 l 83.148 -115.309 l 83.207 -115.293 l 83.266 -115.273
 l 83.379 -115.234 l 83.613 -115.156 l 83.668 -115.133 l 83.727 -115.113
 l 84.078 -114.973 l 84.133 -114.949 l 84.191 -114.922 l 84.309 -114.871
 l 84.539 -114.766 l 85.004 -114.527 l 85.062 -114.492 l 85.121 -114.461
 l 85.238 -114.395 l 85.469 -114.258 l 85.934 -113.957 l 85.992 -113.918
 l 86.047 -113.879 l 86.164 -113.797 l 86.398 -113.629 l 86.859 -113.266
 l 86.914 -113.219 l 86.969 -113.176 l 87.078 -113.086 l 87.293 -112.898
 l 87.727 -112.504 l 88.594 -111.633 l 88.703 -111.516 l 88.809 -111.398
 l 89.027 -111.16 l 89.461 -110.664 l 90.324 -109.609 l 90.559 -109.312 
l 90.793 -109.012 l 91.266 -108.395 l 92.203 -107.133 l 92.32 -106.977 l
 92.438 -106.816 l 93.141 -105.867 l 94.082 -104.637 l 94.191 -104.496 l
 94.52 -104.086 l 94.957 -103.559 l 95.012 -103.492 l 95.395 -103.055 l 
95.836 -102.586 l 95.891 -102.527 l 95.945 -102.473 l 96.055 -102.359 l 
96.273 -102.145 l 96.711 -101.746 l 96.93 -101.559 l 97.148 -101.383 l 97.586
 -101.066 l 97.645 -101.023 l 97.707 -100.984 l 97.824 -100.91 l 98.062 
-100.77 l 98.121 -100.734 l 98.297 -100.641 l 98.535 -100.527 l 98.598 -100.5
 l 98.656 -100.473 l 98.773 -100.426 l 98.836 -100.402 l 98.895 -100.379
 l 99.012 -100.34 l 99.07 -100.316 l 99.129 -100.297 l 99.25 -100.266 l 
99.309 -100.246 l 99.367 -100.23 l 99.488 -100.203 l 99.723 -100.156 l 99.781
 -100.148 l 99.844 -100.137 l 99.961 -100.121 l 100.02 -100.117 l 100.078
 -100.109 l 100.141 -100.105 l 100.258 -100.098 l 100.316 -100.098 l 100.379
 -100.094 l 100.555 -100.094 l 100.613 -100.098 l 100.676 -100.098 l 100.91
 -100.113 l 100.973 -100.121 l 101.031 -100.129 l 101.09 -100.133 l 101.148
 -100.141 l 101.207 -100.152 l 101.266 -100.16 l 101.387 -100.184 l 101.445
 -100.191 l 101.504 -100.207 l 101.617 -100.23 l 101.734 -100.262 l 101.852
 -100.289 l 101.91 -100.309 l 101.969 -100.324 l 102.086 -100.359 l 102.32
 -100.438 l 102.379 -100.461 l 102.434 -100.48 l 102.785 -100.621 l 103.25
 -100.836 l 103.309 -100.867 l 103.367 -100.895 l 103.484 -100.957 l 103.719
 -101.078 l 104.184 -101.344 l 105.117 -101.934 l 105.172 -101.973 l 105.227
 -102.008 l 105.332 -102.082 l 105.551 -102.23 l 105.984 -102.535 l 106.855
 -103.16 l 108.598 -104.441 l 112.367 -107.148 l 115.891 -109.527 l 116 
-109.598 l 116.105 -109.668 l 116.32 -109.809 l 116.754 -110.082 l 117.617
 -110.609 l 117.727 -110.672 l 117.832 -110.738 l 118.051 -110.863 l 118.48
 -111.105 l 119.344 -111.559 l 119.402 -111.586 l 119.461 -111.617 l 119.93
 -111.836 l 120.047 -111.887 l 120.281 -111.984 l 120.516 -112.078 l 120.75
 -112.168 l 120.809 -112.188 l 120.867 -112.211 l 121.219 -112.328 l 121.277
 -112.344 l 121.336 -112.363 l 121.449 -112.395 l 121.512 -112.41 l 121.566
 -112.43 l 121.684 -112.461 l 121.742 -112.473 l 121.801 -112.488 l 121.918
 -112.516 l 122.27 -112.586 l 122.387 -112.605 l 122.738 -112.652 l 122.855
 -112.66 l 122.914 -112.668 l 123.09 -112.68 l 123.145 -112.68 l 123.199
 -112.684 l 123.309 -112.684 l 123.363 -112.688 l 123.418 -112.688 l 123.473
 -112.684 l 123.582 -112.684 l 123.637 -112.68 l 123.691 -112.68 l 123.91
 -112.664 l 123.965 -112.656 l 124.02 -112.652 l 124.074 -112.645 l 124.129
 -112.641 l 124.293 -112.617 l 124.402 -112.598 l 124.457 -112.586 l 124.512
 -112.578 l 124.621 -112.555 l 124.676 -112.539 l 124.73 -112.527 l 124.84
 -112.5 l 124.895 -112.484 l 124.945 -112.473 l 125.059 -112.438 l 125.109
 -112.422 l 125.164 -112.402 l 125.273 -112.367 l 125.383 -112.328 l 125.492
 -112.285 l 125.711 -112.195 l 125.766 -112.168 l 125.82 -112.145 l 125.93
 -112.094 l 126.148 -111.98 l 126.203 -111.953 l 126.367 -111.859 l 126.586
 -111.727 l 126.645 -111.691 l 126.703 -111.652 l 126.824 -111.574 l 127.059
 -111.406 l 127.117 -111.363 l 127.18 -111.316 l 127.297 -111.227 l 127.531
 -111.035 l 127.594 -110.984 l 127.652 -110.934 l 127.77 -110.828 l 128.008
 -110.609 l 128.48 -110.137 l 128.598 -110.012 l 128.719 -109.883 l 128.953
 -109.613 l 129.43 -109.035 l 130.375 -107.73 l 130.434 -107.645 l 130.492
 -107.555 l 130.609 -107.379 l 130.84 -107.016 l 131.305 -106.258 l 132.234
 -104.605 l 132.352 -104.387 l 132.469 -104.164 l 132.699 -103.715 l 133.164
 -102.789 l 134.094 -100.82 l 134.203 -100.586 l 134.312 -100.344 l 134.527
 -99.859 l 134.961 -98.875 l 135.828 -96.836 l 137.562 -92.57 l 137.621 
-92.426 l 137.684 -92.277 l 137.801 -91.984 l 138.035 -91.395 l 138.504 
-90.211 l 139.445 -87.859 l 141.328 -83.305 l 141.438 -83.047 l 141.547 
-82.797 l 141.766 -82.293 l 142.203 -81.309 l 143.082 -79.426 l 143.137 
-79.312 l 143.305 -78.977 l 143.523 -78.535 l 143.961 -77.684 l 144.84 -76.105
 l 144.895 -76.012 l 144.945 -75.922 l 145.055 -75.742 l 145.27 -75.395 
l 145.699 -74.73 l 145.754 -74.648 l 145.809 -74.57 l 145.914 -74.414 l 
146.129 -74.109 l 146.562 -73.539 l 146.613 -73.473 l 146.777 -73.273 l 
146.992 -73.02 l 147.047 -72.961 l 147.098 -72.898 l 147.207 -72.781 l 147.422
 -72.551 l 147.477 -72.496 l 147.527 -72.441 l 147.637 -72.34 l 147.852 
-72.137 l 148.281 -71.773 l 148.34 -71.727 l 148.516 -71.598 l 148.75 -71.438
 l 148.809 -71.398 l 148.984 -71.293 l 149.215 -71.168 l 149.273 -71.137
 l 149.449 -71.055 l 149.742 -70.938 l 149.801 -70.918 l 149.918 -70.883
 l 149.977 -70.863 l 150.035 -70.848 l 150.148 -70.816 l 150.211 -70.805
 l 150.266 -70.793 l 150.383 -70.77 l 150.617 -70.738 l 150.852 -70.723 
l 151.086 -70.723 l 151.145 -70.727 l 151.199 -70.73 l 151.262 -70.734 l
 151.316 -70.738 l 151.492 -70.762 l 151.551 -70.773 l 151.609 -70.781 l
 151.727 -70.805 l 151.785 -70.82 l 151.844 -70.832 l 151.902 -70.848 l 
152.02 -70.883 l 152.129 -70.914 l 152.234 -70.953 l 152.344 -70.992 l 152.562
 -71.086 l 152.672 -71.137 l 152.891 -71.246 l 153.109 -71.371 l 153.324
 -71.508 l 153.762 -71.816 l 153.816 -71.855 l 153.871 -71.898 l 153.98 
-71.988 l 154.195 -72.172 l 154.688 -72.629 l 154.852 -72.793 l 155.07 -73.023
 l 155.504 -73.516 l 155.621 -73.656 l 155.742 -73.801 l 155.977 -74.098
 l 156.449 -74.723 l 157.395 -76.105 l 157.453 -76.199 l 157.512 -76.289
 l 157.629 -76.477 l 157.867 -76.859 l 158.34 -77.645 l 159.281 -79.32 l
 159.34 -79.422 l 159.395 -79.523 l 159.723 -80.145 l 160.164 -80.988 l 
161.047 -82.742 l 162.812 -86.434 l 166.27 -93.98 l 170.023 -101.898 l 170.461
 -102.773 l 170.898 -103.633 l 171.773 -105.309 l 173.527 -108.48 l 173.586
 -108.582 l 173.645 -108.688 l 173.762 -108.891 l 174 -109.293 l 174.477
 -110.09 l 175.426 -111.621 l 175.484 -111.715 l 175.543 -111.805 l 175.66
 -111.992 l 175.898 -112.355 l 176.371 -113.07 l 177.32 -114.441 l 177.438
 -114.605 l 177.555 -114.766 l 177.785 -115.086 l 178.254 -115.711 l 179.184
 -116.906 l 179.242 -116.977 l 179.301 -117.051 l 179.418 -117.191 l 179.648
 -117.477 l 180.117 -118.027 l 181.047 -119.078 l 181.266 -119.312 l 181.48
 -119.543 l 181.914 -119.996 l 182.785 -120.859 l 182.84 -120.91 l 182.895
 -120.965 l 183.004 -121.066 l 183.219 -121.27 l 183.652 -121.664 l 184.523
 -122.422 l 184.582 -122.469 l 184.641 -122.52 l 184.758 -122.617 l 184.992
 -122.809 l 185.465 -123.184 l 186.406 -123.891 l 186.523 -123.977 l 186.645
 -124.059 l 186.879 -124.227 l 187.352 -124.547 l 188.293 -125.152 l 188.402
 -125.223 l 188.73 -125.422 l 189.172 -125.68 l 190.051 -126.168 l 190.105
 -126.195 l 190.16 -126.227 l 190.27 -126.285 l 190.492 -126.398 l 190.93
 -126.621 l 191.809 -127.039 l 191.863 -127.062 l 191.918 -127.09 l 192.027
 -127.137 l 192.242 -127.234 l 192.672 -127.422 l 193.535 -127.773 l 193.59
 -127.797 l 193.645 -127.816 l 193.75 -127.859 l 193.965 -127.941 l 194.398
 -128.102 l 195.262 -128.406 l 195.316 -128.426 l 195.379 -128.445 l 195.492
 -128.484 l 195.727 -128.562 l 196.195 -128.711 l 197.133 -128.992 l 197.188
 -129.008 l 197.246 -129.027 l 197.363 -129.059 l 197.598 -129.125 l 198.066
 -129.25 l 199.004 -129.484 l 199.059 -129.5 l 199.109 -129.512 l 199.219
 -129.539 l 199.875 -129.691 l 200.746 -129.879 l 200.805 -129.891 l 200.855
 -129.898 l 200.965 -129.922 l 201.621 -130.051 l 202.492 -130.211 l 202.617
 -130.234 l 202.98 -130.293 l 203.469 -130.375 l 204.441 -130.523 l 204.504
 -130.535 l 204.566 -130.543 l 204.688 -130.562 l 204.93 -130.598 l 205.418
 -130.664 l 205.48 -130.672 l 205.539 -130.68 l 205.66 -130.695 l 205.906
 -130.727 l 205.965 -130.734 l 206.027 -130.742 l 206.148 -130.758 l 206.211
 -130.766 l 206.27 -130.773 l 206.395 -130.789 l S Q
0.882353 0.611765 0.141176 rg
[ 3.456 3.456] 0 d
q 1 0 0 1 0 141 cm
28.922 -132.09 m 37.613 -132.09 l 37.727 -132.086 l 40.355 -132.086 l 40.574
 -132.082 l 41.652 -132.082 l 41.871 -132.078 l 42.355 -132.078 l 42.41 
-132.074 l 42.734 -132.074 l 43.164 -132.07 l 43.398 -132.07 l 43.637 -132.066
 l 43.867 -132.066 l 44.102 -132.062 l 44.223 -132.062 l 44.34 -132.059 
l 44.57 -132.059 l 45.039 -132.051 l 45.102 -132.051 l 45.156 -132.047 l
 45.273 -132.047 l 45.512 -132.043 l 45.566 -132.043 l 45.629 -132.039 l
 45.742 -132.039 l 45.977 -132.035 l 46.035 -132.031 l 46.098 -132.031 l
 46.215 -132.027 l 46.445 -132.023 l 46.914 -132.012 l 46.973 -132.012 l
 47.023 -132.008 l 47.137 -132.008 l 47.352 -132 l 47.789 -131.984 l 47.848
 -131.984 l 47.898 -131.98 l 48.012 -131.977 l 48.227 -131.969 l 48.664 
-131.953 l 48.723 -131.949 l 48.773 -131.949 l 48.887 -131.941 l 49.102 
-131.934 l 49.539 -131.914 l 49.598 -131.91 l 49.648 -131.906 l 49.762 -131.898
 l 49.977 -131.887 l 50.414 -131.863 l 50.477 -131.859 l 50.652 -131.848
 l 50.891 -131.832 l 51.363 -131.797 l 51.422 -131.793 l 51.484 -131.789
 l 51.602 -131.777 l 51.84 -131.758 l 52.312 -131.719 l 52.371 -131.711 
l 52.43 -131.707 l 52.547 -131.695 l 52.785 -131.676 l 53.262 -131.625 l
 54.211 -131.52 l 54.266 -131.512 l 54.441 -131.488 l 54.672 -131.457 l 
55.141 -131.395 l 56.07 -131.258 l 56.188 -131.242 l 56.305 -131.223 l 56.535
 -131.184 l 57 -131.105 l 57.934 -130.938 l 57.988 -130.926 l 58.039 -130.918
 l 58.148 -130.895 l 58.367 -130.852 l 58.801 -130.766 l 59.668 -130.582
 l 61.406 -130.184 l 61.523 -130.152 l 61.641 -130.125 l 61.879 -130.066
 l 62.348 -129.949 l 63.289 -129.707 l 65.172 -129.199 l 68.688 -128.223
 l 72.137 -127.297 l 75.875 -126.395 l 76.094 -126.348 l 76.312 -126.297
 l 76.746 -126.203 l 77.621 -126.02 l 79.363 -125.676 l 79.422 -125.664 
l 79.484 -125.652 l 79.602 -125.629 l 79.84 -125.586 l 80.312 -125.5 l 81.258
 -125.336 l 83.148 -125.027 l 83.207 -125.02 l 83.266 -125.008 l 83.379 
-124.992 l 83.613 -124.957 l 84.078 -124.887 l 85.004 -124.754 l 86.859 
-124.508 l 86.969 -124.492 l 87.078 -124.48 l 87.293 -124.453 l 87.727 -124.402
 l 88.594 -124.297 l 90.324 -124.105 l 94.082 -123.727 l 97.586 -123.406
 l 101.387 -123.074 l 105.117 -122.734 l 108.598 -122.387 l 108.656 -122.383
 l 108.715 -122.375 l 108.832 -122.363 l 109.066 -122.336 l 109.539 -122.285
 l 110.48 -122.18 l 112.367 -121.953 l 112.477 -121.938 l 112.59 -121.922
 l 112.809 -121.895 l 113.25 -121.84 l 114.129 -121.719 l 115.891 -121.465
 l 116 -121.449 l 116.105 -121.434 l 116.32 -121.398 l 116.754 -121.332 
l 117.617 -121.188 l 117.727 -121.172 l 117.832 -121.152 l 118.051 -121.117
 l 118.48 -121.039 l 119.344 -120.883 l 119.461 -120.859 l 119.578 -120.84
 l 119.812 -120.793 l 120.281 -120.703 l 121.219 -120.512 l 121.277 -120.496
 l 121.336 -120.484 l 121.449 -120.461 l 121.684 -120.41 l 122.152 -120.305
 l 123.09 -120.086 l 123.199 -120.062 l 123.965 -119.871 l 124.84 -119.641
 l 124.895 -119.625 l 124.945 -119.609 l 125.059 -119.582 l 125.273 -119.52
 l 125.711 -119.395 l 126.586 -119.133 l 126.645 -119.113 l 126.703 -119.098
 l 126.824 -119.059 l 127.059 -118.984 l 127.531 -118.832 l 128.48 -118.504
 l 128.539 -118.484 l 128.598 -118.461 l 128.719 -118.418 l 128.953 -118.332
 l 129.43 -118.152 l 130.375 -117.777 l 130.434 -117.754 l 130.492 -117.727
 l 130.609 -117.68 l 130.84 -117.582 l 131.305 -117.379 l 132.234 -116.945
 l 132.469 -116.836 l 132.699 -116.719 l 133.164 -116.48 l 134.094 -115.98
 l 134.312 -115.855 l 134.527 -115.73 l 134.961 -115.473 l 135.828 -114.93
 l 135.883 -114.895 l 135.938 -114.855 l 136.047 -114.785 l 136.262 -114.641
 l 136.695 -114.34 l 137.562 -113.707 l 137.621 -113.66 l 137.684 -113.617
 l 137.801 -113.527 l 138.035 -113.344 l 138.504 -112.961 l 139.445 -112.152
 l 139.504 -112.098 l 139.562 -112.047 l 139.68 -111.938 l 139.914 -111.723
 l 140.387 -111.27 l 141.328 -110.312 l 141.547 -110.078 l 141.766 -109.84
 l 142.203 -109.344 l 143.082 -108.297 l 143.137 -108.227 l 143.191 -108.16
 l 143.305 -108.02 l 143.523 -107.742 l 143.961 -107.164 l 144.84 -105.945
 l 144.895 -105.867 l 144.945 -105.789 l 145.055 -105.633 l 145.27 -105.316
 l 145.699 -104.66 l 146.562 -103.285 l 148.281 -100.254 l 148.516 -99.816
 l 148.75 -99.371 l 149.215 -98.461 l 150.148 -96.57 l 152.02 -92.559 l 
152.074 -92.441 l 152.129 -92.32 l 152.234 -92.078 l 152.453 -91.598 l 152.891
 -90.629 l 153.762 -88.699 l 153.816 -88.578 l 153.871 -88.461 l 153.98 
-88.219 l 154.195 -87.742 l 154.633 -86.805 l 155.504 -84.984 l 155.621 
-84.742 l 155.742 -84.508 l 155.977 -84.043 l 156.449 -83.148 l 156.566 
-82.93 l 156.684 -82.719 l 156.922 -82.301 l 157.395 -81.516 l 157.512 -81.328
 l 157.629 -81.145 l 157.867 -80.793 l 157.926 -80.711 l 157.984 -80.625
 l 158.102 -80.461 l 158.34 -80.145 l 158.457 -79.996 l 158.574 -79.852 
l 158.812 -79.578 l 159.047 -79.328 l 159.281 -79.098 l 159.34 -79.047 l
 159.559 -78.859 l 159.613 -78.816 l 159.723 -78.734 l 159.781 -78.695 l
 159.836 -78.656 l 159.945 -78.582 l 160 -78.547 l 160.164 -78.453 l 160.223
 -78.422 l 160.277 -78.398 l 160.332 -78.371 l 160.387 -78.348 l 160.441
 -78.32 l 160.66 -78.242 l 160.719 -78.227 l 160.773 -78.211 l 160.992 -78.164
 l 161.047 -78.156 l 161.156 -78.148 l 161.215 -78.145 l 161.27 -78.141 
l 161.379 -78.141 l 161.543 -78.152 l 161.652 -78.168 l 161.711 -78.18 l
 161.766 -78.188 l 161.82 -78.203 l 161.875 -78.215 l 161.984 -78.246 l 
162.094 -78.285 l 162.203 -78.332 l 162.262 -78.355 l 162.371 -78.406 l 
162.426 -78.434 l 162.59 -78.527 l 162.812 -78.676 l 162.922 -78.754 l 163.027
 -78.84 l 163.242 -79.023 l 163.352 -79.125 l 163.461 -79.23 l 163.676 -79.461
 l 163.73 -79.52 l 163.895 -79.707 l 164.109 -79.977 l 164.543 -80.57 l 
164.598 -80.648 l 164.648 -80.73 l 164.758 -80.895 l 164.973 -81.234 l 165.406
 -81.973 l 166.27 -83.625 l 166.328 -83.746 l 166.391 -83.867 l 166.508 
-84.113 l 166.738 -84.613 l 167.211 -85.656 l 168.148 -87.871 l 170.023 
-92.633 l 173.527 -101.574 l 173.645 -101.863 l 173.762 -102.148 l 174 -102.715
 l 174.477 -103.832 l 175.426 -105.984 l 175.484 -106.113 l 175.543 -106.246
 l 175.66 -106.504 l 175.898 -107.016 l 176.371 -108.02 l 177.32 -109.93
 l 177.438 -110.156 l 177.555 -110.379 l 177.785 -110.82 l 178.254 -111.688
 l 179.184 -113.324 l 179.418 -113.715 l 179.648 -114.098 l 180.117 -114.848
 l 181.047 -116.258 l 181.266 -116.57 l 181.48 -116.879 l 181.914 -117.477
 l 182.785 -118.609 l 182.84 -118.68 l 183.004 -118.879 l 183.219 -119.145
 l 183.652 -119.66 l 184.523 -120.633 l 184.758 -120.883 l 184.992 -121.129
 l 185.465 -121.605 l 186.406 -122.496 l 186.465 -122.547 l 186.523 -122.602
 l 186.645 -122.707 l 186.879 -122.914 l 187.352 -123.312 l 188.293 -124.062
 l 188.402 -124.148 l 188.512 -124.23 l 188.73 -124.391 l 189.172 -124.707
 l 190.051 -125.301 l 190.27 -125.441 l 190.492 -125.578 l 190.93 -125.844
 l 191.809 -126.348 l 191.863 -126.379 l 191.918 -126.406 l 192.027 -126.465
 l 192.242 -126.578 l 192.672 -126.801 l 193.535 -127.219 l 193.59 -127.242
 l 193.645 -127.27 l 193.75 -127.316 l 193.965 -127.414 l 194.398 -127.605
 l 195.262 -127.961 l 195.316 -127.98 l 195.379 -128.004 l 195.492 -128.051
 l 195.727 -128.141 l 196.195 -128.312 l 197.133 -128.637 l 197.188 -128.656
 l 197.363 -128.715 l 197.598 -128.785 l 198.066 -128.934 l 199.004 -129.203
 l 199.059 -129.219 l 199.109 -129.234 l 199.219 -129.262 l 199.438 -129.32
 l 199.875 -129.434 l 200.746 -129.648 l 200.805 -129.66 l 200.855 -129.672
 l 200.965 -129.699 l 201.184 -129.746 l 201.621 -129.844 l 202.492 -130.023
 l 202.617 -130.047 l 202.98 -130.117 l 203.469 -130.207 l 204.441 -130.375
 l 204.504 -130.387 l 204.566 -130.395 l 204.93 -130.453 l 205.418 -130.527
 l 205.48 -130.539 l 205.539 -130.547 l 205.66 -130.566 l 205.906 -130.602
 l 205.965 -130.609 l 206.027 -130.617 l 206.148 -130.633 l 206.211 -130.645
 l 206.27 -130.652 l 206.395 -130.668 l S Q
  Q
Q
0 g
0.072 w
0 J
0 j
[] 0.0 d
3.25 M q 1 0 0 1 0 141 cm
28.922 -132.09 m 28.922 -129.871 l S Q
Q q
20.699 7.898 16.102 -7.898 re W n
q
20 8 17 -8 re W n
  q
0 g
22.469 4.312 m 22.469 5.043 22.543 5.629 22.695 6.078 c 22.848 6.527 23.07
 6.871 23.367 7.109 c 23.664 7.348 24.035 7.469 24.484 7.469 c 24.816 7.469
 25.109 7.402 25.359 7.266 c 25.609 7.129 25.816 6.938 25.984 6.688 c 26.152
 6.438 26.281 6.133 26.375 5.773 c 26.469 5.414 26.516 4.926 26.516 4.312
 c 26.516 3.582 26.441 2.996 26.289 2.547 c 26.141 2.098 25.914 1.754 25.617
 1.508 c 25.32 1.262 24.941 1.141 24.484 1.141 c 23.891 1.141 23.422 1.355
 23.078 1.781 c 22.672 2.301 22.469 3.145 22.469 4.312 c h
23.25 4.312 m 23.25 3.293 23.371 2.613 23.609 2.273 c 23.852 1.934 24.141
 1.766 24.484 1.766 c 24.84 1.766 25.137 1.934 25.375 2.273 c 25.613 2.613
 25.734 3.293 25.734 4.312 c 25.734 5.332 25.613 6.012 25.375 6.344 c 25.137
 6.676 24.84 6.844 24.484 6.844 c 24.133 6.844 23.852 6.691 23.641 6.391
 c 23.383 6.016 23.25 5.324 23.25 4.312 c f*
26.5 2.109 0.875 -0.859 re f*
27.875 4.312 m 27.875 5.043 27.953 5.629 28.102 6.078 c 28.254 6.527 28.477
 6.871 28.773 7.109 c 29.07 7.348 29.441 7.469 29.891 7.469 c 30.223 7.469
 30.516 7.402 30.766 7.266 c 31.016 7.129 31.223 6.938 31.391 6.688 c 31.559
 6.438 31.688 6.133 31.781 5.773 c 31.875 5.414 31.922 4.926 31.922 4.312
 c 31.922 3.582 31.848 2.996 31.695 2.547 c 31.543 2.098 31.32 1.754 31.023
 1.508 c 30.727 1.262 30.348 1.141 29.891 1.141 c 29.297 1.141 28.828 1.355
 28.484 1.781 c 28.078 2.301 27.875 3.145 27.875 4.312 c h
28.656 4.312 m 28.656 3.293 28.777 2.613 29.016 2.273 c 29.258 1.934 29.547
 1.766 29.891 1.766 c 30.246 1.766 30.543 1.934 30.781 2.273 c 31.02 2.613
 31.141 3.293 31.141 4.312 c 31.141 5.332 31.02 6.012 30.781 6.344 c 30.543
 6.676 30.246 6.844 29.891 6.844 c 29.535 6.844 29.258 6.691 29.047 6.391
 c 28.785 6.016 28.656 5.324 28.656 4.312 c f*
34.344 1.25 m 33.594 1.25 l 33.594 6.094 l 33.406 5.926 33.164 5.754 32.867
 5.578 c 32.57 5.402 32.301 5.27 32.062 5.188 c 32.062 5.922 l 32.488 6.121
 32.863 6.359 33.18 6.641 c 33.496 6.922 33.723 7.199 33.859 7.469 c 34.344
 7.469 l 34.344 1.25 l f*
  Q
Q
Q q
0 g
0.072 w
0 J
0 j
[] 0.0 d
3.25 M q 1 0 0 1 0 141 cm
76.902 -132.09 m 76.902 -129.871 l S Q
Q q
68.699 7.898 16.102 -7.898 re W n
q
68 8 17 -8 re W n
  q
0 g
70.445 4.312 m 70.445 5.043 70.523 5.629 70.672 6.078 c 70.824 6.527 71.047
 6.871 71.348 7.109 c 71.645 7.348 72.016 7.469 72.465 7.469 c 72.797 7.469
 73.09 7.402 73.34 7.266 c 73.59 7.129 73.797 6.938 73.965 6.688 c 74.129
 6.438 74.262 6.133 74.355 5.773 c 74.445 5.414 74.492 4.926 74.492 4.312
 c 74.492 3.582 74.418 2.996 74.27 2.547 c 74.117 2.098 73.895 1.754 73.598
 1.508 c 73.297 1.262 72.922 1.141 72.465 1.141 c 71.867 1.141 71.398 1.355
 71.059 1.781 c 70.648 2.301 70.445 3.145 70.445 4.312 c h
71.23 4.312 m 71.23 3.293 71.348 2.613 71.59 2.273 c 71.828 1.934 72.117
 1.766 72.465 1.766 c 72.816 1.766 73.113 1.934 73.355 2.273 c 73.594 2.613
 73.715 3.293 73.715 4.312 c 73.715 5.332 73.594 6.012 73.355 6.344 c 73.113
 6.676 72.816 6.844 72.465 6.844 c 72.109 6.844 71.828 6.691 71.617 6.391
 c 71.359 6.016 71.23 5.324 71.23 4.312 c f*
74.477 2.109 0.875 -0.859 re f*
78.715 1.25 m 77.965 1.25 l 77.965 6.094 l 77.773 5.926 77.531 5.754 77.234
 5.578 c 76.938 5.402 76.672 5.27 76.434 5.188 c 76.434 5.922 l 76.859 6.121
 77.23 6.359 77.547 6.641 c 77.867 6.922 78.094 7.199 78.227 7.469 c 78.715
 7.469 l 78.715 1.25 l f*
79.461 4.312 m 79.461 5.043 79.539 5.629 79.688 6.078 c 79.84 6.527 80.062
 6.871 80.359 7.109 c 80.656 7.348 81.031 7.469 81.477 7.469 c 81.812 7.469
 82.102 7.402 82.352 7.266 c 82.602 7.129 82.812 6.938 82.977 6.688 c 83.145
 6.438 83.273 6.133 83.367 5.773 c 83.461 5.414 83.508 4.926 83.508 4.312
 c 83.508 3.582 83.434 2.996 83.281 2.547 c 83.133 2.098 82.906 1.754 82.609
 1.508 c 82.312 1.262 81.938 1.141 81.477 1.141 c 80.883 1.141 80.414 1.355
 80.07 1.781 c 79.664 2.301 79.461 3.145 79.461 4.312 c h
80.242 4.312 m 80.242 3.293 80.363 2.613 80.602 2.273 c 80.844 1.934 81.133
 1.766 81.477 1.766 c 81.832 1.766 82.129 1.934 82.367 2.273 c 82.609 2.613
 82.727 3.293 82.727 4.312 c 82.727 5.332 82.609 6.012 82.367 6.344 c 82.129
 6.676 81.832 6.844 81.477 6.844 c 81.125 6.844 80.844 6.691 80.633 6.391
 c 80.375 6.016 80.242 5.324 80.242 4.312 c f*
  Q
Q
Q q
0 g
0.072 w
0 J
0 j
[] 0.0 d
3.25 M q 1 0 0 1 0 141 cm
124.879 -132.09 m 124.879 -129.871 l S Q
Q q
121.699 7.898 6.102 -7.898 re W n
q
121 8 7 -8 re W n
  q
0 g
125.793 1.25 m 125.043 1.25 l 125.043 6.094 l 124.855 5.926 124.613 5.754
 124.316 5.578 c 124.02 5.402 123.75 5.27 123.512 5.188 c 123.512 5.922 
l 123.938 6.121 124.312 6.359 124.629 6.641 c 124.945 6.922 125.172 7.199
 125.309 7.469 c 125.793 7.469 l 125.793 1.25 l f*
  Q
Q
Q q
0 g
0.072 w
0 J
0 j
[] 0.0 d
3.25 M q 1 0 0 1 0 141 cm
172.855 -132.09 m 172.855 -129.871 l S Q
Q q
167.699 7.898 10.102 -7.898 re W n
q
167 8 11 -8 re W n
  q
0 g
171.969 1.25 m 171.219 1.25 l 171.219 6.094 l 171.027 5.926 170.785 5.754
 170.488 5.578 c 170.191 5.402 169.926 5.27 169.688 5.188 c 169.688 5.922
 l 170.113 6.121 170.484 6.359 170.805 6.641 c 171.121 6.922 171.348 7.199
 171.48 7.469 c 171.969 7.469 l 171.969 1.25 l f*
172.715 4.312 m 172.715 5.043 172.793 5.629 172.941 6.078 c 173.094 6.527
 173.316 6.871 173.613 7.109 c 173.91 7.348 174.285 7.469 174.73 7.469 c
 175.066 7.469 175.355 7.402 175.605 7.266 c 175.855 7.129 176.066 6.938
 176.23 6.688 c 176.398 6.438 176.527 6.133 176.621 5.773 c 176.715 5.414
 176.762 4.926 176.762 4.312 c 176.762 3.582 176.688 2.996 176.535 2.547
 c 176.387 2.098 176.16 1.754 175.863 1.508 c 175.566 1.262 175.191 1.141
 174.73 1.141 c 174.137 1.141 173.668 1.355 173.324 1.781 c 172.918 2.301
 172.715 3.145 172.715 4.312 c h
173.496 4.312 m 173.496 3.293 173.617 2.613 173.855 2.273 c 174.098 1.934
 174.387 1.766 174.73 1.766 c 175.086 1.766 175.383 1.934 175.621 2.273 
c 175.863 2.613 175.98 3.293 175.98 4.312 c 175.98 5.332 175.863 6.012 175.621
 6.344 c 175.383 6.676 175.086 6.844 174.73 6.844 c 174.379 6.844 174.098
 6.691 173.887 6.391 c 173.629 6.016 173.496 5.324 173.496 4.312 c f*
  Q
Q
Q q
0 g
0.072 w
0 J
0 j
[] 0.0 d
3.25 M q 1 0 0 1 0 141 cm
220.836 -132.09 m 220.836 -129.871 l S Q
Q q
213.699 7.898 14.102 -7.898 re W n
q
213 8 15 -8 re W n
  q
0 g
218.141 1.25 m 217.391 1.25 l 217.391 6.094 l 217.203 5.926 216.961 5.754
 216.664 5.578 c 216.367 5.402 216.098 5.27 215.859 5.188 c 215.859 5.922
 l 216.285 6.121 216.656 6.359 216.977 6.641 c 217.293 6.922 217.52 7.199
 217.656 7.469 c 218.141 7.469 l 218.141 1.25 l f*
218.891 4.312 m 218.891 5.043 218.965 5.629 219.117 6.078 c 219.266 6.527
 219.492 6.871 219.789 7.109 c 220.086 7.348 220.457 7.469 220.906 7.469
 c 221.238 7.469 221.531 7.402 221.781 7.266 c 222.031 7.129 222.238 6.938
 222.406 6.688 c 222.57 6.438 222.703 6.133 222.797 5.773 c 222.891 5.414
 222.938 4.926 222.938 4.312 c 222.938 3.582 222.859 2.996 222.711 2.547
 c 222.559 2.098 222.336 1.754 222.039 1.508 c 221.742 1.262 221.363 1.141
 220.906 1.141 c 220.312 1.141 219.844 1.355 219.5 1.781 c 219.094 2.301
 218.891 3.145 218.891 4.312 c h
219.672 4.312 m 219.672 3.293 219.789 2.613 220.031 2.273 c 220.27 1.934
 220.562 1.766 220.906 1.766 c 221.258 1.766 221.555 1.934 221.797 2.273
 c 222.035 2.613 222.156 3.293 222.156 4.312 c 222.156 5.332 222.035 6.012
 221.797 6.344 c 221.555 6.676 221.258 6.844 220.906 6.844 c 220.551 6.844
 220.27 6.691 220.062 6.391 c 219.801 6.016 219.672 5.324 219.672 4.312 
c f*
222.496 4.312 m 222.496 5.043 222.574 5.629 222.727 6.078 c 222.875 6.527
 223.102 6.871 223.398 7.109 c 223.695 7.348 224.066 7.469 224.516 7.469
 c 224.848 7.469 225.141 7.402 225.391 7.266 c 225.641 7.129 225.848 6.938
 226.016 6.688 c 226.18 6.438 226.312 6.133 226.406 5.773 c 226.496 5.414
 226.547 4.926 226.547 4.312 c 226.547 3.582 226.469 2.996 226.32 2.547 
c 226.168 2.098 225.945 1.754 225.648 1.508 c 225.352 1.262 224.973 1.141
 224.516 1.141 c 223.922 1.141 223.449 1.355 223.109 1.781 c 222.699 2.301
 222.496 3.145 222.496 4.312 c h
223.281 4.312 m 223.281 3.293 223.398 2.613 223.641 2.273 c 223.879 1.934
 224.172 1.766 224.516 1.766 c 224.867 1.766 225.164 1.934 225.406 2.273
 c 225.645 2.613 225.766 3.293 225.766 4.312 c 225.766 5.332 225.645 6.012
 225.406 6.344 c 225.164 6.676 224.867 6.844 224.516 6.844 c 224.16 6.844
 223.879 6.691 223.672 6.391 c 223.41 6.016 223.281 5.324 223.281 4.312 
c f*
  Q
Q
Q q
0 g
0.072 w
0 J
0 j
[] 0.0 d
3.25 M q 1 0 0 1 0 141 cm
9.832 -132.09 m 9.832 -130.98 l S Q
q 1 0 0 1 0 141 cm
14.48 -132.09 m 14.48 -130.98 l S Q
q 1 0 0 1 0 141 cm
18.277 -132.09 m 18.277 -130.98 l S Q
q 1 0 0 1 0 141 cm
21.492 -132.09 m 21.492 -130.98 l S Q
q 1 0 0 1 0 141 cm
24.273 -132.09 m 24.273 -130.98 l S Q
q 1 0 0 1 0 141 cm
26.727 -132.09 m 26.727 -130.98 l S Q
q 1 0 0 1 0 141 cm
43.363 -132.09 m 43.363 -130.98 l S Q
q 1 0 0 1 0 141 cm
51.812 -132.09 m 51.812 -130.98 l S Q
q 1 0 0 1 0 141 cm
57.809 -132.09 m 57.809 -130.98 l S Q
q 1 0 0 1 0 141 cm
62.457 -132.09 m 62.457 -130.98 l S Q
q 1 0 0 1 0 141 cm
66.258 -132.09 m 66.258 -130.98 l S Q
q 1 0 0 1 0 141 cm
69.469 -132.09 m 69.469 -130.98 l S Q
q 1 0 0 1 0 141 cm
72.25 -132.09 m 72.25 -130.98 l S Q
q 1 0 0 1 0 141 cm
74.707 -132.09 m 74.707 -130.98 l S Q
q 1 0 0 1 0 141 cm
91.344 -132.09 m 91.344 -130.98 l S Q
q 1 0 0 1 0 141 cm
99.793 -132.09 m 99.793 -130.98 l S Q
q 1 0 0 1 0 141 cm
105.785 -132.09 m 105.785 -130.98 l S Q
q 1 0 0 1 0 141 cm
110.438 -132.09 m 110.438 -130.98 l S Q
q 1 0 0 1 0 141 cm
114.234 -132.09 m 114.234 -130.98 l S Q
q 1 0 0 1 0 141 cm
117.445 -132.09 m 117.445 -130.98 l S Q
q 1 0 0 1 0 141 cm
120.23 -132.09 m 120.23 -130.98 l S Q
q 1 0 0 1 0 141 cm
122.684 -132.09 m 122.684 -130.98 l S Q
q 1 0 0 1 0 141 cm
139.32 -132.09 m 139.32 -130.98 l S Q
q 1 0 0 1 0 141 cm
147.77 -132.09 m 147.77 -130.98 l S Q
q 1 0 0 1 0 141 cm
153.766 -132.09 m 153.766 -130.98 l S Q
q 1 0 0 1 0 141 cm
158.414 -132.09 m 158.414 -130.98 l S Q
q 1 0 0 1 0 141 cm
162.215 -132.09 m 162.215 -130.98 l S Q
q 1 0 0 1 0 141 cm
165.426 -.066
 l 62.348 -129.949 l 63.289 -129.707 l 65.172 -129.199 l 68.688 -128.223
 l 72.137 -127.297 l 75.875 -126.395 l 76.094 -126.348 l 76.312 -126.297
 l 76.746 -126.203 l 77.621 -126.02 l 79.363 -125.676 l 79.422 -125.664 
l 79.484 -125.652 l 79.602 -125.629 l 79.84 -125.586 l 80.312 -125.5 l 81.258
 -125.336 l 83.148 -125.027 l 83.207 -125.02 l 83.266 -125.008 l 83.379 
-124.992 l 83.613 -124.957 l 84.078 -124.887 l 85.004 -124.754 l 86.859 
-124.508 l 86.969 -124.492 l 87.078 -124.48 l 87.293 -124.453 l 87.727 -124.402
 l 88.594 -124.297 l 90.324 -124.105 l 94.082 -123.727 l 97.586 -123.406
 l 101.387 -123.074 l 105.117 -122.734 l 108.598 -122.387 l 108.656 -122.383
 l 108.715 -122.375 l 108.832 -122.363 l 109.066 -122.336 l 109.539 -122.285
 l 110.48 -122.18 l 112.367 -121.953 l 112.477 -121.938 l 112.59 -121.922
 l 112.809 -121.895 l 113.25 -121.84 l 114.129 -121.719 l 115.891 -121.465
 l 116 -121.449 l 116.105 -121.434 l 116.32 -121.398 l 116.754 -121.332 
l 117.617 -121.188 l 117.727 -121.172 l 117.832 -121.152 l 118.051 -121.117
 l 118.48 -121.039 l 119.344 -120.883 l 119.461 -120.859 l 119.578 -120.84
 l 119.812 -120.793 l 120.281 -120.703 l 121.219 -120.512 l 121.277 -120.496
 l 121.336 -120.484 l 121.449 -120.461 l 121.684 -120.41 l 122.152 -120.305
 l 123.09 -120.086 l 123.199 -120.062 l 123.965 -119.871 l 124.84 -119.641
 l 124.895 -119.625 l 124.945 -119.609 l 125.059 -119.582 l 125.273 -119.52
 l 125.711 -119.395 l 126.586 -119.133 l 126.645 -119.113 l 126.703 -119.098
 l 126.824 -119.059 l 127.059 -118.984 l 127.531 -118.832 l 128.48 -118.504
 l 128.539 -118.484 l 128.598 -118.461 l 128.719 -118.418 l 128.953 -118.332
 l 129.43 -118.152 l 130.375 -117.777 l 130.434 -117.754 l 130.492 -117.727
 l 130.609 -117.68 l 130.84 -117.582 l 131.305 -117.379 l 132.234 -116.945
 l 132.469 -116.836 l 132.699 -116.719 l 133.164 -116.48 l 134.094 -115.98
 l 134.312 -115.855 l 134.527 -115.73 l 134.961 -115.473 l 135.828 -114.93
 l 135.883 -114.895 l 135.938 -114.855 l 136.047 -114.785 l 136.262 -114.641
 l 136.695 -114.34 l 137.562 -113.707 l 137.621 -113.66 l 137.684 -113.617
 l 137.801 -113.527 l 138.035 -113.344 l 138.504 -112.961 l 139.445 -112.152
 l 139.504 -112.098 l 139.562 -112.047 l 139.68 -111.938 l 139.914 -111.723
 l 140.387 -111.27 l 141.328 -110.312 l 141.547 -110.078 l 141.766 -109.84
 l 142.203 -109.344 l 143.082 -108.297 l 143.137 -108.227 l 143.191 -108.16
 l 143.305 -108.02 l 143.523 -107.742 l 143.961 -107.164 l 144.84 -105.945
 l 144.895 -105.867 l 144.945 -105.789 l 145.055 -105.633 l 145.27 -105.316
 l 145.699 -104.66 l 146.562 -103.285 l 148.281 -100.254 l 148.516 -99.816
 l 148.75 -99.371 l 149.215 -98.461 l 150.148 -96.57 l 152.02 -92.559 l 
152.074 -92.441 l 152.129 -92.32 l 152.234 -92.078 l 152.453 -91.598 l 152.891
 -90.629 l 153.762 -88.699 l 153.816 -88.578 l 153.871 -88.461 l 153.98 
-88.219 l 154.195 -87.742 l 154.633 -86.805 l 155.504 -84.984 l 155.621 
-84.742 l 155.742 -84.508 l 155.977 -84.043 l 156.449 -83.148 l 156.566 
-82.93 l 156.684 -82.719 l 156.922 -82.301 l 157.395 -81.516 l 157.512 -81.328
 l 157.629 -81.145 l 157.867 -80.793 l 157.926 -80.711 l 157.984 -80.625
 l 158.102 -80.461 l 158.34 -80.145 l 158.457 -79.996 l 158.574 -79.852 
l 158.812 -79.578 l 159.047 -79.328 l 159.281 -79.098 l 159.34 -79.047 l
 159.559 -78.859 l 159.613 -78.816 l 159.723 -78.734 l 159.781 -78.695 l
 159.836 -78.656 l 159.945 -78.582 l 160 -78.547 l 160.164 -78.453 l 160.223
 -78.422 l 160.277 -78.398 l 160.332 -78.371 l 160.387 -78.348 l 160.441
 -78.32 l 160.66 -78.242 l 160.719 -78.227 l 160.773 -78.211 l 160.992 -78.164
 l 161.047 -78.156 l 161.156 -78.148 l 161.215 -78.145 l 161.27 -78.141 
l 161.379 -78.141 l 161.543 -78.152 l 161.652 -78.168 l 161.711 -78.18 l
 161.766 -78.188 l 161.82 -78.203 l 161.875 -78.215 l 161.984 -78.246 l 
162.094 -78.285 l 162.203 -78.332 l 162.262 -78.355 l 162.371 -78.406 l 
162.426 -78.434 l 162.59 -78.527 l 162.812 -78.676 l 162.922 -78.754 l 163.027
 -78.84 l 163.242 -79.023 l 163.352 -79.125 l 163.461 -79.23 l 163.676 -79.461
 l 163.73 -79.52 l 163.895 -79.707 l 164.109 -79.977 l 164.543 -80.57 l 
164.598 -80.648 l 164.648 -80.73 l 164.758 -80.895 l 164.973 -81.234 l 165.406
 -81.973 l 166.27 -83.625 l 166.328 -83.746 l 166.391 -83.867 l 166.508 
-84.113 l 166.738 -84.613 l 167.211 -85.656 l 168.148 -87.871 l 170.023 
-92.633 l 173.527 -101.574 l 173.645 -101.863 l 173.762 -102.148 l 174 -102.715
 l 174.477 -103.832 l 175.426 -105.984 l 175.484 -106.113 l 175.543 -106.246
 l 175.66 -106.504 l 175.898 -107.016 l 176.371 -108.02 l 177.32 -109.93
 l 177.438 -110.156 l 177.555 -110.379 l 177.785 -110.82 l 178.254 -111.688
 l 179.184 -113.324 l 179.418 -113.715 l 179.648 -114.098 l 180.117 -114.848
 l 181.047 -116.258 l 181.266 -116.57 l 181.48 -116.879 l 181.914 -117.477
 l 182.785 -118.609 l 182.84 -118.68 l 183.004 -118.879 l 183.219 -119.145
 l 183.652 -119.66 l 184.523 -120.633 l 184.758 -120.883 l 184.992 -121.129
 l 185.465 -121.605 l 186.406 -122.496 l 186.465 -122.547 l 186.523 -122.602
 l 186.645 -122.707 l 186.879 -122.914 l 187.352 -123.312 l 188.293 -124.062
 l 188.402 -124.148 l 188.512 -124.23 l 188.73 -124.391 l 189.172 -124.707
 l 190.051 -125.301 l 190.27 -125.441 l 190.492 -125.578 l 190.93 -125.844
 l 191.809 -126.348 l 191.863 -126.379 l 191.918 -126.406 l 192.027 -126.465
 l 192.242 -126.578 l 192.672 -126.801 l 193.535 -127.219 l 193.59 -127.242
 l 193.645 -127.27 l 193.75 -127.316 l 193.965 -127.414 l 194.398 -127.605
 l 195.262 -127.961 l 195.316 -127.98 l 195.379 -128.004 l 195.492 -128.051
 l 195.727 -128.141 l 196.195 -128.312 l 197.133 -128.637 l 197.188 -128.656
 l 197.363 -128.715 l 197.598 -128.785 l 198.066 -128.934 l 199.004 -129.203
 l 199.059 -129.219 l 199.109 -129.234 l 199.219 -129.262 l 199.438 -129.32
 l 199.875 -129.434 l 200.746 -129.648 l 200.805 -129.66 l 200.855 -129.672
 l 200.965 -129.699 l 201.184 -129.746 l 201.621 -129.844 l 202.492 -130.023
 l 202.617 -130.047 l 202.98 -130.117 l 203.469 -130.207 l 204.441 -130.375
 l 204.504 -130.387 l 204.566 -130.395 l 204.93 -130.453 l 205.418 -130.527
 l 205.48 -130.539 l 205.539 -130.547 l 205.66 -130.566 l 205.906 -130.602
 l 205.965 -130.609 l 206.027 -130.617 l 206.148 -130.633 l 206.211 -130.645
 l 206.27 -130.652 l 206.395 -130.668 l S Q
  Q
Q
0 g
0.072 w
0 J
0 j
[] 0.0 d
3.25 M q 1 0 0 1 0 141 cm
28.922 -132.09 m 28.922 -129.871 l S Q
Q q
20.699 7.898 16.102 -7.898 re W n
q
20 8 17 -8 re W n
  q
0 g
22.469 4.312 m 22.469 5.043 22.543 5.629 22.695 6.078 c 22.848 6.527 23.07
 6.871 23.367 7.109 c 23.664 7.348 24.035 7.469 24.484 7.469 c 24.816 7.469
 25.109 7.402 25.359 7.266 c 25.609 7.129 25.816 6.938 25.984 6.688 c 26.152
 6.438 26.281 6.133 26.375 5.773 c 26.469 5.414 26.516 4.926 26.516 4.312
 c 26.516 3.582 26.441 2.996 26.289 2.547 c 26.141 2.098 25.914 1.754 25.617
 1.508 c 25.32 1.262 24.941 1.141 24.484 1.141 c 23.891 1.141 23.422 1.355
 23.078 1.781 c 22.672 2.301 22.469 3.145 22.469 4.312 c h
23.25 4.312 m 23.25 3.293 23.371 2.613 23.609 2.273 c 23.852 1.934 24.141
 1.766 24.484 1.766 c 24.84 1.766 25.137 1.934 25.375 2.273 c 25.613 2.613
 25.734 3.293 25.734 4.312 c 25.734 5.332 25.613 6.012 25.375 6.344 c 25.137
 6.676 24.84 6.844 24.484 6.844 c 24.133 6.844 23.852 6.691 23.641 6.391
 c 23.383 6.016 23.25 5.324 23.25 4.312 c f*
26.5 2.109 0.875 -0.859 re f*
27.875 4.312 m 27.875 5.043 27.953 5.629 28.102 6.078 c 28.254 6.527 28.477
 6.871 28.773 7.109 c 29.07 7.348 29.441 7.469 29.891 7.469 c 30.223 7.469
 30.516 7.402 30.766 7.266 c 31.016 7.129 31.223 6.938 31.391 6.688 c 31.559
 6.438 31.688 6.133 31.781 5.773 c 31.875 5.414 31.922 4.926 31.922 4.312
 c 31.922 3.582 31.848 2.996 31.695 2.547 c 31.543 2.098 31.32 1.754 31.023
 1.508 c 30.727 1.262 30.348 1.141 29.891 1.141 c 29.297 1.141 28.828 1.355
 28.484 1.781 c 28.078 2.301 27.875 3.145 27.875 4.312 c h
28.656 4.312 m 28.656 3.293 28.777 2.613 29.016 2.273 c 29.258 1.934 29.547
 1.766 29.891 1.766 c 30.246 1.766 30.543 1.934 30.781 2.273 c 31.02 2.613
 31.141 3.293 31.141 4.312 c 31.141 5.332 31.02 6.012 30.781 6.344 c 30.543
 6.676 30.246 6.844 29.891 6.844 c 29.535 6.844 29.258 6.691 29.047 6.391
 c 28.785 6.016 28.656 5.324 28.656 4.312 c f*
34.344 1.25 m 33.594 1.25 l 33.594 6.094 l 33.406 5.926 33.164 5.754 32.867
 5.578 c 32.57 5.402 32.301 5.27 32.062 5.188 c 32.062 5.922 l 32.488 6.121
 32.863 6.359 33.18 6.641 c 33.496 6.922 33.723 7.199 33.859 7.469 c 34.344
 7.469 l 34.344 1.25 l f*
  Q
Q
Q q
0 g
0.072 w
0 J
0 j
[] 0.0 d
3.25 M q 1 0 0 1 0 141 cm
76.902 -132.09 m 76.902 -129.871 l S Q
Q q
68.699 7.898 16.102 -7.898 re W n
q
68 8 17 -8 re W n
  q
0 g
70.445 4.312 m 70.445 5.043 70.523 5.629 70.672 6.078 c 70.824 6.527 71.047
 6.871 71.348 7.109 c 71.645 7.348 72.016 7.469 72.465 7.469 c 72.797 7.469
 73.09 7.402 73.34 7.266 c 73.59 7.129 73.797 6.938 73.965 6.688 c 74.129
 6.438 74.262 6.133 74.355 5.773 c 74.445 5.414 74.492 4.926 74.492 4.312
 c 74.492 3.582 74.418 2.996 74.27 2.547 c 74.117 2.098 73.895 1.754 73.598
 1.508 c 73.297 1.262 72.922 1.141 72.465 1.141 c 71.867 1.141 71.398 1.355
 71.059 1.781 c 70.648 2.301 70.445 3.145 70.445 4.312 c h
71.23 4.312 m 71.23 3.293 71.348 2.613 71.59 2.273 c 71.828 1.934 72.117
 1.766 72.465 1.766 c 72.816 1.766 73.113 1.934 73.355 2.273 c 73.594 2.613
 73.715 3.293 73.715 4.312 c 73.715 5.332 73.594 6.012 73.355 6.344 c 73.113
 6.676 72.816 6.844 72.465 6.844 c 72.109 6.844 71.828 6.691 71.617 6.391
 c 71.359 6.016 71.23 5.324 71.23 4.312 c f*
74.477 2.109 0.875 -0.859 re f*
78.715 1.25 m 77.965 1.25 l 77.965 6.094 l 77.773 5.926 77.531 5.754 77.234
 5.578 c 76.938 5.402 76.672 5.27 76.434 5.188 c 76.434 5.922 l 76.859 6.121
 77.23 6.359 77.547 6.641 c 77.867 6.922 78.094 7.199 78.227 7.469 c 78.715
 7.469 l 78.715 1.25 l f*
79.461 4.312 m 79.461 5.043 79.539 5.629 79.688 6.078 c 79.84 6.527 80.062
 6.871 80.359 7.109 c 80.656 7.348 81.031 7.469 81.477 7.469 c 81.812 7.469
 82.102 7.402 82.352 7.266 c 82.602 7.129 82.812 6.938 82.977 6.688 c 83.145
 6.438 83.273 6.133 83.367 5.773 c 83.461 5.414 83.508 4.926 83.508 4.312
 c 83.508 3.582 83.434 2.996 83.281 2.547 c 83.133 2.098 82.906 1.754 82.609
 1.508 c 82.312 1.262 81.938 1.141 81.477 1.141 c 80.883 1.141 80.414 1.355
 80.07 1.781 c 79.664 2.301 79.461 3.145 79.461 4.312 c h
80.242 4.312 m 80.242 3.293 80.363 2.613 80.602 2.273 c 80.844 1.934 81.133
 1.766 81.477 1.766 c 81.832 1.766 82.129 1.934 82.367 2.273 c 82.609 2.613
 82.727 3.293 82.727 4.312 c 82.727 5.332 82.609 6.012 82.367 6.344 c 82.129
 6.676 81.832 6.844 81.477 6.844 c 81.125 6.844 80.844 6.691 80.633 6.391
 c 80.375 6.016 80.242 5.324 80.242 4.312 c f*
  Q
Q
Q q
0 g
0.072 w
0 J
0 j
[] 0.0 d
3.25 M q 1 0 0 1 0 141 cm
124.879 -132.09 m 124.879 -129.871 l S Q
Q q
121.699 7.898 6.102 -7.898 re W n
q
121 8 7 -8 re W n
  q
0 g
125.793 1.25 m 125.043 1.25 l 125.043 6.094 l 124.855 5.926 124.613 5.754
 124.316 5.578 c 124.02 5.402 123.75 5.27 123.512 5.188 c 123.512 5.922 
l 123.938 6.121 124.312 6.359 124.629 6.641 c 124.945 6.922 125.172 7.199
 125.309 7.469 c 125.793 7.469 l 125.793 1.25 l f*
  Q
Q
Q q
0 g
0.072 w
0 J
0 j
[] 0.0 d
3.25 M q 1 0 0 1 0 141 cm
172.855 -132.09 m 172.855 -129.871 l S Q
Q q
167.699 7.898 10.102 -7.898 re W n
q
167 8 11 -8 re W n
  q
0 g
171.969 1.25 m 171.219 1.25 l 171.219 6.094 l 171.027 5.926 170.785 5.754
 170.488 5.578 c 170.191 5.402 169.926 5.27 169.688 5.188 c 169.688 5.922
 l 170.113 6.121 170.484 6.359 170.805 6.641 c 171.121 6.922 171.348 7.199
 171.48 7.469 c 171.969 7.469 l 171.969 1.25 l f*
172.715 4.312 m 172.715 5.043 172.793 5.629 172.941 6.078 c 173.094 6.527
 173.316 6.871 173.613 7.109 c 173.91 7.348 174.285 7.469 174.73 7.469 c
 175.066 7.469 175.355 7.402 175.605 7.266 c 175.855 7.129 176.066 6.938
 176.23 6.688 c 176.398 6.438 176.527 6.133 176.621 5.773 c 176.715 5.414
 176.762 4.926 176.762 4.312 c 176.762 3.582 176.688 2.996 176.535 2.547
 c 176.387 2.098 176.16 1.754 175.863 1.508 c 175.566 1.262 175.191 1.141
 174.73 1.141 c 174.137 1.141 173.668 1.355 173.324 1.781 c 172.918 2.301
 172.715 3.145 172.715 4.312 c h
173.496 4.312 m 173.496 3.293 173.617 2.613 173.855 2.273 c 174.098 1.934
 174.387 1.766 174.73 1.766 c 175.086 1.766 175.383 1.934 175.621 2.273 
c 175.863 2.613 175.98 3.293 175.98 4.312 c 175.98 5.332 175.863 6.012 175.621
 6.344 c 175.383 6.676 175.086 6.844 174.73 6.844 c 174.379 6.844 174.098
 6.691 173.887 6.391 c 173.629 6.016 173.496 5.324 173.496 4.312 c f*
  Q
Q
Q q
0 g
0.072 w
0 J
0 j
[] 0.0 d
3.25 M q 1 0 0 1 0 141 cm
220.836 -132.09 m 220.836 -129.871 l S Q
Q q
213.699 7.898 14.102 -7.898 re W n
q
213 8 15 -8 re W n
  q
0 g
218.141 1.25 m 217.391 1.25 l 217.391 6.094 l 217.203 5.926 216.961 5.754
 216.664 5.578 c 216.367 5.402 216.098 5.27 215.859 5.188 c 215.859 5.922
 l 216.285 6.121 216.656 6.359 216.977 6.641 c 217.293 6.922 217.52 7.199
 217.656 7.469 c 218.141 7.469 l 218.141 1.25 l f*
218.891 4.312 m 218.891 5.043 218.965 5.629 219.117 6.078 c 219.266 6.527
 219.492 6.871 219.789 7.109 c 220.086 7.348 220.457 7.469 220.906 7.469
 c 221.238 7.469 221.531 7.402 221.781 7.266 c 222.031 7.129 222.238 6.938
 222.406 6.688 c 222.57 6.438 222.703 6.133 222.797 5.773 c 222.891 5.414
 222.938 4.926 222.938 4.312 c 222.938 3.582 222.859 2.996 222.711 2.547
 c 222.559 2.098 222.336 1.754 222.039 1.508 c 221.742 1.262 221.363 1.141
 220.906 1.141 c 220.312 1.141 219.844 1.355 219.5 1.781 c 219.094 2.301
 218.891 3.145 218.891 4.312 c h
219.672 4.312 m 219.672 3.293 219.789 2.613 220.031 2.273 c 220.27 1.934
 220.562 1.766 220.906 1.766 c 221.258 1.766 221.555 1.934 221.797 2.273
 c 222.035 2.613 222.156 3.293 222.156 4.312 c 222.156 5.332 222.035 6.012
 221.797 6.344 c 221.555 6.676 221.258 6.844 220.906 6.844 c 220.551 6.844
 220.27 6.691 220.062 6.391 c 219.801 6.016 219.672 5.324 219.672 4.312 
c f*
222.496 4.312 m 222.496 5.043 222.574 5.629 222.727 6.078 c 222.875 6.527
 223.102 6.871 223.398 7.109 c 223.695 7.348 224.066 7.469 224.516 7.469
 c 224.848 7.469 225.141 7.402 225.391 7.266 c 225.641 7.129 225.848 6.938
 226.016 6.688 c 226.18 6.438 226.312 6.133 226.406 5.773 c 226.496 5.414
 226.547 4.926 226.547 4.312 c 226.547 3.582 226.469 2.996 226.32 2.547 
c 226.168 2.098 225.945 1.754 225.648 1.508 c 225.352 1.262 224.973 1.141
 224.516 1.141 c 223.922 1.141 223.449 1.355 223.109 1.781 c 222.699 2.301
 222.496 3.145 222.496 4.312 c h
223.281 4.312 m 223.281 3.293 223.398 2.613 223.641 2.273 c 223.879 1.934
 224.172 1.766 224.516 1.766 c 224.867 1.766 225.164 1.934 225.406 2.273
 c 225.645 2.613 225.766 3.293 225.766 4.312 c 225.766 5.332 225.645 6.012
 225.406 6.344 c 225.164 6.676 224.867 6.844 224.516 6.844 c 224.16 6.844
 223.879 6.691 223.672 6.391 c 223.41 6.016 223.281 5.324 223.281 4.312 
c f*
  Q
Q
Q q
0 g
0.072 w
0 J
0 j
[] 0.0 d
3.25 M q 1 0 0 1 0 141 cm
9.832 -132.09 m 9.832 -130.98 l S Q
q 1 0 0 1 0 141 cm
14.48 -132.09 m 14.48 -130.98 l S Q
q 1 0 0 1 0 141 cm
18.277 -132.09 m 18.277 -130.98 l S Q
q 1 0 0 1 0 141 cm
21.492 -132.09 m 21.492 -130.98 l S Q
q 1 0 0 1 0 141 cm
24.273 -132.09 m 24.273 -130.98 l S Q
q 1 0 0 1 0 141 cm
26.727 -132.09 m 26.727 -130.98 l S Q
q 1 0 0 1 0 141 cm
43.363 -132.09 m 43.363 -130.98 l S Q
q 1 0 0 1 0 141 cm
51.812 -132.09 m 51.812 -130.98 l S Q
q 1 0 0 1 0 141 cm
57.809 -132.09 m 57.809 -130.98 l S Q
q 1 0 0 1 0 141 cm
62.457 -132.09 m 62.457 -130.98 l S Q
q 1 0 0 1 0 141 cm
66.258 -132.09 m 66.258 -130.98 l S Q
q 1 0 0 1 0 141 cm
69.469 -132.09 m 69.469 -130.98 l S Q
q 1 0 0 1 0 141 cm
72.25 -132.09 m 72.25 -130.98 l S Q
q 1 0 0 1 0 141 cm
74.707 -132.09 m 74.707 -130.98 l S Q
q 1 0 0 1 0 141 cm
91.344 -132.09 m 91.344 -130.98 l S Q
q 1 0 0 1 0 141 cm
99.793 -132.09 m 99.793 -130.98 l S Q
q 1 0 0 1 0 141 cm
105.785 -132.09 m 105.785 -130.98 l S Q
q 1 0 0 1 0 141 cm
110.438 -132.09 m 110.438 -130.98 l S Q
q 1 0 0 1 0 141 cm
114.234 -132.09 m 114.234 -130.98 l S Q
q 1 0 0 1 0 141 cm
117.445 -132.09 m 117.445 -130.98 l S Q
q 1 0 0 1 0 141 cm
120.23 -132.09 m 120.23 -130.98 l S Q
q 1 0 0 1 0 141 cm
122.684 -132.09 m 122.684 -130.98 l S Q
q 1 0 0 1 0 141 cm
139.32 -132.09 m 139.32 -130.98 l S Q
q 1 0 0 1 0 141 cm
147.77 -132.09 m 147.77 -130.98 l S Q
q 1 0 0 1 0 141 cm
153.766 -132.09 m 153.766 -130.98 l S Q
q 1 0 0 1 0 141 cm
158.414 -132.09 m 158.414 -130.98 l S Q
q 1 0 0 1 0 141 cm
162.215 -132.09 m 162.215 -130.98 l S Q
q 1 0 0 1 0 141 cm
165.426 -132.09 m 165.426 -130.98 l S Q
q 1 0 0 1 0 141 cm
168.207 -132.09 m 168.207 -130.98 l S Q
q 1 0 0 1 0 141 cm
170.66 -132.09 m 170.66 -130.98 l S Q
q 1 0 0 1 0 141 cm
187.301 -132.09 m 187.301 -130.98 l S Q
q 1 0 0 1 0 141 cm
195.75 -132.09 m 195.75 -130.98 l S Q
q 1 0 0 1 0 141 cm
201.742 -132.09 m 201.742 -130.98 l S Q
q 1 0 0 1 0 141 cm
206.395 -132.09 m 206.395 -130.98 l S Q
q 1 0 0 1 0 141 cm
210.191 -132.09 m 210.191 -130.98 l S Q
q 1 0 0 1 0 141 cm
213.402 -132.09 m 213.402 -130.98 l S Q
q 1 0 0 1 0 141 cm
216.188 -132.09 m 216.188 -130.98 l S Q
q 1 0 0 1 0 141 cm
218.641 -132.09 m 218.641 -130.98 l S Q
0.36 w
q 1 0 0 1 0 141 cm
6.738 -132.09 m 228.574 -132.09 l S Q
Q q
232.699 14.898 15.301 -12.098 re W n
q
232 15 16 -13 re W n
  q
0 g
236.086 7.59 m 236.086 13.059 l 234.039 13.059 l 234.039 13.793 l 238.945
 13.793 l 238.945 13.059 l 236.898 13.059 l 236.898 7.59 l 236.086 7.59 
l f*
242.18 5.777 m 241.648 5.777 l 241.418 6.059 241.211 6.363 241.023 6.684
 c 240.836 7.008 240.676 7.34 240.547 7.684 c 240.414 8.027 240.316 8.379
 240.242 8.738 c 240.168 9.098 240.133 9.461 240.133 9.824 c 240.133 10.199
 240.168 10.566 240.242 10.926 c 240.316 11.285 240.418 11.637 240.555 11.98
 c 240.691 12.324 240.848 12.656 241.031 12.973 c 241.215 13.293 241.418
 13.598 241.648 13.887 c 242.18 13.887 l 241.98 13.566 241.805 13.246 241.648
 12.926 c 241.492 12.609 241.359 12.285 241.25 11.957 c 241.141 11.629 241.059
 11.293 241.008 10.941 c 240.957 10.594 240.93 10.227 240.93 9.84 c 240.93
 9.477 240.957 9.117 241.016 8.762 c 241.074 8.41 241.156 8.059 241.266 
7.715 c 241.375 7.371 241.508 7.039 241.664 6.715 c 241.82 6.395 241.992
 6.082 242.18 5.777 c f*
242.352 7.59 m 242.352 13.793 l 243.102 13.793 l 243.102 10.246 l 244.914
 12.074 l 245.898 12.074 l 244.18 10.418 l 246.07 7.59 l 245.133 7.59 l 
243.648 9.887 l 243.102 9.371 l 243.102 7.59 l 242.352 7.59 l f*
247.383 9.824 m 247.383 9.461 247.348 9.098 247.273 8.738 c 247.199 8.379
 247.102 8.027 246.969 7.684 c 246.84 7.34 246.68 7.012 246.492 6.691 c 
246.305 6.375 246.102 6.07 245.883 5.777 c 245.336 5.777 l 245.535 6.102
 245.711 6.422 245.867 6.738 c 246.023 7.059 246.156 7.379 246.266 7.707
 c 246.375 8.035 246.461 8.375 246.516 8.723 c 246.574 9.074 246.602 9.441
 246.602 9.824 c 246.602 10.18 246.57 10.535 246.508 10.895 c 246.445 11.254
 246.359 11.605 246.25 11.941 c 246.141 12.281 246.008 12.613 245.852 12.941
 c 245.695 13.27 245.523 13.586 245.336 13.887 c 245.883 13.887 l 246.113
 13.605 246.316 13.305 246.5 12.98 c 246.684 12.66 246.84 12.324 246.969
 11.98 c 247.102 11.637 247.199 11.285 247.273 10.926 c 247.348 10.566 247.383
 10.199 247.383 9.824 c f*
  Q
Q
Q q
0 g
0.36 w
0 J
0 j
[] 0.0 d
3.25 M q 1 0 0 1 0 141 cm
11.176 -132.09 m 13.535 -132.09 l S Q
q 1 0 0 1 0 141 cm
11.176 -126.543 m 12.59 -126.543 l S Q
q 1 0 0 1 0 141 cm
11.176 -120.996 m 12.59 -120.996 l S Q
q 1 0 0 1 0 141 cm
11.176 -115.453 m 12.59 -115.453 l S Q
q 1 0 0 1 0 141 cm
11.176 -109.906 m 12.59 -109.906 l S Q
q 1 0 0 1 0 141 cm
11.176 -104.359 m 13.535 -104.359 l S Q
Q q
0 41.898 10.801 -10.098 re W n
q
0 42 11 -11 re W n
  q
0 g
-0.141 37.578 m -0.141 38.309 -0.066 38.895 0.086 39.344 c 0.238 39.789
 0.461 40.137 0.758 40.375 c 1.055 40.613 1.426 40.734 1.875 40.734 c 2.207
 40.734 2.5 40.664 2.75 40.531 c 3 40.395 3.207 40.203 3.375 39.953 c 3.543
 39.703 3.672 39.398 3.766 39.039 c 3.859 38.68 3.906 38.191 3.906 37.578
 c 3.906 36.848 3.832 36.262 3.68 35.812 c 3.527 35.363 3.305 35.02 3.008
 34.773 c 2.711 34.527 2.332 34.406 1.875 34.406 c 1.281 34.406 0.812 34.617
 0.469 35.047 c 0.062 35.566 -0.141 36.41 -0.141 37.578 c h
0.641 37.578 m 0.641 36.559 0.762 35.879 1 35.539 c 1.238 35.199 1.531 
35.031 1.875 35.031 c 2.23 35.031 2.527 35.199 2.766 35.539 c 3.004 35.879
 3.125 36.559 3.125 37.578 c 3.125 38.598 3.004 39.273 2.766 39.609 c 2.527
 39.941 2.23 40.109 1.875 40.109 c 1.52 40.109 1.238 39.957 1.031 39.656
 c 0.77 39.281 0.641 38.59 0.641 37.578 c f*
3.891 35.375 0.875 -0.859 re f*
8.125 34.516 m 7.375 34.516 l 7.375 39.359 l 7.188 39.191 6.945 39.02 6.648
 38.844 c 6.352 38.664 6.082 38.535 5.844 38.453 c 5.844 39.188 l 6.27 39.387
 6.645 39.625 6.961 39.906 c 7.277 40.188 7.504 40.465 7.641 40.734 c 8.125
 40.734 l 8.125 34.516 l f*
  Q
Q
Q q
0 g
0.36 w
0 J
0 j
[] 0.0 d
3.25 M q 1 0 0 1 0 141 cm
11.176 -98.812 m 12.59 -98.812 l S Q
q 1 0 0 1 0 141 cm
11.176 -93.27 m 12.59 -93.27 l S Q
q 1 0 0 1 0 141 cm
11.176 -87.723 m 12.59 -87.723 l S Q
q 1 0 0 1 0 141 cm
11.176 -82.176 m 12.59 -82.176 l S Q
q 1 0 0 1 0 141 cm
11.176 -76.629 m 13.535 -76.629 l S Q
Q q
0 68.898 10.801 -9.098 re W n
q
0 69 11 -10 re W n
  q
0 g
-0.141 65.309 m -0.141 66.035 -0.066 66.625 0.086 67.074 c 0.238 67.52 
0.461 67.863 0.758 68.105 c 1.055 68.344 1.426 68.465 1.875 68.465 c 2.207
 68.465 2.5 68.395 2.75 68.262 c 3 68.125 3.207 67.934 3.375 67.684 c 3.543
 67.434 3.672 67.129 3.766 66.77 c 3.859 66.41 3.906 65.922 3.906 65.309
 c 3.906 64.578 3.832 63.988 3.68 63.543 c 3.527 63.094 3.305 62.746 3.008
 62.504 c 2.711 62.258 2.332 62.137 1.875 62.137 c 1.281 62.137 0.812 62.348
 0.469 62.777 c 0.062 63.297 -0.141 64.141 -0.141 65.309 c h
0.641 65.309 m 0.641 64.285 0.762 63.605 1 63.27 c 1.238 62.93 1.531 62.762
 1.875 62.762 c 2.23 62.762 2.527 62.93 2.766 63.27 c 3.004 63.605 3.125
 64.285 3.125 65.309 c 3.125 66.328 3.004 67.004 2.766 67.34 c 2.527 67.672
 2.23 67.84 1.875 67.84 c 1.52 67.84 1.238 67.688 1.031 67.387 c 0.77 67.012
 0.641 66.316 0.641 65.309 c f*
3.891 63.105 0.875 -0.859 re f*
9.266 62.98 m 9.266 62.246 l 5.172 62.246 l 5.16 62.434 5.188 62.609 5.25
 62.777 c 5.355 63.059 5.523 63.336 5.758 63.605 c 5.992 63.875 6.324 64.188
 6.75 64.543 c 7.426 65.094 7.883 65.531 8.117 65.855 c 8.352 66.176 8.469
 66.48 8.469 66.762 c 8.469 67.062 8.363 67.316 8.148 67.527 c 7.934 67.734
 7.656 67.84 7.312 67.84 c 6.938 67.84 6.641 67.73 6.422 67.512 c 6.203 
67.293 6.094 66.984 6.094 66.59 c 5.312 66.668 l 5.363 67.25 5.566 67.695
 5.914 68.004 c 6.262 68.309 6.734 68.465 7.328 68.465 c 7.922 68.465 8.391
 68.301 8.734 67.973 c 9.078 67.645 9.25 67.234 9.25 66.746 c 9.25 66.496
 9.199 66.25 9.102 66.012 c 9 65.77 8.836 65.52 8.602 65.254 c 8.367 64.988
 7.973 64.625 7.422 64.168 c 6.961 63.781 6.672 63.52 6.547 63.387 c 6.422
 63.25 6.312 63.113 6.219 62.98 c 9.266 62.98 l f*
  Q
Q
Q q
0 g
0.36 w
0 J
0 j
[] 0.0 d
3.25 M q 1 0 0 1 0 141 cm
11.176 -71.086 m 12.59 -71.086 l S Q
q 1 0 0 1 0 141 cm
11.176 -65.539 m 12.59 -65.539 l S Q
q 1 0 0 1 0 141 cm
11.176 -59.992 m 12.59 -59.992 l S Q
q 1 0 0 1 0 141 cm
11.176 -54.445 m 12.59 -54.445 l S Q
q 1 0 0 1 0 141 cm
11.176 -48.902 m 13.535 -48.902 l S Q
Q q
0 96.898 10.801 -10.098 re W n
q
0 97 11 -11 re W n
  q
0 g
-0.141 93.035 m -0.141 93.766 -0.066 94.355 0.086 94.801 c 0.238 95.25 
0.461 95.594 0.758 95.832 c 1.055 96.074 1.426 96.191 1.875 96.191 c 2.207
 96.191 2.5 96.125 2.75 95.988 c 3 95.855 3.207 95.66 3.375 95.41 c 3.543
 95.16 3.672 94.855 3.766 94.496 c 3.859 94.137 3.906 93.652 3.906 93.035
 c 3.906 92.309 3.832 91.719 3.68 91.27 c 3.527 90.824 3.305 90.477 3.008
 90.23 c 2.711 89.988 2.332 89.863 1.875 89.863 c 1.281 89.863 0.812 90.078
 0.469 90.504 c 0.062 91.027 -0.141 91.871 -0.141 93.035 c h
0.641 93.035 m 0.641 92.016 0.762 91.336 1 90.996 c 1.238 90.66 1.531 90.488
 1.875 90.488 c 2.23 90.488 2.527 90.66 2.766 90.996 c 3.004 91.336 3.125
 92.016 3.125 93.035 c 3.125 94.059 3.004 94.734 2.766 95.066 c 2.527 95.402
 2.23 95.566 1.875 95.566 c 1.52 95.566 1.238 95.418 1.031 95.113 c 0.77
 94.738 0.641 94.047 0.641 93.035 c f*
3.891 90.832 0.875 -0.859 re f*
5.266 91.613 m 6.031 91.707 l 6.113 91.281 6.262 90.973 6.477 90.777 c 
6.691 90.586 6.949 90.488 7.25 90.488 c 7.605 90.488 7.902 90.613 8.148 
90.863 c 8.395 91.113 8.516 91.422 8.516 91.785 c 8.516 92.141 8.402 92.43
 8.172 92.652 c 7.941 92.879 7.656 92.988 7.312 92.988 c 7.168 92.988 6.984
 92.965 6.766 92.91 c 6.859 93.566 l 6.984 93.566 l 7.309 93.566 7.598 93.652
 7.852 93.816 c 8.105 93.984 8.234 94.246 8.234 94.598 c 8.234 94.879 8.141
 95.113 7.953 95.293 c 7.766 95.477 7.527 95.566 7.234 95.566 c 6.934 95.566
 6.684 95.473 6.484 95.285 c 6.285 95.098 6.16 94.824 6.109 94.457 c 5.344
 94.582 l 5.438 95.094 5.648 95.488 5.977 95.77 c 6.305 96.051 6.711 96.191
 7.203 96.191 c 7.547 96.191 7.863 96.121 8.148 95.973 c 8.434 95.828 8.652
 95.629 8.797 95.379 c 8.941 95.129 9.016 94.863 9.016 94.582 c 9.016 94.312
 8.945 94.066 8.805 93.848 c 8.664 93.629 8.453 93.457 8.172 93.332 c 8.535
 93.25 8.82 93.078 9.023 92.809 c 9.227 92.543 9.328 92.207 9.328 91.801
 c 9.328 91.262 9.129 90.801 8.734 90.426 c 8.336 90.051 7.836 89.863 7.234
 89.863 c 6.691 89.863 6.242 90.027 5.883 90.348 c 5.523 90.672 5.316 91.094
 5.266 91.613 c f*
  Q
Q
Q q
0 g
0.36 w
0 J
0 j
[] 0.0 d
3.25 M q 1 0 0 1 0 141 cm
11.176 -43.355 m 12.59 -43.355 l S Q
q 1 0 0 1 0 141 cm
11.176 -37.809 m 12.59 -37.809 l S Q
q 1 0 0 1 0 141 cm
11.176 -32.262 m 12.59 -32.262 l S Q
q 1 0 0 1 0 141 cm
11.176 -26.719 m 12.59 -26.719 l S Q
q 1 0 0 1 0 141 cm
11.176 -21.172 m 13.535 -21.172 l S Q
Q q
0 124.898 10.801 -10.098 re W n
q
0 125 11 -11 re W n
  q
0 g
-0.141 120.766 m -0.141 121.496 -0.066 122.086 0.086 122.531 c 0.238 122.98
 0.461 123.324 0.758 123.562 c 1.055 123.805 1.426 123.922 1.875 123.922
 c 2.207 123.922 2.5 123.855 2.75 123.719 c 3 123.586 3.207 123.391 3.375
 123.141 c 3.543 122.891 3.672 122.586 3.766 122.227 c 3.859 121.867 3.906
 121.383 3.906 120.766 c 3.906 120.035 3.832 119.449 3.68 119 c 3.527 118.555
 3.305 118.207 3.008 117.961 c 2.711 117.719 2.332 117.594 1.875 117.594
 c 1.281 117.594 0.812 117.809 0.469 118.234 c 0.062 118.758 -0.141 119.602
 -0.141 120.766 c h
0.641 120.766 m 0.641 119.746 0.762 119.066 1 118.727 c 1.238 118.391 1.531
 118.219 1.875 118.219 c 2.23 118.219 2.527 118.391 2.766 118.727 c 3.004
 119.066 3.125 119.746 3.125 120.766 c 3.125 121.785 3.004 122.465 2.766
 122.797 c 2.527 123.133 2.23 123.297 1.875 123.297 c 1.52 123.297 1.238
 123.148 1.031 122.844 c 0.77 122.469 0.641 121.777 0.641 120.766 c f*
3.891 118.562 0.875 -0.859 re f*
7.703 117.703 m 7.703 119.188 l 5.016 119.188 l 5.016 119.891 l 7.844 123.906
 l 8.469 123.906 l 8.469 119.891 l 9.297 119.891 l 9.297 119.188 l 8.469
 119.188 l 8.469 117.703 l h
7.703 119.891 m 7.703 122.672 l 5.766 119.891 l 7.703 119.891 l f*
  Q
Q
Q q
0 g
0.36 w
0 J
0 j
[] 0.0 d
3.25 M q 1 0 0 1 0 141 cm
11.176 -132.09 m 11.176 -21.172 l S Q
Q q
7.719 132.809 7 -10 re W n
q
7 133 8 -11 re W n
  q
0 g
13.426 127.57 m 14.238 127.367 l 14.07 126.691 13.766 126.176 13.316 125.82
 c 12.867 125.469 12.32 125.289 11.676 125.289 c 11.008 125.289 10.469 125.426
 10.051 125.695 c 9.633 125.969 9.316 126.359 9.098 126.875 c 8.879 127.391
 8.77 127.945 8.77 128.539 c 8.77 129.184 8.891 129.746 9.137 130.227 c 
9.383 130.707 9.73 131.07 10.184 131.32 c 10.637 131.57 11.141 131.695 11.691
 131.695 c 12.305 131.695 12.824 131.539 13.246 131.227 c 13.668 130.914
 13.961 130.473 14.129 129.898 c 13.332 129.711 l 13.188 130.16 12.977 130.484
 12.699 130.688 c 12.422 130.891 12.082 130.992 11.676 130.992 c 11.195 
130.992 10.797 130.883 10.48 130.656 c 10.164 130.434 9.938 130.129 9.809
 129.742 c 9.68 129.355 9.613 128.961 9.613 128.555 c 9.613 128.023 9.688
 127.559 9.84 127.164 c 9.992 126.77 10.227 126.477 10.551 126.281 c 10.875
 126.09 11.227 125.992 11.613 125.992 c 12.07 125.992 12.461 126.125 12.777
 126.391 c 13.094 126.656 13.312 127.051 13.426 127.57 c f*
  Q
Q
Q q
70.699 141 94.102 -11.199 re W n
q
70 141 95 -12 re W n
  q
0 g
72.359 134.398 m 72.359 141.82 l 73.344 141.82 l 73.344 138.773 l 77.207
 138.773 l 77.207 141.82 l 78.188 141.82 l 78.188 134.398 l 77.207 134.398
 l 77.207 137.898 l 73.344 137.898 l 73.344 134.398 l 72.359 134.398 l f*
81.516 136.133 m 82.469 136.008 l 82.324 135.469 82.047 135.043 81.641 
134.734 c 81.234 134.43 80.719 134.273 80.098 134.273 c 79.312 134.273 78.691
 134.516 78.227 135 c 77.766 135.484 77.531 136.164 77.531 137.039 c 77.531
 137.945 77.766 138.648 78.234 139.148 c 78.707 139.648 79.309 139.898 80.047
 139.898 c 80.766 139.898 81.355 139.652 81.812 139.164 c 82.273 138.676
 82.504 137.988 82.504 137.102 c 82.504 137.051 82.496 136.969 82.484 136.852
 c 78.484 136.852 l 78.516 136.27 78.684 135.816 78.984 135.5 c 79.289 135.184
 79.664 135.023 80.109 135.023 c 80.445 135.023 80.727 135.113 80.965 135.289
 c 81.195 135.469 81.383 135.746 81.516 136.133 c h
78.531 137.602 m 81.531 137.602 l 81.492 138.059 81.379 138.398 81.188 
138.617 c 80.898 138.973 80.523 139.148 80.062 139.148 c 79.648 139.148 
79.297 139.008 79.012 138.727 c 78.723 138.445 78.562 138.07 78.531 137.602
 c f*
85.672 135.055 m 85.34 134.773 85.016 134.574 84.707 134.453 c 84.391 134.336
 84.059 134.273 83.707 134.273 c 83.109 134.273 82.656 134.422 82.34 134.711
 c 82.02 135.004 81.859 135.371 81.859 135.82 c 81.859 136.082 81.922 136.32
 82.039 136.539 c 82.16 136.758 82.316 136.934 82.508 137.062 c 82.703 137.191
 82.922 137.297 83.172 137.367 c 83.352 137.41 83.621 137.449 83.984 137.492
 c 84.715 137.586 85.258 137.695 85.609 137.82 c 85.609 138.055 l 85.609
 138.422 85.523 138.68 85.344 138.836 c 85.117 139.047 84.773 139.148 84.312
 139.148 c 83.887 139.148 83.57 139.074 83.367 138.922 c 83.164 138.77 83.012
 138.504 82.906 138.117 c 82.016 138.242 l 82.102 138.629 82.234 138.938
 82.414 139.172 c 82.598 139.406 82.867 139.586 83.219 139.711 c 83.574 
139.836 83.98 139.898 84.438 139.898 c 84.898 139.898 85.273 139.844 85.562
 139.734 c 85.855 139.625 86.066 139.488 86.195 139.328 c 86.328 139.168
 86.422 138.961 86.484 138.711 c 86.516 138.555 86.531 138.273 86.531 137.867
 c 86.531 136.648 l 86.531 135.805 86.551 135.27 86.59 135.047 c 86.625 
134.824 86.699 134.605 86.812 134.398 c 85.859 134.398 l 85.766 134.586 
85.707 134.805 85.672 135.055 c h
85.609 137.102 m 85.277 136.969 84.777 136.852 84.109 136.758 c 83.734 
136.707 83.469 136.645 83.312 136.578 c 83.156 136.512 83.039 136.41 82.957
 136.281 c 82.871 136.152 82.832 136.004 82.832 135.836 c 82.832 135.598
 82.922 135.395 83.109 135.234 c 83.297 135.074 83.57 134.992 83.922 134.992
 c 84.266 134.992 84.578 135.066 84.852 135.219 c 85.129 135.371 85.332 
135.582 85.457 135.852 c 85.559 136.059 85.609 136.363 85.609 136.758 c 
85.609 137.102 l f*
88.484 135.211 m 88.625 134.414 l 88.367 134.352 88.137 134.32 87.938 134.32
 c 87.605 134.32 87.348 134.375 87.164 134.484 c 86.984 134.594 86.852 134.73
 86.773 134.898 c 86.695 135.066 86.656 135.426 86.656 135.977 c 86.656 
139.07 l 86.004 139.07 l 86.004 139.773 l 86.656 139.773 l 86.656 141.117
 l 87.582 141.664 l 87.582 139.773 l 88.484 139.773 l 88.484 139.07 l 87.582
 139.07 l 87.582 135.93 l 87.582 135.672 87.594 135.5 87.625 135.422 c 87.656
 135.344 87.711 135.285 87.781 135.242 c 87.855 135.199 87.961 135.18 88.094
 135.18 c 88.188 135.18 88.32 135.191 88.484 135.211 c f*
94.316 136.367 m 95.223 136.258 l 95.117 135.633 94.863 135.145 94.465 
134.797 c 94.062 134.449 93.57 134.273 92.984 134.273 c 92.246 134.273 91.652
 134.516 91.207 135 c 90.758 135.484 90.531 136.176 90.531 137.07 c 90.531
 137.652 90.629 138.16 90.82 138.594 c 91.016 139.027 91.309 139.352 91.695
 139.57 c 92.09 139.789 92.52 139.898 92.984 139.898 c 93.57 139.898 94.047
 139.75 94.414 139.453 c 94.785 139.156 95.023 138.738 95.129 138.195 c 
94.254 138.055 l 94.156 138.422 94.004 138.691 93.789 138.875 c 93.578 139.059
 93.32 139.148 93.02 139.148 c 92.559 139.148 92.188 138.984 91.898 138.656
 c 91.613 138.328 91.473 137.805 91.473 137.086 c 91.473 136.367 91.609 
135.844 91.887 135.516 c 92.16 135.188 92.523 135.023 92.973 135.023 c 93.324
 135.023 93.621 135.133 93.859 135.352 c 94.102 135.57 94.254 135.91 94.316
 136.367 c f*
98.207 135.055 m 97.871 134.773 97.547 134.574 97.238 134.453 c 96.922 
134.336 96.59 134.273 96.238 134.273 c 95.645 134.273 95.188 134.422 94.871
 134.711 c 94.551 135.004 94.395 135.371 94.395 135.82 c 94.395 136.082 
94.453 136.32 94.574 136.539 c 94.691 136.758 94.848 136.934 95.039 137.062
 c 95.234 137.191 95.457 137.297 95.707 137.367 c 95.883 137.41 96.152 137.449
 96.52 137.492 c 97.246 137.586 97.789 137.695 98.145 137.82 c 98.145 138.055
 l 98.145 138.422 98.055 138.68 97.879 138.836 c 97.648 139.047 97.305 139.148
 96.848 139.148 c 96.418 139.148 96.105 139.074 95.902 138.922 c 95.699 
138.77 95.543 138.504 95.441 138.117 c 94.547 138.242 l 94.633 138.629 94.766
 138.938 94.949 139.172 c 95.129 139.406 95.398 139.586 95.754 139.711 c
 96.105 139.836 96.512 139.898 96.973 139.898 c 97.43 139.898 97.805 139.844
 98.098 139.734 c 98.387 139.625 98.598 139.488 98.73 139.328 c 98.859 139.168
 98.957 138.961 99.02 138.711 c 99.047 138.555 99.066 138.273 99.066 137.867
 c 99.066 136.648 l 99.066 135.805 99.082 135.27 99.121 135.047 c 99.156
 134.824 99.23 134.605 99.348 134.398 c 98.395 134.398 l 98.297 134.586 
98.238 134.805 98.207 135.055 c h
98.145 137.102 m 97.809 136.969 97.309 136.852 96.645 136.758 c 96.27 136.707
 96.004 136.645 95.848 136.578 c 95.691 136.512 95.57 136.41 95.488 136.281
 c 95.402 136.152 95.363 136.004 95.363 135.836 c 95.363 135.598 95.457 
135.395 95.645 135.234 c 95.832 135.074 96.102 134.992 96.457 134.992 c 
96.797 134.992 97.109 135.066 97.387 135.219 c 97.66 135.371 97.863 135.582
 97.988 135.852 c 98.09 136.059 98.145 136.363 98.145 136.758 c 98.145 137.102
 l f*
99.035 132.336 m 99.035 139.773 l 99.863 139.773 l 99.863 139.086 l 100.059
 139.355 100.281 139.559 100.527 139.695 c 100.77 139.832 101.07 139.898
 101.426 139.898 c 101.883 139.898 102.285 139.781 102.637 139.547 c 102.984
 139.312 103.25 138.98 103.434 138.547 c 103.613 138.113 103.703 137.645
 103.703 137.133 c 103.703 136.582 103.605 136.086 103.406 135.641 c 103.211
 135.199 102.922 134.859 102.539 134.625 c 102.16 134.391 101.77 134.273
 101.363 134.273 c 101.051 134.273 100.773 134.34 100.535 134.469 c 100.293
 134.602 100.098 134.766 99.941 134.961 c 99.941 132.336 l h
99.863 137.055 m 99.863 136.367 100 135.855 100.277 135.523 c 100.551 135.191
 100.895 135.023 101.301 135.023 c 101.703 135.023 102.051 135.195 102.34
 135.539 c 102.625 135.883 102.77 136.414 102.77 137.133 c 102.77 137.82
 102.629 138.336 102.348 138.672 c 102.066 139.012 101.727 139.18 101.328
 139.18 c 100.945 139.18 100.605 139 100.309 138.641 c 100.012 138.281 99.863
 137.754 99.863 137.055 c f*
106.863 135.055 m 106.527 134.773 106.203 134.574 105.895 134.453 c 105.578
 134.336 105.246 134.273 104.895 134.273 c 104.301 134.273 103.844 134.422
 103.527 134.711 c 103.207 135.004 103.051 135.371 103.051 135.82 c 103.051
 136.082 103.109 136.32 103.23 136.539 c 103.348 136.758 103.504 136.934
 103.695 137.062 c 103.891 137.191 104.113 137.297 104.363 137.367 c 104.539
 137.41 104.809 137.449 105.176 137.492 c 105.902 137.586 106.445 137.695
 106.801 137.82 c 106.801 138.055 l 106.801 138.422 106.711 138.68 106.531
 138.836 c 106.305 139.047 105.961 139.148 105.504 139.148 c 105.074 139.148
 104.762 139.074 104.559 138.922 c 104.355 138.77 104.199 138.504 104.098
 138.117 c 103.203 138.242 l 103.289 138.629 103.422 138.938 103.605 139.172
 c 103.785 139.406 104.055 139.586 104.406 139.711 c 104.762 139.836 105.168
 139.898 105.629 139.898 c 106.086 139.898 106.461 139.844 106.754 139.734
 c 107.043 139.625 107.254 139.488 107.387 139.328 c 107.516 139.168 107.613
 138.961 107.676 138.711 c 107.703 138.555 107.723 138.273 107.723 137.867
 c 107.723 136.648 l 107.723 135.805 107.738 135.27 107.777 135.047 c 107.812
 134.824 107.887 134.605 108.004 134.398 c 107.051 134.398 l 106.953 134.586
 106.895 134.805 106.863 135.055 c h
106.801 137.102 m 106.465 136.969 105.965 136.852 105.301 136.758 c 104.926
 136.707 104.656 136.645 104.504 136.578 c 104.348 136.512 104.227 136.41
 104.145 136.281 c 104.059 136.152 104.02 136.004 104.02 135.836 c 104.02
 135.598 104.113 135.395 104.301 135.234 c 104.484 135.074 104.758 134.992
 105.113 134.992 c 105.453 134.992 105.766 135.066 106.039 135.219 c 106.316
 135.371 106.52 135.582 106.645 135.852 c 106.746 136.059 106.801 136.363
 106.801 136.758 c 106.801 137.102 l f*
111.191 136.367 m 112.098 136.258 l 111.992 135.633 111.738 135.145 111.34
 134.797 c 110.938 134.449 110.445 134.273 109.859 134.273 c 109.121 134.273
 108.527 134.516 108.078 135 c 107.633 135.484 107.406 136.176 107.406 137.07
 c 107.406 137.652 107.504 138.16 107.695 138.594 c 107.891 139.027 108.184
 139.352 108.57 139.57 c 108.965 139.789 109.395 139.898 109.859 139.898
 c 110.445 139.898 110.922 139.75 111.289 139.453 c 111.66 139.156 111.898
 138.738 112.004 138.195 c 111.129 138.055 l 111.031 138.422 110.879 138.691
 110.664 138.875 c 110.453 139.059 110.195 139.148 109.895 139.148 c 109.434
 139.148 109.062 138.984 108.773 138.656 c 108.488 138.328 108.348 137.805
 108.348 137.086 c 108.348 136.367 108.484 135.844 108.762 135.516 c 109.035
 135.188 109.398 135.023 109.848 135.023 c 110.199 135.023 110.496 135.133
 110.734 135.352 c 110.977 135.57 111.129 135.91 111.191 136.367 c f*
111.582 140.773 m 111.582 141.82 l 112.488 141.82 l 112.488 140.773 l h
111.582 134.398 m 111.582 139.773 l 112.488 139.773 l 112.488 134.398 l
 111.582 134.398 l f*
115.301 135.211 m 115.438 134.414 l 115.18 134.352 114.949 134.32 114.754
 134.32 c 114.418 134.32 114.16 134.375 113.98 134.484 c 113.797 134.594
 113.664 134.73 113.59 134.898 c 113.512 135.066 113.473 135.426 113.473
 135.977 c 113.473 139.07 l 112.816 139.07 l 112.816 139.773 l 113.473 139.773
 l 113.473 141.117 l 114.395 141.664 l 114.395 139.773 l 115.301 139.773
 l 115.301 139.07 l 114.395 139.07 l 114.395 135.93 l 114.395 135.672 114.406
 135.5 114.438 135.422 c 114.473 135.344 114.523 135.285 114.598 135.242
 c 114.668 135.199 114.773 135.18 114.906 135.18 c 115.004 135.18 115.133
 135.191 115.301 135.211 c f*
115.426 132.32 m 115.328 133.18 l 115.527 133.129 115.699 133.102 115.844
 133.102 c 116.055 133.102 116.219 133.137 116.34 133.203 c 116.457 133.27
 116.555 133.367 116.629 133.492 c 116.688 133.574 116.781 133.801 116.906
 134.164 c 116.93 134.219 116.953 134.289 116.984 134.383 c 114.953 139.773
 l 115.938 139.773 l 117.051 136.664 l 117.195 136.27 117.324 135.852 117.438
 135.414 c 117.543 135.832 117.668 136.242 117.812 136.648 c 118.973 139.773
 l 119.879 139.773 l 117.828 134.305 l 117.609 133.711 117.438 133.305 117.312
 133.086 c 117.156 132.785 116.977 132.562 116.766 132.422 c 116.559 132.281
 116.309 132.211 116.016 132.211 c 115.84 132.211 115.641 132.246 115.426
 132.32 c f*
119.598 134.398 m 119.598 135.43 l 120.629 135.43 l 120.629 134.398 l 120.629
 134.016 120.562 133.703 120.434 133.469 c 120.301 133.234 120.086 133.055
 119.781 132.93 c 119.531 133.32 l 119.73 133.402 119.875 133.527 119.965
 133.688 c 120.051 133.852 120.102 134.086 120.113 134.398 c 119.598 134.398
 l f*
123.426 136.352 m 124.328 136.477 l 124.434 135.969 124.613 135.598 124.867
 135.367 c 125.125 135.141 125.43 135.023 125.781 135.023 c 126.211 135.023
 126.57 135.172 126.867 135.469 c 127.164 135.766 127.312 136.133 127.312
 136.57 c 127.312 136.988 127.18 137.332 126.906 137.602 c 126.637 137.871
 126.289 138.008 125.859 138.008 c 125.695 138.008 125.48 137.977 125.219
 137.914 c 125.312 138.711 l 125.469 138.711 l 125.855 138.711 126.203 138.809
 126.516 139.008 c 126.828 139.207 126.984 139.52 126.984 139.945 c 126.984
 140.277 126.871 140.555 126.641 140.773 c 126.414 140.992 126.121 141.102
 125.766 141.102 c 125.414 141.102 125.117 140.988 124.883 140.766 c 124.648
 140.543 124.496 140.211 124.426 139.773 c 123.516 139.93 l 123.621 140.547
 123.871 141.02 124.266 141.352 c 124.664 141.684 125.156 141.852 125.754
 141.852 c 126.156 141.852 126.531 141.766 126.867 141.594 c 127.207 141.422
 127.469 141.184 127.648 140.883 c 127.832 140.582 127.926 140.266 127.926
 139.93 c 127.926 139.605 127.84 139.312 127.664 139.047 c 127.492 138.781
 127.234 138.57 126.891 138.414 c 127.328 138.32 127.672 138.113 127.914
 137.789 c 128.16 137.469 128.281 137.066 128.281 136.586 c 128.281 135.941
 128.047 135.395 127.57 134.945 c 127.098 134.496 126.504 134.273 125.781
 134.273 c 125.129 134.273 124.586 134.469 124.156 134.852 c 123.73 135.238
 123.484 135.738 123.426 136.352 c f*
130.672 134.398 m 130.672 136.18 l 127.438 136.18 l 127.438 137.008 l 130.828
 141.82 l 131.578 141.82 l 131.578 137.008 l 132.578 137.008 l 132.578 136.18
 l 131.578 136.18 l 131.578 134.398 l h
130.672 137.008 m 130.672 140.367 l 128.344 137.008 l 130.672 137.008 l
 f*
134.488 132.336 m 134.488 139.773 l 135.316 139.773 l 135.316 139.086 l
 135.512 139.355 135.734 139.559 135.98 139.695 c 136.223 139.832 136.523
 139.898 136.879 139.898 c 137.336 139.898 137.738 139.781 138.09 139.547
 c 138.438 139.312 138.703 138.98 138.887 138.547 c 139.066 138.113 139.156
 137.645 139.156 137.133 c 139.156 136.582 139.059 136.086 138.859 135.641
 c 138.664 135.199 138.375 134.859 137.992 134.625 c 137.613 134.391 137.223
 134.273 136.816 134.273 c 136.504 134.273 136.227 134.34 135.988 134.469
 c 135.746 134.602 135.551 134.766 135.395 134.961 c 135.395 132.336 l h
135.316 137.055 m 135.316 136.367 135.453 135.855 135.73 135.523 c 136.004
 135.191 136.348 135.023 136.754 135.023 c 137.156 135.023 137.504 135.195
 137.789 135.539 c 138.078 135.883 138.223 136.414 138.223 137.133 c 138.223
 137.82 138.078 138.336 137.801 138.672 c 137.52 139.012 137.18 139.18 136.781
 139.18 c 136.398 139.18 136.059 139 135.762 138.641 c 135.465 138.281 135.316
 137.754 135.316 137.055 c f*
142.316 135.055 m 141.98 134.773 141.656 134.574 141.348 134.453 c 141.031
 134.336 140.699 134.273 140.348 134.273 c 139.754 134.273 139.297 134.422
 138.98 134.711 c 138.66 135.004 138.504 135.371 138.504 135.82 c 138.504
 136.082 138.562 136.32 138.684 136.539 c 138.801 136.758 138.957 136.934
 139.148 137.062 c 139.344 137.191 139.566 137.297 139.816 137.367 c 139.992
 137.41 140.262 137.449 140.629 137.492 c 141.355 137.586 141.898 137.695
 142.254 137.82 c 142.254 138.055 l 142.254 138.422 142.164 138.68 141.984
 138.836 c 141.758 139.047 141.414 139.148 140.953 139.148 c 140.527 139.148
 140.215 139.074 140.012 138.922 c 139.809 138.77 139.652 138.504 139.551
 138.117 c 138.656 138.242 l 138.742 138.629 138.875 138.938 139.059 139.172
 c 139.238 139.406 139.508 139.586 139.859 139.711 c 140.215 139.836 140.621
 139.898 141.078 139.898 c 141.539 139.898 141.914 139.844 142.203 139.734
 c 142.496 139.625 142.707 139.488 142.84 139.328 c 142.969 139.168 143.066
 138.961 143.129 138.711 c 143.156 138.555 143.176 138.273 143.176 137.867
 c 143.176 136.648 l 143.176 135.805 143.191 135.27 143.23 135.047 c 143.266
 134.824 143.34 134.605 143.453 134.398 c 142.504 134.398 l 142.406 134.586
 142.348 134.805 142.316 135.055 c h
142.254 137.102 m 141.918 136.969 141.418 136.852 140.754 136.758 c 140.379
 136.707 140.109 136.645 139.953 136.578 c 139.801 136.512 139.68 136.41
 139.598 136.281 c 139.512 136.152 139.473 136.004 139.473 135.836 c 139.473
 135.598 139.566 135.395 139.754 135.234 c 139.938 135.074 140.211 134.992
 140.566 134.992 c 140.906 134.992 141.219 135.066 141.492 135.219 c 141.77
 135.371 141.973 135.582 142.098 135.852 c 142.199 136.059 142.254 136.363
 142.254 136.758 c 142.254 137.102 l f*
143.129 134.398 m 143.129 139.773 l 143.953 139.773 l 143.953 138.961 l
 144.164 139.348 144.355 139.602 144.531 139.719 c 144.711 139.84 144.902
 139.898 145.109 139.898 c 145.426 139.898 145.734 139.801 146.051 139.602
 c 145.734 138.758 l 145.516 138.895 145.293 138.961 145.062 138.961 c 144.867
 138.961 144.688 138.902 144.531 138.781 c 144.379 138.66 144.262 138.492
 144.188 138.273 c 144.086 137.949 144.031 137.598 144.031 137.211 c 144.031
 134.398 l 143.129 134.398 l f*
147.723 135.211 m 147.859 134.414 l 147.602 134.352 147.371 134.32 147.176
 134.32 c 146.84 134.32 146.582 134.375 146.402 134.484 c 146.219 134.594
 146.09 134.73 146.012 134.898 c 145.934 135.066 145.895 135.426 145.895
 135.977 c 145.895 139.07 l 145.238 139.07 l 145.238 139.773 l 145.895 139.773
 l 145.895 141.117 l 146.816 141.664 l 146.816 139.773 l 147.723 139.773
 l 147.723 139.07 l 146.816 139.07 l 146.816 135.93 l 146.816 135.672 146.828
 135.5 146.859 135.422 c 146.895 135.344 146.945 135.285 147.02 135.242 
c 147.09 135.199 147.195 135.18 147.328 135.18 c 147.426 135.18 147.555 
135.191 147.723 135.211 c f*
147.895 140.773 m 147.895 141.82 l 148.801 141.82 l 148.801 140.773 l h
147.895 134.398 m 147.895 139.773 l 148.801 139.773 l 148.801 134.398 l
 147.895 134.398 l f*
153.129 136.367 m 154.031 136.258 l 153.93 135.633 153.676 135.145 153.273
 134.797 c 152.875 134.449 152.383 134.273 151.797 134.273 c 151.059 134.273
 150.465 134.516 150.016 135 c 149.57 135.484 149.344 136.176 149.344 137.07
 c 149.344 137.652 149.441 138.16 149.633 138.594 c 149.828 139.027 150.117
 139.352 150.508 139.57 c 150.898 139.789 151.328 139.898 151.797 139.898
 c 152.383 139.898 152.859 139.75 153.227 139.453 c 153.598 139.156 153.836
 138.738 153.938 138.195 c 153.062 138.055 l 152.969 138.422 152.816 138.691
 152.602 138.875 c 152.391 139.059 152.133 139.148 151.828 139.148 c 151.371
 139.148 151 138.984 150.711 138.656 c 150.426 138.328 150.281 137.805 150.281
 137.086 c 150.281 136.367 150.422 135.844 150.695 135.516 c 150.973 135.188
 151.336 135.023 151.781 135.023 c 152.137 135.023 152.434 135.133 152.672
 135.352 c 152.914 135.57 153.062 135.91 153.129 136.367 c f*
153.484 141.82 0.926 -7.422 re f*
158.922 136.133 m 159.875 136.008 l 159.73 135.469 159.453 135.043 159.047
 134.734 c 158.641 134.43 158.125 134.273 157.504 134.273 c 156.719 134.273
 156.098 134.516 155.633 135 c 155.172 135.484 154.938 136.164 154.938 137.039
 c 154.938 137.945 155.172 138.648 155.641 139.148 c 156.109 139.648 156.715
 139.898 157.453 139.898 c 158.172 139.898 158.762 139.652 159.219 139.164
 c 159.68 138.676 159.906 137.988 159.906 137.102 c 159.906 137.051 159.902
 136.969 159.891 136.852 c 155.891 136.852 l 155.922 136.27 156.09 135.816
 156.391 135.5 c 156.695 135.184 157.07 135.023 157.516 135.023 c 157.852
 135.023 158.133 135.113 158.367 135.289 c 158.602 135.469 158.789 135.746
 158.922 136.133 c h
155.938 137.602 m 158.938 137.602 l 158.898 138.059 158.781 138.398 158.594
 138.617 c 158.305 138.973 157.93 139.148 157.469 139.148 c 157.055 139.148
 156.703 139.008 156.414 138.727 c 156.129 138.445 155.969 138.07 155.938
 137.602 c f*
159.203 136.008 m 160.109 136.148 l 160.164 135.785 160.305 135.508 160.531
 135.312 c 160.762 135.121 161.086 135.023 161.5 135.023 c 161.93 135.023
 162.242 135.109 162.438 135.281 c 162.637 135.453 162.734 135.652 162.734
 135.883 c 162.734 136.094 162.648 136.254 162.469 136.367 c 162.344 136.449
 162.039 136.555 161.547 136.68 c 160.871 136.848 160.406 136.992 160.148
 137.117 c 159.895 137.242 159.699 137.414 159.562 137.633 c 159.43 137.852
 159.359 138.094 159.359 138.352 c 159.359 138.594 159.414 138.812 159.523
 139.016 c 159.633 139.219 159.781 139.391 159.969 139.523 c 160.117 139.629
 160.312 139.719 160.555 139.789 c 160.801 139.863 161.062 139.898 161.344
 139.898 c 161.762 139.898 162.133 139.84 162.453 139.719 c 162.777 139.602
 163.016 139.434 163.164 139.227 c 163.316 139.02 163.418 138.738 163.469
 138.383 c 162.578 138.273 l 162.539 138.547 162.422 138.758 162.227 138.914
 c 162.035 139.07 161.762 139.148 161.406 139.148 c 160.992 139.148 160.695
 139.082 160.516 138.945 c 160.34 138.809 160.25 138.648 160.25 138.461 
c 160.25 138.336 160.289 138.227 160.359 138.133 c 160.434 138.039 160.547
 137.961 160.703 137.898 c 160.797 137.855 161.07 137.777 161.516 137.664
 c 162.164 137.488 162.613 137.344 162.867 137.234 c 163.125 137.125 163.32
 136.969 163.461 136.758 c 163.602 136.551 163.672 136.289 163.672 135.977
 c 163.672 135.676 163.586 135.391 163.406 135.117 c 163.23 134.848 162.977
 134.641 162.641 134.492 c 162.309 134.348 161.934 134.273 161.516 134.273
 c 160.82 134.273 160.285 134.422 159.914 134.711 c 159.547 135.004 159.309
 135.434 159.203 136.008 c f*
  Q
Q
Q Q
showpage
%%Trailer
end restore
%%EOF
