%!PS-Adobe-3.0 EPSF-3.0
%%Creator: cairo 1.14.2 (http://cairographics.org)
%%CreationDate: Thu May 21 12:53:39 2015
%%Pages: 1
%%DocumentData: Clean7Bit
%%LanguageLevel: 2
%%BoundingBox: 0 0 283 159
%%EndComments
%%BeginProlog
save
50 dict begin
/q { gsave } bind def
/Q { grestore } bind def
/cm { 6 array astore concat } bind def
/w { setlinewidth } bind def
/J { setlinecap } bind def
/j { setlinejoin } bind def
/M { setmiterlimit } bind def
/d { setdash } bind def
/m { moveto } bind def
/l { lineto } bind def
/c { curveto } bind def
/h { closepath } bind def
/re { exch dup neg 3 1 roll 5 3 roll moveto 0 rlineto
      0 exch rlineto 0 rlineto closepath } bind def
/S { stroke } bind def
/f { fill } bind def
/f* { eofill } bind def
/n { newpath } bind def
/W { clip } bind def
/W* { eoclip } bind def
/BT { } bind def
/ET { } bind def
/pdfmark where { pop globaldict /?pdfmark /exec load put }
    { globaldict begin /?pdfmark /pop load def /pdfmark
    /cleartomark load def end } ifelse
/BDC { mark 3 1 roll /BDC pdfmark } bind def
/EMC { mark /EMC pdfmark } bind def
/cairo_store_point { /cairo_point_y exch def /cairo_point_x exch def } def
/Tj { show currentpoint cairo_store_point } bind def
/TJ {
  {
    dup
    type /stringtype eq
    { show } { -0.001 mul 0 cairo_font_matrix dtransform rmoveto } ifelse
  } forall
  currentpoint cairo_store_point
} bind def
/cairo_selectfont { cairo_font_matrix aload pop pop pop 0 0 6 array astore
    cairo_font exch selectfont cairo_point_x cairo_point_y moveto } bind def
/Tf { pop /cairo_font exch def /cairo_font_matrix where
      { pop cairo_selectfont } if } bind def
/Td { matrix translate cairo_font_matrix matrix concatmatrix dup
      /cairo_font_matrix exch def dup 4 get exch 5 get cairo_store_point
      /cairo_font where { pop cairo_selectfont } if } bind def
/Tm { 2 copy 8 2 roll 6 array astore /cairo_font_matrix exch def
      cairo_store_point /cairo_font where { pop cairo_selectfont } if } bind def
/g { setgray } bind def
/rg { setrgbcolor } bind def
/d1 { setcachedevice } bind def
%%EndProlog
%%BeginSetup
%%EndSetup
%%Page: 1 1
%%BeginPageSetup
%%PageBoundingBox: 0 0 283 159
%%EndPageSetup
q 0 0 283 159 rectclip q
Q q
5.719 138.809 259 -131 re W n
q
5 139 260 -132 re W n
  q
0.368627 0.505882 0.709804 rg
1.152 w
2 J
0 j
[] 0.0 d
3.25 M q 1 0 0 1 0 159 cm
31.805 -150.09 m 43.059 -150.09 l 43.316 -150.086 l 45.973 -150.086 l 46.098
 -150.082 l 47.477 -150.082 l 47.605 -150.078 l 48.105 -150.078 l 48.355
 -150.074 l 48.629 -150.074 l 48.902 -150.07 l 49.176 -150.07 l 49.445 -150.066
 l 49.719 -150.066 l 49.992 -150.062 l 50.059 -150.062 l 50.129 -150.059
 l 50.266 -150.059 l 50.535 -150.055 l 50.672 -150.055 l 50.809 -150.051
 l 51.082 -150.047 l 51.148 -150.047 l 51.219 -150.043 l 51.355 -150.043
 l 51.625 -150.039 l 51.695 -150.039 l 51.762 -150.035 l 51.898 -150.031
 l 52.172 -150.027 l 52.715 -150.016 l 52.781 -150.012 l 52.844 -150.012
 l 52.969 -150.008 l 53.223 -150 l 53.289 -150 l 53.352 -149.996 l 53.48
 -149.992 l 53.734 -149.984 l 53.797 -149.984 l 53.859 -149.98 l 53.988 
-149.977 l 54.242 -149.965 l 54.75 -149.945 l 54.812 -149.941 l 54.879 -149.938
 l 55.004 -149.934 l 55.258 -149.922 l 55.32 -149.918 l 55.387 -149.914 
l 55.512 -149.906 l 55.766 -149.895 l 55.832 -149.891 l 56.02 -149.879 l
 56.273 -149.863 l 56.785 -149.828 l 56.852 -149.824 l 56.922 -149.82 l 
57.059 -149.809 l 57.336 -149.789 l 57.887 -149.738 l 57.957 -149.734 l 
58.023 -149.727 l 58.16 -149.715 l 58.438 -149.688 l 58.988 -149.629 l 59.059
 -149.621 l 59.125 -149.613 l 59.262 -149.598 l 59.539 -149.562 l 60.09 
-149.492 l 60.16 -149.48 l 60.227 -149.473 l 60.367 -149.453 l 60.641 -149.41
 l 61.191 -149.324 l 61.262 -149.312 l 61.328 -149.301 l 61.465 -149.277
 l 61.734 -149.23 l 62.273 -149.129 l 62.344 -149.117 l 62.41 -149.102 l
 62.543 -149.074 l 62.816 -149.02 l 63.355 -148.902 l 63.422 -148.887 l 
63.492 -148.871 l 63.629 -148.84 l 63.898 -148.773 l 64.438 -148.637 l 65.52
 -148.336 l 65.645 -148.297 l 65.773 -148.262 l 66.023 -148.184 l 66.527
 -148.02 l 67.539 -147.668 l 67.602 -147.648 l 67.789 -147.578 l 68.043 
-147.48 l 68.547 -147.285 l 69.559 -146.867 l 69.625 -146.84 l 69.695 -146.809
 l 69.832 -146.75 l 70.105 -146.629 l 70.652 -146.379 l 71.746 -145.852 
l 73.934 -144.688 l 74 -144.652 l 74.062 -144.617 l 74.191 -144.543 l 74.445
 -144.398 l 74.957 -144.102 l 75.977 -143.492 l 78.023 -142.203 l 82.027
 -139.469 l 86.375 -136.293 l 90.43 -133.129 l 94.828 -129.289 l 99.145 
-124.934 l 103.168 -120.57 l 103.238 -120.496 l 103.305 -120.422 l 103.441
 -120.277 l 103.715 -119.984 l 104.262 -119.406 l 105.352 -118.277 l 105.422
 -118.211 l 105.488 -118.141 l 105.898 -117.73 l 106.441 -117.191 l 107.535
 -116.156 l 107.66 -116.039 l 107.789 -115.926 l 108.043 -115.695 l 108.555
 -115.246 l 109.57 -114.391 l 109.637 -114.34 l 109.699 -114.289 l 109.828
 -114.188 l 110.082 -113.988 l 110.59 -113.602 l 111.609 -112.871 l 111.68
 -112.828 l 111.746 -112.781 l 111.887 -112.688 l 112.16 -112.508 l 112.715
 -112.164 l 112.781 -112.125 l 112.852 -112.082 l 112.988 -112.004 l 113.266
 -111.844 l 113.816 -111.547 l 113.957 -111.477 l 114.094 -111.406 l 114.371
 -111.273 l 114.922 -111.023 l 114.992 -110.996 l 115.059 -110.965 l 115.199
 -110.91 l 115.473 -110.801 l 116.027 -110.605 l 116.094 -110.582 l 116.16
 -110.562 l 116.297 -110.52 l 116.566 -110.438 l 116.637 -110.418 l 116.703
 -110.402 l 116.84 -110.367 l 117.109 -110.301 l 117.176 -110.285 l 117.246
 -110.27 l 117.379 -110.242 l 117.449 -110.23 l 117.516 -110.219 l 117.652
 -110.191 l 117.785 -110.168 l 117.922 -110.148 l 117.988 -110.141 l 118.059
 -110.129 l 118.191 -110.113 l 118.262 -110.105 l 118.395 -110.09 l 118.465
 -110.086 l 118.531 -110.078 l 118.602 -110.07 l 118.734 -110.062 l 118.805
 -110.059 l 118.938 -110.051 l 119.008 -110.047 l 119.141 -110.047 l 119.211
 -110.043 l 119.48 -110.043 l 119.547 -110.047 l 119.617 -110.047 l 119.75
 -110.055 l 119.82 -110.055 l 119.953 -110.062 l 120.023 -110.07 l 120.09
 -110.074 l 120.156 -110.082 l 120.227 -110.086 l 120.426 -110.109 l 120.676
 -110.141 l 120.738 -110.152 l 120.867 -110.172 l 120.93 -110.18 l 121.117
 -110.215 l 121.371 -110.27 l 121.434 -110.281 l 121.496 -110.297 l 121.625
 -110.328 l 121.879 -110.395 l 121.941 -110.414 l 122.004 -110.43 l 122.129
 -110.469 l 122.383 -110.547 l 122.508 -110.594 l 122.637 -110.637 l 122.887
 -110.73 l 123.395 -110.941 l 123.52 -110.996 l 123.648 -111.055 l 123.898
 -111.176 l 124.406 -111.438 l 124.473 -111.477 l 124.543 -111.516 l 124.68
 -111.59 l 124.953 -111.75 l 125.5 -112.094 l 126.598 -112.863 l 126.664
 -112.914 l 126.734 -112.965 l 126.871 -113.07 l 127.145 -113.285 l 127.695
 -113.73 l 128.789 -114.691 l 128.855 -114.75 l 128.918 -114.809 l 129.047
 -114.926 l 129.301 -115.164 l 129.812 -115.652 l 130.836 -116.664 l 132.883
 -118.77 l 133.008 -118.902 l 133.137 -119.031 l 133.387 -119.293 l 133.887
 -119.812 l 134.891 -120.832 l 135.141 -121.082 l 135.391 -121.328 l 135.895
 -121.812 l 136.898 -122.734 l 136.965 -122.793 l 137.035 -122.855 l 137.172
 -122.973 l 137.441 -123.203 l 137.984 -123.645 l 138.055 -123.699 l 138.121
 -123.75 l 138.258 -123.855 l 138.531 -124.055 l 139.074 -124.438 l 139.145
 -124.48 l 139.211 -124.523 l 139.348 -124.613 l 139.617 -124.777 l 139.688
 -124.82 l 139.754 -124.859 l 139.891 -124.938 l 140.164 -125.082 l 140.23
 -125.117 l 140.434 -125.219 l 140.707 -125.344 l 140.773 -125.375 l 140.844
 -125.402 l 140.98 -125.461 l 141.254 -125.562 l 141.316 -125.586 l 141.379
 -125.605 l 141.508 -125.648 l 141.633 -125.688 l 141.762 -125.723 l 141.824
 -125.738 l 141.887 -125.758 l 142.016 -125.785 l 142.141 -125.816 l 142.27
 -125.84 l 142.395 -125.863 l 142.457 -125.871 l 142.52 -125.883 l 142.586
 -125.891 l 142.711 -125.906 l 142.773 -125.91 l 142.84 -125.918 l 143.027
 -125.93 l 143.094 -125.934 l 143.156 -125.934 l 143.219 -125.938 l 143.348
 -125.938 l 143.41 -125.934 l 143.473 -125.934 l 143.535 -125.93 l 143.602
 -125.926 l 143.727 -125.918 l 143.789 -125.91 l 143.855 -125.906 l 143.98
 -125.891 l 144.047 -125.883 l 144.109 -125.871 l 144.172 -125.863 l 144.301
 -125.84 l 144.363 -125.828 l 144.426 -125.812 l 144.555 -125.781 l 144.68
 -125.75 l 144.809 -125.715 l 144.871 -125.695 l 144.934 -125.672 l 145.062
 -125.633 l 145.316 -125.535 l 145.383 -125.508 l 145.453 -125.477 l 145.59
 -125.418 l 146.004 -125.211 l 146.141 -125.133 l 146.414 -124.965 l 146.555
 -124.879 l 146.691 -124.785 l 146.965 -124.586 l 147.516 -124.141 l 147.586
 -124.082 l 147.656 -124.02 l 147.793 -123.895 l 148.066 -123.629 l 148.617
 -123.055 l 148.688 -122.98 l 148.758 -122.902 l 148.895 -122.742 l 149.168
 -122.418 l 149.719 -121.715 l 149.785 -121.625 l 149.855 -121.535 l 149.988
 -121.348 l 150.258 -120.969 l 150.801 -120.16 l 151.883 -118.383 l 151.949
 -118.266 l 152.016 -118.145 l 152.152 -117.902 l 152.422 -117.414 l 152.961
 -116.395 l 154.043 -114.219 l 154.105 -114.09 l 154.168 -113.957 l 154.293
 -113.688 l 154.547 -113.148 l 155.051 -112.043 l 156.059 -109.754 l 158.074
 -104.926 l 158.145 -104.758 l 158.211 -104.59 l 158.348 -104.258 l 158.621
 -103.586 l 159.168 -102.238 l 160.262 -99.547 l 162.449 -94.324 l 162.512
 -94.18 l 162.574 -94.031 l 162.703 -93.738 l 162.957 -93.16 l 163.469 -92.027
 l 164.488 -89.863 l 164.555 -89.734 l 164.742 -89.348 l 165 -88.84 l 165.512
 -87.859 l 166.531 -86.039 l 166.594 -85.934 l 166.656 -85.832 l 166.781
 -85.625 l 167.031 -85.223 l 167.531 -84.457 l 167.594 -84.363 l 167.781
 -84.094 l 168.031 -83.742 l 168.531 -83.086 l 168.656 -82.93 l 168.781 
-82.777 l 169.031 -82.484 l 169.156 -82.344 l 169.281 -82.207 l 169.531 
-81.941 l 169.656 -81.816 l 169.781 -81.695 l 170.031 -81.461 l 170.531 
-81.039 l 170.602 -80.988 l 170.668 -80.938 l 170.805 -80.836 l 171.074 
-80.652 l 171.145 -80.609 l 171.211 -80.566 l 171.348 -80.484 l 171.617 
-80.34 l 171.688 -80.305 l 171.754 -80.27 l 171.891 -80.207 l 171.957 -80.18
 l 172.023 -80.148 l 172.16 -80.098 l 172.227 -80.07 l 172.297 -80.047 l
 172.434 -80.004 l 172.5 -79.98 l 172.566 -79.965 l 172.703 -79.93 l 172.77
 -79.91 l 172.84 -79.898 l 172.906 -79.883 l 172.977 -79.871 l 173.109 -79.848
 l 173.18 -79.84 l 173.312 -79.824 l 173.383 -79.82 l 173.449 -79.816 l 
173.52 -79.812 l 173.586 -79.809 l 173.855 -79.809 l 173.926 -79.812 l 173.992
 -79.816 l 174.059 -79.824 l 174.129 -79.832 l 174.195 -79.836 l 174.266
 -79.848 l 174.332 -79.855 l 174.398 -79.867 l 174.469 -79.879 l 174.535
 -79.891 l 174.602 -79.906 l 174.672 -79.922 l 174.738 -79.938 l 174.875
 -79.973 l 175 -80.012 l 175.129 -80.055 l 175.191 -80.074 l 175.254 -80.098
 l 175.383 -80.148 l 175.445 -80.172 l 175.633 -80.254 l 175.887 -80.379
 l 175.949 -80.41 l 176.016 -80.445 l 176.141 -80.516 l 176.395 -80.668 
l 176.52 -80.746 l 176.648 -80.832 l 176.898 -81.012 l 176.965 -81.059 l
 177.027 -81.105 l 177.152 -81.207 l 177.406 -81.41 l 177.914 -81.863 l 
177.977 -81.926 l 178.039 -81.984 l 178.168 -82.109 l 178.422 -82.367 l 
178.926 -82.918 l 178.996 -83 l 179.062 -83.078 l 179.199 -83.238 l 179.477
 -83.57 l 180.023 -84.277 l 181.121 -85.832 l 181.191 -85.938 l 181.262 
-86.039 l 181.398 -86.25 l 181.672 -86.68 l 182.219 -87.566 l 183.316 -89.453
 l 183.383 -89.57 l 183.445 -89.684 l 183.574 -89.914 l 183.832 -90.383 
l 184.344 -91.336 l 185.367 -93.316 l 187.422 -97.488 l 191.441 -106.055
 l 195.801 -115.094 l 199.871 -122.652 l 199.941 -122.773 l 200.012 -122.891
 l 200.148 -123.125 l 200.426 -123.59 l 200.977 -124.508 l 202.078 -126.273
 l 204.285 -129.535 l 204.418 -129.723 l 204.555 -129.91 l 204.824 -130.277
 l 205.367 -131.004 l 206.449 -132.387 l 206.516 -132.469 l 206.586 -132.555
 l 206.719 -132.719 l 206.988 -133.047 l 207.531 -133.688 l 208.613 -134.906
 l 208.676 -134.977 l 208.742 -135.043 l 208.867 -135.18 l 209.117 -135.449
 l 209.625 -135.973 l 210.633 -136.977 l 210.695 -137.035 l 210.762 -137.098
 l 210.887 -137.215 l 211.141 -137.453 l 211.645 -137.914 l 212.652 -138.793
 l 212.723 -138.852 l 212.789 -138.906 l 212.93 -139.02 l 213.203 -139.246
 l 213.75 -139.68 l 214.844 -140.508 l 214.914 -140.555 l 214.98 -140.605
 l 215.117 -140.703 l 215.391 -140.895 l 215.938 -141.27 l 217.035 -141.977
 l 217.098 -142.02 l 217.16 -142.059 l 217.289 -142.137 l 217.547 -142.289
 l 218.059 -142.59 l 219.078 -143.16 l 219.145 -143.195 l 219.207 -143.23
 l 219.336 -143.297 l 219.59 -143.43 l 220.102 -143.688 l 221.125 -144.18
 l 221.188 -144.207 l 221.25 -144.238 l 221.375 -144.293 l 221.625 -144.406
 l 222.125 -144.625 l 223.129 -145.039 l 223.191 -145.062 l 223.254 -145.09
 l 223.379 -145.137 l 223.629 -145.234 l 224.133 -145.422 l 225.133 -145.777
 l 225.199 -145.801 l 225.27 -145.824 l 225.406 -145.871 l 225.676 -145.961
 l 226.223 -146.133 l 227.309 -146.461 l 227.375 -146.48 l 227.445 -146.5
 l 227.578 -146.539 l 227.852 -146.617 l 228.395 -146.762 l 229.484 -147.039
 l 229.609 -147.07 l 229.738 -147.102 l 229.988 -147.16 l 230.496 -147.277
 l 231.512 -147.496 l 231.574 -147.512 l 231.641 -147.523 l 231.766 -147.551
 l 232.527 -147.703 l 233.543 -147.891 l 233.824 -147.938 l 234.109 -147.988
 l 234.676 -148.082 l 235.809 -148.258 l 235.879 -148.266 l 235.949 -148.277
 l 236.09 -148.297 l 236.371 -148.34 l 236.941 -148.418 l 237.012 -148.426
 l 237.082 -148.438 l 237.223 -148.457 l 237.508 -148.492 l 237.578 -148.5
 l 237.648 -148.512 l 237.859 -148.535 l 237.93 -148.547 l 238.004 -148.555
 l 238.074 -148.562 l S Q
0.882353 0.611765 0.141176 rg
[ 3.456 3.456] 0 d
q 1 0 0 1 0 159 cm
31.805 -150.09 m 44.59 -150.09 l 44.844 -150.086 l 47.605 -150.086 l 47.855
 -150.082 l 49.445 -150.082 l 49.516 -150.078 l 50.059 -150.078 l 50.129
 -150.074 l 50.809 -150.074 l 51.082 -150.07 l 51.355 -150.07 l 51.625 -150.066
 l 51.762 -150.066 l 51.898 -150.062 l 52.172 -150.062 l 52.715 -150.055
 l 52.969 -150.055 l 53.223 -150.051 l 53.289 -150.051 l 53.352 -150.047
 l 53.48 -150.047 l 53.734 -150.043 l 53.797 -150.043 l 53.859 -150.039 
l 53.988 -150.039 l 54.242 -150.035 l 54.75 -150.023 l 54.879 -150.023 l
 55.004 -150.02 l 55.258 -150.016 l 55.32 -150.012 l 55.387 -150.012 l 55.512
 -150.008 l 55.766 -150 l 55.895 -150 l 56.02 -149.996 l 56.273 -149.988
 l 56.785 -149.973 l 56.852 -149.969 l 56.922 -149.969 l 57.059 -149.961
 l 57.336 -149.953 l 57.887 -149.934 l 57.957 -149.93 l 58.023 -149.926 
l 58.16 -149.922 l 58.438 -149.91 l 58.988 -149.883 l 59.059 -149.879 l 
59.125 -149.875 l 59.262 -149.867 l 59.539 -149.852 l 60.09 -149.82 l 60.16
 -149.816 l 60.227 -149.812 l 60.367 -149.805 l 60.641 -149.785 l 61.191
 -149.746 l 61.262 -149.742 l 61.328 -149.734 l 61.465 -149.727 l 62.273
 -149.656 l 62.344 -149.652 l 62.41 -149.645 l 62.543 -149.633 l 62.816 
-149.609 l 63.355 -149.555 l 63.422 -149.551 l 63.492 -149.543 l 63.629 
-149.527 l 63.898 -149.5 l 64.438 -149.438 l 65.52 -149.305 l 65.645 -149.289
 l 65.773 -149.27 l 66.023 -149.234 l 66.527 -149.164 l 67.539 -149.012 
l 67.664 -148.988 l 67.789 -148.969 l 68.043 -148.93 l 68.547 -148.844 l
 69.559 -148.66 l 69.625 -148.648 l 69.695 -148.633 l 69.832 -148.609 l 
70.105 -148.555 l 70.652 -148.449 l 71.746 -148.223 l 73.934 -147.734 l 
78.023 -146.738 l 82.027 -145.742 l 86.375 -144.719 l 90.43 -143.875 l 90.5
 -143.863 l 90.566 -143.848 l 90.707 -143.82 l 90.98 -143.77 l 91.531 -143.668
 l 92.629 -143.469 l 94.828 -143.102 l 94.961 -143.078 l 95.098 -143.059
 l 95.367 -143.016 l 95.906 -142.934 l 96.984 -142.773 l 99.145 -142.473
 l 99.395 -142.441 l 99.648 -142.406 l 100.148 -142.344 l 101.156 -142.219
 l 103.168 -141.984 l 107.535 -141.535 l 111.609 -141.164 l 116.027 -140.781
 l 120.359 -140.406 l 124.406 -140.023 l 128.789 -139.555 l 128.855 -139.547
 l 128.918 -139.539 l 129.047 -139.527 l 129.301 -139.496 l 130.836 -139.309
 l 132.883 -139.035 l 132.945 -139.027 l 133.008 -139.016 l 133.137 -139
 l 133.387 -138.965 l 133.887 -138.891 l 134.891 -138.738 l 135.016 -138.723
 l 135.141 -138.703 l 135.391 -138.66 l 135.895 -138.582 l 136.898 -138.414
 l 136.965 -138.402 l 137.035 -138.391 l 137.172 -138.367 l 137.441 -138.32
 l 137.984 -138.223 l 139.074 -138.016 l 139.145 -138.004 l 139.211 -137.988
 l 139.348 -137.965 l 139.617 -137.91 l 140.164 -137.797 l 141.254 -137.566
 l 141.316 -137.555 l 141.379 -137.539 l 141.508 -137.512 l 142.27 -137.336
 l 143.281 -137.09 l 143.348 -137.074 l 143.535 -137.027 l 143.789 -136.961
 l 144.301 -136.828 l 145.316 -136.551 l 145.383 -136.531 l 145.453 -136.512
 l 145.59 -136.473 l 145.863 -136.391 l 146.414 -136.227 l 147.516 -135.879
 l 147.656 -135.832 l 148.066 -135.691 l 148.617 -135.5 l 149.719 -135.098
 l 149.785 -135.07 l 149.855 -135.043 l 149.988 -134.992 l 150.258 -134.887
 l 150.801 -134.664 l 151.883 -134.203 l 152.016 -134.141 l 152.152 -134.082
 l 152.422 -133.957 l 152.961 -133.699 l 154.043 -133.156 l 154.105 -133.121
 l 154.168 -133.09 l 154.293 -133.02 l 154.547 -132.887 l 155.051 -132.605
 l 156.059 -132.012 l 156.184 -131.934 l 156.312 -131.855 l 156.562 -131.695
 l 157.066 -131.371 l 158.074 -130.676 l 158.145 -130.625 l 158.211 -130.578
 l 158.621 -130.273 l 159.168 -129.855 l 160.262 -128.961 l 160.328 -128.902
 l 160.398 -128.844 l 160.809 -128.48 l 161.355 -127.98 l 162.449 -126.91
 l 162.574 -126.777 l 162.703 -126.645 l 162.957 -126.379 l 163.469 -125.82
 l 164.488 -124.637 l 164.555 -124.559 l 164.742 -124.324 l 165 -124.004
 l 165.512 -123.348 l 166.531 -121.949 l 166.656 -121.77 l 167.031 -121.219
 l 167.531 -120.461 l 168.531 -118.855 l 168.594 -118.754 l 168.781 -118.438
 l 169.031 -118.008 l 169.531 -117.129 l 170.531 -115.27 l 170.602 -115.141
 l 170.668 -115.008 l 170.805 -114.742 l 171.074 -114.207 l 171.617 -113.109
 l 172.703 -110.805 l 174.875 -105.816 l 175 -105.512 l 175.129 -105.207
 l 175.383 -104.594 l 175.887 -103.359 l 176.898 -100.863 l 176.965 -100.711
 l 177.152 -100.242 l 177.406 -99.617 l 177.914 -98.375 l 178.926 -95.941
 l 178.996 -95.777 l 179.062 -95.617 l 179.199 -95.297 l 179.477 -94.664
 l 180.023 -93.434 l 180.094 -93.285 l 180.16 -93.137 l 180.301 -92.84 l
 180.574 -92.262 l 181.121 -91.152 l 181.191 -91.016 l 181.262 -90.887 l
 181.398 -90.625 l 181.672 -90.117 l 182.219 -89.176 l 182.289 -89.062 l
 182.359 -88.953 l 182.496 -88.738 l 182.77 -88.328 l 183.316 -87.59 l 183.383
 -87.512 l 183.445 -87.438 l 183.574 -87.285 l 183.832 -87.008 l 183.895
 -86.941 l 183.961 -86.879 l 184.086 -86.758 l 184.344 -86.531 l 184.406
 -86.48 l 184.473 -86.434 l 184.602 -86.34 l 184.664 -86.293 l 184.727 -86.254
 l 184.855 -86.172 l 184.922 -86.137 l 184.984 -86.102 l 185.051 -86.066
 l 185.113 -86.035 l 185.176 -86.008 l 185.242 -85.98 l 185.367 -85.93 l
 185.434 -85.906 l 185.496 -85.887 l 185.562 -85.871 l 185.688 -85.84 l 
185.754 -85.828 l 185.816 -85.816 l 185.883 -85.809 l 185.945 -85.801 l 
186.012 -85.797 l 186.074 -85.793 l 186.203 -85.793 l 186.266 -85.797 l 
186.328 -85.805 l 186.395 -85.812 l 186.457 -85.82 l 186.523 -85.832 l 186.586
 -85.844 l 186.652 -85.859 l 186.715 -85.875 l 186.777 -85.895 l 186.844
 -85.914 l 186.906 -85.938 l 186.973 -85.961 l 187.098 -86.016 l 187.164
 -86.047 l 187.227 -86.078 l 187.289 -86.113 l 187.422 -86.188 l 187.48 
-86.227 l 187.547 -86.266 l 187.672 -86.352 l 187.797 -86.445 l 187.922 
-86.547 l 188.047 -86.656 l 188.176 -86.773 l 188.426 -87.023 l 188.488 
-87.09 l 188.551 -87.16 l 188.676 -87.305 l 188.926 -87.609 l 189.43 -88.297
 l 189.492 -88.391 l 189.555 -88.488 l 189.68 -88.68 l 189.934 -89.09 l 
190.434 -89.969 l 190.496 -90.086 l 190.562 -90.203 l 190.688 -90.441 l 
190.938 -90.934 l 191.441 -91.977 l 191.508 -92.121 l 191.578 -92.27 l 191.715
 -92.57 l 191.984 -93.184 l 192.531 -94.465 l 193.621 -97.195 l 195.801 
-103.078 l 199.871 -114.035 l 199.941 -114.211 l 200.012 -114.383 l 200.148
 -114.73 l 200.426 -115.422 l 200.977 -116.773 l 202.078 -119.371 l 202.148
 -119.531 l 202.215 -119.688 l 202.355 -119.996 l 202.629 -120.613 l 203.18
 -121.816 l 204.285 -124.109 l 204.352 -124.242 l 204.418 -124.379 l 204.555
 -124.645 l 204.824 -125.172 l 205.367 -126.203 l 206.449 -128.148 l 206.516
 -128.266 l 206.586 -128.383 l 206.719 -128.613 l 206.988 -129.07 l 207.531
 -129.953 l 208.613 -131.621 l 208.676 -131.715 l 208.742 -131.809 l 208.867
 -131.992 l 209.117 -132.355 l 209.625 -133.062 l 210.633 -134.395 l 210.695
 -134.473 l 210.762 -134.555 l 210.887 -134.711 l 211.141 -135.023 l 211.645
 -135.629 l 212.652 -136.766 l 212.723 -136.84 l 212.789 -136.914 l 212.93
 -137.059 l 213.203 -137.348 l 213.75 -137.902 l 214.844 -138.945 l 214.914
 -139.008 l 214.98 -139.07 l 215.391 -139.434 l 215.938 -139.902 l 217.035
 -140.777 l 217.16 -140.871 l 217.289 -140.969 l 217.547 -141.156 l 218.059
 -141.523 l 219.078 -142.215 l 219.145 -142.258 l 219.207 -142.297 l 219.336
 -142.379 l 219.59 -142.539 l 220.102 -142.848 l 221.125 -143.434 l 221.25
 -143.504 l 221.625 -143.703 l 222.125 -143.961 l 223.129 -144.445 l 223.191
 -144.477 l 223.254 -144.504 l 223.379 -144.562 l 223.629 -144.672 l 224.133
 -144.895 l 225.133 -145.305 l 225.199 -145.332 l 225.27 -145.359 l 225.406
 -145.41 l 225.676 -145.516 l 226.223 -145.715 l 227.309 -146.09 l 227.375
 -146.113 l 227.445 -146.137 l 227.578 -146.18 l 227.852 -146.266 l 228.395
 -146.434 l 229.484 -146.746 l 229.547 -146.766 l 229.609 -146.781 l 229.738
 -146.816 l 229.988 -146.883 l 230.496 -147.016 l 231.512 -147.262 l 231.574
 -147.277 l 231.641 -147.293 l 231.766 -147.32 l 232.02 -147.379 l 232.527
 -147.488 l 233.543 -147.699 l 233.613 -147.711 l 233.684 -147.727 l 233.824
 -147.754 l 234.109 -147.809 l 234.676 -147.91 l 235.809 -148.105 l 236.09
 -148.152 l 236.371 -148.195 l 236.941 -148.281 l 237.082 -148.305 l 237.223
 -148.324 l 237.508 -148.367 l 237.578 -148.375 l 237.648 -148.387 l 237.789
 -148.406 l 237.859 -148.414 l 237.93 -148.426 l 238.004 -148.434 l 238.074
 -148.445 l S Q
  Q
Q
0 g
0.072 w
0 J
0 j
[] 0.0 d
3.25 M q 1 0 0 1 0 159 cm
31.805 -150.09 m 31.805 -147.512 l S Q
Q q
23.699 7.898 16.102 -7.898 re W n
q
23 8 17 -8 re W n
  q
0 g
25.348 4.312 m 25.348 5.043 25.426 5.629 25.578 6.078 c 25.727 6.527 25.953
 6.871 26.246 7.109 c 26.543 7.348 26.918 7.469 27.363 7.469 c 27.699 7.469
 27.988 7.402 28.238 7.266 c 28.488 7.129 28.699 6.938 28.863 6.688 c 29.031
 6.438 29.16 6.133 29.258 5.773 c 29.348 5.414 29.395 4.926 29.395 4.312
 c 29.395 3.582 29.32 2.996 29.168 2.547 c 29.02 2.098 28.793 1.754 28.496
 1.508 c 28.203 1.262 27.824 1.141 27.363 1.141 c 26.77 1.141 26.301 1.355
 25.961 1.781 c 25.551 2.301 25.348 3.145 25.348 4.312 c h
26.133 4.312 m 26.133 3.293 26.25 2.613 26.488 2.273 c 26.73 1.934 27.02
 1.766 27.363 1.766 c 27.719 1.766 28.016 1.934 28.258 2.273 c 28.496 2.613
 28.613 3.293 28.613 4.312 c 28.613 5.332 28.496 6.012 28.258 6.344 c 28.016
 6.676 27.719 6.844 27.363 6.844 c 27.012 6.844 26.73 6.691 26.52 6.391 
c 26.262 6.016 26.133 5.324 26.133 4.312 c f*
29.379 2.109 0.875 -0.859 re f*
30.754 4.312 m 30.754 5.043 30.832 5.629 30.98 6.078 c 31.133 6.527 31.355
 6.871 31.652 7.109 c 31.953 7.348 32.324 7.469 32.77 7.469 c 33.105 7.469
 33.395 7.402 33.645 7.266 c 33.895 7.129 34.105 6.938 34.27 6.688 c 34.438
 6.438 34.566 6.133 34.66 5.773 c 34.754 5.414 34.801 4.926 34.801 4.312
 c 34.801 3.582 34.727 2.996 34.578 2.547 c 34.426 2.098 34.203 1.754 33.902
 1.508 c 33.605 1.262 33.23 1.141 32.77 1.141 c 32.176 1.141 31.707 1.355
 31.363 1.781 c 30.957 2.301 30.754 3.145 30.754 4.312 c h
31.535 4.312 m 31.535 3.293 31.656 2.613 31.895 2.273 c 32.137 1.934 32.426
 1.766 32.77 1.766 c 33.125 1.766 33.422 1.934 33.66 2.273 c 33.902 2.613
 34.02 3.293 34.02 4.312 c 34.02 5.332 33.902 6.012 33.66 6.344 c 33.422
 6.676 33.125 6.844 32.77 6.844 c 32.418 6.844 32.137 6.691 31.926 6.391
 c 31.668 6.016 31.535 5.324 31.535 4.312 c f*
37.223 1.25 m 36.473 1.25 l 36.473 6.094 l 36.285 5.926 36.043 5.754 35.746
 5.578 c 35.449 5.402 35.184 5.27 34.941 5.188 c 34.941 5.922 l 35.371 6.121
 35.742 6.359 36.059 6.641 c 36.379 6.922 36.605 7.199 36.738 7.469 c 37.223
 7.469 l 37.223 1.25 l f*
  Q
Q
Q q
0 g
0.072 w
0 J
0 j
[] 0.0 d
3.25 M q 1 0 0 1 0 159 cm
87.566 -150.09 m 87.566 -147.512 l S Q
Q q
79.699 7.898 16.102 -7.898 re W n
q
79 8 17 -8 re W n
  q
0 g
81.113 4.312 m 81.113 5.043 81.188 5.629 81.34 6.078 c 81.492 6.527 81.715
 6.871 82.012 7.109 c 82.309 7.348 82.68 7.469 83.129 7.469 c 83.461 7.469
 83.754 7.402 84.004 7.266 c 84.254 7.129 84.461 6.938 84.629 6.688 c 84.797
 6.438 84.926 6.133 85.02 5.773 c 85.113 5.414 85.16 4.926 85.16 4.312 c
 85.16 3.582 85.086 2.996 84.934 2.547 c 84.781 2.098 84.559 1.754 84.262
 1.508 c 83.965 1.262 83.586 1.141 83.129 1.141 c 82.535 1.141 82.066 1.355
 81.723 1.781 c 81.316 2.301 81.113 3.145 81.113 4.312 c h
81.895 4.312 m 81.895 3.293 82.016 2.613 82.254 2.273 c 82.492 1.934 82.785
 1.766 83.129 1.766 c 83.484 1.766 83.781 1.934 84.02 2.273 c 84.258 2.613
 84.379 3.293 84.379 4.312 c 84.379 5.332 84.258 6.012 84.02 6.344 c 83.781
 6.676 83.484 6.844 83.129 6.844 c 82.773 6.844 82.492 6.691 82.285 6.391
 c 82.023 6.016 81.895 5.324 81.895 4.312 c f*
85.145 2.109 0.875 -0.859 re f*
89.379 1.25 m 88.629 1.25 l 88.629 6.094 l 88.441 5.926 88.199 5.754 87.902
 5.578 c 87.605 5.402 87.336 5.27 87.098 5.188 c 87.098 5.922 l 87.523 6.121
 87.898 6.359 88.215 6.641 c 88.531 6.922 88.758 7.199 88.895 7.469 c 89.379
 7.469 l 89.379 1.25 l f*
90.129 4.312 m 90.129 5.043 90.203 5.629 90.355 6.078 c 90.508 6.527 90.73
 6.871 91.027 7.109 c 91.324 7.348 91.695 7.469 92.145 7.469 c 92.477 7.469
 92.77 7.402 93.02 7.266 c 93.27 7.129 93.477 6.938 93.645 6.688 c 93.812
 6.438 93.941 6.133 94.035 5.773 c 94.129 5.414 94.176 4.926 94.176 4.312
 c 94.176 3.582 94.102 2.996 93.949 2.547 c 93.797 2.098 93.574 1.754 93.277
 1.508 c 92.98 1.262 92.602 1.141 92.145 1.141 c 91.551 1.141 91.082 1.355
 90.738 1.781 c 90.332 2.301 90.129 3.145 90.129 4.312 c h
90.91 4.312 m 90.91 3.293 91.027 2.613 91.27 2.273 c 91.508 1.934 91.801
 1.766 92.145 1.766 c 92.496 1.766 92.793 1.934 93.035 2.273 c 93.273 2.613
 93.395 3.293 93.395 4.312 c 93.395 5.332 93.273 6.012 93.035 6.344 c 92.793
 6.676 92.496 6.844 92.145 6.844 c 91.789 6.844 91.508 6.691 91.301 6.391
 c 91.039 6.016 90.91 5.324 90.91 4.312 c f*
  Q
Q
Q q
0 g
0.072 w
0 J
0 j
[] 0.0 d
3.25 M q 1 0 0 1 0 159 cm
143.332 -150.09 m 143.332 -147.512 l S Q
Q q
139.699 7.898 7.102 -7.898 re W n
q
139 8 8 -8 re W n
  q
0 g
144.246 1.25 m 143.496 1.25 l 143.496 6.094 l 143.309 5.926 143.066 5.754
 142.77 5.578 c 142.473 5.402 142.203 5.27 141.965 5.188 c 141.965 5.922
 l 142.391 6.121 142.762 6.359 143.082 6.641 c 143.398 6.922 143.625 7.199
 143.762 7.469 c 144.246 7.469 l 144.246 1.25 l f*
  Q
Q
Q q
0 g
0.072 w
0 J
0 j
[] 0.0 d
3.25 M q 1 0 0 1 0 159 cm
199.094 -150.09 m 199.094 -147.512 l S Q
Q q
193.699 7.898 10.102 -7.898 re W n
q
193 8 11 -8 re W n
  q
0 g
198.203 1.25 m 197.453 1.25 l 197.453 6.094 l 197.266 5.926 197.023 5.754
 196.727 5.578 c 196.43 5.402 196.164 5.27 195.926 5.188 c 195.926 5.922
 l 196.352 6.121 196.723 6.359 197.039 6.641 c 197.359 6.922 197.586 7.199
 197.719 7.469 c 198.203 7.469 l 198.203 1.25 l f*
198.953 4.312 m 198.953 5.043 199.031 5.629 199.18 6.078 c 199.332 6.527
 199.555 6.871 199.852 7.109 c 200.148 7.348 200.523 7.469 200.969 7.469
 c 201.305 7.469 201.594 7.402 201.844 7.266 c 202.094 7.129 202.305 6.938
 202.469 6.688 c 202.637 6.438 202.766 6.133 202.859 5.773 c 202.953 5.414
 203 4.926 203 4.312 c 203 3.582 202.926 2.996 202.773 2.547 c 202.625 2.098
 202.398 1.754 202.102 1.508 c 201.805 1.262 201.43 1.141 200.969 1.141 
c 200.375 1.141 199.906 1.355 199.562 1.781 c 199.156 2.301 198.953 3.145
 198.953 4.312 c h
199.734 4.312 m 199.734 3.293 199.855 2.613 200.094 2.273 c 200.336 1.934
 200.625 1.766 200.969 1.766 c 201.324 1.766 201.621 1.934 201.859 2.273
 c 202.102 2.613 202.219 3.293 202.219 4.312 c 202.219 5.332 202.102 6.012
 201.859 6.344 c 201.621 6.676 201.324 6.844 200.969 6.844 c 200.617 6.844
 200.336 6.691 200.125 6.391 c 199.867 6.016 199.734 5.324 199.734 4.312
 c f*
  Q
Q
Q q
0 g
0.072 w
0 J
0 j
[] 0.0 d
3.25 M q 1 0 0 1 0 159 cm
254.859 -150.09 m 254.859 -147.512 l S Q
Q q
247.699 7.898 14.102 -7.898 re W n
q
247 8 15 -8 re W n
  q
0 g
252.164 1.25 m 251.414 1.25 l 251.414 6.094 l 251.227 5.926 250.984 5.754
 250.688 5.578 c 250.391 5.402 250.121 5.27 249.883 5.188 c 249.883 5.922
 l 250.309 6.121 250.684 6.359 251 6.641 c 251.316 6.922 251.543 7.199 251.68
 7.469 c 252.164 7.469 l 252.164 1.25 l f*
252.914 4.312 m 252.914 5.043 252.988 5.629 253.141 6.078 c 253.289 6.527
 253.516 6.871 253.812 7.109 c 254.109 7.348 254.48 7.469 254.93 7.469 c
 255.262 7.469 255.555 7.402 255.805 7.266 c 256.055 7.129 256.262 6.938
 256.43 6.688 c 256.598 6.438 256.727 6.133 256.82 5.773 c 256.914 5.414
 256.961 4.926 256.961 4.312 c 256.961 3.582 256.887 2.996 256.734 2.547
 c 256.582 2.098 256.359 1.754 256.062 1.508 c 255.766 1.262 255.387 1.141
 254.93 1.141 c 254.336 1.141 253.867 1.355 253.523 1.781 c 253.117 2.301
 252.914 3.145 252.914 4.312 c h
253.695 4.312 m 253.695 3.293 253.812 2.613 254.055 2.273 c 254.293 1.934
 254.586 1.766 254.93 1.766 c 255.281 1.766 255.578 1.934 255.82 2.273 c
 256.059 2.613 256.18 3.293 256.18 4.312 c 256.18 5.332 256.059 6.012 255.82
 6.344 c 255.578 6.676 255.281 6.844 254.93 6.844 c 254.574 6.844 254.293
 6.691 254.086 6.391 c 253.824 6.016 253.695 5.324 253.695 4.312 c f*
256.523 4.312 m 256.523 5.043 256.598 5.629 256.75 6.078 c 256.898 6.527
 257.125 6.871 257.422 7.109 c 257.719 7.348 258.09 7.469 258.539 7.469 
c 258.871 7.469 259.164 7.402 259.414 7.266 c 259.664 7.129 259.871 6.938
 260.039 6.688 c 260.203 6.438 260.336 6.133 260.43 5.773 c 260.523 5.414
 260.57 4.926 260.57 4.312 c 260.57 3.582 260.492 2.996 260.344 2.547 c 
260.191 2.098 259.969 1.754 259.672 1.508 c 259.375 1.262 258.996 1.141 
258.539 1.141 c 257.945 1.141 257.477 1.355 257.133 1.781 c 256.727 2.301
 256.523 3.145 256.523 4.312 c h
257.305 4.312 m 257.305 3.293 257.422 2.613 257.664 2.273 c 257.902 1.934
 258.195 1.766 258.539 1.766 c 258.891 1.766 259.188 1.934 259.43 2.273 
c 259.668 2.613 259.789 3.293 259.789 4.312 c 259.789 5.332 259.668 6.012
 259.43 6.344 c 259.188 6.676 258.891 6.844 258.539 6.844 c 258.184 6.844
 257.902 6.691 257.695 6.391 c 257.434 6.016 257.305 5.324 257.305 4.312
 c f*
  Q
Q
Q q
0 g
0.072 w
0 J
0 j
[] 0.0 d
3.25 M q 1 0 0 1 0 159 cm
9.613 -150.09 m 9.613 -148.801 l S Q
q 1 0 0 1 0 159 cm
15.016 -150.09 m 15.016 -148.801 l S Q
q 1 0 0 1 0 159 cm
19.43 -150.09 m 19.43 -148.801 l S Q
q 1 0 0 1 0 159 cm
23.164 -150.09 m 23.164 -148.801 l S Q
q 1 0 0 1 0 159 cm
26.398 -150.09 m 26.398 -148.801 l S Q
q 1 0 0 1 0 159 cm
29.25 -150.09 m 29.25 -148.801 l S Q
q 1 0 0 1 0 159 cm
48.59 -150.09 m 48.59 -148.801 l S Q
q 1 0 0 1 0 159 cm
58.41 -150.09 m 58.41 -148.801 l S Q
q 1 0 0 1 0 159 cm
65.375 -150.09 m 65.375 -148.801 l S Q
q 1 0 0 1 0 159 cm
70.781 -150.09 m 70.781 -148.801 l S Q
q 1 0 0 1 0 159 cm
75.195 -150.09 m 75.195 -148.801 l S Q
q 1 0 0 1 0 159 cm
78.93 -150.09 m 78.93 -148.801 l S Q
q 1 0 0 1 0 159 cm
82.164 -150.09 m 82.164 -148.801 l S Q
q 1 0 0 1 0 159 cm
85.016 -150.09 m 85.016 -148.801 l S Q
q 1 0 0 1 0 159 cm
104.352 -150.09 m 104.352 -148.801 l S Q
q 1 0 0 1 0 159 cm
114.172 -150.09 m 114.172 -148.801 l S Q
q 1 0 0 1 0 159 cm
121.141 -150.09 m 121.141 -148.801 l S Q
q 1 0 0 1 0 159 cm
126.543 -150.09 m 126.543 -148.801 l S Q
q 1 0 0 1 0 159 cm
130.961 -150.09 m 130.961 -148.801 l S Q
q 1 0 0 1 0 159 cm
134.691 -150.09 m 134.691 -148.801 l S Q
q 1 0 0 1 0 159 cm
137.926 -150.09 m 137.926 -148.801 l S Q
q 1 0 0 1 0 159 cm
140.777 -150.09 m 140.777 -148.801 l S Q
q 1 0 0 1 0 159 cm
160.117 -150.09 m 160.117 -148.801 l S Q
q 1 0 0 1 0 159 cm
169.938 -150.09 m 169.938 -148.801 l S Q
q 1 0 0 1 0 159 cm
176.902 -150.09 m 176.902 -148.801 l S Q
q 1 0 0 1 0 159 cm
182.309 -150.09 m 182.309 -148.801 l S Q
q 1 0 0 1 0 159 cm
186.723 -150.09 m 186.723 -148.801 l S Q
q 1 0 0 1 0 159 cm
190.457 -150.09 m 190.457 -148.801 l S Q
q 1 0 0 1 0 159 cm
193.691 -150.09 m 193.691 -148.801 l S Q
q 1 0 0 1 0 159 cm
196.543 -150.09 m 196.543 -148.801 l S Q
q 1 0 0 1 0 159 cm
215.883 -150.09 m 215.883 -148.801 l S Q
q 1 0 0 1 0 159 cm
225.699 -150.09 m 225.699 -148.801 l S Q
q 1 0 0 1 0 159 cm
232.668 -150.09 m 232.668 -148.801 l S Q
q 1 0 0 1 0 159 cm
238.074 -150.09 m 238.074 -148.801 l S Q
q 1 0 0 1 0 159 cm
242.488 -150.09 m 242.488 -148.801 l S Q
q 1 0 0 1 0 159 cm
246.223 -150.09 m 246.223 -148.801 l S Q
q 1 0 0 1 0 159 cm
249.453 -150.09 m 249.453 -148.801 l S Q
q 1 0 0 1 0 159 cm
252.309 -150.09 m 252.309 -148.801 l S Q
0.36 w
q 1 0 0 1 0 159 cm
6.02 -150.09 m 263.855 -150.09 l S Q
Q q
267.699 14.898 15.301 -12.098 re W n
q
267 15 16 -13 re W n
  q
0 g
271.367 7.59 m 271.367 13.059 l 269.32 13.059 l 269.32 13.793 l 274.227
 13.793 l 274.227 13.059 l 272.18 13.059 l 272.18 7.59 l 271.367 7.59 l f*
277.461 5.777 m 276.93 5.777 l 276.699 6.059 276.492 6.363 276.305 6.684
 c 276.117 7.008 275.957 7.34 275.828 7.684 c 275.695 8.027 275.594 8.379
 275.523 8.738 c 275.449 9.098 275.414 9.461 275.414 9.824 c 275.414 10.199
 275.449 10.566 275.523 10.926 c 275.594 11.285 275.699 11.637 275.836 11.98
 c 275.969 12.324 276.129 12.656 276.312 12.973 c 276.492 13.293 276.699
 13.598 276.93 13.887 c 277.461 13.887 l 277.262 13.566 277.086 13.246 276.93
 12.926 c 276.773 12.609 276.641 12.285 276.531 11.957 c 276.422 11.629 
276.34 11.293 276.289 10.941 c 276.234 10.594 276.211 10.227 276.211 9.84
 c 276.211 9.477 276.238 9.117 276.297 8.762 c 276.352 8.41 276.438 8.059
 276.547 7.715 c 276.656 7.371 276.789 7.039 276.945 6.715 c 277.102 6.395
 277.273 6.082 277.461 5.777 c f*
277.633 7.59 m 277.633 13.793 l 278.383 13.793 l 278.383 10.246 l 280.195
 12.074 l 281.18 12.074 l 279.461 10.418 l 281.352 7.59 l 280.414 7.59 l
 278.93 9.887 l 278.383 9.371 l 278.383 7.59 l 277.633 7.59 l f*
282.664 9.824 m 282.664 9.461 282.629 9.098 282.555 8.738 c 282.48 8.379
 282.379 8.027 282.25 7.684 c 282.117 7.34 281.961 7.012 281.773 6.691 c
 281.586 6.375 281.383 6.07 281.164 5.777 c 280.617 5.777 l 280.812 6.102
 280.992 6.422 281.148 6.738 c 281.305 7.059 281.438 7.379 281.547 7.707
 c 281.656 8.035 281.738 8.375 281.797 8.723 c 281.852 9.074 281.883 9.441
 281.883 9.824 c 281.883 10.18 281.852 10.535 281.789 10.895 c 281.727 11.254
 281.641 11.605 281.531 11.941 c 281.422 12.281 281.289 12.613 281.133 12.941
 c 280.977 13.27 280.805 13.586 280.617 13.887 c 281.164 13.887 l 281.395
 13.605 281.598 13.305 281.781 12.98 c 281.965 12.66 282.117 12.324 282.25
 11.98 c 282.379 11.637 282.48 11.285 282.555 10.926 c 282.629 10.566 282.664
 10.199 282.664 9.824 c f*
  Q
Q
Q q
0 g
0.36 w
0 J
0 j
[] 0.0 d
3.25 M q 1 0 0 1 0 159 cm
11.176 -150.09 m 13.914 -150.09 l S Q
q 1 0 0 1 0 159 cm
11.176 -143.645 m 12.82 -143.645 l S Q
q 1 0 0 1 0 159 cm
11.176 -137.199 m 12.82 -137.199 l S Q
q 1 0 0 1 0 159 cm
11.176 -130.754 m 12.82 -130.754 l S Q
q 1 0 0 1 0 159 cm
11.176 -124.305 m 12.82 -124.305 l S Q
q 1 0 0 1 0 159 cm
11.176 -117.859 m 13.914 -117.859 l S Q
Q q
0 45.898 10.801 -10.098 re W n
q
0 46 11 -11 re W n
  q
0 g
-0.141 42.078 m -0.141 42.809 -0.066 43.395 0.086 43.844 c 0.238 44.289
 0.461 44.637 0.758 44.875 c 1.055 45.113 1.426 45.234 1.875 45.234 c 2.207
 45.234 2.5 45.164 2.75 45.031 c 3 44.895 3.207 44.703 3.375 44.453 c 3.543
 44.203 3.672 43.898 3.766 43.539 c 3.859 43.18 3.906 42.691 3.906 42.078
 c 3.906 41.348 3.832 40.762 3.68 40.312 c 3.527 39.863 3.305 39.52 3.008
 39.273 c 2.711 39.027 2.332 38.906 1.875 38.906 c 1.281 38.906 0.812 39.117
 0.469 39.547 c 0.062 40.066 -0.141 40.91 -0.141 42.078 c h
0.641 42.078 m 0.641 41.059 0.762 40.379 1 40.039 c 1.238 39.699 1.531 
39.531 1.875 39.531 c 2.23 39.531 2.527 39.699 2.766 40.039 c 3.004 40.379
 3.125 41.059 3.125 42.078 c 3.125 43.098 3.004 43.773 2.766 44.109 c 2.527
 44.441 2.23 44.609 1.875 44.609 c 1.52 44.609 1.238 44.457 1.031 44.156
 c 0.77 43.781 0.641 43.09 0.641 42.078 c f*
3.891 39.875 0.875 -0.859 re f*
8.125 39.016 m 7.375 39.016 l 7.375 43.859 l 7.188 43.691 6.945 43.52 6.648
 43.344 c 6.352 43.164 6.082 43.035 5.844 42.953 c 5.844 43.688 l 6.27 43.887
 6.645 44.125 6.961 44.406 c 7.277 44.688 7.504 44.965 7.641 45.234 c 8.125
 45.234 l 8.125 39.016 l f*
  Q
Q
Q q
0 g
0.36 w
0 J
0 j
[] 0.0 d
3.25 M q 1 0 0 1 0 159 cm
11.176 -111.414 m 12.82 -111.414 l S Q
q 1 0 0 1 0 159 cm
11.176 -104.969 m 12.82 -104.969 l S Q
q 1 0 0 1 0 159 cm
11.176 -98.523 m 12.82 -98.523 l S Q
q 1 0 0 1 0 159 cm
11.176 -92.078 m 12.82 -92.078 l S Q
q 1 0 0 1 0 159 cm
11.176 -85.629 m 13.914 -85.629 l S Q
Q q
0 77.898 10.801 -9.098 re W n
q
0 78 11 -10 re W n
  q
0 g
-0.141 74.309 m -0.141 75.035 -0.066 75.625 0.086 76.074 c 0.238 76.52 
0.461 76.863 0.758 77.105 c 1.055 77.344 1.426 77.465 1.875 77.465 c 2.207
 77.465 2.5 77.395 2.75 77.262 c 3 77.125 3.207 76.934 3.375 76.684 c 3.543
 76.434 3.672 76.129 3.766 75.77 c 3.859 75.41 3.906 74.922 3.906 74.309
 c 3.906 73.578 3.832 72.988 3.68 72.543 c 3.527 72.094 3.305 71.746 3.008
 71.504 c 2.711 71.258 2.332 71.137 1.875 71.137 c 1.281 71.137 0.812 71.348
 0.469 71.777 c 0.062 72.297 -0.141 73.141 -0.141 74.309 c h
0.641 74.309 m 0.641 73.285 0.762 72.605 1 72.27 c 1.238 71.93 1.531 71.762
 1.875 71.762 c 2.23 71.762 2.527 71.93 2.766 72.27 c 3.004 72.605 3.125
 73.285 3.125 74.309 c 3.125 75.328 3.004 76.004 2.766 76.34 c 2.527 76.672
 2.23 76.84 1.875 76.84 c 1.52 76.84 1.238 76.688 1.031 76.387 c 0.77 76.012
 0.641 75.316 0.641 74.309 c f*
3.891 72.105 0.875 -0.859 re f*
9.266 71.98 m 9.266 71.246 l 5.172 71.246 l 5.16 71.434 5.188 71.609 5.25
 71.777 c 5.355 72.059 5.523 72.336 5.758 72.605 c 5.992 72.875 6.324 73.188
 6.75 73.543 c 7.426 74.094 7.883 74.531 8.117 74.855 c 8.352 75.176 8.469
 75.48 8.469 75.762 c 8.469 76.062 8.363 76.316 8.148 76.527 c 7.934 76.734
 7.656 76.84 7.312 76.84 c 6.938 76.84 6.641 76.73 6.422 76.512 c 6.203 
76.293 6.094 75.984 6.094 75.59 c 5.312 75.668 l 5.363 76.25 5.566 76.695
 5.914 77.004 c 6.262 77.309 6.734 77.465 7.328 77.465 c 7.922 77.465 8.391
 77.301 8.734 76.973 c 9.078 76.645 9.25 76.234 9.25 75.746 c 9.25 75.496
 9.199 75.25 9.102 75.012 c 9 74.77 8.836 74.52 8.602 74.254 c 8.367 73.988
 7.973 73.625 7.422 73.168 c 6.961 72.781 6.672 72.52 6.547 72.387 c 6.422
 72.25 6.312 72.113 6.219 71.98 c 9.266 71.98 l f*
  Q
Q
Q q
0 g
0.36 w
0 J
0 j
[] 0.0 d
3.25 M q 1 0 0 1 0 159 cm
11.176 -79.184 m 12.82 -79.184 l S Q
q 1 0 0 1 0 159 cm
11.176 -72.738 m 12.82 -72.738 l S Q
q 1 0 0 1 0 159 cm
11.176 -66.293 m 12.82 -66.293 l S Q
q 1 0 0 1 0 159 cm
11.176 -59.848 m 12.82 -59.848 l S Q
q 1 0 0 1 0 159 cm
11.176 -53.402 m 13.914 -53.402 l S Q
Q q
0 110.898 10.801 -10.098 re W n
q
0 111 11 -11 re W n
  q
0 g
-0.141 106.535 m -0.141 107.266 -0.066 107.855 0.086 108.301 c 0.238 108.75
 0.461 109.094 0.758 109.332 c 1.055 109.574 1.426 109.691 1.875 109.691
 c 2.207 109.691 2.5 109.625 2.75 109.488 c 3 109.355 3.207 109.16 3.375
 108.91 c 3.543 108.66 3.672 108.355 3.766 107.996 c 3.859 107.637 3.906
 107.152 3.906 106.535 c 3.906 105.809 3.832 105.219 3.68 104.77 c 3.527
 104.324 3.305 103.977 3.008 103.73 c 2.711 103.488 2.332 103.363 1.875 
103.363 c 1.281 103.363 0.812 103.578 0.469 104.004 c 0.062 104.527 -0.141
 105.371 -0.141 106.535 c h
0.641 106.535 m 0.641 105.516 0.762 104.836 1 104.496 c 1.238 104.16 1.531
 103.988 1.875 103.988 c 2.23 103.988 2.527 104.16 2.766 104.496 c 3.004
 104.836 3.125 105.516 3.125 106.535 c 3.125 107.559 3.004 108.234 2.766
 108.566 c 2.527 108.902 2.23 109.066 1.875 109.066 c 1.52 109.066 1.238
 108.918 1.031 108.613 c 0.77 108.238 0.641 107.547 0.641 106.535 c f*
3.891 104.332 0.875 -0.859 re f*
5.266 105.113 m 6.031 105.207 l 6.113 104.781 6.262 104.473 6.477 104.277
 c 6.691 104.086 6.949 103.988 7.25 103.988 c 7.605 103.988 7.902 104.113
 8.148 104.363 c 8.395 104.613 8.516 104.922 8.516 105.285 c 8.516 105.641
 8.402 105.93 8.172 106.152 c 7.941 106.379 7.656 106.488 7.312 106.488 
c 7.168 106.488 6.984 106.465 6.766 106.41 c 6.859 107.066 l 6.984 107.066
 l 7.309 107.066 7.598 107.152 7.852 107.316 c 8.105 107.484 8.234 107.746
 8.234 108.098 c 8.234 108.379 8.141 108.613 7.953 108.793 c 7.766 108.977
 7.527 109.066 7.234 109.066 c 6.934 109.066 6.684 108.973 6.484 108.785
 c 6.285 108.598 6.16 108.324 6.109 107.957 c 5.344 108.082 l 5.438 108.594
 5.648 108.988 5.977 109.27 c 6.305 109.551 6.711 109.691 7.203 109.691 
c 7.547 109.691 7.863 109.621 8.148 109.473 c 8.434 109.328 8.652 109.129
 8.797 108.879 c 8.941 108.629 9.016 108.363 9.016 108.082 c 9.016 107.812
 8.945 107.566 8.805 107.348 c 8.664 107.129 8.453 106.957 8.172 106.832
 c 8.535 106.75 8.82 106.574 9.023 106.309 c 9.227 106.043 9.328 105.707
 9.328 105.301 c 9.328 104.762 9.129 104.301 8.734 103.926 c 8.336 103.551
 7.836 103.363 7.234 103.363 c 6.691 103.363 6.242 103.527 5.883 103.848
 c 5.523 104.172 5.316 104.594 5.266 105.113 c f*
  Q
Q
Q q
0 g
0.36 w
0 J
0 j
[] 0.0 d
3.25 M q 1 0 0 1 0 159 cm
11.176 -46.953 m 12.82 -46.953 l S Q
q 1 0 0 1 0 159 cm
11.176 -40.508 m 12.82 -40.508 l S Q
q 1 0 0 1 0 159 cm
11.176 -34.062 m 12.82 -34.062 l S Q
q 1 0 0 1 0 159 cm
11.176 -27.617 m 12.82 -27.617 l S Q
q 1 0 0 1 0 159 cm
11.176 -21.172 m 13.914 -21.172 l S Q
Q q
0 142.898 10.801 -10.098 re W n
q
0 143 11 -11 re W n
  q
0 g
-0.141 138.766 m -0.141 139.496 -0.066 140.086 0.086 140.531 c 0.238 140.98
 0.461 141.324 0.758 141.562 c 1.055 141.805 1.426 141.922 1.875 141.922
 c 2.207 141.922 2.5 141.855 2.75 141.719 c 3 141.586 3.207 141.391 3.375
 141.141 c 3.543 140.891 3.672 140.586 3.766 140.227 c 3.859 139.867 3.906
 139.383 3.906 138.766 c 3.906 138.035 3.832 137.449 3.68 137 c 3.527 136.555
 3.305 136.207 3.008 135.961 c 2.711 135.719 2.332 135.594 1.875 135.594
 c 1.281 135.594 0.812 135.809 0.469 136.234 c 0.062 136.758 -0.141 137.602
 -0.141 138.766 c h
0.641 138.766 m 0.641 137.746 0.762 137.066 1 136.727 c 1.238 136.391 1.531
 136.219 1.875 136.219 c 2.23 136.219 2.527 136.391 2.766 136.727 c 3.004
 137.066 3.125 137.746 3.125 138.766 c 3.125 139.785 3.004 140.465 2.766
 140.797 c 2.527 141.133 2.23 141.297 1.875 141.297 c 1.52 141.297 1.238
 141.148 1.031 140.844 c 0.77 140.469 0.641 139.777 0.641 138.766 c f*
3.891 136.562 0.875 -0.859 re f*
7.703 135.703 m 7.703 137.188 l 5.016 137.188 l 5.016 137.891 l 7.844 141.906
 l 8.469 141.906 l 8.469 137.891 l 9.297 137.891 l 9.297 137.188 l 8.469
 137.188 l 8.469 135.703 l h
7.703 137.891 m 7.703 140.672 l 5.766 137.891 l 7.703 137.891 l f*
  Q
Q
Q q
0 g
0.36 w
0 J
0 j
[] 0.0 d
3.25 M q 1 0 0 1 0 159 cm
11.176 -150.09 m 11.176 -21.172 l S Q
Q q
7.719 150.809 7 -10 re W n
q
7 151 8 -11 re W n
  q
0 g
13.426 145.57 m 14.238 145.367 l 14.07 144.691 13.766 144.176 13.316 143.82
 c 12.867 143.469 12.32 143.289 11.676 143.289 c 11.008 143.289 10.469 143.426
 10.051 143.695 c 9.633 143.969 9.316 144.359 9.098 144.875 c 8.879 145.391
 8.77 145.945 8.77 146.539 c 8.77 147.184 8.891 147.746 9.137 148.227 c 
9.383 148.707 9.73 149.07 10.184 149.32 c 10.637 149.57 11.141 149.695 11.691
 149.695 c 12.305 149.695 12.824 149.539 13.246 149.227 c 13.668 148.914
 13.961 148.473 14.129 147.898 c 13.332 147.711 l 13.188 148.16 12.977 148.484
 12.699 148.688 c 12.422 148.891 12.082 148.992 11.676 148.992 c 11.195 
148.992 10.797 148.883 10.48 148.656 c 10.164 148.434 9.938 148.129 9.809
 147.742 c 9.68 147.355 9.613 146.961 9.613 146.555 c 9.613 146.023 9.688
 145.559 9.84 145.164 c 9.992 144.77 10.227 144.477 10.551 144.281 c 10.875
 144.09 11.227 143.992 11.613 143.992 c 12.07 143.992 12.461 144.125 12.777
 144.391 c 13.094 144.656 13.312 145.051 13.426 145.57 c f*
  Q
Q
Q q
87.699 159 94.102 -11.199 re W n
q
87 159 95 -12 re W n
  q
0 g
89.641 152.398 m 89.641 159.82 l 90.625 159.82 l 90.625 156.773 l 94.484
 156.773 l 94.484 159.82 l 95.469 159.82 l 95.469 152.398 l 94.484 152.398
 l 94.484 155.898 l 90.625 155.898 l 90.625 152.398 l 89.641 152.398 l f*
98.797 154.133 m 99.75 154.008 l 99.605 153.469 99.328 153.043 98.922 152.734
 c 98.516 152.43 98 152.273 97.375 152.273 c 96.594 152.273 95.973 152.516
 95.508 153 c 95.043 153.484 94.812 154.164 94.812 155.039 c 94.812 155.945
 95.047 156.648 95.516 157.148 c 95.984 157.648 96.59 157.898 97.328 157.898
 c 98.047 157.898 98.637 157.652 99.094 157.164 c 99.555 156.676 99.781 
155.988 99.781 155.102 c 99.781 155.051 99.777 154.969 99.766 154.852 c 
95.766 154.852 l 95.797 154.27 95.965 153.816 96.266 153.5 c 96.566 153.184
 96.941 153.023 97.391 153.023 c 97.723 153.023 98.008 153.113 98.242 153.289
 c 98.477 153.469 98.66 153.746 98.797 154.133 c h
95.812 155.602 m 98.812 155.602 l 98.77 156.059 98.656 156.398 98.469 156.617
 c 98.18 156.973 97.805 157.148 97.344 157.148 c 96.93 157.148 96.578 157.008
 96.289 156.727 c 96.004 156.445 95.844 156.07 95.812 155.602 c f*
102.953 153.055 m 102.621 152.773 102.297 152.574 101.984 152.453 c 101.672
 152.336 101.34 152.273 100.984 152.273 c 100.391 152.273 99.934 152.422
 99.617 152.711 c 99.301 153.004 99.141 153.371 99.141 153.82 c 99.141 154.082
 99.203 154.32 99.32 154.539 c 99.441 154.758 99.598 154.934 99.789 155.062
 c 99.98 155.191 100.203 155.297 100.453 155.367 c 100.633 155.41 100.902
 155.449 101.266 155.492 c 101.996 155.586 102.535 155.695 102.891 155.82
 c 102.891 156.055 l 102.891 156.422 102.801 156.68 102.625 156.836 c 102.395
 157.047 102.051 157.148 101.594 157.148 c 101.168 157.148 100.852 157.074
 100.648 156.922 c 100.445 156.77 100.293 156.504 100.188 156.117 c 99.297
 156.242 l 99.383 156.629 99.512 156.938 99.695 157.172 c 99.879 157.406
 100.145 157.586 100.5 157.711 c 100.855 157.836 101.262 157.898 101.719
 157.898 c 102.176 157.898 102.551 157.844 102.844 157.734 c 103.137 157.625
 103.348 157.488 103.477 157.328 c 103.605 157.168 103.703 156.961 103.766
 156.711 c 103.797 156.555 103.812 156.273 103.812 155.867 c 103.812 154.648
 l 103.812 153.805 103.832 153.27 103.867 153.047 c 103.902 152.824 103.98
 152.605 104.094 152.398 c 103.141 152.398 l 103.047 152.586 102.984 152.805
 102.953 153.055 c h
102.891 155.102 m 102.559 154.969 102.059 154.852 101.391 154.758 c 101.016
 154.707 100.75 154.645 100.594 154.578 c 100.438 154.512 100.316 154.41
 100.234 154.281 c 100.152 154.152 100.109 154.004 100.109 153.836 c 100.109
 153.598 100.203 153.395 100.391 153.234 c 100.578 153.074 100.848 152.992
 101.203 152.992 c 101.547 152.992 101.855 153.066 102.133 153.219 c 102.41
 153.371 102.609 153.582 102.734 153.852 c 102.84 154.059 102.891 154.363
 102.891 154.758 c 102.891 155.102 l f*
105.766 153.211 m 105.906 152.414 l 105.645 152.352 105.418 152.32 105.219
 152.32 c 104.887 152.32 104.629 152.375 104.445 152.484 c 104.262 152.594
 104.133 152.73 104.055 152.898 c 103.977 153.066 103.938 153.426 103.938
 153.977 c 103.938 157.07 l 103.281 157.07 l 103.281 157.773 l 103.938 157.773
 l 103.938 159.117 l 104.859 159.664 l 104.859 157.773 l 105.766 157.773
 l 105.766 157.07 l 104.859 157.07 l 104.859 153.93 l 104.859 153.672 104.875
 153.5 104.906 153.422 c 104.938 153.344 104.988 153.285 105.062 153.242
 c 105.137 153.199 105.238 153.18 105.375 153.18 c 105.469 153.18 105.598
 153.191 105.766 153.211 c f*
111.594 154.367 m 112.5 154.258 l 112.398 153.633 112.145 153.145 111.742
 152.797 c 111.344 152.449 110.852 152.273 110.266 152.273 c 109.527 152.273
 108.934 152.516 108.484 153 c 108.035 153.484 107.812 154.176 107.812 155.07
 c 107.812 155.652 107.91 156.16 108.102 156.594 c 108.297 157.027 108.586
 157.352 108.977 157.57 c 109.367 157.789 109.797 157.898 110.266 157.898
 c 110.852 157.898 111.324 157.75 111.695 157.453 c 112.066 157.156 112.305
 156.738 112.406 156.195 c 111.531 156.055 l 111.438 156.422 111.285 156.691
 111.07 156.875 c 110.859 157.059 110.602 157.148 110.297 157.148 c 109.84
 157.148 109.469 156.984 109.18 156.656 c 108.895 156.328 108.75 155.805
 108.75 155.086 c 108.75 154.367 108.891 153.844 109.164 153.516 c 109.441
 153.188 109.805 153.023 110.25 153.023 c 110.605 153.023 110.902 153.133
 111.141 153.352 c 111.383 153.57 111.531 153.91 111.594 154.367 c f*
115.484 153.055 m 115.152 152.773 114.828 152.574 114.516 152.453 c 114.203
 152.336 113.871 152.273 113.516 152.273 c 112.922 152.273 112.469 152.422
 112.148 152.711 c 111.832 153.004 111.672 153.371 111.672 153.82 c 111.672
 154.082 111.734 154.32 111.852 154.539 c 111.973 154.758 112.129 154.934
 112.32 155.062 c 112.516 155.191 112.734 155.297 112.984 155.367 c 113.164
 155.41 113.434 155.449 113.797 155.492 c 114.527 155.586 115.07 155.695
 115.422 155.82 c 115.422 156.055 l 115.422 156.422 115.336 156.68 115.156
 156.836 c 114.93 157.047 114.586 157.148 114.125 157.148 c 113.699 157.148
 113.383 157.074 113.18 156.922 c 112.977 156.77 112.824 156.504 112.719
 156.117 c 111.828 156.242 l 111.914 156.629 112.047 156.938 112.227 157.172
 c 112.41 157.406 112.68 157.586 113.031 157.711 c 113.387 157.836 113.793
 157.898 114.25 157.898 c 114.711 157.898 115.086 157.844 115.375 157.734
 c 115.668 157.625 115.879 157.488 116.008 157.328 c 116.141 157.168 116.234
 156.961 116.297 156.711 c 116.328 156.555 116.344 156.273 116.344 155.867
 c 116.344 154.648 l 116.344 153.805 116.363 153.27 116.398 153.047 c 116.438
 152.824 116.512 152.605 116.625 152.398 c 115.672 152.398 l 115.578 152.586
 115.516 152.805 115.484 153.055 c h
115.422 155.102 m 115.09 154.969 114.59 154.852 113.922 154.758 c 113.547
 154.707 113.281 154.645 113.125 154.578 c 112.969 154.512 112.852 154.41
 112.766 154.281 c 112.684 154.152 112.641 154.004 112.641 153.836 c 112.641
 153.598 112.734 153.395 112.922 153.234 c 113.109 153.074 113.383 152.992
 113.734 152.992 c 114.078 152.992 114.391 153.066 114.664 153.219 c 114.941
 153.371 115.141 153.582 115.266 153.852 c 115.371 154.059 115.422 154.363
 115.422 154.758 c 115.422 155.102 l f*
116.312 150.336 m 116.312 157.773 l 117.141 157.773 l 117.141 157.086 l
 117.34 157.355 117.562 157.559 117.805 157.695 c 118.051 157.832 118.352
 157.898 118.703 157.898 c 119.16 157.898 119.566 157.781 119.914 157.547
 c 120.266 157.312 120.531 156.98 120.711 156.547 c 120.895 156.113 120.984
 155.645 120.984 155.133 c 120.984 154.582 120.887 154.086 120.688 153.641
 c 120.492 153.199 120.203 152.859 119.82 152.625 c 119.441 152.391 119.047
 152.273 118.641 152.273 c 118.328 152.273 118.055 152.34 117.812 152.469
 c 117.574 152.602 117.375 152.766 117.219 152.961 c 117.219 150.336 l h
117.141 155.055 m 117.141 154.367 117.281 153.855 117.555 153.523 c 117.832
 153.191 118.172 153.023 118.578 153.023 c 118.984 153.023 119.332 153.195
 119.617 153.539 c 119.906 153.883 120.047 154.414 120.047 155.133 c 120.047
 155.82 119.906 156.336 119.625 156.672 c 119.344 157.012 119.008 157.18
 118.609 157.18 c 118.227 157.18 117.883 157 117.586 156.641 c 117.289 156.281
 117.141 155.754 117.141 155.055 c f*
124.141 153.055 m 123.809 152.773 123.484 152.574 123.172 152.453 c 122.859
 152.336 122.527 152.273 122.172 152.273 c 121.578 152.273 121.121 152.422
 120.805 152.711 c 120.488 153.004 120.328 153.371 120.328 153.82 c 120.328
 154.082 120.391 154.32 120.508 154.539 c 120.629 154.758 120.785 154.934
 120.977 155.062 c 121.172 155.191 121.391 155.297 121.641 155.367 c 121.82
 155.41 122.09 155.449 122.453 155.492 c 123.184 155.586 123.727 155.695
 124.078 155.82 c 124.078 156.055 l 124.078 156.422 123.988 156.68 123.812
 156.836 c 123.586 157.047 123.238 157.148 122.781 157.148 c 122.355 157.148
 122.039 157.074 121.836 156.922 c 121.633 156.77 121.48 156.504 121.375
 156.117 c 120.484 156.242 l 120.57 156.629 120.699 156.938 120.883 157.172
 c 121.066 157.406 121.336 157.586 121.688 157.711 c 122.043 157.836 122.449
 157.898 122.906 157.898 c 123.363 157.898 123.738 157.844 124.031 157.734
 c 124.324 157.625 124.535 157.488 124.664 157.328 c 124.797 157.168 124.891
 156.961 124.953 156.711 c 124.984 156.555 125 156.273 125 155.867 c 125
 154.648 l 125 153.805 125.02 153.27 125.055 153.047 c 125.094 152.824 125.168
 152.605 125.281 152.398 c 124.328 152.398 l 124.234 152.586 124.172 152.805
 124.141 153.055 c h
124.078 155.102 m 123.746 154.969 123.246 154.852 122.578 154.758 c 122.203
 154.707 121.938 154.645 121.781 154.578 c 121.625 154.512 121.508 154.41
 121.422 154.281 c 121.34 154.152 121.297 154.004 121.297 153.836 c 121.297
 153.598 121.391 153.395 121.578 153.234 c 121.766 153.074 122.035 152.992
 122.391 152.992 c 122.734 152.992 123.047 153.066 123.32 153.219 c 123.598
 153.371 123.797 153.582 123.922 153.852 c 124.027 154.059 124.078 154.363
 124.078 154.758 c 124.078 155.102 l f*
128.469 154.367 m 129.375 154.258 l 129.273 153.633 129.02 153.145 128.617
 152.797 c 128.219 152.449 127.727 152.273 127.141 152.273 c 126.402 152.273
 125.809 152.516 125.359 153 c 124.91 153.484 124.688 154.176 124.688 155.07
 c 124.688 155.652 124.785 156.16 124.977 156.594 c 125.172 157.027 125.461
 157.352 125.852 157.57 c 126.242 157.789 126.672 157.898 127.141 157.898
 c 127.727 157.898 128.199 157.75 128.57 157.453 c 128.941 157.156 129.18
 156.738 129.281 156.195 c 128.406 156.055 l 128.312 156.422 128.16 156.691
 127.945 156.875 c 127.734 157.059 127.477 157.148 127.172 157.148 c 126.715
 157.148 126.344 156.984 126.055 156.656 c 125.77 156.328 125.625 155.805
 125.625 155.086 c 125.625 154.367 125.766 153.844 126.039 153.516 c 126.316
 153.188 126.68 153.023 127.125 153.023 c 127.48 153.023 127.777 153.133
 128.016 153.352 c 128.258 153.57 128.406 153.91 128.469 154.367 c f*
128.859 158.773 m 128.859 159.82 l 129.766 159.82 l 129.766 158.773 l h
128.859 152.398 m 128.859 157.773 l 129.766 157.773 l 129.766 152.398 l
 128.859 152.398 l f*
132.578 153.211 m 132.719 152.414 l 132.461 152.352 132.23 152.32 132.031
 152.32 c 131.699 152.32 131.441 152.375 131.258 152.484 c 131.074 152.594
 130.945 152.73 130.867 152.898 c 130.789 153.066 130.75 153.426 130.75 
153.977 c 130.75 157.07 l 130.094 157.07 l 130.094 157.773 l 130.75 157.773
 l 130.75 159.117 l 131.672 159.664 l 131.672 157.773 l 132.578 157.773 
l 132.578 157.07 l 131.672 157.07 l 131.672 153.93 l 131.672 153.672 131.688
 153.5 131.719 153.422 c 131.75 153.344 131.805 153.285 131.875 153.242 
c 131.949 153.199 132.055 153.18 132.188 153.18 c 132.281 153.18 132.41 
153.191 132.578 153.211 c f*
132.703 150.32 m 132.609 151.18 l 132.809 151.129 132.98 151.102 133.125
 151.102 c 133.336 151.102 133.496 151.137 133.617 151.203 c 133.738 151.27
 133.836 151.367 133.906 151.492 c 133.969 151.574 134.062 151.801 134.188
 152.164 c 134.211 152.219 134.234 152.289 134.266 152.383 c 132.234 157.773
 l 133.219 157.773 l 134.328 154.664 l 134.473 154.27 134.605 153.852 134.719
 153.414 c 134.824 153.832 134.949 154.242 135.094 154.648 c 136.25 157.773
 l 137.156 157.773 l 135.109 152.305 l 134.891 151.711 134.719 151.305 134.594
 151.086 c 134.438 150.785 134.258 150.562 134.047 150.422 c 133.84 150.281
 133.59 150.211 133.297 150.211 c 133.121 150.211 132.922 150.246 132.703
 150.32 c f*
136.875 152.398 m 136.875 153.43 l 137.906 153.43 l 137.906 152.398 l 137.906
 152.016 137.844 151.703 137.711 151.469 c 137.582 151.234 137.363 151.055
 137.062 150.93 c 136.812 151.32 l 137.012 151.402 137.156 151.527 137.242
 151.688 c 137.332 151.852 137.383 152.086 137.391 152.398 c 136.875 152.398
 l f*
140.703 154.352 m 141.609 154.477 l 141.715 153.969 141.895 153.598 142.148
 153.367 c 142.402 153.141 142.711 153.023 143.062 153.023 c 143.488 153.023
 143.852 153.172 144.148 153.469 c 144.445 153.766 144.594 154.133 144.594
 154.57 c 144.594 154.988 144.461 155.332 144.188 155.602 c 143.918 155.871
 143.566 156.008 143.141 156.008 c 142.973 156.008 142.762 155.977 142.5
 155.914 c 142.594 156.711 l 142.75 156.711 l 143.137 156.711 143.484 156.809
 143.797 157.008 c 144.109 157.207 144.266 157.52 144.266 157.945 c 144.266
 158.277 144.152 158.555 143.922 158.773 c 143.691 158.992 143.402 159.102
 143.047 159.102 c 142.691 159.102 142.398 158.988 142.164 158.766 c 141.93
 158.543 141.777 158.211 141.703 157.773 c 140.797 157.93 l 140.902 158.547
 141.152 159.02 141.547 159.352 c 141.941 159.684 142.438 159.852 143.031
 159.852 c 143.438 159.852 143.809 159.766 144.148 159.594 c 144.488 159.422
 144.746 159.184 144.93 158.883 c 145.113 158.582 145.203 158.266 145.203
 157.93 c 145.203 157.605 145.117 157.312 144.945 157.047 c 144.773 156.781
 144.516 156.57 144.172 156.414 c 144.609 156.32 144.949 156.113 145.195
 155.789 c 145.441 155.469 145.562 155.066 145.562 154.586 c 145.562 153.941
 145.324 153.395 144.852 152.945 c 144.379 152.496 143.781 152.273 143.062
 152.273 c 142.406 152.273 141.863 152.469 141.438 152.852 c 141.012 153.238
 140.766 153.738 140.703 154.352 c f*
146.422 156.43 m 146.047 156.566 145.77 156.762 145.586 157.016 c 145.402
 157.27 145.312 157.582 145.312 157.945 c 145.312 158.488 145.508 158.941
 145.898 159.305 c 146.289 159.672 146.809 159.852 147.453 159.852 c 148.098
 159.852 148.621 159.664 149.016 159.289 c 149.41 158.914 149.609 158.457
 149.609 157.914 c 149.609 157.57 149.52 157.27 149.336 157.016 c 149.152
 156.762 148.879 156.566 148.516 156.43 c 148.965 156.273 149.309 156.031
 149.547 155.703 c 149.785 155.375 149.906 154.98 149.906 154.523 c 149.906
 153.891 149.684 153.355 149.234 152.922 c 148.785 152.488 148.199 152.273
 147.469 152.273 c 146.73 152.273 146.137 152.488 145.688 152.922 c 145.238
 153.355 145.016 153.895 145.016 154.539 c 145.016 155.027 145.137 155.434
 145.383 155.758 c 145.629 156.082 145.973 156.305 146.422 156.43 c h
146.25 157.977 m 146.25 157.621 146.363 157.336 146.586 157.109 c 146.809
 156.887 147.105 156.773 147.469 156.773 c 147.824 156.773 148.113 156.887
 148.336 157.109 c 148.559 157.336 148.672 157.602 148.672 157.914 c 148.672
 158.246 148.555 158.527 148.32 158.758 c 148.086 158.988 147.797 159.102
 147.453 159.102 c 147.109 159.102 146.824 158.988 146.594 158.766 c 146.363
 158.543 146.25 158.277 146.25 157.977 c h
145.953 154.539 m 145.953 154.277 146.016 154.027 146.141 153.781 c 146.266
 153.535 146.449 153.352 146.688 153.219 c 146.926 153.09 147.188 153.023
 147.469 153.023 c 147.906 153.023 148.266 153.164 148.547 153.445 c 148.828
 153.727 148.969 154.082 148.969 154.508 c 148.969 154.945 148.824 155.309
 148.531 155.594 c 148.238 155.883 147.875 156.023 147.438 156.023 c 147.012
 156.023 146.656 155.883 146.375 155.602 c 146.094 155.32 145.953 154.969
 145.953 154.539 c f*
151.766 150.336 m 151.766 157.773 l 152.594 157.773 l 152.594 157.086 l
 152.793 157.355 153.016 157.559 153.258 157.695 c 153.504 157.832 153.805
 157.898 154.156 157.898 c 154.613 157.898 155.02 157.781 155.367 157.547
 c 155.719 157.312 155.984 156.98 156.164 156.547 c 156.348 156.113 156.438
 155.645 156.438 155.133 c 156.438 154.582 156.34 154.086 156.141 153.641
 c 155.945 153.199 155.656 152.859 155.273 152.625 c 154.895 152.391 154.5
 152.273 154.094 152.273 c 153.781 152.273 153.508 152.34 153.266 152.469
 c 153.027 152.602 152.828 152.766 152.672 152.961 c 152.672 150.336 l h
152.594 155.055 m 152.594 154.367 152.734 153.855 153.008 153.523 c 153.285
 153.191 153.625 153.023 154.031 153.023 c 154.438 153.023 154.785 153.195
 155.07 153.539 c 155.359 153.883 155.5 154.414 155.5 155.133 c 155.5 155.82
 155.359 156.336 155.078 156.672 c 154.797 157.012 154.461 157.18 154.062
 157.18 c 153.68 157.18 153.336 157 153.039 156.641 c 152.742 156.281 152.594
 155.754 152.594 155.055 c f*
159.594 153.055 m 159.262 152.773 158.938 152.574 158.625 152.453 c 158.312
 152.336 157.98 152.273 157.625 152.273 c 157.031 152.273 156.574 152.422
 156.258 152.711 c 155.941 153.004 155.781 153.371 155.781 153.82 c 155.781
 154.082 155.844 154.32 155.961 154.539 c 156.082 154.758 156.238 154.934
 156.43 155.062 c 156.621 155.191 156.844 155.297 157.094 155.367 c 157.273
 155.41 157.543 155.449 157.906 155.492 c 158.637 155.586 159.18 155.695
 159.531 155.82 c 159.531 156.055 l 159.531 156.422 159.441 156.68 159.266
 156.836 c 159.035 157.047 158.691 157.148 158.234 157.148 c 157.809 157.148
 157.492 157.074 157.289 156.922 c 157.086 156.77 156.934 156.504 156.828
 156.117 c 155.938 156.242 l 156.023 156.629 156.152 156.938 156.336 157.172
 c 156.52 157.406 156.785 157.586 157.141 157.711 c 157.496 157.836 157.902
 157.898 158.359 157.898 c 158.816 157.898 159.191 157.844 159.484 157.734
 c 159.777 157.625 159.988 157.488 160.117 157.328 c 160.246 157.168 160.344
 156.961 160.406 156.711 c 160.438 156.555 160.453 156.273 160.453 155.867
 c 160.453 154.648 l 160.453 153.805 160.473 153.27 160.508 153.047 c 160.547
 152.824 160.621 152.605 160.734 152.398 c 159.781 152.398 l 159.688 152.586
 159.625 152.805 159.594 153.055 c h
159.531 155.102 m 159.199 154.969 158.699 154.852 158.031 154.758 c 157.656
 154.707 157.391 154.645 157.234 154.578 c 157.078 154.512 156.961 154.41
 156.875 154.281 c 156.793 154.152 156.75 154.004 156.75 153.836 c 156.75
 153.598 156.844 153.395 157.031 153.234 c 157.219 153.074 157.488 152.992
 157.844 152.992 c 158.188 152.992 158.496 153.066 158.773 153.219 c 159.051
 153.371 159.25 153.582 159.375 153.852 c 159.48 154.059 159.531 154.363
 159.531 154.758 c 159.531 155.102 l f*
160.406 152.398 m 160.406 157.773 l 161.234 157.773 l 161.234 156.961 l
 161.441 157.348 161.637 157.602 161.812 157.719 c 161.988 157.84 162.184
 157.898 162.391 157.898 c 162.703 157.898 163.016 157.801 163.328 157.602
 c 163.016 156.758 l 162.797 156.895 162.574 156.961 162.344 156.961 c 162.145
 156.961 161.969 156.902 161.812 156.781 c 161.656 156.66 161.543 156.492
 161.469 156.273 c 161.363 155.949 161.312 155.598 161.312 155.211 c 161.312
 152.398 l 160.406 152.398 l f*
165 153.211 m 165.141 152.414 l 164.883 152.352 164.652 152.32 164.453 
152.32 c 164.121 152.32 163.863 152.375 163.68 152.484 c 163.496 152.594
 163.367 152.73 163.289 152.898 c 163.211 153.066 163.172 153.426 163.172
 153.977 c 163.172 157.07 l 162.516 157.07 l 162.516 157.773 l 163.172 157.773
 l 163.172 159.117 l 164.094 159.664 l 164.094 157.773 l 165 157.773 l 165
 157.07 l 164.094 157.07 l 164.094 153.93 l 164.094 153.672 164.109 153.5
 164.141 153.422 c 164.172 153.344 164.227 153.285 164.297 153.242 c 164.371
 153.199 164.477 153.18 164.609 153.18 c 164.703 153.18 164.836 153.191 
165 153.211 c f*
165.172 158.773 m 165.172 159.82 l 166.078 159.82 l 166.078 158.773 l h
165.172 152.398 m 165.172 157.773 l 166.078 157.773 l 166.078 152.398 l
 165.172 152.398 l f*
170.406 154.367 m 171.312 154.258 l 171.211 153.633 170.957 153.145 170.555
 152.797 c 170.152 152.449 169.66 152.273 169.078 152.273 c 168.34 152.273
 167.746 152.516 167.297 153 c 166.848 153.484 166.625 154.176 166.625 155.07
 c 166.625 155.652 166.723 156.16 166.914 156.594 c 167.105 157.027 167.398
 157.352 167.789 157.57 c 168.18 157.789 168.609 157.898 169.078 157.898
 c 169.66 157.898 170.137 157.75 170.508 157.453 c 170.879 157.156 171.113
 156.738 171.219 156.195 c 170.344 156.055 l 170.25 156.422 170.098 156.691
 169.883 156.875 c 169.672 157.059 169.41 157.148 169.109 157.148 c 168.652
 157.148 168.277 156.984 167.992 156.656 c 167.707 156.328 167.562 155.805
 167.562 155.086 c 167.562 154.367 167.699 153.844 167.977 153.516 c 168.254
 153.188 168.613 153.023 169.062 153.023 c 169.418 153.023 169.715 153.133
 169.953 153.352 c 170.191 153.57 170.344 153.91 170.406 154.367 c f*
170.766 159.82 0.922 -7.422 re f*
176.203 154.133 m 177.156 154.008 l 177.012 153.469 176.734 153.043 176.328
 152.734 c 175.922 152.43 175.406 152.273 174.781 152.273 c 174 152.273 
173.379 152.516 172.914 153 c 172.449 153.484 172.219 154.164 172.219 155.039
 c 172.219 155.945 172.453 156.648 172.922 157.148 c 173.391 157.648 173.996
 157.898 174.734 157.898 c 175.453 157.898 176.043 157.652 176.5 157.164
 c 176.961 156.676 177.188 155.988 177.188 155.102 c 177.188 155.051 177.184
 154.969 177.172 154.852 c 173.172 154.852 l 173.203 154.27 173.371 153.816
 173.672 153.5 c 173.973 153.184 174.348 153.023 174.797 153.023 c 175.129
 153.023 175.414 153.113 175.648 153.289 c 175.883 153.469 176.066 153.746
 176.203 154.133 c h
173.219 155.602 m 176.219 155.602 l 176.176 156.059 176.062 156.398 175.875
 156.617 c 175.586 156.973 175.211 157.148 174.75 157.148 c 174.336 157.148
 173.98 157.008 173.695 156.727 c 173.41 156.445 173.25 156.07 173.219 155.602
 c f*
176.484 154.008 m 177.391 154.148 l 177.441 153.785 177.582 153.508 177.812
 153.312 c 178.043 153.121 178.363 153.023 178.781 153.023 c 179.207 153.023
 179.52 153.109 179.719 153.281 c 179.918 153.453 180.016 153.652 180.016
 153.883 c 180.016 154.094 179.926 154.254 179.75 154.367 c 179.625 154.449
 179.316 154.555 178.828 154.68 c 178.152 154.848 177.684 154.992 177.43
 155.117 c 177.176 155.242 176.98 155.414 176.844 155.633 c 176.707 155.852
 176.641 156.094 176.641 156.352 c 176.641 156.594 176.695 156.812 176.805
 157.016 c 176.914 157.219 177.062 157.391 177.25 157.523 c 177.395 157.629
 177.59 157.719 177.836 157.789 c 178.082 157.863 178.344 157.898 178.625
 157.898 c 179.043 157.898 179.41 157.84 179.734 157.719 c 180.059 157.602
 180.293 157.434 180.445 157.227 c 180.598 157.02 180.699 156.738 180.75
 156.383 c 179.859 156.273 l 179.816 156.547 179.699 156.758 179.508 156.914
 c 179.316 157.07 179.043 157.148 178.688 157.148 c 178.27 157.148 177.973
 157.082 177.797 156.945 c 177.621 156.809 177.531 156.648 177.531 156.461
 c 177.531 156.336 177.566 156.227 177.641 156.133 c 177.715 156.039 177.828
 155.961 177.984 155.898 c 178.078 155.855 178.348 155.777 178.797 155.664
 c 179.441 155.488 179.895 155.344 180.148 155.234 c 180.402 155.125 180.602
 154.969 180.742 154.758 c 180.883 154.551 180.953 154.289 180.953 153.977
 c 180.953 153.676 180.863 153.391 180.688 153.117 c 180.512 152.848 180.254
 152.641 179.922 152.492 c 179.59 152.348 179.215 152.273 178.797 152.273
 c 178.098 152.273 177.566 152.422 177.195 152.711 c 176.824 153.004 176.59
 153.434 176.484 154.008 c f*
  Q
Q
Q Q
showpage
%%Trailer
end restore
%%EOF
