%!PS-Adobe-3.0 EPSF-3.0
%%Creator: cairo 1.14.2 (http://cairographics.org)
%%CreationDate: Thu May 21 12:54:07 2015
%%Pages: 1
%%DocumentData: Clean7Bit
%%LanguageLevel: 2
%%BoundingBox: 0 0 273 154
%%EndComments
%%BeginProlog
save
50 dict begin
/q { gsave } bind def
/Q { grestore } bind def
/cm { 6 array astore concat } bind def
/w { setlinewidth } bind def
/J { setlinecap } bind def
/j { setlinejoin } bind def
/M { setmiterlimit } bind def
/d { setdash } bind def
/m { moveto } bind def
/l { lineto } bind def
/c { curveto } bind def
/h { closepath } bind def
/re { exch dup neg 3 1 roll 5 3 roll moveto 0 rlineto
      0 exch rlineto 0 rlineto closepath } bind def
/S { stroke } bind def
/f { fill } bind def
/f* { eofill } bind def
/n { newpath } bind def
/W { clip } bind def
/W* { eoclip } bind def
/BT { } bind def
/ET { } bind def
/pdfmark where { pop globaldict /?pdfmark /exec load put }
    { globaldict begin /?pdfmark /pop load def /pdfmark
    /cleartomark load def end } ifelse
/BDC { mark 3 1 roll /BDC pdfmark } bind def
/EMC { mark /EMC pdfmark } bind def
/cairo_store_point { /cairo_point_y exch def /cairo_point_x exch def } def
/Tj { show currentpoint cairo_store_point } bind def
/TJ {
  {
    dup
    type /stringtype eq
    { show } { -0.001 mul 0 cairo_font_matrix dtransform rmoveto } ifelse
  } forall
  currentpoint cairo_store_point
} bind def
/cairo_selectfont { cairo_font_matrix aload pop pop pop 0 0 6 array astore
    cairo_font exch selectfont cairo_point_x cairo_point_y moveto } bind def
/Tf { pop /cairo_font exch def /cairo_font_matrix where
      { pop cairo_selectfont } if } bind def
/Td { matrix translate cairo_font_matrix matrix concatmatrix dup
      /cairo_font_matrix exch def dup 4 get exch 5 get cairo_store_point
      /cairo_font where { pop cairo_selectfont } if } bind def
/Tm { 2 copy 8 2 roll 6 array astore /cairo_font_matrix exch def
      cairo_store_point /cairo_font where { pop cairo_selectfont } if } bind def
/g { setgray } bind def
/rg { setrgbcolor } bind def
/d1 { setcachedevice } bind def
%%EndProlog
%%BeginSetup
%%EndSetup
%%Page: 1 1
%%BeginPageSetup
%%PageBoundingBox: 0 0 273 154
%%EndPageSetup
q 0 0 273 154 rectclip q
Q q
5.719 133.668 249 -126 re W n
q
5 134 250 -127 re W n
  q
0.368627 0.505882 0.709804 rg
1.152 w
2 J
0 j
[] 0.0 d
3.25 M q 1 0 0 1 0 154 cm
30.98 -145.09 m 44.465 -145.09 l 44.523 -145.086 l 47.137 -145.086 l 47.398
 -145.082 l 48.574 -145.082 l 48.707 -145.078 l 49.098 -145.078 l 49.227
 -145.074 l 49.75 -145.074 l 50.012 -145.07 l 50.273 -145.07 l 50.535 -145.066
 l 50.668 -145.066 l 50.797 -145.062 l 51.121 -145.062 l 51.18 -145.059 
l 51.305 -145.059 l 51.547 -145.055 l 51.668 -145.055 l 51.789 -145.051 
l 52.035 -145.051 l 52.098 -145.047 l 52.156 -145.047 l 52.277 -145.043 
l 52.523 -145.043 l 53.012 -145.031 l 53.074 -145.031 l 53.133 -145.027 
l 53.258 -145.027 l 53.5 -145.02 l 53.562 -145.02 l 53.621 -145.016 l 53.742
 -145.016 l 53.988 -145.008 l 54.047 -145.008 l 54.109 -145.004 l 54.23 
-145 l 54.477 -144.992 l 54.965 -144.977 l 55.031 -144.977 l 55.098 -144.973
 l 55.23 -144.969 l 55.492 -144.957 l 55.625 -144.949 l 55.758 -144.945 
l 56.023 -144.934 l 56.09 -144.93 l 56.156 -144.93 l 56.285 -144.922 l 56.551
 -144.906 l 57.082 -144.879 l 57.148 -144.875 l 57.215 -144.867 l 57.344
 -144.859 l 57.609 -144.844 l 58.141 -144.805 l 58.207 -144.801 l 58.27 
-144.797 l 58.402 -144.785 l 58.668 -144.766 l 59.195 -144.719 l 59.328 
-144.703 l 59.715 -144.668 l 60.234 -144.609 l 60.367 -144.594 l 60.754 
-144.547 l 61.273 -144.48 l 61.34 -144.473 l 61.402 -144.461 l 61.535 -144.445
 l 61.793 -144.406 l 62.312 -144.324 l 63.352 -144.145 l 63.414 -144.133
 l 63.473 -144.125 l 63.594 -144.102 l 63.836 -144.051 l 64.32 -143.953 
l 65.289 -143.734 l 65.352 -143.719 l 65.41 -143.703 l 65.531 -143.672 l
 65.773 -143.613 l 66.258 -143.488 l 67.227 -143.215 l 67.492 -143.137 l
 67.754 -143.055 l 68.277 -142.887 l 69.332 -142.523 l 69.395 -142.5 l 69.594
 -142.43 l 69.855 -142.332 l 70.379 -142.129 l 71.43 -141.699 l 71.555 -141.645
 l 71.676 -141.594 l 71.922 -141.484 l 72.41 -141.266 l 73.395 -140.801 
l 73.453 -140.773 l 73.516 -140.742 l 73.637 -140.684 l 74.375 -140.309 
l 75.355 -139.781 l 75.414 -139.746 l 75.477 -139.715 l 75.594 -139.648 
l 75.836 -139.512 l 76.316 -139.23 l 77.277 -138.648 l 77.34 -138.613 l 
77.398 -138.574 l 77.52 -138.5 l 77.758 -138.348 l 78.238 -138.031 l 79.203
 -137.379 l 79.266 -137.332 l 79.332 -137.285 l 79.461 -137.195 l 79.723
 -137.008 l 80.246 -136.625 l 81.289 -135.82 l 83.375 -134.062 l 83.438 
-134.008 l 83.496 -133.953 l 83.617 -133.844 l 83.863 -133.621 l 84.348 
-133.168 l 85.32 -132.223 l 87.27 -130.199 l 91.488 -125.309 l 95.633 -120.324
 l 95.695 -120.254 l 95.754 -120.184 l 95.875 -120.043 l 96.602 -119.211
 l 97.566 -118.137 l 99.5 -116.109 l 99.566 -116.043 l 99.629 -115.977 l
 99.762 -115.848 l 100.023 -115.59 l 100.547 -115.09 l 101.594 -114.129 
l 101.66 -114.07 l 101.727 -114.016 l 101.855 -113.898 l 102.117 -113.672
 l 102.645 -113.234 l 103.691 -112.406 l 103.754 -112.359 l 103.812 -112.316
 l 103.934 -112.223 l 104.18 -112.043 l 104.668 -111.695 l 105.648 -111.047
 l 105.707 -111.012 l 105.77 -110.973 l 105.891 -110.898 l 106.137 -110.75
 l 106.625 -110.469 l 107.602 -109.953 l 107.672 -109.922 l 107.734 -109.891
 l 108.133 -109.703 l 108.664 -109.477 l 108.93 -109.367 l 109.191 -109.27
 l 109.723 -109.082 l 109.789 -109.062 l 109.855 -109.039 l 109.988 -108.996
 l 110.32 -108.898 l 110.387 -108.883 l 110.52 -108.844 l 110.781 -108.777
 l 110.848 -108.758 l 111.047 -108.711 l 111.312 -108.652 l 111.445 -108.629
 l 111.578 -108.602 l 111.844 -108.555 l 111.906 -108.543 l 111.973 -108.531
 l 112.102 -108.512 l 112.168 -108.504 l 112.234 -108.492 l 112.363 -108.477
 l 112.43 -108.469 l 112.492 -108.461 l 112.621 -108.445 l 112.754 -108.43
 l 112.883 -108.418 l 112.949 -108.414 l 113.012 -108.406 l 113.211 -108.395
 l 113.273 -108.391 l 113.34 -108.387 l 113.402 -108.383 l 113.535 -108.375
 l 113.598 -108.371 l 113.664 -108.371 l 113.73 -108.367 l 113.793 -108.367
 l 113.859 -108.363 l 114.445 -108.363 l 114.508 -108.367 l 114.574 -108.367
 l 114.641 -108.371 l 114.703 -108.371 l 114.836 -108.379 l 114.898 -108.383
 l 115.031 -108.391 l 115.094 -108.395 l 115.227 -108.406 l 115.289 -108.41
 l 115.355 -108.414 l 115.484 -108.426 l 115.551 -108.434 l 115.613 -108.441
 l 115.746 -108.457 l 116.004 -108.488 l 116.066 -108.496 l 116.125 -108.504
 l 116.488 -108.562 l 116.551 -108.57 l 116.613 -108.582 l 116.977 -108.652
 l 117.035 -108.664 l 117.098 -108.676 l 117.461 -108.758 l 117.945 -108.883
 l 118.008 -108.898 l 118.066 -108.914 l 118.188 -108.949 l 118.434 -109.023
 l 118.918 -109.18 l 118.977 -109.199 l 119.039 -109.223 l 119.16 -109.266
 l 119.402 -109.355 l 119.887 -109.547 l 120.152 -109.656 l 120.414 -109.773
 l 120.941 -110.023 l 121.008 -110.055 l 121.203 -110.152 l 121.469 -110.289
 l 121.992 -110.582 l 122.059 -110.617 l 122.125 -110.656 l 122.258 -110.73
 l 122.52 -110.887 l 123.047 -111.215 l 124.098 -111.93 l 124.223 -112.016
 l 124.344 -112.105 l 124.59 -112.285 l 125.082 -112.656 l 126.062 -113.434
 l 128.027 -115.102 l 128.09 -115.156 l 128.148 -115.207 l 128.512 -115.523
 l 128.992 -115.945 l 129.953 -116.781 l 130.016 -116.836 l 130.074 -116.887
 l 130.195 -116.988 l 130.438 -117.195 l 130.918 -117.598 l 131.883 -118.371
 l 131.949 -118.422 l 132.012 -118.473 l 132.145 -118.57 l 132.406 -118.766
 l 132.926 -119.141 l 132.992 -119.184 l 133.059 -119.23 l 133.188 -119.316
 l 133.449 -119.488 l 133.973 -119.812 l 134.039 -119.852 l 134.102 -119.887
 l 134.234 -119.961 l 134.496 -120.105 l 134.559 -120.141 l 134.625 -120.172
 l 134.758 -120.238 l 135.02 -120.363 l 135.082 -120.395 l 135.148 -120.422
 l 135.277 -120.48 l 135.539 -120.586 l 135.605 -120.613 l 135.672 -120.637
 l 135.801 -120.684 l 136.062 -120.773 l 136.125 -120.789 l 136.184 -120.809
 l 136.309 -120.844 l 136.367 -120.859 l 136.43 -120.879 l 136.551 -120.906
 l 136.609 -120.922 l 136.672 -120.938 l 136.793 -120.961 l 136.855 -120.973
 l 136.914 -120.984 l 137.039 -121.004 l 137.098 -121.016 l 137.223 -121.031
 l 137.281 -121.039 l 137.344 -121.047 l 137.402 -121.055 l 137.527 -121.062
 l 137.586 -121.07 l 137.648 -121.07 l 137.707 -121.078 l 137.77 -121.078
 l 137.828 -121.082 l 138.137 -121.082 l 138.195 -121.078 l 138.258 -121.074
 l 138.316 -121.07 l 138.441 -121.062 l 138.5 -121.059 l 138.562 -121.051
 l 138.621 -121.043 l 138.746 -121.027 l 138.805 -121.02 l 138.867 -121.012
 l 138.988 -120.988 l 139.051 -120.977 l 139.109 -120.965 l 139.23 -120.938
 l 139.355 -120.906 l 139.477 -120.875 l 139.535 -120.859 l 139.598 -120.84
 l 139.719 -120.801 l 139.965 -120.719 l 140.098 -120.664 l 140.227 -120.613
 l 140.492 -120.492 l 140.625 -120.43 l 140.758 -120.359 l 141.02 -120.215
 l 141.086 -120.172 l 141.152 -120.133 l 141.285 -120.051 l 141.551 -119.879
 l 142.078 -119.488 l 142.344 -119.27 l 142.605 -119.039 l 143.137 -118.539
 l 143.199 -118.473 l 143.266 -118.406 l 143.398 -118.27 l 143.664 -117.984
 l 144.191 -117.375 l 144.258 -117.297 l 144.32 -117.219 l 144.449 -117.055
 l 144.711 -116.727 l 145.23 -116.027 l 146.27 -114.496 l 146.332 -114.395
 l 146.398 -114.289 l 146.527 -114.086 l 146.785 -113.66 l 147.305 -112.789
 l 148.344 -110.934 l 148.402 -110.82 l 148.465 -110.707 l 148.586 -110.48
 l 148.828 -110.02 l 149.312 -109.086 l 150.277 -107.145 l 152.215 -103.074
 l 156.414 -94.188 l 156.477 -94.062 l 156.535 -93.941 l 156.656 -93.695
 l 156.902 -93.211 l 157.395 -92.258 l 158.371 -90.434 l 158.496 -90.215
 l 158.617 -89.996 l 158.863 -89.566 l 159.352 -88.734 l 160.332 -87.18 
l 160.395 -87.09 l 160.453 -87 l 160.574 -86.82 l 160.812 -86.473 l 161.293
 -85.809 l 161.352 -85.727 l 161.414 -85.648 l 161.535 -85.492 l 161.773
 -85.184 l 162.254 -84.605 l 162.312 -84.535 l 162.375 -84.469 l 162.492
 -84.332 l 162.734 -84.07 l 163.215 -83.582 l 163.273 -83.523 l 163.336 
-83.465 l 163.453 -83.352 l 163.695 -83.137 l 164.176 -82.742 l 164.238 
-82.691 l 164.305 -82.645 l 164.438 -82.547 l 164.695 -82.371 l 164.828 
-82.285 l 164.957 -82.207 l 165.219 -82.055 l 165.281 -82.02 l 165.348 -81.984
 l 165.477 -81.918 l 165.609 -81.855 l 165.738 -81.797 l 165.805 -81.77 
l 165.867 -81.742 l 166 -81.691 l 166.262 -81.602 l 166.324 -81.582 l 166.391
 -81.559 l 166.52 -81.523 l 166.652 -81.492 l 166.781 -81.461 l 166.848 
-81.449 l 166.91 -81.438 l 166.977 -81.426 l 167.039 -81.414 l 167.238 -81.391
 l 167.301 -81.383 l 167.367 -81.379 l 167.434 -81.371 l 167.496 -81.367
 l 167.562 -81.367 l 167.629 -81.363 l 167.887 -81.363 l 168.086 -81.375
 l 168.148 -81.383 l 168.215 -81.387 l 168.277 -81.395 l 168.344 -81.402
 l 168.406 -81.41 l 168.465 -81.418 l 168.527 -81.43 l 168.586 -81.441 l
 168.711 -81.465 l 168.832 -81.492 l 168.891 -81.508 l 168.953 -81.523 l
 169.074 -81.555 l 169.133 -81.574 l 169.195 -81.59 l 169.316 -81.633 l 
169.379 -81.652 l 169.438 -81.672 l 169.559 -81.719 l 169.805 -81.82 l 169.863
 -81.848 l 169.926 -81.875 l 170.047 -81.934 l 170.289 -82.059 l 170.352
 -82.09 l 170.41 -82.125 l 170.531 -82.191 l 170.777 -82.344 l 170.836 -82.383
 l 170.898 -82.418 l 171.02 -82.504 l 171.262 -82.672 l 171.324 -82.719 
l 171.383 -82.766 l 171.504 -82.855 l 171.746 -83.051 l 172.234 -83.473 
l 172.301 -83.535 l 172.367 -83.594 l 172.496 -83.719 l 172.762 -83.98 l
 173.289 -84.535 l 173.355 -84.605 l 173.422 -84.68 l 173.551 -84.828 l 
173.816 -85.137 l 174.344 -85.781 l 174.477 -85.953 l 174.605 -86.121 l 
174.871 -86.473 l 175.398 -87.203 l 176.449 -88.777 l 176.574 -88.973 l 
176.695 -89.168 l 176.941 -89.562 l 177.438 -90.371 l 178.422 -92.07 l 180.391
 -95.707 l 184.25 -103.375 l 188.438 -111.684 l 192.344 -118.754 l 192.41
 -118.867 l 192.477 -118.977 l 192.609 -119.199 l 192.875 -119.641 l 193.402
 -120.504 l 194.461 -122.176 l 196.578 -125.273 l 196.711 -125.453 l 196.84
 -125.633 l 197.102 -125.984 l 197.621 -126.672 l 198.66 -127.996 l 198.723
 -128.078 l 198.789 -128.156 l 198.918 -128.312 l 199.18 -128.629 l 199.699
 -129.238 l 200.738 -130.406 l 200.801 -130.473 l 200.859 -130.539 l 200.98
 -130.668 l 201.223 -130.93 l 201.707 -131.434 l 202.676 -132.395 l 202.801
 -132.512 l 202.922 -132.625 l 203.16 -132.855 l 203.648 -133.297 l 204.617
 -134.145 l 204.684 -134.199 l 204.746 -134.254 l 204.879 -134.363 l 205.141
 -134.582 l 205.668 -135 l 206.719 -135.793 l 206.785 -135.844 l 206.852
 -135.891 l 206.98 -135.984 l 207.246 -136.172 l 207.77 -136.531 l 208.82
 -137.219 l 208.883 -137.254 l 208.945 -137.293 l 209.066 -137.367 l 209.312
 -137.52 l 209.805 -137.809 l 210.785 -138.359 l 210.848 -138.395 l 210.906
 -138.426 l 211.031 -138.492 l 211.277 -138.621 l 211.766 -138.871 l 212.75
 -139.348 l 212.867 -139.402 l 213.23 -139.566 l 213.711 -139.777 l 214.672
 -140.18 l 214.734 -140.203 l 214.793 -140.227 l 214.914 -140.273 l 215.152
 -140.367 l 215.637 -140.551 l 216.598 -140.895 l 216.664 -140.918 l 216.727
 -140.941 l 216.859 -140.984 l 217.121 -141.074 l 217.641 -141.242 l 218.688
 -141.559 l 218.75 -141.578 l 218.816 -141.598 l 218.945 -141.637 l 219.207
 -141.711 l 219.73 -141.852 l 220.773 -142.121 l 220.836 -142.137 l 220.895
 -142.152 l 221.02 -142.18 l 221.262 -142.238 l 221.746 -142.352 l 222.723
 -142.566 l 222.781 -142.582 l 222.844 -142.594 l 222.965 -142.617 l 223.211
 -142.668 l 223.695 -142.766 l 224.672 -142.945 l 224.738 -142.961 l 224.809
 -142.973 l 224.941 -142.996 l 225.215 -143.043 l 225.758 -143.133 l 226.848
 -143.305 l 226.914 -143.312 l 226.98 -143.324 l 227.391 -143.383 l 227.934
 -143.461 l 228.004 -143.469 l 228.07 -143.48 l 228.203 -143.496 l 228.477
 -143.535 l 228.547 -143.543 l 228.613 -143.551 l 228.75 -143.57 l 228.816
 -143.578 l 228.887 -143.586 l 229.02 -143.602 l S Q
0.882353 0.611765 0.141176 rg
[ 3.456 3.456] 0 d
q 1 0 0 1 0 154 cm
30.98 -145.09 m 45.668 -145.09 l 45.91 -145.086 l 48.508 -145.086 l 48.574
 -145.082 l 50.078 -145.082 l 50.145 -145.078 l 50.668 -145.078 l 50.797
 -145.074 l 51.305 -145.074 l 51.547 -145.07 l 51.789 -145.07 l 52.035 -145.066
 l 52.277 -145.066 l 52.523 -145.062 l 53.012 -145.059 l 53.133 -145.059
 l 53.258 -145.055 l 53.5 -145.055 l 53.562 -145.051 l 53.742 -145.051 l
 53.988 -145.047 l 54.047 -145.047 l 54.109 -145.043 l 54.23 -145.043 l 
54.477 -145.039 l 54.965 -145.031 l 55.031 -145.027 l 55.098 -145.027 l 
55.23 -145.023 l 55.492 -145.02 l 55.559 -145.02 l 55.625 -145.016 l 55.758
 -145.016 l 56.023 -145.008 l 56.09 -145.008 l 56.156 -145.004 l 56.285 
-145 l 57.082 -144.977 l 57.148 -144.977 l 57.215 -144.973 l 57.344 -144.969
 l 57.609 -144.961 l 58.141 -144.941 l 58.207 -144.938 l 58.27 -144.934 
l 58.402 -144.93 l 58.668 -144.918 l 59.195 -144.895 l 59.328 -144.887 l
 59.457 -144.879 l 59.715 -144.867 l 60.234 -144.836 l 60.367 -144.828 l
 60.754 -144.805 l 61.273 -144.77 l 61.34 -144.762 l 61.402 -144.758 l 61.535
 -144.75 l 61.793 -144.73 l 62.312 -144.688 l 63.352 -144.594 l 63.414 -144.586
 l 63.473 -144.582 l 63.594 -144.57 l 63.836 -144.543 l 64.32 -144.492 l
 65.289 -144.379 l 65.352 -144.375 l 65.41 -144.363 l 65.531 -144.352 l 
65.773 -144.32 l 66.258 -144.254 l 67.227 -144.113 l 67.359 -144.098 l 67.492
 -144.074 l 67.754 -144.035 l 68.277 -143.953 l 69.332 -143.773 l 71.43 
-143.375 l 71.555 -143.352 l 71.676 -143.324 l 71.922 -143.277 l 72.41 -143.172
 l 73.395 -142.965 l 75.355 -142.527 l 79.203 -141.637 l 83.375 -140.684
 l 87.27 -139.879 l 87.402 -139.855 l 87.531 -139.828 l 87.797 -139.777 
l 89.379 -139.484 l 91.488 -139.125 l 91.555 -139.113 l 91.621 -139.105 
l 91.75 -139.082 l 92.008 -139.043 l 92.527 -138.961 l 93.562 -138.801 l
 95.633 -138.508 l 95.695 -138.5 l 95.754 -138.492 l 95.875 -138.477 l 96.117
 -138.441 l 96.602 -138.379 l 97.566 -138.258 l 99.5 -138.027 l 103.691 
-137.586 l 107.602 -137.223 l 111.844 -136.859 l 116.004 -136.504 l 119.887
 -136.152 l 124.098 -135.723 l 124.16 -135.715 l 124.223 -135.711 l 124.344
 -135.695 l 125.082 -135.613 l 126.062 -135.496 l 128.027 -135.25 l 128.09
 -135.242 l 128.148 -135.234 l 128.27 -135.219 l 128.512 -135.184 l 128.992
 -135.117 l 129.953 -134.98 l 130.016 -134.973 l 130.074 -134.965 l 130.195
 -134.945 l 130.438 -134.91 l 130.918 -134.84 l 131.883 -134.688 l 131.949
 -134.676 l 132.012 -134.664 l 132.145 -134.645 l 132.406 -134.602 l 132.926
 -134.512 l 133.973 -134.328 l 134.039 -134.312 l 134.102 -134.301 l 134.234
 -134.277 l 134.496 -134.23 l 135.02 -134.129 l 136.062 -133.918 l 136.125
 -133.906 l 136.184 -133.895 l 136.309 -133.867 l 136.551 -133.816 l 137.039
 -133.711 l 138.012 -133.488 l 138.074 -133.473 l 138.137 -133.461 l 138.258
 -133.43 l 138.5 -133.371 l 138.988 -133.25 l 139.965 -132.996 l 140.031
 -132.98 l 140.098 -132.961 l 140.227 -132.926 l 140.492 -132.852 l 141.02
 -132.703 l 142.078 -132.387 l 142.211 -132.348 l 142.344 -132.305 l 142.605
 -132.219 l 143.137 -132.047 l 144.191 -131.676 l 144.258 -131.652 l 144.32
 -131.629 l 144.449 -131.582 l 144.711 -131.484 l 145.23 -131.285 l 146.27
 -130.863 l 146.332 -130.836 l 146.398 -130.809 l 146.527 -130.754 l 146.785
 -130.641 l 147.305 -130.406 l 148.344 -129.906 l 148.402 -129.879 l 148.465
 -129.848 l 148.828 -129.66 l 149.312 -129.406 l 150.277 -128.863 l 150.34
 -128.828 l 150.398 -128.789 l 150.52 -128.719 l 150.762 -128.574 l 151.246
 -128.273 l 152.215 -127.633 l 152.281 -127.59 l 152.348 -127.543 l 152.477
 -127.453 l 152.738 -127.266 l 153.266 -126.879 l 154.312 -126.051 l 154.578
 -125.832 l 154.84 -125.605 l 155.363 -125.145 l 156.414 -124.148 l 156.535
 -124.027 l 156.656 -123.902 l 156.902 -123.652 l 157.395 -123.133 l 158.371
 -122.023 l 158.434 -121.949 l 158.496 -121.879 l 158.617 -121.73 l 158.863
 -121.43 l 159.352 -120.812 l 160.332 -119.492 l 160.395 -119.41 l 160.453
 -119.324 l 160.574 -119.152 l 160.812 -118.805 l 161.293 -118.086 l 162.254
 -116.559 l 162.312 -116.457 l 162.375 -116.355 l 162.492 -116.156 l 162.734
 -115.746 l 163.215 -114.902 l 164.176 -113.113 l 164.238 -112.988 l 164.305
 -112.863 l 164.438 -112.605 l 164.695 -112.09 l 165.219 -111.023 l 166.262
 -108.777 l 168.344 -103.859 l 168.406 -103.711 l 168.465 -103.559 l 168.586
 -103.254 l 168.832 -102.645 l 169.316 -101.41 l 170.289 -98.902 l 170.352
 -98.746 l 170.41 -98.586 l 170.531 -98.273 l 170.777 -97.641 l 171.262 
-96.379 l 172.234 -93.891 l 172.301 -93.727 l 172.367 -93.559 l 172.496 
-93.23 l 172.762 -92.578 l 173.289 -91.309 l 173.422 -90.996 l 173.551 -90.688
 l 173.816 -90.086 l 174.344 -88.926 l 174.477 -88.645 l 174.605 -88.371
 l 174.871 -87.84 l 175.398 -86.84 l 175.465 -86.723 l 175.527 -86.605 l
 175.66 -86.375 l 175.926 -85.938 l 176.449 -85.141 l 176.512 -85.055 l 
176.574 -84.973 l 176.695 -84.809 l 176.941 -84.504 l 177.066 -84.363 l 
177.191 -84.227 l 177.438 -83.977 l 177.496 -83.918 l 177.559 -83.863 l 
177.684 -83.758 l 177.742 -83.707 l 177.93 -83.566 l 177.988 -83.523 l 178.176
 -83.406 l 178.234 -83.371 l 178.422 -83.277 l 178.48 -83.25 l 178.543 -83.223
 l 178.605 -83.203 l 178.664 -83.18 l 178.789 -83.141 l 178.852 -83.125 
l 178.91 -83.113 l 179.035 -83.09 l 179.098 -83.082 l 179.156 -83.078 l 
179.281 -83.07 l 179.344 -83.07 l 179.402 -83.074 l 179.465 -83.078 l 179.652
 -83.102 l 179.711 -83.113 l 179.836 -83.145 l 179.898 -83.164 l 179.957
 -83.184 l 180.145 -83.254 l 180.203 -83.281 l 180.266 -83.312 l 180.391
 -83.379 l 180.449 -83.414 l 180.508 -83.453 l 180.629 -83.531 l 180.691
 -83.574 l 180.75 -83.617 l 180.871 -83.711 l 180.934 -83.762 l 180.992 
-83.812 l 181.113 -83.922 l 181.355 -84.16 l 181.414 -84.227 l 181.477 -84.293
 l 181.594 -84.43 l 181.836 -84.727 l 182.32 -85.395 l 182.379 -85.488 l
 182.441 -85.578 l 182.559 -85.77 l 182.801 -86.168 l 183.285 -87.031 l 
183.344 -87.148 l 183.406 -87.262 l 183.523 -87.496 l 183.766 -87.984 l 
184.25 -89.016 l 184.316 -89.16 l 184.379 -89.305 l 184.512 -89.602 l 184.773
 -90.211 l 185.297 -91.477 l 186.344 -94.184 l 188.438 -99.984 l 188.496
 -100.156 l 188.559 -100.328 l 188.68 -100.672 l 188.926 -101.363 l 189.414
 -102.742 l 190.391 -105.469 l 192.344 -110.699 l 192.41 -110.867 l 192.477
 -111.039 l 192.609 -111.375 l 192.875 -112.043 l 193.402 -113.355 l 194.461
 -115.867 l 194.594 -116.172 l 194.727 -116.473 l 194.992 -117.066 l 195.52
 -118.227 l 196.578 -120.426 l 196.711 -120.684 l 196.84 -120.941 l 197.102
 -121.449 l 197.621 -122.434 l 198.66 -124.297 l 198.723 -124.406 l 198.789
 -124.52 l 198.918 -124.738 l 199.18 -125.176 l 199.699 -126.02 l 200.738
 -127.609 l 200.801 -127.695 l 200.859 -127.785 l 200.98 -127.961 l 201.223
 -128.309 l 201.707 -128.977 l 202.676 -130.246 l 202.738 -130.32 l 202.801
 -130.398 l 202.922 -130.547 l 203.16 -130.844 l 203.648 -131.414 l 204.617
 -132.496 l 204.684 -132.566 l 204.746 -132.637 l 204.879 -132.777 l 205.141
 -133.047 l 205.668 -133.578 l 206.719 -134.562 l 206.852 -134.68 l 206.98
 -134.797 l 207.246 -135.027 l 207.77 -135.469 l 208.82 -136.293 l 208.945
 -136.387 l 209.066 -136.477 l 209.312 -136.656 l 209.805 -137.004 l 210.785
 -137.656 l 210.848 -137.695 l 210.906 -137.734 l 211.031 -137.812 l 211.277
 -137.965 l 211.766 -138.258 l 212.75 -138.809 l 212.867 -138.871 l 212.988
 -138.938 l 213.23 -139.062 l 213.711 -139.305 l 214.672 -139.766 l 214.734
 -139.793 l 214.793 -139.82 l 214.914 -139.871 l 215.152 -139.98 l 215.637
 -140.188 l 216.598 -140.578 l 216.664 -140.602 l 216.727 -140.625 l 216.859
 -140.676 l 217.121 -140.773 l 217.641 -140.965 l 218.688 -141.316 l 218.75
 -141.34 l 218.816 -141.359 l 218.945 -141.402 l 219.207 -141.48 l 219.73
 -141.641 l 220.773 -141.938 l 220.836 -141.953 l 220.895 -141.969 l 221.02
 -142.004 l 221.746 -142.191 l 222.723 -142.422 l 222.781 -142.438 l 222.844
 -142.453 l 222.965 -142.477 l 223.211 -142.531 l 223.695 -142.637 l 224.672
 -142.836 l 224.738 -142.848 l 224.809 -142.859 l 224.941 -142.887 l 225.215
 -142.938 l 225.758 -143.035 l 226.848 -143.219 l 226.98 -143.242 l 227.117
 -143.262 l 227.391 -143.305 l 227.934 -143.387 l 228.004 -143.395 l 228.07
 -143.406 l 228.203 -143.426 l 228.477 -143.465 l 228.547 -143.473 l 228.613
 -143.484 l 228.75 -143.5 l 228.816 -143.512 l 228.887 -143.52 l 228.953
 -143.527 l 229.02 -143.539 l S Q
  Q
Q
0 g
0.072 w
0 J
0 j
[] 0.0 d
3.25 M q 1 0 0 1 0 154 cm
30.98 -145.09 m 30.98 -142.613 l S Q
Q q
22.699 8.699 16.102 -8.699 re W n
q
22 9 17 -9 re W n
  q
0 g
24.527 4.312 m 24.527 5.043 24.602 5.629 24.754 6.078 c 24.902 6.527 25.129
 6.871 25.426 7.109 c 25.723 7.348 26.094 7.469 26.543 7.469 c 26.875 7.469
 27.168 7.402 27.418 7.266 c 27.668 7.129 27.875 6.938 28.043 6.688 c 28.211
 6.438 28.34 6.133 28.434 5.773 c 28.527 5.414 28.574 4.926 28.574 4.312
 c 28.574 3.582 28.496 2.996 28.348 2.547 c 28.195 2.098 27.973 1.754 27.676
 1.508 c 27.379 1.262 27 1.141 26.543 1.141 c 25.949 1.141 25.48 1.355 25.137
 1.781 c 24.73 2.301 24.527 3.145 24.527 4.312 c h
25.309 4.312 m 25.309 3.293 25.426 2.613 25.668 2.273 c 25.906 1.934 26.199
 1.766 26.543 1.766 c 26.895 1.766 27.191 1.934 27.434 2.273 c 27.672 2.613
 27.793 3.293 27.793 4.312 c 27.793 5.332 27.672 6.012 27.434 6.344 c 27.191
 6.676 26.895 6.844 26.543 6.844 c 26.188 6.844 25.906 6.691 25.699 6.391
 c 25.438 6.016 25.309 5.324 25.309 4.312 c f*
28.559 2.109 0.875 -0.859 re f*
29.934 4.312 m 29.934 5.043 30.008 5.629 30.16 6.078 c 30.309 6.527 30.535
 6.871 30.832 7.109 c 31.129 7.348 31.5 7.469 31.949 7.469 c 32.281 7.469
 32.574 7.402 32.824 7.266 c 33.074 7.129 33.281 6.938 33.449 6.688 c 33.613
 6.438 33.746 6.133 33.84 5.773 c 33.934 5.414 33.98 4.926 33.98 4.312 c
 33.98 3.582 33.902 2.996 33.754 2.547 c 33.602 2.098 33.379 1.754 33.082
 1.508 c 32.785 1.262 32.406 1.141 31.949 1.141 c 31.355 1.141 30.887 1.355
 30.543 1.781 c 30.137 2.301 29.934 3.145 29.934 4.312 c h
30.715 4.312 m 30.715 3.293 30.832 2.613 31.074 2.273 c 31.312 1.934 31.605
 1.766 31.949 1.766 c 32.301 1.766 32.598 1.934 32.84 2.273 c 33.078 2.613
 33.199 3.293 33.199 4.312 c 33.199 5.332 33.078 6.012 32.84 6.344 c 32.598
 6.676 32.301 6.844 31.949 6.844 c 31.594 6.844 31.312 6.691 31.105 6.391
 c 30.844 6.016 30.715 5.324 30.715 4.312 c f*
36.402 1.25 m 35.652 1.25 l 35.652 6.094 l 35.465 5.926 35.223 5.754 34.922
 5.578 c 34.629 5.402 34.359 5.27 34.121 5.188 c 34.121 5.922 l 34.547 6.121
 34.918 6.359 35.238 6.641 c 35.555 6.922 35.781 7.199 35.914 7.469 c 36.402
 7.469 l 36.402 1.25 l f*
  Q
Q
Q q
0 g
0.072 w
0 J
0 j
[] 0.0 d
3.25 M q 1 0 0 1 0 154 cm
84.52 -145.09 m 84.52 -142.613 l S Q
Q q
76.699 8.699 16.102 -8.699 re W n
q
76 9 17 -9 re W n
  q
0 g
78.066 4.312 m 78.066 5.043 78.141 5.629 78.293 6.078 c 78.445 6.527 78.668
 6.871 78.965 7.109 c 79.262 7.348 79.633 7.469 80.082 7.469 c 80.414 7.469
 80.707 7.402 80.957 7.266 c 81.207 7.129 81.414 6.938 81.582 6.688 c 81.75
 6.438 81.879 6.133 81.973 5.773 c 82.066 5.414 82.113 4.926 82.113 4.312
 c 82.113 3.582 82.039 2.996 81.887 2.547 c 81.734 2.098 81.512 1.754 81.215
 1.508 c 80.918 1.262 80.539 1.141 80.082 1.141 c 79.488 1.141 79.02 1.355
 78.676 1.781 c 78.27 2.301 78.066 3.145 78.066 4.312 c h
78.848 4.312 m 78.848 3.293 78.969 2.613 79.207 2.273 c 79.445 1.934 79.738
 1.766 80.082 1.766 c 80.438 1.766 80.734 1.934 80.973 2.273 c 81.211 2.613
 81.332 3.293 81.332 4.312 c 81.332 5.332 81.211 6.012 80.973 6.344 c 80.734
 6.676 80.438 6.844 80.082 6.844 c 79.727 6.844 79.445 6.691 79.238 6.391
 c 78.977 6.016 78.848 5.324 78.848 4.312 c f*
82.098 2.109 0.875 -0.859 re f*
86.332 1.25 m 85.582 1.25 l 85.582 6.094 l 85.395 5.926 85.152 5.754 84.855
 5.578 c 84.559 5.402 84.289 5.27 84.051 5.188 c 84.051 5.922 l 84.477 6.121
 84.852 6.359 85.168 6.641 c 85.484 6.922 85.711 7.199 85.848 7.469 c 86.332
 7.469 l 86.332 1.25 l f*
87.082 4.312 m 87.082 5.043 87.156 5.629 87.309 6.078 c 87.461 6.527 87.684
 6.871 87.98 7.109 c 88.277 7.348 88.648 7.469 89.098 7.469 c 89.43 7.469
 89.723 7.402 89.973 7.266 c 90.223 7.129 90.43 6.938 90.598 6.688 c 90.766
 6.438 90.895 6.133 90.988 5.773 c 91.082 5.414 91.129 4.926 91.129 4.312
 c 91.129 3.582 91.055 2.996 90.902 2.547 c 90.75 2.098 90.527 1.754 90.23
 1.508 c 89.934 1.262 89.555 1.141 89.098 1.141 c 88.504 1.141 88.035 1.355
 87.691 1.781 c 87.285 2.301 87.082 3.145 87.082 4.312 c h
87.863 4.312 m 87.863 3.293 87.98 2.613 88.223 2.273 c 88.461 1.934 88.754
 1.766 89.098 1.766 c 89.453 1.766 89.746 1.934 89.988 2.273 c 90.227 2.613
 90.348 3.293 90.348 4.312 c 90.348 5.332 90.227 6.012 89.988 6.344 c 89.746
 6.676 89.453 6.844 89.098 6.844 c 88.742 6.844 88.461 6.691 88.254 6.391
 c 87.992 6.016 87.863 5.324 87.863 4.312 c f*
  Q
Q
Q q
0 g
0.072 w
0 J
0 j
[] 0.0 d
3.25 M q 1 0 0 1 0 154 cm
138.059 -145.09 m 138.059 -142.613 l S Q
Q q
134.699 8.699 7.102 -8.699 re W n
q
134 9 8 -9 re W n
  q
0 g
138.973 1.25 m 138.223 1.25 l 138.223 6.094 l 138.035 5.926 137.793 5.754
 137.496 5.578 c 137.199 5.402 136.93 5.27 136.691 5.188 c 136.691 5.922
 l 137.117 6.121 137.492 6.359 137.809 6.641 c 138.125 6.922 138.352 7.199
 138.488 7.469 c 138.973 7.469 l 138.973 1.25 l f*
  Q
Q
Q q
0 g
0.072 w
0 J
0 j
[] 0.0 d
3.25 M q 1 0 0 1 0 154 cm
191.598 -145.09 m 191.598 -142.613 l S Q
Q q
186.699 8.699 10.102 -8.699 re W n
q
186 9 11 -9 re W n
  q
0 g
190.707 1.25 m 189.957 1.25 l 189.957 6.094 l 189.77 5.926 189.527 5.754
 189.23 5.578 c 188.934 5.402 188.664 5.27 188.426 5.188 c 188.426 5.922
 l 188.855 6.121 189.227 6.359 189.543 6.641 c 189.859 6.922 190.09 7.199
 190.223 7.469 c 190.707 7.469 l 190.707 1.25 l f*
191.457 4.312 m 191.457 5.043 191.531 5.629 191.684 6.078 c 191.836 6.527
 192.059 6.871 192.355 7.109 c 192.652 7.348 193.023 7.469 193.473 7.469
 c 193.805 7.469 194.098 7.402 194.348 7.266 c 194.598 7.129 194.805 6.938
 194.973 6.688 c 195.141 6.438 195.27 6.133 195.363 5.773 c 195.457 5.414
 195.504 4.926 195.504 4.312 c 195.504 3.582 195.43 2.996 195.277 2.547 
c 195.129 2.098 194.902 1.754 194.605 1.508 c 194.309 1.262 193.93 1.141
 193.473 1.141 c 192.879 1.141 192.41 1.355 192.066 1.781 c 191.66 2.301
 191.457 3.145 191.457 4.312 c h
192.238 4.312 m 192.238 3.293 192.359 2.613 192.598 2.273 c 192.84 1.934
 193.129 1.766 193.473 1.766 c 193.828 1.766 194.125 1.934 194.363 2.273
 c 194.602 2.613 194.723 3.293 194.723 4.312 c 194.723 5.332 194.602 6.012
 194.363 6.344 c 194.125 6.676 193.828 6.844 193.473 6.844 c 193.117 6.844
 192.84 6.691 192.629 6.391 c 192.367 6.016 192.238 5.324 192.238 4.312 
c f*
  Q
Q
Q q
0 g
0.072 w
0 J
0 j
[] 0.0 d
3.25 M q 1 0 0 1 0 154 cm
245.137 -145.09 m 245.137 -142.613 l S Q
Q q
238.699 8.699 13.102 -8.699 re W n
q
238 9 14 -9 re W n
  q
0 g
242.441 1.25 m 241.691 1.25 l 241.691 6.094 l 241.504 5.926 241.262 5.754
 240.965 5.578 c 240.668 5.402 240.402 5.27 240.16 5.188 c 240.16 5.922 
l 240.59 6.121 240.961 6.359 241.277 6.641 c 241.598 6.922 241.824 7.199
 241.957 7.469 c 242.441 7.469 l 242.441 1.25 l f*
243.191 4.312 m 243.191 5.043 243.27 5.629 243.418 6.078 c 243.57 6.527
 243.793 6.871 244.09 7.109 c 244.387 7.348 244.762 7.469 245.207 7.469 
c 245.539 7.469 245.832 7.402 246.082 7.266 c 246.332 7.129 246.539 6.938
 246.707 6.688 c 246.875 6.438 247.004 6.133 247.098 5.773 c 247.191 5.414
 247.238 4.926 247.238 4.312 c 247.238 3.582 247.164 2.996 247.012 2.547
 c 246.863 2.098 246.637 1.754 246.34 1.508 c 246.043 1.262 245.664 1.141
 245.207 1.141 c 244.613 1.141 244.145 1.355 243.801 1.781 c 243.395 2.301
 243.191 3.145 243.191 4.312 c h
243.973 4.312 m 243.973 3.293 244.094 2.613 244.332 2.273 c 244.574 1.934
 244.863 1.766 245.207 1.766 c 245.562 1.766 245.859 1.934 246.098 2.273
 c 246.34 2.613 246.457 3.293 246.457 4.312 c 246.457 5.332 246.34 6.012
 246.098 6.344 c 245.859 6.676 245.562 6.844 245.207 6.844 c 244.855 6.844
 244.574 6.691 244.363 6.391 c 244.105 6.016 243.973 5.324 243.973 4.312
 c f*
246.801 4.312 m 246.801 5.043 246.879 5.629 247.027 6.078 c 247.18 6.527
 247.402 6.871 247.699 7.109 c 247.996 7.348 248.367 7.469 248.816 7.469
 c 249.148 7.469 249.441 7.402 249.691 7.266 c 249.941 7.129 250.148 6.938
 250.316 6.688 c 250.484 6.438 250.613 6.133 250.707 5.773 c 250.801 5.414
 250.848 4.926 250.848 4.312 c 250.848 3.582 250.773 2.996 250.621 2.547
 c 250.473 2.098 250.246 1.754 249.949 1.508 c 249.652 1.262 249.273 1.141
 248.816 1.141 c 248.223 1.141 247.754 1.355 247.41 1.781 c 247.004 2.301
 246.801 3.145 246.801 4.312 c h
247.582 4.312 m 247.582 3.293 247.703 2.613 247.941 2.273 c 248.184 1.934
 248.473 1.766 248.816 1.766 c 249.172 1.766 249.469 1.934 249.707 2.273
 c 249.945 2.613 250.066 3.293 250.066 4.312 c 250.066 5.332 249.945 6.012
 249.707 6.344 c 249.469 6.676 249.172 6.844 248.816 6.844 c 248.465 6.844
 248.184 6.691 247.973 6.391 c 247.715 6.016 247.582 5.324 247.582 4.312
 c f*
  Q
Q
Q q
0 g
0.072 w
0 J
0 j
[] 0.0 d
3.25 M q 1 0 0 1 0 154 cm
9.676 -145.09 m 9.676 -143.852 l S Q
q 1 0 0 1 0 154 cm
14.863 -145.09 m 14.863 -143.852 l S Q
q 1 0 0 1 0 154 cm
19.102 -145.09 m 19.102 -143.852 l S Q
q 1 0 0 1 0 154 cm
22.688 -145.09 m 22.688 -143.852 l S Q
q 1 0 0 1 0 154 cm
25.789 -145.09 m 25.789 -143.852 l S Q
q 1 0 0 1 0 154 cm
28.531 -145.09 m 28.531 -143.852 l S Q
q 1 0 0 1 0 154 cm
47.098 -145.09 m 47.098 -143.852 l S Q
q 1 0 0 1 0 154 cm
56.523 -145.09 m 56.523 -143.852 l S Q
q 1 0 0 1 0 154 cm
63.215 -145.09 m 63.215 -143.852 l S Q
q 1 0 0 1 0 154 cm
68.402 -145.09 m 68.402 -143.852 l S Q
q 1 0 0 1 0 154 cm
72.641 -145.09 m 72.641 -143.852 l S Q
q 1 0 0 1 0 154 cm
76.227 -145.09 m 76.227 -143.852 l S Q
q 1 0 0 1 0 154 cm
79.332 -145.09 m 79.332 -143.852 l S Q
q 1 0 0 1 0 154 cm
82.07 -145.09 m 82.07 -143.852 l S Q
q 1 0 0 1 0 154 cm
100.637 -145.09 m 100.637 -143.852 l S Q
q 1 0 0 1 0 154 cm
110.062 -145.09 m 110.062 -143.852 l S Q
q 1 0 0 1 0 154 cm
116.754 -145.09 m 116.754 -143.852 l S Q
q 1 0 0 1 0 154 cm
121.941 -145.09 m 121.941 -143.852 l S Q
q 1 0 0 1 0 154 cm
126.18 -145.09 m 126.18 -143.852 l S Q
q 1 0 0 1 0 154 cm
129.766 -145.09 m 129.766 -143.852 l S Q
q 1 0 0 1 0 154 cm
132.871 -145.09 m 132.871 -143.852 l S Q
q 1 0 0 1 0 154 cm
135.609 -145.09 m 135.609 -143.852 l S Q
q 1 0 0 1 0 154 cm
154.176 -145.09 m 154.176 -143.852 l S Q
q 1 0 0 1 0 154 cm
163.605 -145.09 m 163.605 -143.852 l S Q
q 1 0 0 1 0 154 cm
170.293 -145.09 m 170.293 -143.852 l S Q
q 1 0 0 1 0 154 cm
175.48 -145.09 m 175.48 -143.852 l S Q
q 1 0 0 1 0 154 cm
179.723 -145.09 m 179.723 -143.852 l S Q
q 1 0 0 1 0 154 cm
183.305 -145.09 m 183.305 -143.852 l S Q
q 1 0 0 1 0 154 cm
186.41 -145.09 m 186.41 -143.852 l S Q
q 1 0 0 1 0 154 cm
189.148 -145.09 m 189.148 -143.852 l S Q
q 1 0 0 1 0 154 cm
207.715 -145.09 m 207.715 -143.852 l S Q
q 1 0 0 1 0 154 cm
217.145 -145.09 m 217.145 -143.852 l S Q
q 1 0 0 1 0 154 cm
223.832 -145.09 m 223.832 -143.852 l S Q
q 1 0 0 1 0 154 cm
229.02 -145.09 m 229.02 -143.852 l S Q
q 1 0 0 1 0 154 cm
233.262 -145.09 m 233.262 -143.852 l S Q
q 1 0 0 1 0 154 cm
236.844 -145.09 m 236.844 -143.852 l S Q
q 1 0 0 1 0 154 cm
239.949 -145.09 m 239.949 -143.852 l S Q
q 1 0 0 1 0 154 cm
242.688 -145.09 m 242.688 -143.852 l S Q
0.36 w
q 1 0 0 1 0 154 cm
6.227 -145.09 m 253.777 -145.09 l S Q
Q q
257.699 14.699 15.301 -11.098 re W n
q
257 15 16 -12 re W n
  q
0 g
261.285 7.59 m 261.285 13.059 l 259.238 13.059 l 259.238 13.793 l 264.145
 13.793 l 264.145 13.059 l 262.098 13.059 l 262.098 7.59 l 261.285 7.59 
l f*
267.379 5.777 m 266.848 5.777 l 266.617 6.059 266.41 6.363 266.223 6.684
 c 266.035 7.008 265.879 7.34 265.746 7.684 c 265.617 8.027 265.516 8.379
 265.441 8.738 c 265.367 9.098 265.332 9.461 265.332 9.824 c 265.332 10.199
 265.367 10.566 265.441 10.926 c 265.516 11.285 265.617 11.637 265.754 11.98
 c 265.891 12.324 266.051 12.656 266.23 12.973 c 266.414 13.293 266.617 
13.598 266.848 13.887 c 267.379 13.887 l 267.184 13.566 267.004 13.246 266.848
 12.926 c 266.691 12.609 266.559 12.285 266.449 11.957 c 266.34 11.629 266.262
 11.293 266.207 10.941 c 266.156 10.594 266.129 10.227 266.129 9.84 c 266.129
 9.477 266.156 9.117 266.215 8.762 c 266.273 8.41 266.355 8.059 266.465 
7.715 c 266.574 7.371 266.707 7.039 266.863 6.715 c 267.02 6.395 267.191
 6.082 267.379 5.777 c f*
267.551 7.59 m 267.551 13.793 l 268.301 13.793 l 268.301 10.246 l 270.113
 12.074 l 271.098 12.074 l 269.379 10.418 l 271.27 7.59 l 270.332 7.59 l
 268.848 9.887 l 268.301 9.371 l 268.301 7.59 l 267.551 7.59 l f*
272.582 9.824 m 272.582 9.461 272.547 9.098 272.473 8.738 c 272.402 8.379
 272.301 8.027 272.168 7.684 c 272.039 7.34 271.879 7.012 271.691 6.691 
c 271.504 6.375 271.301 6.07 271.082 5.777 c 270.535 5.777 l 270.734 6.102
 270.91 6.422 271.066 6.738 c 271.223 7.059 271.355 7.379 271.465 7.707 
c 271.574 8.035 271.66 8.375 271.715 8.723 c 271.773 9.074 271.801 9.441
 271.801 9.824 c 271.801 10.18 271.77 10.535 271.707 10.895 c 271.645 11.254
 271.559 11.605 271.449 11.941 c 271.34 12.281 271.207 12.613 271.051 12.941
 c 270.895 13.27 270.723 13.586 270.535 13.887 c 271.082 13.887 l 271.312
 13.605 271.52 13.305 271.699 12.98 c 271.883 12.66 272.039 12.324 272.168
 11.98 c 272.301 11.637 272.402 11.285 272.473 10.926 c 272.547 10.566 272.582
 10.199 272.582 9.824 c f*
  Q
Q
Q q
0 g
0.36 w
0 J
0 j
[] 0.0 d
3.25 M q 1 0 0 1 0 154 cm
11.176 -145.09 m 13.816 -145.09 l S Q
q 1 0 0 1 0 154 cm
11.176 -138.902 m 12.762 -138.902 l S Q
q 1 0 0 1 0 154 cm
11.176 -132.711 m 12.762 -132.711 l S Q
q 1 0 0 1 0 154 cm
11.176 -126.523 m 12.762 -126.523 l S Q
q 1 0 0 1 0 154 cm
11.176 -120.336 m 12.762 -120.336 l S Q
q 1 0 0 1 0 154 cm
11.176 -114.145 m 13.816 -114.145 l S Q
Q q
0 44.699 10.801 -10.098 re W n
q
0 45 11 -11 re W n
  q
0 g
-0.141 40.789 m -0.141 41.52 -0.066 42.109 0.086 42.559 c 0.238 43.004 
0.461 43.348 0.758 43.59 c 1.055 43.828 1.426 43.949 1.875 43.949 c 2.207
 43.949 2.5 43.879 2.75 43.746 c 3 43.609 3.207 43.418 3.375 43.168 c 3.543
 42.918 3.672 42.613 3.766 42.254 c 3.859 41.895 3.906 41.406 3.906 40.789
 c 3.906 40.062 3.832 39.473 3.68 39.027 c 3.527 38.578 3.305 38.23 3.008
 37.988 c 2.711 37.742 2.332 37.621 1.875 37.621 c 1.281 37.621 0.812 37.832
 0.469 38.262 c 0.062 38.781 -0.141 39.625 -0.141 40.789 c h
0.641 40.789 m 0.641 39.77 0.762 39.09 1 38.754 c 1.238 38.414 1.531 38.246
 1.875 38.246 c 2.23 38.246 2.527 38.414 2.766 38.754 c 3.004 39.09 3.125
 39.77 3.125 40.789 c 3.125 41.812 3.004 42.488 2.766 42.824 c 2.527 43.156
 2.23 43.324 1.875 43.324 c 1.52 43.324 1.238 43.172 1.031 42.871 c 0.77
 42.496 0.641 41.801 0.641 40.789 c f*
3.891 38.586 0.875 -0.855 re f*
8.125 37.73 m 7.375 37.73 l 7.375 42.574 l 7.188 42.406 6.945 42.234 6.648
 42.059 c 6.352 41.879 6.082 41.75 5.844 41.668 c 5.844 42.402 l 6.27 42.598
 6.645 42.84 6.961 43.121 c 7.277 43.402 7.504 43.676 7.641 43.949 c 8.125
 43.949 l 8.125 37.73 l f*
  Q
Q
Q q
0 g
0.36 w
0 J
0 j
[] 0.0 d
3.25 M q 1 0 0 1 0 154 cm
11.176 -107.957 m 12.762 -107.957 l S Q
q 1 0 0 1 0 154 cm
11.176 -101.77 m 12.762 -101.77 l S Q
q 1 0 0 1 0 154 cm
11.176 -95.578 m 12.762 -95.578 l S Q
q 1 0 0 1 0 154 cm
11.176 -89.391 m 12.762 -89.391 l S Q
q 1 0 0 1 0 154 cm
11.176 -83.203 m 13.816 -83.203 l S Q
Q q
0 75.699 10.801 -10.098 re W n
q
0 76 11 -11 re W n
  q
0 g
-0.141 71.734 m -0.141 72.465 -0.066 73.055 0.086 73.5 c 0.238 73.949 0.461
 74.293 0.758 74.531 c 1.055 74.773 1.426 74.891 1.875 74.891 c 2.207 74.891
 2.5 74.824 2.75 74.688 c 3 74.555 3.207 74.359 3.375 74.109 c 3.543 73.859
 3.672 73.555 3.766 73.195 c 3.859 72.836 3.906 72.352 3.906 71.734 c 3.906
 71.008 3.832 70.418 3.68 69.969 c 3.527 69.523 3.305 69.176 3.008 68.93
 c 2.711 68.688 2.332 68.562 1.875 68.562 c 1.281 68.562 0.812 68.777 0.469
 69.203 c 0.062 69.727 -0.141 70.57 -0.141 71.734 c h
0.641 71.734 m 0.641 70.715 0.762 70.035 1 69.695 c 1.238 69.359 1.531 
69.188 1.875 69.188 c 2.23 69.188 2.527 69.359 2.766 69.695 c 3.004 70.035
 3.125 70.715 3.125 71.734 c 3.125 72.758 3.004 73.434 2.766 73.766 c 2.527
 74.102 2.23 74.266 1.875 74.266 c 1.52 74.266 1.238 74.117 1.031 73.812
 c 0.77 73.438 0.641 72.746 0.641 71.734 c f*
3.891 69.531 0.875 -0.859 re f*
9.266 69.406 m 9.266 68.672 l 5.172 68.672 l 5.16 68.859 5.188 69.039 5.25
 69.203 c 5.355 69.484 5.523 69.762 5.758 70.031 c 5.992 70.305 6.324 70.617
 6.75 70.969 c 7.426 71.523 7.883 71.961 8.117 72.281 c 8.352 72.605 8.469
 72.906 8.469 73.188 c 8.469 73.492 8.363 73.746 8.148 73.953 c 7.934 74.164
 7.656 74.266 7.312 74.266 c 6.938 74.266 6.641 74.156 6.422 73.938 c 6.203
 73.719 6.094 73.414 6.094 73.016 c 5.312 73.094 l 5.363 73.68 5.566 74.125
 5.914 74.43 c 6.262 74.738 6.734 74.891 7.328 74.891 c 7.922 74.891 8.391
 74.727 8.734 74.398 c 9.078 74.07 9.25 73.664 9.25 73.172 c 9.25 72.922
 9.199 72.68 9.102 72.438 c 9 72.199 8.836 71.945 8.602 71.68 c 8.367 71.414
 7.973 71.055 7.422 70.594 c 6.961 70.211 6.672 69.949 6.547 69.812 c 6.422
 69.68 6.312 69.543 6.219 69.406 c 9.266 69.406 l f*
  Q
Q
Q q
0 g
0.36 w
0 J
0 j
[] 0.0 d
3.25 M q 1 0 0 1 0 154 cm
11.176 -77.012 m 12.762 -77.012 l S Q
q 1 0 0 1 0 154 cm
11.176 -70.824 m 12.762 -70.824 l S Q
q 1 0 0 1 0 154 cm
11.176 -64.637 m 12.762 -64.637 l S Q
q 1 0 0 1 0 154 cm
11.176 -58.445 m 12.762 -58.445 l S Q
q 1 0 0 1 0 154 cm
11.176 -52.258 m 13.816 -52.258 l S Q
Q q
0 106.699 10.801 -10.098 re W n
q
0 107 11 -11 re W n
  q
0 g
-0.141 102.68 m -0.141 103.41 -0.066 103.996 0.086 104.445 c 0.238 104.895
 0.461 105.238 0.758 105.477 c 1.055 105.715 1.426 105.836 1.875 105.836
 c 2.207 105.836 2.5 105.77 2.75 105.633 c 3 105.496 3.207 105.305 3.375
 105.055 c 3.543 104.805 3.672 104.5 3.766 104.141 c 3.859 103.781 3.906
 103.293 3.906 102.68 c 3.906 101.949 3.832 101.363 3.68 100.914 c 3.527
 100.465 3.305 100.121 3.008 99.875 c 2.711 99.629 2.332 99.508 1.875 99.508
 c 1.281 99.508 0.812 99.723 0.469 100.148 c 0.062 100.668 -0.141 101.512
 -0.141 102.68 c h
0.641 102.68 m 0.641 101.66 0.762 100.98 1 100.641 c 1.238 100.301 1.531
 100.133 1.875 100.133 c 2.23 100.133 2.527 100.301 2.766 100.641 c 3.004
 100.98 3.125 101.66 3.125 102.68 c 3.125 103.699 3.004 104.379 2.766 104.711
 c 2.527 105.043 2.23 105.211 1.875 105.211 c 1.52 105.211 1.238 105.059
 1.031 104.758 c 0.77 104.383 0.641 103.691 0.641 102.68 c f*
3.891 100.477 0.875 -0.859 re f*
5.266 101.258 m 6.031 101.352 l 6.113 100.926 6.262 100.613 6.477 100.422
 c 6.691 100.23 6.949 100.133 7.25 100.133 c 7.605 100.133 7.902 100.258
 8.148 100.508 c 8.395 100.758 8.516 101.066 8.516 101.43 c 8.516 101.785
 8.402 102.074 8.172 102.297 c 7.941 102.52 7.656 102.633 7.312 102.633 
c 7.168 102.633 6.984 102.605 6.766 102.555 c 6.859 103.211 l 6.984 103.211
 l 7.309 103.211 7.598 103.293 7.852 103.461 c 8.105 103.629 8.234 103.887
 8.234 104.242 c 8.234 104.523 8.141 104.754 7.953 104.938 c 7.766 105.121
 7.527 105.211 7.234 105.211 c 6.934 105.211 6.684 105.117 6.484 104.93 
c 6.285 104.742 6.16 104.465 6.109 104.102 c 5.344 104.227 l 5.438 104.738
 5.648 105.133 5.977 105.414 c 6.305 105.695 6.711 105.836 7.203 105.836
 c 7.547 105.836 7.863 105.762 8.148 105.617 c 8.434 105.473 8.652 105.273
 8.797 105.023 c 8.941 104.773 9.016 104.508 9.016 104.227 c 9.016 103.957
 8.945 103.711 8.805 103.492 c 8.664 103.273 8.453 103.102 8.172 102.977
 c 8.535 102.895 8.82 102.719 9.023 102.453 c 9.227 102.188 9.328 101.852
 9.328 101.445 c 9.328 100.902 9.129 100.445 8.734 100.07 c 8.336 99.695
 7.836 99.508 7.234 99.508 c 6.691 99.508 6.242 99.668 5.883 99.992 c 5.523
 100.316 5.316 100.738 5.266 101.258 c f*
  Q
Q
Q q
0 g
0.36 w
0 J
0 j
[] 0.0 d
3.25 M q 1 0 0 1 0 154 cm
11.176 -46.07 m 12.762 -46.07 l S Q
q 1 0 0 1 0 154 cm
11.176 -39.879 m 12.762 -39.879 l S Q
q 1 0 0 1 0 154 cm
11.176 -33.691 m 12.762 -33.691 l S Q
q 1 0 0 1 0 154 cm
11.176 -27.504 m 12.762 -27.504 l S Q
q 1 0 0 1 0 154 cm
11.176 -21.312 m 13.816 -21.312 l S Q
Q q
0 137.699 10.801 -10.098 re W n
q
0 138 11 -11 re W n
  q
0 g
-0.141 133.621 m -0.141 134.352 -0.066 134.941 0.086 135.391 c 0.238 135.836
 0.461 136.18 0.758 136.422 c 1.055 136.66 1.426 136.781 1.875 136.781 c
 2.207 136.781 2.5 136.711 2.75 136.578 c 3 136.441 3.207 136.25 3.375 136
 c 3.543 135.75 3.672 135.445 3.766 135.086 c 3.859 134.727 3.906 134.238
 3.906 133.621 c 3.906 132.895 3.832 132.305 3.68 131.859 c 3.527 131.41
 3.305 131.062 3.008 130.82 c 2.711 130.574 2.332 130.453 1.875 130.453 
c 1.281 130.453 0.812 130.664 0.469 131.094 c 0.062 131.613 -0.141 132.457
 -0.141 133.621 c h
0.641 133.621 m 0.641 132.602 0.762 131.922 1 131.586 c 1.238 131.246 1.531
 131.078 1.875 131.078 c 2.23 131.078 2.527 131.246 2.766 131.586 c 3.004
 131.922 3.125 132.602 3.125 133.621 c 3.125 134.645 3.004 135.32 2.766 
135.656 c 2.527 135.988 2.23 136.156 1.875 136.156 c 1.52 136.156 1.238 
136.004 1.031 135.703 c 0.77 135.328 0.641 134.633 0.641 133.621 c f*
3.891 131.422 0.875 -0.859 re f*
7.703 130.562 m 7.703 132.047 l 5.016 132.047 l 5.016 132.75 l 7.844 136.766
 l 8.469 136.766 l 8.469 132.75 l 9.297 132.75 l 9.297 132.047 l 8.469 132.047
 l 8.469 130.562 l h
7.703 132.75 m 7.703 135.531 l 5.766 132.75 l 7.703 132.75 l f*
  Q
Q
Q q
0 g
0.36 w
0 J
0 j
[] 0.0 d
3.25 M q 1 0 0 1 0 154 cm
11.176 -145.09 m 11.176 -21.312 l S Q
Q q
7.719 145.664 7 -10 re W n
q
7 146 8 -11 re W n
  q
0 g
13.426 140.43 m 14.238 140.227 l 14.07 139.547 13.766 139.031 13.316 138.68
 c 12.867 138.324 12.32 138.148 11.676 138.148 c 11.008 138.148 10.469 138.281
 10.051 138.555 c 9.633 138.824 9.316 139.219 9.098 139.734 c 8.879 140.246
 8.77 140.805 8.77 141.398 c 8.77 142.043 8.891 142.605 9.137 143.086 c 
9.383 143.562 9.73 143.93 10.184 144.18 c 10.637 144.43 11.141 144.555 11.691
 144.555 c 12.305 144.555 12.824 144.398 13.246 144.086 c 13.668 143.773
 13.961 143.328 14.129 142.758 c 13.332 142.566 l 13.188 143.016 12.977 
143.344 12.699 143.547 c 12.422 143.746 12.082 143.852 11.676 143.852 c 
11.195 143.852 10.797 143.738 10.48 143.516 c 10.164 143.289 9.938 142.984
 9.809 142.602 c 9.68 142.215 9.613 141.816 9.613 141.41 c 9.613 140.883
 9.688 140.418 9.84 140.023 c 9.992 139.625 10.227 139.332 10.551 139.141
 c 10.875 138.945 11.227 138.852 11.613 138.852 c 12.07 138.852 12.461 138.984
 12.777 139.246 c 13.094 139.516 13.312 139.906 13.426 140.43 c f*
  Q
Q
Q q
82.699 154 94.102 -11.398 re W n
q
82 154 95 -12 re W n
  q
0 g
84.703 147.258 m 84.703 154.68 l 85.688 154.68 l 85.688 151.633 l 89.547
 151.633 l 89.547 154.68 l 90.531 154.68 l 90.531 147.258 l 89.547 147.258
 l 89.547 150.758 l 85.688 150.758 l 85.688 147.258 l 84.703 147.258 l f*
93.859 148.988 m 94.812 148.863 l 94.668 148.324 94.391 147.898 93.984 
147.594 c 93.578 147.285 93.062 147.133 92.438 147.133 c 91.656 147.133 
91.035 147.371 90.57 147.859 c 90.105 148.344 89.875 149.023 89.875 149.898
 c 89.875 150.805 90.109 151.508 90.578 152.008 c 91.047 152.508 91.652 
152.758 92.391 152.758 c 93.109 152.758 93.699 152.512 94.156 152.023 c 
94.613 151.531 94.844 150.844 94.844 149.961 c 94.844 149.906 94.84 149.824
 94.828 149.711 c 90.828 149.711 l 90.859 149.125 91.027 148.676 91.328 
148.359 c 91.629 148.039 92.004 147.883 92.453 147.883 c 92.785 147.883 
93.07 147.969 93.305 148.148 c 93.539 148.324 93.723 148.605 93.859 148.988
 c h
90.875 150.461 m 93.875 150.461 l 93.832 150.918 93.719 151.258 93.531 
151.477 c 93.238 151.828 92.863 152.008 92.406 152.008 c 91.988 152.008 
91.637 151.863 91.352 151.586 c 91.066 151.305 90.906 150.93 90.875 150.461
 c f*
98.016 147.91 m 97.684 147.633 97.359 147.43 97.047 147.312 c 96.734 147.191
 96.402 147.133 96.047 147.133 c 95.453 147.133 94.996 147.277 94.68 147.566
 c 94.363 147.859 94.203 148.23 94.203 148.68 c 94.203 148.938 94.262 149.18
 94.383 149.398 c 94.504 149.613 94.66 149.789 94.852 149.922 c 95.043 150.051
 95.266 150.152 95.516 150.227 c 95.691 150.266 95.965 150.309 96.328 150.352
 c 97.059 150.445 97.598 150.555 97.953 150.68 c 97.953 150.91 l 97.953 
151.277 97.863 151.535 97.688 151.695 c 97.457 151.902 97.113 152.008 96.656
 152.008 c 96.23 152.008 95.914 151.93 95.711 151.777 c 95.508 151.629 95.355
 151.359 95.25 150.977 c 94.359 151.102 l 94.441 151.484 94.574 151.797 
94.758 152.027 c 94.941 152.266 95.207 152.445 95.562 152.566 c 95.918 152.695
 96.324 152.758 96.781 152.758 c 97.238 152.758 97.613 152.699 97.906 152.594
 c 98.199 152.484 98.41 152.348 98.539 152.188 c 98.668 152.023 98.766 151.816
 98.828 151.566 c 98.859 151.41 98.875 151.133 98.875 150.727 c 98.875 149.508
 l 98.875 148.66 98.895 148.129 98.93 147.902 c 98.965 147.68 99.043 147.465
 99.156 147.258 c 98.203 147.258 l 98.109 147.445 98.047 147.66 98.016 147.91
 c h
97.953 149.961 m 97.621 149.824 97.121 149.711 96.453 149.613 c 96.078 
149.562 95.812 149.504 95.656 149.438 c 95.5 149.367 95.379 149.27 95.297
 149.141 c 95.215 149.008 95.172 148.859 95.172 148.695 c 95.172 148.453
 95.266 148.254 95.453 148.094 c 95.641 147.93 95.91 147.852 96.266 147.852
 c 96.609 147.852 96.918 147.926 97.195 148.074 c 97.473 148.227 97.672 
148.438 97.797 148.711 c 97.902 148.918 97.953 149.219 97.953 149.613 c 
97.953 149.961 l f*
100.828 148.066 m 100.969 147.27 l 100.707 147.211 100.48 147.18 100.281
 147.18 c 99.949 147.18 99.691 147.23 99.508 147.344 c 99.324 147.449 99.195
 147.59 99.117 147.758 c 99.039 147.922 99 148.281 99 148.836 c 99 151.93
 l 98.344 151.93 l 98.344 152.633 l 99 152.633 l 99 153.977 l 99.922 154.523
 l 99.922 152.633 l 100.828 152.633 l 100.828 151.93 l 99.922 151.93 l 99.922
 148.785 l 99.922 148.527 99.938 148.359 99.969 148.277 c 100 148.199 100.051
 148.141 100.125 148.102 c 100.199 148.059 100.301 148.035 100.438 148.035
 c 100.531 148.035 100.66 148.047 100.828 148.066 c f*
106.656 149.227 m 107.562 149.113 l 107.461 148.488 107.207 148.004 106.805
 147.652 c 106.402 147.305 105.91 147.133 105.328 147.133 c 104.59 147.133
 103.996 147.371 103.547 147.859 c 103.098 148.344 102.875 149.031 102.875
 149.93 c 102.875 150.512 102.973 151.02 103.164 151.449 c 103.355 151.883
 103.648 152.211 104.039 152.43 c 104.43 152.648 104.859 152.758 105.328
 152.758 c 105.91 152.758 106.387 152.609 106.758 152.312 c 107.129 152.016
 107.363 151.594 107.469 151.055 c 106.594 150.91 l 106.5 151.277 106.348
 151.551 106.133 151.734 c 105.922 151.914 105.66 152.008 105.359 152.008
 c 104.902 152.008 104.527 151.844 104.242 151.516 c 103.957 151.188 103.812
 150.66 103.812 149.945 c 103.812 149.227 103.949 148.699 104.227 148.371
 c 104.504 148.047 104.863 147.883 105.312 147.883 c 105.668 147.883 105.965
 147.988 106.203 148.211 c 106.441 148.43 106.594 148.766 106.656 149.227
 c f*
110.547 147.91 m 110.215 147.633 109.891 147.43 109.578 147.312 c 109.266
 147.191 108.934 147.133 108.578 147.133 c 107.984 147.133 107.527 147.277
 107.211 147.566 c 106.895 147.859 106.734 148.23 106.734 148.68 c 106.734
 148.938 106.797 149.18 106.914 149.398 c 107.035 149.613 107.191 149.789
 107.383 149.922 c 107.574 150.051 107.797 150.152 108.047 150.227 c 108.227
 150.266 108.496 150.309 108.859 150.352 c 109.59 150.445 110.133 150.555
 110.484 150.68 c 110.484 150.91 l 110.484 151.277 110.395 151.535 110.219
 151.695 c 109.988 151.902 109.645 152.008 109.188 152.008 c 108.762 152.008
 108.445 151.93 108.242 151.777 c 108.039 151.629 107.887 151.359 107.781
 150.977 c 106.891 151.102 l 106.977 151.484 107.105 151.797 107.289 152.027
 c 107.473 152.266 107.738 152.445 108.094 152.566 c 108.449 152.695 108.855
 152.758 109.312 152.758 c 109.77 152.758 110.145 152.699 110.438 152.594
 c 110.73 152.484 110.941 152.348 111.07 152.188 c 111.199 152.023 111.297
 151.816 111.359 151.566 c 111.391 151.41 111.406 151.133 111.406 150.727
 c 111.406 149.508 l 111.406 148.66 111.426 148.129 111.461 147.902 c 111.496
 147.68 111.574 147.465 111.688 147.258 c 110.734 147.258 l 110.641 147.445
 110.578 147.66 110.547 147.91 c h
110.484 149.961 m 110.152 149.824 109.652 149.711 108.984 149.613 c 108.609
 149.562 108.344 149.504 108.188 149.438 c 108.031 149.367 107.91 149.27
 107.828 149.141 c 107.746 149.008 107.703 148.859 107.703 148.695 c 107.703
 148.453 107.797 148.254 107.984 148.094 c 108.172 147.93 108.441 147.852
 108.797 147.852 c 109.141 147.852 109.449 147.926 109.727 148.074 c 110.004
 148.227 110.203 148.438 110.328 148.711 c 110.434 148.918 110.484 149.219
 110.484 149.613 c 110.484 149.961 l f*
111.375 145.195 m 111.375 152.633 l 112.203 152.633 l 112.203 151.945 l
 112.402 152.215 112.621 152.418 112.867 152.555 c 113.113 152.688 113.41
 152.758 113.766 152.758 c 114.223 152.758 114.629 152.641 114.977 152.402
 c 115.324 152.172 115.594 151.836 115.773 151.402 c 115.957 150.973 116.047
 150.5 116.047 149.988 c 116.047 149.438 115.949 148.941 115.75 148.496 
c 115.555 148.055 115.266 147.719 114.883 147.484 c 114.504 147.246 114.109
 147.133 113.703 147.133 c 113.391 147.133 113.113 147.195 112.875 147.324
 c 112.637 147.457 112.438 147.621 112.281 147.816 c 112.281 145.195 l h
112.203 149.91 m 112.203 149.227 112.344 148.715 112.617 148.383 c 112.895
 148.047 113.234 147.883 113.641 147.883 c 114.047 147.883 114.395 148.055
 114.68 148.398 c 114.969 148.738 115.109 149.273 115.109 149.988 c 115.109
 150.68 114.969 151.191 114.688 151.527 c 114.406 151.867 114.066 152.035
 113.672 152.035 c 113.285 152.035 112.945 151.859 112.648 151.496 c 112.352
 151.141 112.203 150.609 112.203 149.91 c f*
119.203 147.91 m 118.871 147.633 118.547 147.43 118.234 147.312 c 117.922
 147.191 117.59 147.133 117.234 147.133 c 116.641 147.133 116.184 147.277
 115.867 147.566 c 115.551 147.859 115.391 148.23 115.391 148.68 c 115.391
 148.938 115.449 149.18 115.57 149.398 c 115.691 149.613 115.848 149.789
 116.039 149.922 c 116.23 150.051 116.453 150.152 116.703 150.227 c 116.883
 150.266 117.152 150.309 117.516 150.352 c 118.246 150.445 118.785 150.555
 119.141 150.68 c 119.141 150.91 l 119.141 151.277 119.051 151.535 118.875
 151.695 c 118.645 151.902 118.301 152.008 117.844 152.008 c 117.418 152.008
 117.102 151.93 116.898 151.777 c 116.695 151.629 116.543 151.359 116.438
 150.977 c 115.547 151.102 l 115.633 151.484 115.762 151.797 115.945 152.027
 c 116.129 152.266 116.395 152.445 116.75 152.566 c 117.105 152.695 117.512
 152.758 117.969 152.758 c 118.426 152.758 118.801 152.699 119.094 152.594
 c 119.387 152.484 119.598 152.348 119.727 152.188 c 119.855 152.023 119.953
 151.816 120.016 151.566 c 120.047 151.41 120.062 151.133 120.062 150.727
 c 120.062 149.508 l 120.062 148.66 120.082 148.129 120.117 147.902 c 120.152
 147.68 120.23 147.465 120.344 147.258 c 119.391 147.258 l 119.297 147.445
 119.234 147.66 119.203 147.91 c h
119.141 149.961 m 118.809 149.824 118.309 149.711 117.641 149.613 c 117.266
 149.562 117 149.504 116.844 149.438 c 116.688 149.367 116.566 149.27 116.484
 149.141 c 116.402 149.008 116.359 148.859 116.359 148.695 c 116.359 148.453
 116.453 148.254 116.641 148.094 c 116.828 147.93 117.098 147.852 117.453
 147.852 c 117.797 147.852 118.105 147.926 118.383 148.074 c 118.66 148.227
 118.859 148.438 118.984 148.711 c 119.09 148.918 119.141 149.219 119.141
 149.613 c 119.141 149.961 l f*
123.531 149.227 m 124.438 149.113 l 124.336 148.488 124.082 148.004 123.68
 147.652 c 123.277 147.305 122.785 147.133 122.203 147.133 c 121.465 147.133
 120.871 147.371 120.422 147.859 c 119.973 148.344 119.75 149.031 119.75
 149.93 c 119.75 150.512 119.848 151.02 120.039 151.449 c 120.23 151.883
 120.523 152.211 120.914 152.43 c 121.305 152.648 121.734 152.758 122.203
 152.758 c 122.785 152.758 123.262 152.609 123.633 152.312 c 124.004 152.016
 124.238 151.594 124.344 151.055 c 123.469 150.91 l 123.375 151.277 123.223
 151.551 123.008 151.734 c 122.797 151.914 122.535 152.008 122.234 152.008
 c 121.777 152.008 121.402 151.844 121.117 151.516 c 120.832 151.188 120.688
 150.66 120.688 149.945 c 120.688 149.227 120.824 148.699 121.102 148.371
 c 121.379 148.047 121.738 147.883 122.188 147.883 c 122.543 147.883 122.84
 147.988 123.078 148.211 c 123.316 148.43 123.469 148.766 123.531 149.227
 c f*
123.922 153.633 m 123.922 154.68 l 124.828 154.68 l 124.828 153.633 l h
123.922 147.258 m 123.922 152.633 l 124.828 152.633 l 124.828 147.258 l
 123.922 147.258 l f*
127.641 148.066 m 127.781 147.27 l 127.52 147.211 127.293 147.18 127.094
 147.18 c 126.762 147.18 126.504 147.23 126.32 147.344 c 126.137 147.449
 126.008 147.59 125.93 147.758 c 125.852 147.922 125.812 148.281 125.812
 148.836 c 125.812 151.93 l 125.156 151.93 l 125.156 152.633 l 125.812 152.633
 l 125.812 153.977 l 126.734 154.523 l 126.734 152.633 l 127.641 152.633
 l 127.641 151.93 l 126.734 151.93 l 126.734 148.785 l 126.734 148.527 126.75
 148.359 126.781 148.277 c 126.812 148.199 126.863 148.141 126.938 148.102
 c 127.012 148.059 127.113 148.035 127.25 148.035 c 127.344 148.035 127.473
 148.047 127.641 148.066 c f*
127.766 145.18 m 127.672 146.035 l 127.871 145.984 128.043 145.961 128.188
 145.961 c 128.395 145.961 128.559 145.992 128.68 146.062 c 128.801 146.129
 128.895 146.227 128.969 146.352 c 129.031 146.434 129.125 146.656 129.25
 147.023 c 129.27 147.074 129.297 147.148 129.328 147.238 c 127.297 152.633
 l 128.281 152.633 l 129.391 149.523 l 129.535 149.125 129.668 148.711 129.781
 148.273 c 129.887 148.688 130.012 149.102 130.156 149.508 c 131.312 152.633
 l 132.219 152.633 l 130.172 147.16 l 129.953 146.566 129.781 146.16 129.656
 145.945 c 129.5 145.641 129.316 145.422 129.109 145.277 c 128.902 145.141
 128.652 145.066 128.359 145.066 c 128.184 145.066 127.984 145.105 127.766
 145.18 c f*
131.938 147.258 m 131.938 148.285 l 132.969 148.285 l 132.969 147.258 l
 132.969 146.871 132.902 146.562 132.773 146.324 c 132.645 146.094 132.426
 145.91 132.125 145.785 c 131.875 146.18 l 132.074 146.262 132.219 146.383
 132.305 146.547 c 132.395 146.707 132.441 146.945 132.453 147.258 c 131.938
 147.258 l f*
138.688 147.258 m 138.688 149.035 l 135.453 149.035 l 135.453 149.863 l
 138.844 154.68 l 139.594 154.68 l 139.594 149.863 l 140.594 149.863 l 140.594
 149.035 l 139.594 149.035 l 139.594 147.258 l h
138.688 149.863 m 138.688 153.227 l 136.359 149.863 l 138.688 149.863 l
 f*
143.516 147.258 m 142.609 147.258 l 142.609 153.066 l 142.391 152.859 142.105
 152.652 141.75 152.445 c 141.395 152.234 141.074 152.078 140.781 151.977
 c 140.781 152.852 l 141.289 153.09 141.738 153.379 142.125 153.719 c 142.512
 154.055 142.781 154.387 142.938 154.711 c 143.516 154.711 l 143.516 147.258
 l f*
146.828 145.195 m 146.828 152.633 l 147.656 152.633 l 147.656 151.945 l
 147.855 152.215 148.074 152.418 148.32 152.555 c 148.566 152.688 148.863
 152.758 149.219 152.758 c 149.676 152.758 150.082 152.641 150.43 152.402
 c 150.777 152.172 151.047 151.836 151.227 151.402 c 151.41 150.973 151.5
 150.5 151.5 149.988 c 151.5 149.438 151.402 148.941 151.203 148.496 c 151.008
 148.055 150.719 147.719 150.336 147.484 c 149.957 147.246 149.562 147.133
 149.156 147.133 c 148.844 147.133 148.566 147.195 148.328 147.324 c 148.09
 147.457 147.891 147.621 147.734 147.816 c 147.734 145.195 l h
147.656 149.91 m 147.656 149.227 147.797 148.715 148.07 148.383 c 148.348
 148.047 148.688 147.883 149.094 147.883 c 149.5 147.883 149.848 148.055
 150.133 148.398 c 150.422 148.738 150.562 149.273 150.562 149.988 c 150.562
 150.68 150.422 151.191 150.141 151.527 c 149.859 151.867 149.52 152.035
 149.125 152.035 c 148.738 152.035 148.398 151.859 148.102 151.496 c 147.805
 151.141 147.656 150.609 147.656 149.91 c f*
154.656 147.91 m 154.324 147.633 154 147.43 153.688 147.312 c 153.375 147.191
 153.043 147.133 152.688 147.133 c 152.094 147.133 151.637 147.277 151.32
 147.566 c 151.004 147.859 150.844 148.23 150.844 148.68 c 150.844 148.938
 150.902 149.18 151.023 149.398 c 151.145 149.613 151.301 149.789 151.492
 149.922 c 151.684 150.051 151.906 150.152 152.156 150.227 c 152.336 150.266
 152.605 150.309 152.969 150.352 c 153.699 150.445 154.238 150.555 154.594
 150.68 c 154.594 150.91 l 154.594 151.277 154.504 151.535 154.328 151.695
 c 154.098 151.902 153.754 152.008 153.297 152.008 c 152.871 152.008 152.555
 151.93 152.352 151.777 c 152.148 151.629 151.996 151.359 151.891 150.977
 c 151 151.102 l 151.086 151.484 151.215 151.797 151.398 152.027 c 151.582
 152.266 151.848 152.445 152.203 152.566 c 152.559 152.695 152.965 152.758
 153.422 152.758 c 153.879 152.758 154.254 152.699 154.547 152.594 c 154.84
 152.484 155.051 152.348 155.18 152.188 c 155.309 152.023 155.406 151.816
 155.469 151.566 c 155.5 151.41 155.516 151.133 155.516 150.727 c 155.516
 149.508 l 155.516 148.66 155.535 148.129 155.57 147.902 c 155.605 147.68
 155.684 147.465 155.797 147.258 c 154.844 147.258 l 154.75 147.445 154.688
 147.66 154.656 147.91 c h
154.594 149.961 m 154.262 149.824 153.762 149.711 153.094 149.613 c 152.719
 149.562 152.453 149.504 152.297 149.438 c 152.141 149.367 152.02 149.27
 151.938 149.141 c 151.855 149.008 151.812 148.859 151.812 148.695 c 151.812
 148.453 151.906 148.254 152.094 148.094 c 152.281 147.93 152.551 147.852
 152.906 147.852 c 153.25 147.852 153.559 147.926 153.836 148.074 c 154.113
 148.227 154.312 148.438 154.438 148.711 c 154.543 148.918 154.594 149.219
 154.594 149.613 c 154.594 149.961 l f*
155.469 147.258 m 155.469 152.633 l 156.297 152.633 l 156.297 151.816 l
 156.504 152.203 156.699 152.457 156.875 152.574 c 157.051 152.695 157.246
 152.758 157.453 152.758 c 157.766 152.758 158.078 152.656 158.391 152.461
 c 158.078 151.613 l 157.859 151.75 157.637 151.816 157.406 151.816 c 157.207
 151.816 157.031 151.758 156.875 151.641 c 156.719 151.52 156.605 151.352
 156.531 151.133 c 156.426 150.809 156.375 150.453 156.375 150.066 c 156.375
 147.258 l 155.469 147.258 l f*
160.062 148.066 m 160.203 147.27 l 159.941 147.211 159.715 147.18 159.516
 147.18 c 159.184 147.18 158.926 147.23 158.742 147.344 c 158.559 147.449
 158.43 147.59 158.352 147.758 c 158.273 147.922 158.234 148.281 158.234
 148.836 c 158.234 151.93 l 157.578 151.93 l 157.578 152.633 l 158.234 152.633
 l 158.234 153.977 l 159.156 154.523 l 159.156 152.633 l 160.062 152.633
 l 160.062 151.93 l 159.156 151.93 l 159.156 148.785 l 159.156 148.527 159.172
 148.359 159.203 148.277 c 159.234 148.199 159.285 148.141 159.359 148.102
 c 159.434 148.059 159.535 148.035 159.672 148.035 c 159.766 148.035 159.895
 148.047 160.062 148.066 c f*
160.234 153.633 m 160.234 154.68 l 161.141 154.68 l 161.141 153.633 l h
160.234 147.258 m 160.234 152.633 l 161.141 152.633 l 161.141 147.258 l
 160.234 147.258 l f*
165.469 149.227 m 166.375 149.113 l 166.27 148.488 166.02 148.004 165.617
 147.652 c 165.215 147.305 164.723 147.133 164.141 147.133 c 163.402 147.133
 162.809 147.371 162.359 147.859 c 161.91 148.344 161.688 149.031 161.688
 149.93 c 161.688 150.512 161.785 151.02 161.977 151.449 c 162.168 151.883
 162.461 152.211 162.852 152.43 c 163.242 152.648 163.672 152.758 164.141
 152.758 c 164.723 152.758 165.199 152.609 165.57 152.312 c 165.941 152.016
 166.176 151.594 166.281 151.055 c 165.406 150.91 l 165.312 151.277 165.16
 151.551 164.945 151.734 c 164.73 151.914 164.473 152.008 164.172 152.008
 c 163.715 152.008 163.34 151.844 163.055 151.516 c 162.77 151.188 162.625
 150.66 162.625 149.945 c 162.625 149.227 162.762 148.699 163.039 148.371
 c 163.316 148.047 163.676 147.883 164.125 147.883 c 164.48 147.883 164.777
 147.988 165.016 148.211 c 165.254 148.43 165.406 148.766 165.469 149.227
 c f*
165.828 154.68 0.922 -7.422 re f*
171.266 148.988 m 172.219 148.863 l 172.074 148.324 171.797 147.898 171.391
 147.594 c 170.984 147.285 170.469 147.133 169.844 147.133 c 169.062 147.133
 168.441 147.371 167.977 147.859 c 167.512 148.344 167.281 149.023 167.281
 149.898 c 167.281 150.805 167.516 151.508 167.984 152.008 c 168.453 152.508
 169.059 152.758 169.797 152.758 c 170.516 152.758 171.105 152.512 171.562
 152.023 c 172.02 151.531 172.25 150.844 172.25 149.961 c 172.25 149.906
 172.246 149.824 172.234 149.711 c 168.234 149.711 l 168.266 149.125 168.434
 148.676 168.734 148.359 c 169.035 148.039 169.41 147.883 169.859 147.883
 c 170.191 147.883 170.477 147.969 170.711 148.148 c 170.945 148.324 171.129
 148.605 171.266 148.988 c h
168.281 150.461 m 171.281 150.461 l 171.238 150.918 171.125 151.258 170.938
 151.477 c 170.645 151.828 170.27 152.008 169.812 152.008 c 169.395 152.008
 169.043 151.863 168.758 151.586 c 168.473 151.305 168.312 150.93 168.281
 150.461 c f*
171.547 148.863 m 172.453 149.008 l 172.504 148.641 172.645 148.363 172.875
 148.172 c 173.105 147.977 173.426 147.883 173.844 147.883 c 174.27 147.883
 174.582 147.969 174.781 148.141 c 174.98 148.312 175.078 148.512 175.078
 148.738 c 175.078 148.949 174.988 149.109 174.812 149.227 c 174.688 149.309
 174.379 149.41 173.891 149.535 c 173.215 149.703 172.746 149.852 172.492
 149.977 c 172.238 150.102 172.039 150.273 171.906 150.488 c 171.77 150.711
 171.703 150.949 171.703 151.211 c 171.703 151.449 171.758 151.672 171.867
 151.871 c 171.977 152.074 172.125 152.246 172.312 152.383 c 172.457 152.484
 172.652 152.574 172.898 152.648 c 173.145 152.719 173.406 152.758 173.688
 152.758 c 174.105 152.758 174.473 152.695 174.797 152.574 c 175.117 152.457
 175.355 152.293 175.508 152.086 c 175.656 151.875 175.762 151.594 175.812
 151.238 c 174.922 151.133 l 174.879 151.402 174.762 151.613 174.57 151.773
 c 174.379 151.93 174.105 152.008 173.75 152.008 c 173.332 152.008 173.035
 151.938 172.859 151.805 c 172.684 151.668 172.594 151.508 172.594 151.316
 c 172.594 151.195 172.629 151.086 172.703 150.988 c 172.777 150.898 172.891
 150.816 173.047 150.758 c 173.141 150.715 173.41 150.637 173.859 150.523
 c 174.504 150.344 174.953 150.199 175.211 150.094 c 175.465 149.984 175.664
 149.824 175.805 149.613 c 175.945 149.406 176.016 149.148 176.016 148.836
 c 176.016 148.531 175.926 148.246 175.75 147.977 c 175.574 147.703 175.316
 147.496 174.984 147.352 c 174.652 147.203 174.277 147.133 173.859 147.133
 c 173.16 147.133 172.629 147.277 172.258 147.566 c 171.887 147.859 171.652
 148.293 171.547 148.863 c f*
  Q
Q
Q Q
showpage
%%Trailer
end restore
%%EOF
